{
	"_meta": {
		"sources": [
			{
				"json": "KT:AMF",
				"abbreviation": "KT:AMF",
				"full": "Active Martial Feats",
				"authors": [
					"KibblesTasty"
				],
				"convertedBy": [
					"Courage-Wolf #0420"
				],
				"version": "1.0",
				"color": "8c156f",
				"url": "https://www.gmbinder.com/share/-MyR8wuxORp8fOzxMp3S",
				"targetSchema": "1.2"
			}
		],
		"dateAdded": 1649479456,
		"dateLastModified": 1649479456,
		"_dateLastModifiedHash": "a50be1e365"
	},
	"feat": [
		{
			"name": "Charger",
			"source": "KT:AMF",
			"page": 1,
			"ability": [
				{
					"choose": {
						"from": [
							"str",
							"con"
						],
						"amount": 1
					}
				}
			],
			"prerequisite": [
				{
					"level": 4
				}
			],
			"entries": [
				"你掌握了砸向敌人防线的鲁莽冲撞。",
				{
					"type": "list",
					"items": [
						"向一个方向移动至少20英尺后，你的下一次近战武器攻击会造成额外的1d8伤害。每多移动20英尺，该伤害就增加1d8，最高为你的熟练度加成。"
					]
				},
				{
					"type": "inset",
					"name": "Wild Charge",
					"entries": [
						"作为一个动作，你或你控制的坐骑可以在一条直线上移动30英尺，将你的敌人甩出你的路径。在你的路径上的大型或小型生物必须做一个力量救赎，否则就会被撞出你的道路并俯卧。如果一个生物没有可以移动的地方，他们就会被击倒在地，但不会被移动，而你会从他们身上经过。如果救赎失败，生物会受到2d6的重击伤害。如果一个生物通过了他们的救赎，你的冲锋会提前结束。CR值小于你角色等级一半的生物会自动失败。在冲锋结束时，你可以作为一个额外动作进行一次武器攻击。",
						"一旦你使用这个功能，你就不能再使用它，直到你完成一个短期或长期休息。"
					]
				}
			]
		},
		{
			"name": "Grappler",
			"source": "KT:AMF",
			"page": 1,
			"ability": [
				{
					"choose": {
						"from": [
							"str",
							"con"
						],
						"amount": 1
					}
				}
			],
			"prerequisite": [
				{
					"level": 4
				}
			],
			"entries": [
				"你掌握了擒拿术和杠杆作用，可以夹住和甩掉你的敌人。",
				{
					"type": "list",
					"items": [
						"你在对你抓捕的生物进行攻击的时候有优势。"
					]
				},
				{
					"type": "inset",
					"name": "Martial Toss",
					"entries": [
						"作为一个动作，你试图举起一个与你体型相当或更小的生物或物体。目标必须做一个力量救赎动作。被你抓起的物体或生物自动失败。如果你成功地举起它们，你可以向5英尺的方向移动，并在同一动作中向移动的方向再扔15英尺。",
						"如果它与其他生物或障碍物相撞，该生物的移动将提前结束。被投掷的生物和它所碰撞的任何东西都要承受2d8+你的力量修正值，并倒地不起，除非它碰撞到比它大的东西，在这种情况下，只有被投掷的生物倒地不起。当你的熟练度加成增加时，d8的数量也会增加一个（d8的总数量等于你的熟练度加成）。",
						"在投掷物体或生物后，你可以在你的回合结束前作为奖励动作进行一次武器攻击或抓捕。",
						"一旦你使用这个功能成功地投掷了一个生物或物体，你就不能再使用它，直到你完成一个短期或长期休息。"
					]
				}
			]
		},
		{
			"name": "Body Guard",
			"source": "KT:AMF",
			"page": 1,
			"ability": [
				{
					"choose": {
						"from": [
							"str",
							"dex",
							"con"
						],
						"amount": 1
					}
				}
			],
			"prerequisite": [
				{
					"level": 4
				}
			],
			"entries": [
				"你掌握了擒拿术和杠杆作用，可以夹住和甩掉你的敌人。",
				{
					"type": "list",
					"items": [
						"当你使用格斗术的反应来防御一个盟友生物时，你可以在攻击完成后与该盟友交换位置。"
					]
				},
				{
					"type": "inset",
					"name": "Heroic Intervention",
					"entries": [
						"作为反应，当你的移动速度范围内的盟友生物受到伤害时，你可以移动到他们身边并进入他们的空间。他们会移动到5英尺内自己选择的一个无人空间，如果5英尺内没有无人空间，则移动到最近的一个无人空间。你和目标生物对所有伤害都有抵抗力，直到你下一回合开始。",
						"一旦你使用这个功能成功地投掷了一个生物或物体，你就不能再使用它，直到你完成一个短期或长期休息。"
					]
				}
			]
		},
		{
			"name": "Striker",
			"source": "KT:AMF",
			"page": 2,
			"ability": [
				{
					"choose": {
						"from": [
							"str",
							"dex",
							"con"
						],
						"amount": 1
					}
				}
			],
			"prerequisite": [
				{
					"level": 4
				}
			],
			"entries": [
				"你掌握了一系列永无止境的动作和攻击。",
				{
					"type": "list",
					"items": [
						"在用近战武器进行武器攻击之前或之后，你可以移动5英尺而不引起机会攻击。"
					]
				},
				{
					"type": "inset",
					"name": "Flowing Strikes",
					"entries": [
						"作为一个动作，你可以最多移动15英尺。每当你移动到一个新生物的范围内，你可以对该生物进行一次近战武器攻击。每回合只能击中一个生物一次，而且每次移动只能攻击一次（即使移动到多个新生物的范围内）。你最多可以用这种方式进行与你的熟练度加成相等的攻击。",
						"如果你挥舞着两件具有光属性的武器，你可以使用你的额外行动，以这种方式进行一次额外的攻击。一旦你使用这个特征，你就不能再使用它，直到你完成一次短暂或长时间的休息。"
					]
				}
			]
		},
		{
			"name": "Athlete",
			"source": "KT:AMF",
			"page": 2,
			"ability": [
				{
					"choose": {
						"from": [
							"str",
							"dex",
							"con"
						],
						"amount": 1
					}
				}
			],
			"prerequisite": [
				{
					"level": 4
				}
			],
			"entries": [
				"你可以完成运动能力的神话般的壮举。",
				{
					"type": "list",
					"items": [
						"向一个方向移动至少20英尺后，你的下一次近战武器攻击会造成额外的1d8伤害。每多移动20英尺，该伤害就增加1d8，最高为你的熟练度加成。"
					]
				},
				{
					"type": "inset",
					"name": "Flowing Strikes",
					"entries": [
						"作为一个动作，你可以最多移动15英尺。每当你移动到一个新生物的范围内，你可以对该生物进行一次近战武器攻击。每回合只能击中一个生物一次，而且每次移动只能攻击一次（即使移动到多个新生物的范围内）。你最多可以用这种方式进行与你的熟练度加成相等的攻击。",
						"如果你挥舞着两件具有光属性的武器，你可以使用你的额外行动，以这种方式进行一次额外的攻击。一旦你使用这个特征，你就不能再使用它，直到你完成一次短暂或长时间的休息。"
					]
				}
			]
		},
		{
			"name": "Brute",
			"source": "KT:AMF",
			"page": 2,
			"ability": [
				{
					"choose": {
						"from": [
							"str",
							"con"
						],
						"amount": 1
					}
				}
			],
			"prerequisite": [
				{
					"level": 4
				}
			],
			"entries": [
				"你的信仰赋予你深刻的智慧和宁静，你感到与你的信仰有特殊的联系，特别是月光。你获得以下好处。",
				{
					"type": "list",
					"items": [
						"当你为近战武器攻击掷出伤害时，你可以重新掷出武器的伤害骰子，并使用其中一个总数。"
					]
				},
				{
					"type": "inset",
					"name": "Brutal Takedown",
					"entries": [
						"作为将一个生物降低到0命中率的反应，你可以进行一次残忍的表演，迫使60英尺内所有能看到或听到你的同类型的敌对生物进行智慧救赎，或者对你产生恐惧，直到你下一回合开始。",
						"一旦你使用这个功能，你就不能再使用它，直到你完成一个短期或长期休息。"
					]
				}
			]
		}
	]
}
