{
	"_meta": {
		"sources": [
			{
				"json": "BH:SC",
				"abbreviation": "BH:SC",
				"full": "Scholar",
				"authors": [
					"Benjamin Huffman"
				],
				"convertedBy": [
					"SasquatchBrah"
				],
				"url": "https://www.dmsguild.com/product/270890/The-Scholar-Class",
				"version": "1.0"
			}
		],
		"dependencies": {
			"optionalfeature": [
				"UALightDarkUnderdark",
				"UAWaterborneAdventures"
			]
		},
		"optionalFeatureTypes": {
			"bhea": "Erudite Application"
		},
		"dateAdded": 1603793256,
		"dateLastModified": 1704646800,
		"_dateLastModifiedHash": "6db24a04c4"
	},
	"class": [
		{
			"name": "Scholar",
			"source": "BH:SC",
			"page": 3,
			"hd": {
				"number": 1,
				"faces": 6
			},
			"proficiency": [
				"int",
				"wis"
			],
			"startingProficiencies": {
				"weapons": [
					"simple",
					"{@item hand crossbow|phb}",
					"{@item heavy crossbow|phb}"
				],
				"armor": [
					"light"
				],
				"tools": [
					"one type of {@item artisan's tools|phb} of your choice"
				],
				"skills": [
					{
						"choose": {
							"from": [
								"animal handling",
								"arcana",
								"history",
								"insight",
								"investigation",
								"medicine",
								"nature",
								"perception",
								"performance",
								"persuasion",
								"religion",
								"survival"
							],
							"count": 3
						}
					}
				]
			},
			"startingEquipment": {
				"additionalFromBackground": true,
				"default": [
					"(a) {@item leather armor|phb} and a {@filter simple weapon|items|source=phb|category=basic|type=simple weapon} or (b) a {@item leather armor|phb}, a {@item hand crossbow|phb}, and {@item crossbow bolts (20)|phb|20 crossbow bolts} or (c) a {@item heavy crossbow|phb} and {@item crossbow bolts (20)|phb|20 crossbow bolts} ",
					"(a) a {@item diplomat's pack|phb} or (b) an {@item explorer's pack|phb}",
					"A book on a topic of your choice",
					"A {@item scholar's pack|phb} and any two {@item artisan's tools|phb|tools or tool kits}"
				],
				"defaultData": [
					{
						"a": [
							"leather armor",
							{
								"equipmentType": "weaponSimple",
								"quantity": 1
							}
						],
						"b": [
							"leather armor|phb",
							"hand crossbow|phb",
							"crossbow bolts (20)|phb"
						],
						"c": [
							"heavy crossbow|phb",
							"crossbow bolts (20)|phb"
						]
					},
					{
						"a": [
							"diplomat's pack|phb"
						],
						"b": [
							"explorer's pack|phb"
						]
					},
					{
						"_": [
							"book|phb"
						]
					},
					{
						"_": [
							"scholar's pack|phb"
						]
					}
				]
			},
			"multiclassing": {
				"requirements": {
					"int": 13
				},
				"proficienciesGained": {
					"armor": [
						"light"
					],
					"skills": [
						{
							"choose": {
								"from": [
									"animal handling",
									"arcana",
									"history",
									"insight",
									"investigation",
									"medicine",
									"nature",
									"perception",
									"performance",
									"persuasion",
									"religion",
									"survival"
								],
								"count": 1
							}
						}
					]
				}
			},
			"classTableGroups": [
				{
					"colLabels": [
						"{@filter Erudite Applications|optionalfeatures|feature type=bhea}"
					],
					"rows": [
						[
							0
						],
						[
							2
						],
						[
							2
						],
						[
							2
						],
						[
							3
						],
						[
							3
						],
						[
							3
						],
						[
							4
						],
						[
							4
						],
						[
							4
						],
						[
							5
						],
						[
							5
						],
						[
							5
						],
						[
							6
						],
						[
							6
						],
						[
							6
						],
						[
							7
						],
						[
							7
						],
						[
							7
						],
						[
							8
						]
					]
				}
			],
			"classFeatures": [
				"Academic Discourse|Scholar|BH:SC|1",
				{
					"classFeature": "Field of Study|Scholar|BH:SC|1",
					"gainSubclassFeature": true
				},
				"Sage Advice|Scholar|BH:SC|1",
				"Analyze Enemy|Scholar|BH:SC|2",
				"Erudite Applications|Scholar|BH:SC|2",
				{
					"classFeature": "Field of Study feature|Scholar|BH:SC|3",
					"gainSubclassFeature": true
				},
				"Ability Score Improvement|Scholar|BH:SC|4",
				"Analyze Enemy improvement|Scholar|BH:SC|5",
				"Sagacious Font|Scholar|BH:SC|5",
				"Quick Study|Scholar|BH:SC|6",
				"Iron Will|Scholar|BH:SC|7",
				"Ability Score Improvement|Scholar|BH:SC|8",
				"Esoteric Application|Scholar|BH:SC|8",
				{
					"classFeature": "Field of Study feature|Scholar|BH:SC|9",
					"gainSubclassFeature": true
				},
				"Brilliant Mind|Scholar|BH:SC|10",
				"Analyze Enemy improvement|Scholar|BH:SC|11",
				"Reliable Talent|Scholar|BH:SC|11",
				"Ability Score Improvement|Scholar|BH:SC|12",
				{
					"classFeature": "Field of Study feature|Scholar|BH:SC|13",
					"gainSubclassFeature": true
				},
				"Esoteric Application improvement|Scholar|BH:SC|14",
				"Expansive Intellect|Scholar|BH:SC|15",
				"Ability Score Improvement|Scholar|BH:SC|16",
				"Analyze Enemy improvement|Scholar|BH:SC|17",
				"Flash of Genius|Scholar|BH:SC|18",
				"Ability Score Improvement|Scholar|BH:SC|19",
				{
					"classFeature": "Field of Study feature|Scholar|BH:SC|20",
					"gainSubclassFeature": true
				},
				"Expansive Intellect improvement|Scholar|BH:SC|20"
			],
			"subclassTitle": "Field of Study",
			"fluff": [
				{
					"name": "Scholar",
					"type": "section",
					"entries": [
						"当他的手指在干枯的羊皮纸上划过，默默地翻译着文字，当他找到他一直在寻找的答案时，一个背负着书本和典籍的矮人满意地笑了。他走近古庙的石头守护者，开始大声说出这些话。",
						"人类全神贯注地握着手术刀，把它推过生物的肉质外表，在它的胸腔里开了一个口子。她惊喜地看到，这个生物的毒液囊在与她的队伍的战斗中没有破裂。这将派上用场。",
						"一个地精迅速移动，将他的盾牌放在自己和迎面而来的信号枪之间。当攻击在他的防线上发出无用的撞击声时，他向他的同伴们发出命令，他们赶来帮助他，完美地执行了他巧妙的计划。",
						"学者的定义是他们对学习的无尽渴望，以及将他们的智慧应用于任何任务的能力。学者并不是武器或法术的大师--相反，他们用大量的知识储备来解决他们所面临的各种挑战。尽管他们是书呆子，但这些英雄却乐于有机会发挥他们相当大的才能来应对冒险队伍经常面临的危险。",
						{
							"type": "entries",
							"name": "Studious and Disciplined",
							"entries": [
								"要成为一个学科的专家需要奉献精神和意志，更不用说大多数学者掌握的混合课题了。仅仅是智力并不是这些冒险家的决定性特征。学者们依靠的是他们有条不紊的方法，对知识的实际应用，以及以不可能的解决方案来应对他们所面临的挑战的能力。",
								"当一个学者进行战斗时，他们用他们强大的观察力和推理能力来对付他们的敌人。学者们可以通过在激烈的战斗中提供敏锐的建议来确保他们的盟友出击，并推断出他们敌人的特质和模式，使他们能够利用自己的天才来战胜更强更快的对手。"
							]
						},
						{
							"type": "entries",
							"name": "Adventurous Academics",
							"entries": [
								"学者是不可能的冒险家。许多人喜欢在舒适的扶手椅上对其智力追求的细微之处进行论证。有些人知道，真正的知识不能从尘封的旧书本上学到，而必须通过第一手资料获得。这些人是最有可能从事冒险生活的学者。",
								"在冒险队伍中，学者的高级教育使他们能够用晦涩难懂的细枝末节帮助他们的同伴克服障碍，为他们的队伍提供宝贵的建议，并利用对手的弱点。单独行动时，学者很容易受到冒险者经常面临的无数危险的影响，但如果有一队愿意接受他们建议的冒险同伴，学者就能从失败的边缘攥住胜利。随着学者在其研究领域的成长，他们会以战术洞察力、治疗技术或其他专业知识进一步支持他们的盟友。"
							]
						},
						{
							"type": "entries",
							"name": "Creating a Scholar",
							"entries": [
								"当你创造你的学者时，考虑这个人物的过去和未来。在考虑他们的过去时，想想你的人物是如何获得教育的。他们是自学成才吗？他们上过大学吗？他们是另一个有学问的人的学徒吗？在考虑他们的未来时，要想一想这对他们的现在有何影响。你的学者的兴趣领域是什么？他们在冒险过程中可能采取什么样的专业，他们如何表达这些兴趣？",
								"学者们并不经常从事冒险活动。你为什么选择这种生活？许多致力于学习的人宁愿在相对安全的图书馆或实验室里做这些事。你是否在寻找失落的古代知识？是一场个人悲剧迫使你放弃久坐的生活方式？还是你一直打算将你的智力屈服于对冒险的追求？",
								{
									"type": "entries",
									"name": "Quick Build",
									"entries": [
										"遵循这些建议，你可以迅速成为一名学者。首先，智力应该是你的最高能力得分。如果你想在远程战斗中表现出色，就把灵巧作为你的次高分。如果你擅长利用智慧或魅力的技能，则将智慧作为你的次高能力。第二，选择（%0%）或（%1%）背景。"
									]
								}
							]
						}
					],
					"source": "BH:SC",
					"page": 3
				}
			]
		}
	],
	"optionalfeature": [
		{
			"name": "Academic Expertise",
			"source": "BH:SC",
			"page": 11,
			"featureType": [
				"bhea"
			],
			"entries": [
				"从以下技能中选择两项你精通的技能：{@skill Arcana}、{@skill History}、{@skill Investigation}、{@skill Medicine}、{@skill Nature}、或{@skill Religion}。在你进行任何使用所选技能的能力检查时，你的熟练度加成会加倍。"
			],
			"skillProficiencies": [
				{
					"arcana": true,
					"history": true,
					"investigation": true,
					"medicine": true,
					"nature": true,
					"religion": true
				}
			]
		},
		{
			"name": "Adventurous Appetizers",
			"source": "BH:SC",
			"page": 12,
			"featureType": [
				"bhea"
			],
			"prerequisite": [
				{
					"otherSummary": {
						"entry": "营养师的研究领域",
						"entrySummary": "Culinarian"
					}
				}
			],
			"entries": [
				"你可以花10分钟为你的同伴准备容易食用的开胃菜。当你这样做时，你会准备1+你的智力修正值（最少1）的开胃菜。当使用 \"使用物品 \"动作吃东西时，一个生物会恢复{@dice 1d8}的命中率，并获得相当于{@dice 1d8}+你的学者等级一半的临时命中率。这些开胃菜在24小时后就会变质，之后它们就没有任何好处了。你可以在完成一个长时间的休息后再次使用这个功能。"
			]
		},
		{
			"name": "Applied Intelligence",
			"source": "BH:SC",
			"page": 12,
			"featureType": [
				"bhea"
			],
			"entries": [
				"你知道如何在几乎所有的情况下运用你相当的智力。当你进行能力检查、攻击卷或蓄力投掷时，你可以选择用你的智力修饰值来取代加入卷中的能力修饰值。你可以选择在你掷骰子之后，但在DM宣布成功或失败之前做出这个改变。你可以在完成短期或长期休息时再次使用这一应用。"
			]
		},
		{
			"name": "Alert to Danger",
			"source": "BH:SC",
			"page": 12,
			"featureType": [
				"bhea"
			],
			"prerequisite": [
				{
					"otherSummary": {
						"entry": "战术师的研究领域",
						"entrySummary": "Tactician"
					}
				}
			],
			"entries": [
				"你在主动权卷上加上你的智力修饰。此外，你可以在你的每个回合使用一个额外的行动来采取脱离行动。"
			]
		},
		{
			"name": "Beast Whisperer",
			"source": "BH:SC",
			"page": 12,
			"featureType": [
				"bhea"
			],
			"prerequisite": [
				{
					"otherSummary": {
						"entry": "仪式主义者的研究领域",
						"entrySummary": "Ritualist"
					}
				}
			],
			"entries": [
				"你可以与野兽交流，就像在{@spell speak with animals}的法术作用下一样。"
			]
		},
		{
			"name": "Bonus Cantrips",
			"source": "BH:SC",
			"page": 12,
			"featureType": [
				"bhea"
			],
			"prerequisite": [
				{
					"otherSummary": {
						"entry": "仪式主义者的研究领域",
						"entrySummary": "Ritualist"
					}
				}
			],
			"entries": [
				"选择并学习任意两个咒语。智力是你对这些咒语的施法能力。"
			]
		},
		{
			"name": "Bonus Languages",
			"source": "BH:SC",
			"page": 12,
			"featureType": [
				"bhea"
			],
			"entries": [
				"选择任何三种语言。你可以说、读、写这些语言。"
			]
		},
		{
			"name": "Bonus Proficiencies",
			"source": "BH:SC",
			"page": 12,
			"featureType": [
				"bhea"
			],
			"entries": [
				"选择并获得任意两项技能的熟练度。"
			]
		},
		{
			"name": "Clean Plate Practice",
			"source": "BH:SC",
			"page": 12,
			"featureType": [
				"bhea"
			],
			"prerequisite": [
				{
					"otherSummary": {
						"entry": "营养师的研究领域",
						"entrySummary": "Culinarian"
					}
				}
			],
			"entries": [
				"你可以花1分钟评估一种食物或饮料，以确定它是否有毒或有病。如果是的话，你就知道是什么毒或病。你可以花10分钟的时间使你周围5英尺内的所有食物和饮料没有毒和病。"
			]
		},
		{
			"name": "Collector's Capacity",
			"source": "BH:SC",
			"page": 12,
			"featureType": [
				"bhea"
			],
			"prerequisite": [
				{
					"otherSummary": {
						"entry": "营养师的研究领域",
						"entrySummary": "Culinarian"
					}
				}
			],
			"entries": [
				"你可以携带价值100+5x你的学者级别的冒险装备、书籍、工具箱和原料，就像它们的总重量为10磅。"
			]
		},
		{
			"name": "Counterattacker",
			"source": "BH:SC",
			"page": 12,
			"featureType": [
				"bhea"
			],
			"prerequisite": [
				{
					"otherSummary": {
						"entry": "战术师的研究领域",
						"entrySummary": "Tactician"
					}
				}
			],
			"entries": [
				"当触手可及的生物进行机会攻击时，你可以用你的反应来对该生物进行一次武器攻击。"
			]
		},
		{
			"name": "Critical Analysis",
			"source": "BH:SC",
			"page": 12,
			"featureType": [
				"bhea"
			],
			"entries": [
				"当你对一个生物使用你的分析敌人功能时，在接下来的一分钟内，你对该生物所做的任何攻击卷都是在d20上掷出19或20的关键命中。在11级的时候，你对这种生物的攻击卷轴在掷出18、19或20的时候都是关键命中。"
			]
		},
		{
			"name": "Cunning Linguist",
			"source": "BH:SC",
			"page": 12,
			"featureType": [
				"bhea"
			],
			"prerequisite": [
				{
					"otherSummary": {
						"entry": "外交官研究领域",
						"entrySummary": "Diplomat"
					}
				}
			],
			"entries": [
				"当你有机会学习一种语言的书面或口语例子8小时时，你可以选择向这种语言学习。你可以说、读、写该语言，直到你再次使用这个博学的应用程序。"
			]
		},
		{
			"name": "Diehard",
			"source": "BH:SC",
			"page": 12,
			"featureType": [
				"bhea"
			],
			"prerequisite": [
				{
					"otherSummary": {
						"entry": "战术师的研究领域",
						"entrySummary": "Tactician"
					}
				}
			],
			"entries": [
				"你在学者等级中每升一级，就会获得1个最大命中率。每当你在学者等级中获得一个新的等级，你的最大命中率就会增加1。此外，你在死亡扑救中加入你的熟练度奖励。"
			]
		},
		{
			"name": "Eldritch Lore",
			"source": "BH:SC",
			"page": 12,
			"featureType": [
				"bhea"
			],
			"prerequisite": [
				{
					"otherSummary": {
						"entry": "仪式主义者的研究领域",
						"entrySummary": "Ritualist"
					}
				}
			],
			"entries": [
				"当你花10分钟进行冥想时，你可以在接下来的一小时内感应到魔法的存在，就像受到{@spell detect magic}的咒语影响一样。此外，你可以用1分钟的时间用放大镜检查一个物体，以发现它有什么魔法属性，如果有的话，就像你施展了{@spell identify}的法术。"
			]
		},
		{
			"name": "Expertise",
			"source": "BH:SC",
			"page": 12,
			"featureType": [
				"bhea"
			],
			"entries": [
				"从你的技能熟练度中选择任意两项。在你进行任何使用所选技能的能力检查时，你的熟练度加成会翻倍。"
			]
		},
		{
			"name": "First Aid",
			"source": "BH:SC",
			"page": 12,
			"featureType": [
				"bhea"
			],
			"prerequisite": [
				{
					"otherSummary": {
						"entry": "医生的研究领域",
						"entrySummary": "Physician"
					}
				}
			],
			"entries": [
				"作为一个行动，你可以治疗一个在你5英尺范围内，目前被（%0%）、（%1%）或（%2%）状况所困扰的生物，结束该状况。"
			]
		},
		{
			"name": "Heal Thyself",
			"source": "BH:SC",
			"page": 12,
			"featureType": [
				"bhea"
			],
			"prerequisite": [
				{
					"otherSummary": {
						"entry": "医生的研究领域",
						"entrySummary": "Physician"
					}
				}
			],
			"entries": [
				"你可以用一个动作来结束影响你的{@condition poisoned}状况或一种疾病。当你这样做时，你会重新获得{@dice 3d6}+你的学者等级的命中率。当你完成一个短期或长期的休息时，你可以再次使用这个应用。"
			]
		},
		{
			"name": "Herbal Cleanse",
			"source": "BH:SC",
			"page": 12,
			"featureType": [
				"bhea"
			],
			"prerequisite": [
				{
					"otherSummary": {
						"entry": "医生的研究领域",
						"entrySummary": "Physician"
					}
				}
			],
			"entries": [
				"在10分钟的时间里，你可以给自己和一些生物服用有益的草药，其数量与你的智力修饰值相当。当你这样做时，你和你选择的每个生物都会获得对毒药伤害的抵抗力，并且在接下来的8小时内对毒药和疾病的救赎有优势。你可以在完成长时间的休息后再次使用这一应用。"
			]
		},
		{
			"name": "Intellect Fortress",
			"source": "BH:SC",
			"page": 13,
			"featureType": [
				"bhea"
			],
			"entries": [
				"你对精神伤害有抵抗力。11级时，你对精神伤害免疫。"
			]
		},
		{
			"name": "Jack of All Trades",
			"source": "BH:SC",
			"page": 13,
			"featureType": [
				"bhea"
			],
			"prerequisite": [
				{
					"otherSummary": {
						"entry": "外交官研究领域",
						"entrySummary": "Diplomat"
					}
				}
			],
			"entries": [
				"你可以把你的熟练度加成的一半，向下取整，加到你所做的任何不包括你的熟练度加成的能力检查中。"
			]
		},
		{
			"name": "Libra",
			"source": "BH:SC",
			"page": 13,
			"featureType": [
				"bhea"
			],
			"entries": [
				"当你使用你的分析敌人功能时，你会了解到该生物的力量和弱点的信息。如果该生物是其自然形态，并且不是变形金刚，你就会了解该生物对哪些伤害类型具有免疫力、抵抗力和脆弱性。在11级时，这个应用对变形金刚和非自然形态的生物也有效。"
			]
		},
		{
			"name": "Martyr's Magic",
			"source": "BH:SC",
			"page": 13,
			"featureType": [
				"bhea"
			],
			"prerequisite": [
				{
					"otherSummary": {
						"entry": "神学家 研究领域",
						"entrySummary": "Theologian"
					}
				}
			],
			"entries": [
				"你学会了{@spell give life|BH:SC}的咒语。智力是你对这个法术的施法能力。当你对一个生物施展此法，并且它因此而获得命中率时，你会结束折磨该生物的（%1%）状况或一种疾病。"
			]
		},
		{
			"name": "Seal Agreement",
			"source": "BH:SC",
			"page": 13,
			"featureType": [
				"bhea"
			],
			"prerequisite": [
				{
					"otherSummary": {
						"entry": "外交官研究领域",
						"entrySummary": "Diplomat"
					}
				}
			],
			"entries": [
				"你可以随意施展{@spell oath-sealing covenant|BH:SC}的法术，而不需要耗费一个法术槽和所需的材料。你使用智力作为你对这个法术的施法能力。"
			],
			"additionalSpells": [
				{
					"innate": {
						"_": [
							"oath-sealing covenant|bh:sc"
						]
					}
				}
			]
		},
		{
			"name": "Signs of the Supernatural",
			"source": "BH:SC",
			"page": 13,
			"featureType": [
				"bhea"
			],
			"prerequisite": [
				{
					"otherSummary": {
						"entry": "神学家 研究领域",
						"entrySummary": "Theologian"
					}
				}
			],
			"entries": [
				"你可以在不消耗法术槽的情况下施放（%0%）的法术。在你完成短暂或长时间的休息后，你可以用这个博学的应用再次施展这个法术。",
				"此外，你还能学习超自然生物的秘密弱点，并能用这些知识来对付它们。当你对反常者、天人、元素、妖怪、魔人或不死生物进行武器攻击时，就伤害抵抗和免疫而言，伤害被视为魔法。"
			],
			"additionalSpells": [
				{
					"innate": {
						"_": {
							"rest": {
								"1e": [
									"detect evil and good"
								]
							}
						}
					}
				}
			]
		},
		{
			"name": "Studied Defense",
			"source": "BH:SC",
			"page": 13,
			"featureType": [
				"bhea"
			],
			"entries": [
				"当你穿着轻甲或无甲的时候，你的AC等于12+你的智力修正值。你可以使用一个盾牌，并仍然获得这个好处。"
			]
		},
		{
			"name": "Tool Expert",
			"source": "BH:SC",
			"page": 13,
			"featureType": [
				"bhea"
			],
			"entries": [
				"你获得以下好处。",
				{
					"type": "list",
					"items": [
						"选择并熟练掌握三种工具。",
						"选择一个你拥有的工具熟练度。在你做任何使用所选熟练度的能力检查时，你的熟练度加成会翻倍。"
					]
				}
			]
		},
		{
			"name": "Verbum Dei",
			"source": "BH:SC",
			"page": 13,
			"featureType": [
				"bhea"
			],
			"prerequisite": [
				{
					"otherSummary": {
						"entry": "神学家 研究领域",
						"entrySummary": "Theologian"
					}
				}
			],
			"entries": [
				"作为一个行动，你说出凡人不可能说出的圣言。当你这样做时，在你30英尺范围内能听到你说话的每个生物（包括你自己）必须成功地进行智慧救赎，否则会受到（%0%）辐射伤害。这个伤害在5级（（%1%））、11级（（%2%））和17级（（%3%）时增加2d6。） 这个蓄力的DC等于8+你的熟练度加成+你的智力修正值。对反常者、天人、元素、妖怪、魔人和不死生物，该博学应用的伤害会加倍。",
				"一旦你使用这个博学的应用程序，你必须完成一个短期或长期的休息才能再次使用它。"
			]
		},
		{
			"name": "Well Educated",
			"source": "BH:SC",
			"page": 13,
			"featureType": [
				"bhea"
			],
			"entries": [
				"选择一种技能、一种工具和一种语言。你获得对该技能和工具的熟练度，并能说、读、写该语言。"
			]
		}
	],
	"spell": [
		{
			"name": "Give Life",
			"source": "BH:SC",
			"page": 13,
			"level": 0,
			"school": "T",
			"time": [
				{
					"number": 1,
					"unit": "action"
				}
			],
			"range": {
				"type": "point",
				"distance": {
					"type": "touch"
				}
			},
			"components": {
				"v": true,
				"s": true
			},
			"duration": [
				{
					"type": "instant"
				}
			],
			"entries": [
				"将你的手放在另一个生物身上，你可以将你自己的生命力转移给他们。你花费并掷出你的一个命中率骰子，加上你的法术修饰，该生物就会恢复那么多的命中率点。"
			],
			"miscTags": [
				"HL"
			],
			"classes": {
				"fromClassList": [
					{
						"name": "Cleric",
						"source": "PHB"
					},
					{
						"name": "Druid",
						"source": "PHB"
					}
				]
			}
		},
		{
			"name": "Oath-Sealing Covenant",
			"source": "BH:SC",
			"page": 13,
			"level": 1,
			"school": "D",
			"time": [
				{
					"number": 1,
					"unit": "minute"
				}
			],
			"range": {
				"type": "point",
				"distance": {
					"type": "touch"
				}
			},
			"components": {
				"v": true,
				"s": true,
				"m": "two rings"
			},
			"duration": [
				{
					"type": "permanent"
				}
			],
			"meta": {
				"ritual": true
			},
			"entries": [
				"当两个生物互相承诺时，你用魔法和祈祷将其封印。如果任何一个生物违背了他们所做的承诺，另一个就会立即知道承诺被打破，这个咒语就会结束。如果这个咒语因另一个咒语而结束，两个生物都会意识到这个事实。"
			],
			"classes": {
				"fromClassList": [
					{
						"name": "Cleric",
						"source": "PHB"
					},
					{
						"name": "Paladin",
						"source": "PHB"
					}
				]
			}
		}
	],
	"classFeature": [
		{
			"name": "Academic Discourse",
			"source": "BH:SC",
			"page": 4,
			"className": "Scholar",
			"classSource": "BH:SC",
			"level": 1,
			"entries": [
				"你已经掌握了用10个字就够了的艺术。这种学术话语混合了技术术语、晦涩的措辞和过度的迂腐细节。只有懂得学术话语的另一种生物才能理解用这种语言说或写的信息。其他生物可能会感到厌烦或轻微的恼怒。用学术话语传达一个信息要比直截了当地说出同样的想法要长十倍。",
				"你对这种语言的掌握提高了你的一般阅读理解能力。在阅读你熟悉的语言时，你可以在一分钟内读完十页文字。"
			]
		},
		{
			"name": "Field of Study",
			"source": "BH:SC",
			"page": 5,
			"className": "Scholar",
			"classSource": "BH:SC",
			"level": 1,
			"entries": [
				"从1级开始，你将自己投入到一个你选择的研究领域。你的研究领域在1级时赋予你特性，然后在3级、9级、14级和20级时再次赋予你特性。"
			]
		},
		{
			"name": "Sage Advice",
			"source": "BH:SC",
			"page": 5,
			"className": "Scholar",
			"classSource": "BH:SC",
			"level": 1,
			"entries": [
				"学者们分析他们的情况，假设最好的行动方案，并以精心计算的计划向他们的盟友提供建议。当你身边60英尺内的生物能听到你的声音时，你可以用你的反应为该卷的结果添加一个奖励。这个奖励等于你的熟练度奖励。你可以等到生物做完卷子后再使用，但必须在DM说卷子成功或失败前决定使用这个功能。你可以使用这个功能的次数等于你的智力修正值（最少一次）。当你完成一次长时间的休息时，你会重新获得任何已消耗的使用次数。"
			]
		},
		{
			"name": "Analyze Enemy",
			"source": "BH:SC",
			"page": 5,
			"className": "Scholar",
			"classSource": "BH:SC",
			"level": 2,
			"entries": [
				"在第2级时，你可以用一个眼神来衡量一个敌人。你可以在你的每个回合中使用一个额外的行动来观察一个你能看到的60英尺内的生物。在接下来的一分钟里，当你攻击那个生物时，你可以在使用你精通的武器进行攻击和伤害的卷轴上加上你的智力能力修改值，而不是你的力量或灵巧能力修改值。",
				"在5级时，你在受益于你的分析时对生物造成额外的伤害。每回合你第一次用武器攻击击中该生物时，你会造成额外的（%0%）伤害。这个额外的伤害在11级（%2%）和17级（%3%）时再次增加（%1%）。"
			]
		},
		{
			"name": "Erudite Applications",
			"source": "BH:SC",
			"page": 5,
			"className": "Scholar",
			"classSource": "BH:SC",
			"level": 2,
			"entries": [
				"同样在2级时，你学会了将你丰富的学术能力应用于实际任务。你获得两个（%0%）你所选择的，详见本等级描述的末尾。当你获得一定的学者等级时，你会获得你所选择的额外应用，如学者表的已知应用一栏中所示。"
			]
		},
		{
			"name": "Field of Study feature",
			"source": "BH:SC",
			"page": 5,
			"className": "Scholar",
			"classSource": "BH:SC",
			"level": 3,
			"entries": [
				"在3级时，你从你的学者研究领域获得一个特性。"
			]
		},
		{
			"name": "Ability Score Improvement",
			"source": "BH:SC",
			"page": 5,
			"className": "Scholar",
			"classSource": "BH:SC",
			"level": 4,
			"entries": [
				"当你达到四级时，你可以将你选择的一项能力得分提高2分，或者将你选择的两项能力得分提高1分。",
				"如果你的DM允许使用功法，你可以改用（%0%）。"
			]
		},
		{
			"name": "Analyze Enemy improvement",
			"source": "BH:SC",
			"page": 5,
			"className": "Scholar",
			"classSource": "BH:SC",
			"level": 5,
			"entries": [
				"在5级时，你在受益于你的分析时对生物造成额外的伤害。每回合你第一次用武器攻击击中该生物时，你会造成额外的（%0%）伤害。"
			]
		},
		{
			"name": "Sagacious Font",
			"source": "BH:SC",
			"page": 5,
			"className": "Scholar",
			"classSource": "BH:SC",
			"level": 5,
			"entries": [
				"从你达到5级开始，当你完成短期或长期休息时，你会恢复所有消耗的贤者建议。"
			]
		},
		{
			"name": "Quick Study",
			"source": "BH:SC",
			"page": 5,
			"className": "Scholar",
			"classSource": "BH:SC",
			"level": 6,
			"entries": [
				"从6级开始，你可以在休息的轻度活动中学习一项技能或工具。当你完成一个长时间的休息时，选择一个你不精通的技能或工具。在你再次使用这个功能之前，你将精通该技能或工具。"
			]
		},
		{
			"name": "Iron Will",
			"source": "BH:SC",
			"page": 5,
			"className": "Scholar",
			"classSource": "BH:SC",
			"level": 7,
			"entries": [
				"到第七级时，你已经获得了更大的精神力量。你获得了对魅力拯救的熟练掌握。"
			]
		},
		{
			"name": "Ability Score Improvement",
			"source": "BH:SC",
			"page": 4,
			"className": "Scholar",
			"classSource": "BH:SC",
			"level": 8,
			"entries": [
				"当你达到8级时，你可以将你选择的一项能力得分提高2分，或者将你选择的两项能力得分提高1分。",
				"如果你的DM允许使用功法，你可以改用（%0%）。"
			]
		},
		{
			"name": "Esoteric Application",
			"source": "BH:SC",
			"page": 5,
			"className": "Scholar",
			"classSource": "BH:SC",
			"level": 8,
			"entries": [
				"在8级时，你不需要满足你在本级获得的（%0%）的先决条件。你可以在14级时选择另一个你不符合先决条件的（%1%）。"
			]
		},
		{
			"name": "Field of Study feature",
			"source": "BH:SC",
			"page": 5,
			"className": "Scholar",
			"classSource": "BH:SC",
			"level": 9,
			"entries": [
				"在9级时，你从你的学者研究领域获得一个特性。"
			]
		},
		{
			"name": "Brilliant Mind",
			"source": "BH:SC",
			"page": 5,
			"className": "Scholar",
			"classSource": "BH:SC",
			"level": 10,
			"entries": [
				"在10级的时候，你可以重新进行你失败的智力、智慧或魅力的拯救动作。如果你这样做，你必须使用新的投掷结果。在你完成短期或长期休息之前，你不能再次使用这个功能。"
			]
		},
		{
			"name": "Analyze Enemy improvement",
			"source": "BH:SC",
			"page": 5,
			"className": "Scholar",
			"classSource": "BH:SC",
			"level": 11,
			"entries": [
				"11级时，你在受益于你的分析时，对生物造成额外的伤害。每回合你第一次用武器攻击击中该生物时，你会造成额外的（%0%）伤害。"
			]
		},
		{
			"name": "Reliable Talent",
			"source": "BH:SC",
			"page": 5,
			"className": "Scholar",
			"classSource": "BH:SC",
			"level": 11,
			"entries": [
				"在11级时，当涉及到你个人兴趣的主题时，你很少会出错。每当你做一个能让你增加熟练度奖励的能力检查时，你可以把D20上的9或更低的卷子当作10。"
			]
		},
		{
			"name": "Ability Score Improvement",
			"source": "BH:SC",
			"page": 4,
			"className": "Scholar",
			"classSource": "BH:SC",
			"level": 12,
			"entries": [
				"当你达到12级时，你可以将你选择的一项能力得分提高2分，或者将你选择的两项能力得分提高1分。",
				"如果你的DM允许使用功法，你可以改用（%0%）。"
			]
		},
		{
			"name": "Field of Study feature",
			"source": "BH:SC",
			"page": 5,
			"className": "Scholar",
			"classSource": "BH:SC",
			"level": 13,
			"entries": [
				"在13级时，你从你的学者研究领域获得一个特征。"
			]
		},
		{
			"name": "Esoteric Application improvement",
			"source": "BH:SC",
			"page": 5,
			"className": "Scholar",
			"classSource": "BH:SC",
			"level": 14,
			"entries": [
				"你可以选择另一个（%0%），其先决条件你在14级时没有满足。"
			]
		},
		{
			"name": "Expansive Intellect",
			"source": "BH:SC",
			"page": 5,
			"className": "Scholar",
			"classSource": "BH:SC",
			"level": 15,
			"entries": [
				"从15级开始，你的智力得分增加2分，最高为22分。此外，你现在可以使用能力得分增加的功能，将你的智力得分提高到最高22分，而不是20分。",
				"在20级时，你的智力得分增加2分，最高为24分。此外，你现在可以使用能力得分增加的功能，将你的智力得分提高到最高24分。"
			]
		},
		{
			"name": "Ability Score Improvement",
			"source": "BH:SC",
			"page": 4,
			"className": "Scholar",
			"classSource": "BH:SC",
			"level": 16,
			"entries": [
				"当你达到16级时，你可以将你选择的一项能力得分提高2分，或者将你选择的两项能力得分提高1分。",
				"如果你的DM允许使用功法，你可以改用（%0%）。"
			]
		},
		{
			"name": "Analyze Enemy improvement",
			"source": "BH:SC",
			"page": 5,
			"className": "Scholar",
			"classSource": "BH:SC",
			"level": 17,
			"entries": [
				"17级时，在你受益于你的分析时，你对该生物造成额外的伤害。每回合你第一次用武器攻击击中该生物时，你会造成额外的（%0%）伤害。"
			]
		},
		{
			"name": "Flash of Genius",
			"source": "BH:SC",
			"page": 5,
			"className": "Scholar",
			"classSource": "BH:SC",
			"level": 18,
			"entries": [
				"在18级的时候，当你做了一个能力检查、攻击卷或自救动作后，你可以用你的反应来处理掷骰子的结果，就像它是一个20。当你完成一个长时间的休息时，你可以再次使用这个功能。"
			]
		},
		{
			"name": "Ability Score Improvement",
			"source": "BH:SC",
			"page": 4,
			"className": "Scholar",
			"classSource": "BH:SC",
			"level": 19,
			"entries": [
				"当你达到19级时，你可以将你选择的一项能力得分提高2分，或者将你选择的两项能力得分提高1分。",
				"如果你的DM允许使用功法，你可以改用（%0%）。"
			]
		},
		{
			"name": "Field of Study feature",
			"source": "BH:SC",
			"page": 5,
			"className": "Scholar",
			"classSource": "BH:SC",
			"level": 20,
			"entries": [
				"在20级时，你从你的学者研究领域获得一个特征。"
			]
		},
		{
			"name": "Expansive Intellect improvement",
			"source": "BH:SC",
			"page": 5,
			"className": "Scholar",
			"classSource": "BH:SC",
			"level": 20,
			"entries": [
				"在20级时，你的智力得分增加2分，最高为24分。此外，你现在可以使用能力得分增加的功能，将你的智力得分提高到最高24分。"
			]
		}
	],
	"subclassFeature": [
		{
			"name": "Culinarian",
			"source": "BH:SC",
			"page": 6,
			"className": "Scholar",
			"classSource": "BH:SC",
			"subclassShortName": "Culinarian",
			"subclassSource": "BH:SC",
			"level": 1,
			"entries": [
				"对于真正的学者来说，没有什么学术研究的课题是过于晦涩或小众的。与其研究人体的复杂运作或军事策略的完整历史，一些学者选择专门研究普通人的炼金术：烹饪。这些烹饪者采购稀有而美味的食材，将它们变成能赋予自己和盟友力量的食物。",
				{
					"type": "refSubclassFeature",
					"subclassFeature": "Culinarian's Expertise|Scholar|BH:SC|Culinarian|BH:SC|1"
				},
				{
					"type": "refSubclassFeature",
					"subclassFeature": "Combat Cook|Scholar|BH:SC|Culinarian|BH:SC|1"
				}
			]
		},
		{
			"name": "Culinarian's Expertise",
			"source": "BH:SC",
			"page": 6,
			"className": "Scholar",
			"classSource": "BH:SC",
			"subclassShortName": "Culinarian",
			"subclassSource": "BH:SC",
			"level": 1,
			"header": 1,
			"entries": [
				"当你在第一级选择这个研究领域时，你获得对（%0%）和（%1%）的熟练度。在你进行任何使用这些专长的能力检查时，你的熟练度加成会加倍。"
			]
		},
		{
			"name": "Combat Cook",
			"source": "BH:SC",
			"page": 6,
			"className": "Scholar",
			"classSource": "BH:SC",
			"subclassShortName": "Culinarian",
			"subclassSource": "BH:SC",
			"level": 1,
			"header": 1,
			"entries": [
				"同样在1级时，你可以将厨具的部件作为简单的武器使用，造成（%0%）的伤害。被用作武器的器皿决定了伤害类型，并提供一个额外的武器属性：锅和碟子造成打击伤害，并具有多功能（（%1%））属性；叉子和烤串造成穿刺伤害，并具有光属性；刀子造成砍击伤害，并具有投掷（范围20/60）属性。"
			]
		},
		{
			"name": "Waste Not, Want Not",
			"source": "BH:SC",
			"page": 6,
			"className": "Scholar",
			"classSource": "BH:SC",
			"subclassShortName": "Culinarian",
			"subclassSource": "BH:SC",
			"level": 3,
			"header": 2,
			"entries": [
				"从3级开始，你可以采集已死的非人形生物作为烹饪材料，只要该生物已经死亡不超过24小时。你可以从小型或中型生物身上采集1种材料，从大型生物身上采集2种材料，从巨大或更大的生物身上采集3种材料。收获一种材料需要1分钟。你的治愈、腌制和其他保存食物的能力可以防止你收获的食材随着时间的推移而变质。"
			]
		},
		{
			"name": "Culinary Craft",
			"source": "BH:SC",
			"page": 6,
			"className": "Scholar",
			"classSource": "BH:SC",
			"subclassShortName": "Culinarian",
			"subclassSource": "BH:SC",
			"level": 3,
			"header": 2,
			"entries": [
				"同样在3级时，烹饪对你来说被认为是一种轻度活动。当你花1小时做饭时，可以作为完成短期或长期休息的一部分，你可以准备1+你的智力修饰（最少1）顿饭，使用你选择的一种材料。每顿饭需要10分钟才能吃完，之后生物的最大和当前命中率增加{@dice 2d8}+你的学者等级，并且根据制作这顿饭时使用的材料，获得你选择的一项好处。",
				{
					"type": "list",
					"items": [
						"对你所选择的伤害类型的抵抗力，而该成分所收获的生物是抵抗或免疫的。",
						"在能力检查、攻击卷和自救动作上获得+1，并加入你所选择的能力分数修正值。选择这个选项的生物必须有16分或更高的能力值。",
						"一个由你的DM决定的隐藏属性。不是所有的原料都有隐藏属性，有些原料可能有不止一个隐藏属性。"
					]
				},
				"一旦一个生物吃了带有此特征的食物，它就会保留这些好处，直到它吃了另一个用此特征创造的食物或完成了长时间的休息。在创建后8小时内没有食用的食物，在那之后就没有好处了。"
			]
		},
		{
			"name": "Advanced Ingredients",
			"source": "BH:SC",
			"page": 6,
			"className": "Scholar",
			"classSource": "BH:SC",
			"subclassShortName": "Culinarian",
			"subclassSource": "BH:SC",
			"level": 9,
			"header": 2,
			"entries": [
				"在第9级时，在你使用你的烹饪工艺特征时可以选择的好处列表中增加以下选项。",
				{
					"type": "list",
					"items": [
						"对一种伤害类型或你选择的一种条件的免疫力，而该成分所收获的生物对这种伤害类型或条件是免疫的。",
						"在能力检查、攻击卷和自救动作上获得+2的效果，并加入你所选择的能力分数修正值。选择这个选项的生物必须有20分或更高的能力得分。"
					]
				}
			]
		},
		{
			"name": "Edible Improv",
			"source": "BH:SC",
			"page": 6,
			"className": "Scholar",
			"classSource": "BH:SC",
			"subclassShortName": "Culinarian",
			"subclassSource": "BH:SC",
			"level": 9,
			"header": 2,
			"entries": [
				"同样在9级，你已经学会了如何利用你手头的任何东西来做。当你使用你的烹饪工艺特征时，你可以选择即兴创作而不是提供一种原料。当你这样做的时候，就像你使用了一个对所有伤害类型有抵抗力的生物的原料一样，所有能力评分为20分，并且CR等于你的学者等级。一旦你使用这个功能，你就不能再使用它，直到你完成一个长时间的休息。"
			]
		},
		{
			"name": "Full Bellies, Full Hearts",
			"source": "BH:SC",
			"page": 6,
			"className": "Scholar",
			"classSource": "BH:SC",
			"subclassShortName": "Culinarian",
			"subclassSource": "BH:SC",
			"level": 13,
			"header": 2,
			"entries": [
				"在13级时，当一个生物因为吃了你用厨艺特征准备的食物而增加了最大和当前的命中率时，它就会获得额外的最大和当前的命中率，相当于该食材所收获的生物的CR。"
			]
		},
		{
			"name": "Heaping Helping",
			"source": "BH:SC",
			"page": 6,
			"className": "Scholar",
			"classSource": "BH:SC",
			"subclassShortName": "Culinarian",
			"subclassSource": "BH:SC",
			"level": 20,
			"header": 2,
			"entries": [
				"在20级时，当你用你的烹饪工艺特征做饭时，你可以选择使用两种材料而不是一种。当你这样做时，你可以选择两个好处而不是一个。你不可以两次选择相同的好处。要确定你的 \"满腹心 \"功能所赋予的额外的最大和当前的命中率，需要加上原料所收获的两种生物的CR。"
			]
		},
		{
			"name": "Diplomat",
			"source": "BH:SC",
			"page": 7,
			"className": "Scholar",
			"classSource": "BH:SC",
			"subclassShortName": "Diplomat",
			"subclassSource": "BH:SC",
			"level": 1,
			"entries": [
				"一些学者将他们的知识才能奉献给合同的起草，联盟的建立，以及对多种语言的掌握。在漫游和确保人与人之间和平的愿望的驱使下，外交官利用他们在语言学、心理学和国术方面的教育来实现他们的目标。由于他们广泛的实践经验和不同的兴趣，许多外交官是多面手。",
				{
					"type": "refSubclassFeature",
					"subclassFeature": "Diplomat's Expertise|Scholar|BH:SC|Diplomat|BH:SC|1"
				}
			]
		},
		{
			"name": "Diplomat's Expertise",
			"source": "BH:SC",
			"page": 7,
			"className": "Scholar",
			"classSource": "BH:SC",
			"subclassShortName": "Diplomat",
			"subclassSource": "BH:SC",
			"level": 1,
			"header": 1,
			"entries": [
				"当你在1级选择这个研究领域时，你获得了对{@skill Persuasion}技能和你选择的陆上交通工具或水上交通工具的熟练度。在你进行任何使用这些熟练度的能力检查时，你的熟练度加成会翻倍。",
				"此外，你还要学习说、读、写你选择的一种语言。"
			]
		},
		{
			"name": "Call Detente",
			"source": "BH:SC",
			"page": 7,
			"className": "Scholar",
			"classSource": "BH:SC",
			"subclassShortName": "Diplomat",
			"subclassSource": "BH:SC",
			"level": 3,
			"header": 2,
			"entries": [
				"从3级开始，当你进行主动性卷轴时，你可以用你的反应来呼吁结束敌对行动。当你这样做时，每个你选择的能听到你并与你有共同语言的生物必须做一个魅力救赎的动作（DC=8+你的熟练度加成+你的智力修正值）。如果救赎失败，目标会对你选择的、对它有敌意的生物变得漠不关心。如果目标被攻击或被法术伤害，或者它目睹它的任何朋友被伤害，这种漠视就会结束。一分钟后，目标会再次变成敌意，除非DM认为你的行为值得持续的冷漠，或者另一种态度会更合适。你可以在完成短期或长期休息时再次使用这个特性。"
			]
		},
		{
			"name": "Silver Tongue",
			"source": "BH:SC",
			"page": 7,
			"className": "Scholar",
			"classSource": "BH:SC",
			"subclassShortName": "Diplomat",
			"subclassSource": "BH:SC",
			"level": 3,
			"header": 2,
			"entries": [
				"同样在3级时，当你和一个与你有共同语言的生物说话1分钟或以上时，你可以选择让他们做一个智慧救赎动作（DC=8+你的熟练度加成+你的智力修饰）。如果该生物失败，它将在一小时内被你魅惑，或者直到你或你的盟友对它造成伤害，或者对它施展需要做判断的法术，以先发生的为准。一小时后，如果你做了或说了一些值得维持友谊的话，该生物仍会对你保持友好。",
				"你可以选择以行动的方式使用这个能力，并忽略一分钟的对话要求。如果你这样做了，你就不能再使用这个功能，直到你完成一个短期或长期休息。"
			]
		},
		{
			"name": "World Wanderer",
			"source": "BH:SC",
			"page": 7,
			"className": "Scholar",
			"classSource": "BH:SC",
			"subclassShortName": "Diplomat",
			"subclassSource": "BH:SC",
			"level": 9,
			"header": 2,
			"entries": [
				"9级时，你的速度增加10英尺。此外，当你旅行一小时或更长的时间时，困难的地形不会减慢你的队伍的旅行速度，而且你的队伍不会迷路，除非用魔法手段。"
			]
		},
		{
			"name": "Well Traveled",
			"source": "BH:SC",
			"page": 7,
			"className": "Scholar",
			"classSource": "BH:SC",
			"subclassShortName": "Diplomat",
			"subclassSource": "BH:SC",
			"level": 9,
			"header": 2,
			"entries": [
				"同样在9级时，你获得一个你选择的（%0%）。你不需要满足这个（%1%）的先决条件，也不计入你已知的（%2%）数量。",
				"你获得另一个你选择的（%0%），你不需要满足先决条件，也不计入你在13级时已知的博学应用数量。"
			]
		},
		{
			"name": "Master Ambassador",
			"source": "BH:SC",
			"page": 7,
			"className": "Scholar",
			"classSource": "BH:SC",
			"subclassShortName": "Diplomat",
			"subclassSource": "BH:SC",
			"level": 13,
			"header": 2,
			"entries": [
				"在13级时，没有任何效果可以使你在智慧（洞察力）或魅力的能力检查中处于劣势。此外，你的思想不能被违背你的意愿而被解读，而能确定你是否说真话的魔法总是表明你是真实的。"
			]
		},
		{
			"name": "Diplomatic Immunity",
			"source": "BH:SC",
			"page": 7,
			"className": "Scholar",
			"classSource": "BH:SC",
			"subclassShortName": "Diplomat",
			"subclassSource": "BH:SC",
			"level": 20,
			"header": 2,
			"entries": [
				"从20级开始，你的心不能被动摇到极端的地步。你对被魅惑和惊吓有免疫力。作为一个行动，你可以结束对30英尺内与你有共同语言的生物的魅惑或惊吓效果。"
			]
		},
		{
			"name": "Physician",
			"source": "BH:SC",
			"page": 8,
			"className": "Scholar",
			"classSource": "BH:SC",
			"subclassShortName": "Physician",
			"subclassSource": "BH:SC",
			"level": 1,
			"entries": [
				"成为医生的学者们致力于促进健康和福祉。冒险的医师有动力将他们先进的医学知识带入战场，在那里他们可以保持英雄们的战斗力，并对受压迫者进行救命的护理。医师们为自己有能力在没有魔法的情况下编织伤口和治愈疾病而感到自豪，并渴望与他人分享他们的补救和治疗的秘密。",
				{
					"type": "refSubclassFeature",
					"subclassFeature": "Physician's Expertise|Scholar|BH:SC|Physician|BH:SC|1"
				}
			]
		},
		{
			"name": "Physician's Expertise",
			"source": "BH:SC",
			"page": 8,
			"className": "Scholar",
			"classSource": "BH:SC",
			"subclassShortName": "Physician",
			"subclassSource": "BH:SC",
			"level": 1,
			"header": 1,
			"entries": [
				"当你在第一级选择这个研究领域时，你获得对（%0%）技能和（%1%）的熟练度。在你进行任何使用这些熟练度的能力检查时，你的熟练度加成都会翻倍。"
			]
		},
		{
			"name": "Doctor's Orders",
			"source": "BH:SC",
			"page": 8,
			"className": "Scholar",
			"classSource": "BH:SC",
			"subclassShortName": "Physician",
			"subclassSource": "BH:SC",
			"level": 3,
			"header": 2,
			"entries": [
				"从3级开始，你可以使用你的额外行动来对一个相邻的生物进行急救。该生物可以花费并掷出一个命中模子，以治疗相当于命中模子的结果+他们的宪法修改器+你的智力修改器的命中点数。"
			]
		},
		{
			"name": "Treating Physician",
			"source": "BH:SC",
			"page": 8,
			"className": "Scholar",
			"classSource": "BH:SC",
			"subclassShortName": "Physician",
			"subclassSource": "BH:SC",
			"level": 3,
			"header": 2,
			"entries": [
				"同样在第3级，你获得一个医师点数池。这个池子由与你在这个等级中的等级相等的医师点数组成。在短暂的休息期间，你可以花费任意数量的医师点数，让你正在治疗的生物恢复相同数量的已消耗的命中率，最高可达其最大值。你也可以花费一小时和一个医师点，从你正在治疗的生物身上去除你选择的疾病或毒药。当你完成一次长时间的休息时，你会重新获得所有消耗的医师点数。"
			]
		},
		{
			"name": "Resuscitating Procedure",
			"source": "BH:SC",
			"page": 8,
			"className": "Scholar",
			"classSource": "BH:SC",
			"subclassShortName": "Physician",
			"subclassSource": "BH:SC",
			"level": 9,
			"header": 2,
			"entries": [
				"在9级的时候，你的医疗技术已经发展到可以让刚刚死去的人的身体恢复生机的程度。这个过程需要1分钟来完成，需要价值100个金币的医疗用品，这个过程会消耗掉。该程序只能影响死亡时间不超过10分钟的生物。该生物恢复生命时有1个命中点。这个程序不能使因年老而死亡的生物恢复生命，也不能恢复任何丢失的身体部位。你可以在完成长时间休息后再次使用这个功能。"
			]
		},
		{
			"name": "Restorative Treatment",
			"source": "BH:SC",
			"page": 8,
			"className": "Scholar",
			"classSource": "BH:SC",
			"subclassShortName": "Physician",
			"subclassSource": "BH:SC",
			"level": 9,
			"header": 2,
			"entries": [
				"同样在9级的时候，你可以使用高级医疗科学来结束一个衰弱的状况。作为一个动作，你可以对你所接触的生物施加以下一种好处。",
				{
					"type": "list",
					"items": [
						"结束一个让生物离开（%0%）、（%1%）、（%2%）、（%3%）、（%4%）、（%5%）、（%6%）、（%7%）或（%8%）的效果。",
						"结束对目标的一个能力分数的减少。",
						"结束一个降低目标最大命中率的效果。",
						"将生物的疲惫等级降低一个。"
					]
				},
				"当你完成短期或长期休息时，你可以再次使用这个功能。"
			]
		},
		{
			"name": "Rejuvenating Technique",
			"source": "BH:SC",
			"page": 8,
			"className": "Scholar",
			"classSource": "BH:SC",
			"subclassShortName": "Physician",
			"subclassSource": "BH:SC",
			"level": 13,
			"header": 2,
			"entries": [
				"在13级时，当你花5分钟为一个生物提供活化的临床护理时，该生物可以选择它的一个特征，如果完成一个短期或长期的休息可以让该生物恢复其使用。当你完成一次短时或长时休息时，你可以再次使用这个特征。"
			]
		},
		{
			"name": "Preventative Medicine",
			"source": "BH:SC",
			"page": 8,
			"className": "Scholar",
			"classSource": "BH:SC",
			"subclassShortName": "Physician",
			"subclassSource": "BH:SC",
			"level": 20,
			"header": 2,
			"entries": [
				"在20级时，你可以花10分钟时间对一定数量的生物进行预防性医疗护理，其数量不超过你的智力修饰值（包括你自己）。每个被治疗的生物都会获得相当于其最大命中率一半的临时命中率。当一个生物拥有这个特性所赋予的临时命中率时，他们对非魔法的击打、穿刺、毒药和砍击伤害有抵抗力。你可以在完成长时间休息后再次使用这个特性。"
			]
		},
		{
			"name": "Ritualist",
			"source": "BH:SC",
			"page": 8,
			"className": "Scholar",
			"classSource": "BH:SC",
			"subclassShortName": "Ritualist",
			"subclassSource": "BH:SC",
			"level": 1,
			"entries": [
				"虽然学者们因追求世俗的话题而与其他知识分子有很大区别，但有些人将他们的神思集中在深奥的话题上。祭祀者以学者对待所有事物的相同的方法和科学方法研究魔法。虽然这些学者的魔法能力不如更专业的施法者那样令人印象深刻，但他们对编织的精明观察使他们能够施展出无与伦比的各种法术。",
				{
					"type": "refSubclassFeature",
					"subclassFeature": "Ritualist's Expertise|Scholar|BH:SC|Ritualist|BH:SC|1"
				}
			]
		},
		{
			"name": "Ritualist's Expertise",
			"source": "BH:SC",
			"page": 8,
			"className": "Scholar",
			"classSource": "BH:SC",
			"subclassShortName": "Ritualist",
			"subclassSource": "BH:SC",
			"level": 1,
			"header": 1,
			"entries": [
				"当你在第一级选择这个研究领域时，你获得了对（%0%）技能和（%1%）的熟练度。在你进行任何使用这些熟练度的能力检查时，你的熟练度加成都会翻倍。"
			]
		},
		{
			"name": "Spellcasting",
			"source": "BH:SC",
			"page": 8,
			"className": "Scholar",
			"classSource": "BH:SC",
			"subclassShortName": "Ritualist",
			"subclassSource": "BH:SC",
			"level": 3,
			"header": 2,
			"entries": [
				"当你达到3级时，你对多元宇宙的奥术法则和晦涩的神话的深入研究使你可以施展法术和进行仪式。关于施法的一般规则，请看{@i Player's Handbook}的{@book chapter 10|phb|10}，{@book chapter 11|PHB|11}的{@filter complete list of spells|spells}。",
				{
					"type": "entries",
					"name": "Cantrips",
					"entries": [
						"在3级时，你知道两个你选择的任何（%0%）的咒语。在更高等级时，你会学习更多你选择的咒语，如仪式师表格中已知的咒语栏所示。"
					]
				},
				{
					"type": "entries",
					"name": "Spell Slots",
					"entries": [
						"仪式师的施法表显示了你有多少个法术槽来施展你的一级及以上的法术。要施展其中一个法术，你必须消耗一个该法术等级或更高的法术槽。当你完成一次长时间的休息时，你会重新获得所有已消耗的法术槽。",
						"例如，如果你知道一级法术（%0%），并且有一个一级和一个二级法术槽可用，你可以使用任何一个法术槽施放（%1%）。"
					]
				},
				{
					"type": "entries",
					"name": "Spells Known of 1st Level and Higher",
					"entries": [
						"你会从任何（%0%）中选择三个一级法术，其中两个必须有（%1%）。",
						"仪式师法术表的 \"已知法术 \"一栏显示你何时学会更多1级或以上的法术。每个法术都必须有（%0%），并且必须是你有法术槽的等级。例如，当你在这个等级达到7级时，你可以学习一个1级或2级的新法术。",
						"你在第7、10、16和20级学到的法术不一定要有仪式标签。",
						"每当你在这个等级中获得一个等级，你可以用你选择的另一个法术来替换你所知道的一个法术。新的法术必须是你有法术槽的等级，而且必须有（%0%），除非你替换的是你在3、7、10、16或20级获得的没有仪式标签的法术。"
					]
				},
				{
					"type": "entries",
					"name": "Ritual Casting",
					"entries": [
						"如果你知道的咒语有仪式标签，你就可以把该咒语作为仪式来施放。"
					]
				},
				{
					"type": "entries",
					"name": "Spellcasting Ability",
					"entries": [
						"智力是你对仪式师法术的施法能力，因为你的魔法的力量依赖于对记忆中的手势和咒语的坚持。每当咒语提到你的施法能力时，你就会使用你的智力。此外，在设定你所施展的仪式师法术的蓄力DC时，以及使用一个攻击卷时，你都会使用你的智力修饰。",
						{
							"type": "abilityDc",
							"name": "Spell",
							"attributes": [
								"int"
							]
						},
						{
							"type": "abilityAttackMod",
							"name": "Spell",
							"attributes": [
								"int"
							]
						}
					]
				}
			]
		},
		{
			"name": "Spellscribe",
			"source": "BH:SC",
			"page": 9,
			"className": "Scholar",
			"classSource": "BH:SC",
			"subclassShortName": "Ritualist",
			"subclassSource": "BH:SC",
			"level": 3,
			"header": 2,
			"entries": [
				"同样在3级时，你学会了用一半的时间和一半的费用来制作法术卷轴。绘制法术卷轴的规则可以在（%0%）中找到。"
			]
		},
		{
			"name": "Otherworldly Ward",
			"source": "BH:SC",
			"page": 9,
			"className": "Scholar",
			"classSource": "BH:SC",
			"subclassShortName": "Ritualist",
			"subclassSource": "BH:SC",
			"level": 9,
			"header": 2,
			"entries": [
				"9级时，你可以在不消耗法术槽或提供材料成分的情况下施放（%0%）的法术。"
			]
		},
		{
			"name": "Potent Spellcasting",
			"source": "BH:SC",
			"page": 9,
			"className": "Scholar",
			"classSource": "BH:SC",
			"subclassShortName": "Ritualist",
			"subclassSource": "BH:SC",
			"level": 9,
			"header": 2,
			"entries": [
				"9级时，你在使用咒语造成的伤害上加上你的智力修正值。"
			]
		},
		{
			"name": "Ritual Reduction",
			"source": "BH:SC",
			"page": 9,
			"className": "Scholar",
			"classSource": "BH:SC",
			"subclassShortName": "Ritualist",
			"subclassSource": "BH:SC",
			"level": 13,
			"header": 2,
			"entries": [
				"在13级时，你可以在不消耗法术槽或提供材料成分的情况下施放你所知道的任何法术。在你完成一次长时间的休息之前，你不能再次使用这个功能。"
			]
		},
		{
			"name": "Unified Spell Theory",
			"source": "BH:SC",
			"page": 9,
			"className": "Scholar",
			"classSource": "BH:SC",
			"subclassShortName": "Ritualist",
			"subclassSource": "BH:SC",
			"level": 20,
			"header": 2,
			"entries": [
				"在20级时，你可以通过消耗一个与该法术同等或更高等级的法术槽来施放任何你不知道的法术。在你完成一次长时间的休息之前，你不能再次使用这个功能。"
			]
		},
		{
			"name": "Tactician",
			"source": "BH:SC",
			"page": 10,
			"className": "Scholar",
			"classSource": "BH:SC",
			"subclassShortName": "Tactician",
			"subclassSource": "BH:SC",
			"level": 1,
			"entries": [
				"成为战术家的学者们利用他们的智力能力来主宰战场。凭借权威的语气和动态的策略，战术家可以将一个冒险队伍变成一台运转良好的机器。战术家是少有的在战斗中感到自如的学者，在领导盟友作战时表现出色。",
				{
					"type": "refSubclassFeature",
					"subclassFeature": "Bonus Proficiencies|Scholar|BH:SC|Tactician|BH:SC|1"
				}
			]
		},
		{
			"name": "Bonus Proficiencies",
			"source": "BH:SC",
			"page": 10,
			"className": "Scholar",
			"classSource": "BH:SC",
			"subclassShortName": "Tactician",
			"subclassSource": "BH:SC",
			"level": 1,
			"header": 1,
			"entries": [
				"当你在1级选择这个研究领域时，你获得对武术武器、中型盔甲和盾牌的熟练度。"
			]
		},
		{
			"name": "Fighting Style",
			"source": "BH:SC",
			"page": 10,
			"className": "Scholar",
			"classSource": "BH:SC",
			"subclassShortName": "Tactician",
			"subclassSource": "BH:SC",
			"level": 3,
			"header": 2,
			"entries": [
				"在3级时，你采用一种特定的战斗风格作为你的专长。从以下选项中选择一个。你不能多次选择一种战斗风格的选项，即使你后来可以再次选择。",
				{
					"type": "options",
					"count": 1,
					"entries": [
						{
							"type": "refOptionalfeature",
							"optionalfeature": "Archery"
						},
						{
							"type": "refOptionalfeature",
							"optionalfeature": "Close Quarters Shooter|UALightDarkUnderdark"
						},
						{
							"type": "refOptionalfeature",
							"optionalfeature": "Blind Fighting|TCE"
						},
						{
							"type": "refOptionalfeature",
							"optionalfeature": "Defense"
						},
						{
							"type": "refOptionalfeature",
							"optionalfeature": "Dueling"
						},
						{
							"type": "refOptionalfeature",
							"optionalfeature": "Interception|TCE"
						},
						{
							"type": "refOptionalfeature",
							"optionalfeature": "Mariner|UAWaterborneAdventures"
						},
						{
							"type": "refOptionalfeature",
							"optionalfeature": "Protection"
						},
						{
							"type": "refOptionalfeature",
							"optionalfeature": "Superior Technique|TCE"
						},
						{
							"type": "refOptionalfeature",
							"optionalfeature": "Thrown Weapon Fighting|TCE"
						},
						{
							"type": "refOptionalfeature",
							"optionalfeature": "Tunnel Fighter|UALightDarkUnderdark"
						},
						{
							"type": "refOptionalfeature",
							"optionalfeature": "Unarmed Fighting|TCE"
						}
					]
				}
			]
		},
		{
			"name": "Strategic Advantage",
			"source": "BH:SC",
			"page": 10,
			"className": "Scholar",
			"classSource": "BH:SC",
			"subclassShortName": "Tactician",
			"subclassSource": "BH:SC",
			"level": 3,
			"header": 2,
			"entries": [
				"同样在3级时，当一个生物被你的贤者建议的攻击击中时，该生物会在他们的攻击伤害中加入你的熟练度加成。"
			]
		},
		{
			"name": "Direct The Strike",
			"source": "BH:SC",
			"page": 10,
			"className": "Scholar",
			"classSource": "BH:SC",
			"subclassShortName": "Tactician",
			"subclassSource": "BH:SC",
			"level": 9,
			"header": 2,
			"entries": [
				"从9级开始，你可以使用你的额外行动来引导60英尺内能听到你的生物进行攻击。如果你这样做了，那个生物可以用它的反应对范围内你选择的敌人进行一次武器攻击。"
			]
		},
		{
			"name": "Warlord's Rush",
			"source": "BH:SC",
			"page": 10,
			"className": "Scholar",
			"classSource": "BH:SC",
			"subclassShortName": "Tactician",
			"subclassSource": "BH:SC",
			"level": 9,
			"header": 2,
			"entries": [
				"9级时，你可以在你的回合中使用一个额外的行动来命令你的盟友重新定位。你选择的60英尺范围内能听到你说话的每个友好生物都可以移动到他们的移动速度。这种移动不会激起机会攻击。你可以在完成短期或长期休息时再次使用这一特性。"
			]
		},
		{
			"name": "Lead From the Front",
			"source": "BH:SC",
			"page": 10,
			"className": "Scholar",
			"classSource": "BH:SC",
			"subclassShortName": "Tactician",
			"subclassSource": "BH:SC",
			"level": 13,
			"header": 2,
			"entries": [
				"在13级时，当你用攻击击中一个生物时，你能够为盟友提供一个开口。当你这样做时，60英尺范围内你选择的每个能听到你的友好生物在他们对该敌人进行的第一次攻击卷上有优势，直到你下一回合开始。一旦你使用了这个特性，你必须完成一个短暂或长时间的休息才能再次使用它。"
			]
		},
		{
			"name": "Rallying Surge",
			"source": "BH:SC",
			"page": 10,
			"className": "Scholar",
			"classSource": "BH:SC",
			"subclassShortName": "Tactician",
			"subclassSource": "BH:SC",
			"level": 20,
			"header": 2,
			"entries": [
				"在20级时，你可以在你的回合中使用一个行动，发出一个集结号。在60英尺范围内，你选择的每个能听到你声音的友好生物，最多相当于你的智力修饰值，在其下一回合获得一个额外的行动。该行动只能用于采取攻击（仅限一次武器攻击）、冲刺、脱离、隐藏或使用物体的行动。当你完成一个长时间的休息时，你可以再次使用这个特性。"
			]
		},
		{
			"name": "Theologian",
			"source": "BH:SC",
			"page": 10,
			"className": "Scholar",
			"classSource": "BH:SC",
			"subclassShortName": "Theologian",
			"subclassSource": "BH:SC",
			"level": 1,
			"entries": [
				"神学家研究神灵的教义和神话。与其他大多数学者不同，对多元宇宙宗教的祈祷和实践的广泛熟悉使神学家有能力施展法术。与牧师和圣骑士不同，神学家不会将自己献给一个单一的神或意识形态。相反，神学家尊重并承认所有的神，每天对各种神灵的力量进行虔诚的祈祷和引导。",
				{
					"type": "refSubclassFeature",
					"subclassFeature": "Theologian's Expertise|Scholar|BH:SC|Theologian|BH:SC|1"
				}
			]
		},
		{
			"name": "Theologian's Expertise",
			"source": "BH:SC",
			"page": 10,
			"className": "Scholar",
			"classSource": "BH:SC",
			"subclassShortName": "Theologian",
			"subclassSource": "BH:SC",
			"level": 1,
			"header": 1,
			"entries": [
				"当你在1级选择这个研究领域时，你获得对（%0%）技能的熟练度。对于你所做的任何使用该熟练度的能力检查，你的熟练度加成都会加倍。",
				"此外，你还能学会说、读、写天语。"
			]
		},
		{
			"name": "Daily Devotion",
			"source": "BH:SC",
			"page": 10,
			"className": "Scholar",
			"classSource": "BH:SC",
			"subclassShortName": "Theologian",
			"subclassSource": "BH:SC",
			"level": 3,
			"header": 2,
			"entries": [
				"从3级开始，作为完成长时休息的一部分，你可以选择一个神域（可在《玩家手册》的（%0%）中找到），并向与该神域相关的神灵提供虔诚。在你再次使用此功能之前，与你选择的神域相关的领域法术算作是为你准备的，只要你有一个等于或高于该法术等级的法术槽。",
				"此外，你可以使用任何一本价值1gp或以上的神学书籍作为牧师法术的施法重点。"
			]
		},
		{
			"name": "Spellcasting",
			"source": "BH:SC",
			"page": 11,
			"className": "Scholar",
			"classSource": "BH:SC",
			"subclassShortName": "Theologian",
			"subclassSource": "BH:SC",
			"level": 3,
			"header": 2,
			"entries": [
				"同样在3级时，你对诸神和他们崇拜的传统的专注研究使你可以施展法术。关于施法的一般规则，请参见{@i Player's Handbook}的{@book chapter 10|phb|10}，{@book chapter 11|PHB|11}的{@filter complete list of spells|spells}。",
				{
					"type": "entries",
					"name": "Cantrips",
					"entries": [
						"在3级时，你知道两个你选择的神职者的咒语（%0%）。在更高等级时，你会学习更多你选择的咒语，如神学家表格中已知的咒语栏所示。"
					]
				},
				{
					"type": "entries",
					"name": "Preparing and Casting Spells",
					"entries": [
						"神学家表显示了你有多少个法术槽来施展你的一级及以上的法术。要施展其中一个法术，你必须消耗一个与该法术等级相同或更高的法术槽。当你完成一次长时间的休息时，你会重新获得所有消耗的法术槽。",
						"你准备可供你施展的教士法术清单，从教士法术清单中选择。当你这样做时，根据你在神学家表的法术准备栏中的等级选择一些牧师法术。这些法术的等级必须是你有法术槽的。",
						"例如，如果你是一个3级的神学家，你有一个准备好的法术和两个你用日常奉献功能选择的神域的法术。如果你准备了治愈伤口的法术，你可以用一个1级或2级的槽来施放它。施放该法术并不会从你的准备好的法术列表中移除它。",
						"你可以在完成长时间的休息后改变你准备的法术清单。准备一个新的牧师法术清单需要花费时间来祈祷和冥想：对于你清单上的每个法术等级，至少需要1分钟。"
					]
				},
				{
					"type": "entries",
					"name": "Spellcasting Ability",
					"entries": [
						"智力是你的牧师法术的施法能力，因为你在严格遵守他们的习俗和传统的情况下，迫使神圣的力量借给你力量。每当法术提到你的法术能力时，你就会使用你的智力。此外，在设定你所施展的牧师法术的蓄力DC时，以及在用一个攻击卷进行攻击时，你都会使用你的智力修改器。",
						{
							"type": "abilityDc",
							"name": "Spell",
							"attributes": [
								"int"
							]
						},
						{
							"type": "abilityAttackMod",
							"name": "Spell",
							"attributes": [
								"int"
							]
						}
					]
				}
			]
		},
		{
			"name": "Walk in Radiance",
			"source": "BH:SC",
			"page": 11,
			"className": "Scholar",
			"classSource": "BH:SC",
			"subclassShortName": "Theologian",
			"subclassSource": "BH:SC",
			"level": 9,
			"header": 2,
			"entries": [
				"9级时，你获得对辐射伤害的抵抗。"
			]
		},
		{
			"name": "Prayer of Protection",
			"source": "BH:SC",
			"page": 11,
			"className": "Scholar",
			"classSource": "BH:SC",
			"subclassShortName": "Theologian",
			"subclassSource": "BH:SC",
			"level": 9,
			"header": 2,
			"entries": [
				"在第9级时，每当你消耗一个法术槽来施展一个牧师法术时，在你15英尺范围内的一个你选择的生物会获得相当于你的智力修饰+所消耗的法术槽等级的临时打击点数。"
			]
		},
		{
			"name": "Enfeeble the Unholy",
			"source": "BH:SC",
			"page": 11,
			"className": "Scholar",
			"classSource": "BH:SC",
			"subclassShortName": "Theologian",
			"subclassSource": "BH:SC",
			"level": 13,
			"header": 2,
			"entries": [
				"从13级开始，当妖族、魔族或不死生物对你施放的法术进行救赎时，你可以使用你的反应来使该救赎处于劣势。一旦你使用了这个特性，你必须完成一个短暂或长时间的休息才能再次使用它。"
			]
		},
		{
			"name": "Miracle Worker",
			"source": "BH:SC",
			"page": 11,
			"className": "Scholar",
			"classSource": "BH:SC",
			"subclassShortName": "Theologian",
			"subclassSource": "BH:SC",
			"level": 20,
			"header": 2,
			"entries": [
				"在20级时，你可以在不消耗法术槽的情况下施放（%0%）、（%1%）或（%2%）法术。一旦你使用了这个功能，你必须完成一个短期或长期的休息才能再次使用它。"
			]
		}
	],
	"subclass": [
		{
			"name": "Culinarian",
			"shortName": "Culinarian",
			"source": "BH:SC",
			"page": 6,
			"subclassFeatures": [
				"Culinarian|Scholar|BH:SC|Culinarian|BH:SC|1",
				"Waste Not, Want Not|Scholar|BH:SC|Culinarian|BH:SC|3",
				"Culinary Craft|Scholar|BH:SC|Culinarian|BH:SC|3",
				"Advanced Ingredients|Scholar|BH:SC|Culinarian|BH:SC|9",
				"Edible Improv|Scholar|BH:SC|Culinarian|BH:SC|9",
				"Full Bellies, Full Hearts|Scholar|BH:SC|Culinarian|BH:SC|13",
				"Heaping Helping|Scholar|BH:SC|Culinarian|BH:SC|20"
			],
			"className": "Scholar",
			"classSource": "BH:SC"
		},
		{
			"name": "Diplomat",
			"shortName": "Diplomat",
			"source": "BH:SC",
			"page": 7,
			"subclassFeatures": [
				"Diplomat|Scholar|BH:SC|Diplomat|BH:SC|1",
				"Call Detente|Scholar|BH:SC|Diplomat|BH:SC|3",
				"Silver Tongue|Scholar|BH:SC|Diplomat|BH:SC|3",
				"World Wanderer|Scholar|BH:SC|Diplomat|BH:SC|9",
				"Well Traveled|Scholar|BH:SC|Diplomat|BH:SC|9",
				"Master Ambassador|Scholar|BH:SC|Diplomat|BH:SC|13",
				"Diplomatic Immunity|Scholar|BH:SC|Diplomat|BH:SC|20"
			],
			"className": "Scholar",
			"classSource": "BH:SC"
		},
		{
			"name": "Physician",
			"shortName": "Physician",
			"source": "BH:SC",
			"page": 8,
			"subclassFeatures": [
				"Physician|Scholar|BH:SC|Physician|BH:SC|1",
				"Doctor's Orders|Scholar|BH:SC|Physician|BH:SC|3",
				"Treating Physician|Scholar|BH:SC|Physician|BH:SC|3",
				"Resuscitating Procedure|Scholar|BH:SC|Physician|BH:SC|9",
				"Restorative Treatment|Scholar|BH:SC|Physician|BH:SC|9",
				"Rejuvenating Technique|Scholar|BH:SC|Physician|BH:SC|13",
				"Preventative Medicine|Scholar|BH:SC|Physician|BH:SC|20"
			],
			"className": "Scholar",
			"classSource": "BH:SC"
		},
		{
			"name": "Ritualist",
			"shortName": "Ritualist",
			"source": "BH:SC",
			"page": 8,
			"spellcastingAbility": "int",
			"casterProgression": "1/3",
			"subclassTableGroups": [
				{
					"subclasses": [
						{
							"name": "Ritualist",
							"source": "BH:SC"
						}
					],
					"colLabels": [
						"{@filter Cantrips Known|spells|level=0}",
						"{@filter Spells Known|spells}"
					],
					"rows": [
						[
							0,
							0
						],
						[
							0,
							0
						],
						[
							2,
							3
						],
						[
							2,
							4
						],
						[
							2,
							4
						],
						[
							2,
							4
						],
						[
							2,
							5
						],
						[
							2,
							6
						],
						[
							2,
							6
						],
						[
							3,
							7
						],
						[
							3,
							8
						],
						[
							3,
							8
						],
						[
							3,
							9
						],
						[
							3,
							10
						],
						[
							3,
							10
						],
						[
							3,
							11
						],
						[
							3,
							11
						],
						[
							3,
							11
						],
						[
							3,
							12
						],
						[
							3,
							13
						]
					]
				},
				{
					"title": "Spell Slots per Spell Level",
					"subclasses": [
						{
							"name": "Ritualist",
							"source": "BH:SC"
						}
					],
					"colLabels": [
						"{@filter 1st|spells|level=1}",
						"{@filter 2nd|spells|level=2}",
						"{@filter 3rd|spells|level=3}",
						"{@filter 4th|spells|level=4}"
					],
					"rows": [
						[
							0,
							0,
							0,
							0
						],
						[
							0,
							0,
							0,
							0
						],
						[
							2,
							0,
							0,
							0
						],
						[
							3,
							0,
							0,
							0
						],
						[
							3,
							0,
							0,
							0
						],
						[
							3,
							0,
							0,
							0
						],
						[
							4,
							2,
							0,
							0
						],
						[
							4,
							2,
							0,
							0
						],
						[
							4,
							2,
							0,
							0
						],
						[
							4,
							3,
							0,
							0
						],
						[
							4,
							3,
							0,
							0
						],
						[
							4,
							3,
							0,
							0
						],
						[
							4,
							3,
							2,
							0
						],
						[
							4,
							3,
							2,
							0
						],
						[
							4,
							3,
							2,
							0
						],
						[
							4,
							3,
							3,
							0
						],
						[
							4,
							3,
							3,
							0
						],
						[
							4,
							3,
							3,
							0
						],
						[
							4,
							3,
							3,
							1
						],
						[
							4,
							3,
							3,
							1
						]
					]
				}
			],
			"subclassFeatures": [
				"Ritualist|Scholar|BH:SC|Ritualist|BH:SC|1",
				"Spellcasting|Scholar|BH:SC|Ritualist|BH:SC|3",
				"Spellscribe|Scholar|BH:SC|Ritualist|BH:SC|3",
				"Otherworldly Ward|Scholar|BH:SC|Ritualist|BH:SC|9",
				"Potent Spellcasting|Scholar|BH:SC|Ritualist|BH:SC|9",
				"Ritual Reduction|Scholar|BH:SC|Ritualist|BH:SC|13",
				"Unified Spell Theory|Scholar|BH:SC|Ritualist|BH:SC|20"
			],
			"cantripProgression": [
				0,
				0,
				2,
				2,
				2,
				2,
				2,
				2,
				2,
				3,
				3,
				3,
				3,
				3,
				3,
				3,
				3,
				3,
				3,
				3
			],
			"spellsKnownProgression": [
				0,
				0,
				3,
				4,
				4,
				4,
				5,
				6,
				6,
				7,
				8,
				8,
				9,
				10,
				10,
				11,
				11,
				11,
				12,
				13
			],
			"className": "Scholar",
			"classSource": "BH:SC"
		},
		{
			"name": "Tactician",
			"shortName": "Tactician",
			"source": "BH:SC",
			"page": 10,
			"subclassFeatures": [
				"Tactician|Scholar|BH:SC|Tactician|BH:SC|1",
				"Fighting Style|Scholar|BH:SC|Tactician|BH:SC|3",
				"Strategic Advantage|Scholar|BH:SC|Tactician|BH:SC|3",
				"Direct the Strike|Scholar|BH:SC|Tactician|BH:SC|9",
				"Warlord's Rush|Scholar|BH:SC|Tactician|BH:SC|9",
				"Lead From the Front|Scholar|BH:SC|Tactician|BH:SC|13",
				"Rallying Surge|Scholar|BH:SC|Tactician|BH:SC|20"
			],
			"className": "Scholar",
			"classSource": "BH:SC"
		},
		{
			"name": "Theologian",
			"shortName": "Theologian",
			"source": "BH:SC",
			"page": 10,
			"spellcastingAbility": "int",
			"casterProgression": "1/3",
			"subclassTableGroups": [
				{
					"subclasses": [
						{
							"name": "Theologian",
							"source": "BH:SC"
						}
					],
					"colLabels": [
						"{@filter Cantrips Known|spells|level=0|class=Cleric}",
						"{@filter Spells Known|spells|class=Cleric}"
					],
					"rows": [
						[
							0,
							0
						],
						[
							0,
							0
						],
						[
							2,
							3
						],
						[
							2,
							4
						],
						[
							2,
							4
						],
						[
							2,
							4
						],
						[
							2,
							5
						],
						[
							2,
							6
						],
						[
							2,
							6
						],
						[
							3,
							7
						],
						[
							3,
							8
						],
						[
							3,
							8
						],
						[
							3,
							9
						],
						[
							3,
							10
						],
						[
							3,
							10
						],
						[
							3,
							11
						],
						[
							3,
							11
						],
						[
							3,
							11
						],
						[
							3,
							12
						],
						[
							3,
							13
						]
					]
				},
				{
					"title": "Spell Slots per Spell Level",
					"subclasses": [
						{
							"name": "Theologian",
							"source": "BH:SC"
						}
					],
					"colLabels": [
						"{@filter 1st|spells|level=1|class=Cleric}",
						"{@filter 2nd|spells|level=2|class=Cleric}",
						"{@filter 3rd|spells|level=3|class=Cleric}",
						"{@filter 4th|spells|level=4|class=Cleric}"
					],
					"rows": [
						[
							0,
							0,
							0,
							0
						],
						[
							0,
							0,
							0,
							0
						],
						[
							2,
							0,
							0,
							0
						],
						[
							3,
							0,
							0,
							0
						],
						[
							3,
							0,
							0,
							0
						],
						[
							3,
							0,
							0,
							0
						],
						[
							4,
							2,
							0,
							0
						],
						[
							4,
							2,
							0,
							0
						],
						[
							4,
							2,
							0,
							0
						],
						[
							4,
							3,
							0,
							0
						],
						[
							4,
							3,
							0,
							0
						],
						[
							4,
							3,
							0,
							0
						],
						[
							4,
							3,
							2,
							0
						],
						[
							4,
							3,
							2,
							0
						],
						[
							4,
							3,
							2,
							0
						],
						[
							4,
							3,
							3,
							0
						],
						[
							4,
							3,
							3,
							0
						],
						[
							4,
							3,
							3,
							0
						],
						[
							4,
							3,
							3,
							1
						],
						[
							4,
							3,
							3,
							1
						]
					]
				}
			],
			"subclassFeatures": [
				"Theologian|Scholar|BH:SC|Theologian|BH:SC|1",
				"Daily Devotion|Scholar|BH:SC|Theologian|BH:SC|3",
				"Spellcasting|Scholar|BH:SC|Theologian|BH:SC|3",
				"Walk in Radiance|Scholar|BH:SC|Theologian|BH:SC|9",
				"Prayer of Protection|Scholar|BH:SC|Theologian|BH:SC|9",
				"Enfeeble the Unholy|Scholar|BH:SC|Theologian|BH:SC|13",
				"Miracle Worker|Scholar|BH:SC|Theologian|BH:SC|20"
			],
			"cantripProgression": [
				0,
				0,
				2,
				2,
				2,
				2,
				2,
				2,
				2,
				3,
				3,
				3,
				3,
				3,
				3,
				3,
				3,
				3,
				3,
				3
			],
			"spellsKnownProgression": [
				0,
				0,
				3,
				4,
				4,
				4,
				5,
				6,
				6,
				7,
				8,
				8,
				9,
				10,
				10,
				11,
				11,
				11,
				12,
				13
			],
			"className": "Scholar",
			"classSource": "BH:SC"
		}
	]
}
