{
	"_meta": {
		"sources": [
			{
				"json": "DXMarksman",
				"abbreviation": "DXM",
				"full": "The Marksman",
				"url": "https://homebrewery.naturalcrit.com/share/1ez4_cZlRNYd_AYzmxbomFPkb8aprudx8GQWclmp9iliS",
				"authors": [
					"DXHHH101"
				],
				"convertedBy": [
					"DXHHH101"
				],
				"color": "00b4ff",
				"version": "0.2"
			}
		],
		"optionalFeatureTypes": {
			"TQ:M": "Technique, Marksman",
			"FS:M": "Fighting Style: Marksman"
		},
		"dateAdded": 1643675458,
		"dateLastModified": 1695071994,
		"_dateLastModifiedHash": "cb23be2516"
	},
	"class": [
		{
			"name": "Marksman",
			"source": "DXMarksman",
			"hd": {
				"number": 1,
				"faces": 8
			},
			"proficiency": [
				"dex",
				"int"
			],
			"fluff": [
				{
					"name": "Marksman",
					"source": "DXMarksman",
					"type": "section",
					"entries": [
						"一支由光组成的标枪凝聚在一个矮人伸出的手上，然后在空中向一个妖精发射火箭。爆发出一阵闪电，标枪刺穿了它的目标并消失了，留下妖精的残余能量在跳动。",
						"火焰从一枚孤独的飞镖中喷发出来，嵌入一名骑士的盔甲，将整个战场变成了一片地狱般的火海。攻击的源头--精灵转身就走，因为他的敌人被烧成了灰烬。",
						"当一支箭离开兽人的弓，射向一个毫无防备的平民时，一个蒙面的塔巴西人从阴影中跃出。她以只有她能跟上的速度扔出一把斧头，箭突然分成两半，无害地落在西里夫人的脚下。孤独的救世主现在与兽人面对面地站着。她准备好另一把斧头，这把斧头闪着能量的光芒。",
						"射手是精准的大师，用他们注入魔法的投掷武器控制战场。通过自己的手艺进入魔法领域，这些英雄有一个多样化的魔法库，一眼望去并不明显。",
						{
							"name": "Precise Warriors",
							"type": "entries",
							"entries": [
								"射手是投掷武器的大师，擅长中距离射击。他们利用自己的准确性和精确性来控制对手在任何特定时间的位置。这使他们的技术与那些长距离的武器（如弓箭）区分开来。箭可以飞得更远，但斧头的重量要大得多，而且用途也更广。",
								"真正使神射手不同于其他战士的是他们对将法术注入武器的艺术的研究。当其他人可以创造魔法物品，或将法术储存在物品中供以后使用时，神射手发现了一种不同的方法。他们的武器作为魔法的管道，允许它从A点到B点。这就是他们如此多才多艺的原因，因为他们能够以连最强大的巫师都无法做到的方式施展一些法术。"
							]
						},
						{
							"name": "Creating a Marksman",
							"type": "entries",
							"entries": [
								"当你建立你的神枪手时，想想他们是什么样的战士。你是一个会考虑自己周围环境的人吗？在让你的盟友干掉他们之前，你是否试图困住或限制你的对手的选择？你是想尽可能多地造成破坏的人吗？快速发射火球直到你的对手变成灰烬？",
								"还要想一想你的魔法是从哪里学来的。是别人教你的吗？还是自学的？也许你是被一个在你的战斗技巧中看到潜力的巫师教的。",
								{
									"name": "Quick Build",
									"type": "entries",
									"entries": [
										"按照这些建议，你可以迅速成为一名神枪手。首先灵巧应该是你最高的能力得分，其次是智力，以助长你的魔法。第二，选择（%0%）或（%1%）的背景。"
									]
								}
							]
						}
					]
				}
			],
			"startingProficiencies": {
				"armor": [
					"light",
					"{@item shield|phb|shields}"
				],
				"weapons": [
					"{@filter Weapons with the thrown property|items|category=basic|property=thrown}"
				],
				"tools": [
					"{@item woodcarver's tools|phb}"
				],
				"skills": [
					{
						"choose": {
							"from": [
								"athletics",
								"acrobatics",
								"investigation",
								"perception",
								"sleight of hand",
								"survival"
							],
							"count": 2
						}
					}
				]
			},
			"startingEquipment": {
				"additionalFromBackground": true,
				"goldAlternative": "{@dice 2d4 x 10}",
				"default": [
					"{@item leather armor|phb}",
					"(a) 20 {@item dart|phb|darts} or (b) four {@item dagger|phb|daggers}",
					"two {@item handaxe|phb|handaxes}",
					"10 {@item training dart|DXMarksman|training darts}",
					"An {@item explorer's pack|phb}"
				]
			},
			"multiclassing": {
				"requirements": {
					"dex": 13,
					"int": 13
				},
				"proficienciesGained": {
					"armor": [
						"light"
					],
					"weapons": [
						"{@filter Weapons with the thrown property|items|category=basic|property=thrown}"
					]
				}
			},
			"casterProgression": "1/2",
			"spellcastingAbility": "int",
			"cantripProgression": [
				0,
				0,
				0,
				0,
				4,
				4,
				4,
				4,
				4,
				5,
				5,
				5,
				5,
				5,
				5,
				5,
				5,
				5,
				5,
				5
			],
			"spellsKnownProgression": [
				0,
				0,
				0,
				0,
				4,
				4,
				5,
				5,
				6,
				6,
				7,
				7,
				8,
				8,
				9,
				9,
				10,
				10,
				11,
				11
			],
			"classTableGroups": [
				{
					"colLabels": [
						"Technique Points",
						"Cantrips Known",
						"Spells Known"
					],
					"rows": [
						[
							2,
							0,
							0
						],
						[
							2,
							0,
							0
						],
						[
							3,
							0,
							0
						],
						[
							4,
							0,
							0
						],
						[
							5,
							4,
							4
						],
						[
							6,
							4,
							4
						],
						[
							7,
							4,
							5
						],
						[
							8,
							4,
							5
						],
						[
							9,
							4,
							6
						],
						[
							10,
							5,
							6
						],
						[
							11,
							5,
							7
						],
						[
							12,
							5,
							7
						],
						[
							13,
							5,
							8
						],
						[
							14,
							5,
							8
						],
						[
							15,
							5,
							9
						],
						[
							16,
							5,
							9
						],
						[
							17,
							5,
							10
						],
						[
							18,
							5,
							10
						],
						[
							19,
							5,
							11
						],
						[
							20,
							5,
							11
						]
					]
				},
				{
					"title": "Spell Slots per Spell Level",
					"colLabels": [
						"{@filter 1st|spells|level=1|class=marksman (DXM)}",
						"{@filter 2nd|spells|level=2|class=marksman (DXM)}",
						"{@filter 3rd|spells|level=3|class=marksman (DXM)}",
						"{@filter 4th|spells|level=4|class=marksman (DXM)}",
						"{@filter 5th|spells|level=5|class=marksman (DXM)}"
					],
					"rows": [
						[
							0,
							0,
							0,
							0,
							0
						],
						[
							0,
							0,
							0,
							0,
							0
						],
						[
							0,
							0,
							0,
							0,
							0
						],
						[
							0,
							0,
							0,
							0,
							0
						],
						[
							4,
							2,
							0,
							0,
							0
						],
						[
							4,
							2,
							0,
							0,
							0
						],
						[
							4,
							3,
							0,
							0,
							0
						],
						[
							4,
							3,
							0,
							0,
							0
						],
						[
							4,
							3,
							2,
							0,
							0
						],
						[
							4,
							3,
							2,
							0,
							0
						],
						[
							4,
							3,
							3,
							0,
							0
						],
						[
							4,
							3,
							3,
							0,
							0
						],
						[
							4,
							3,
							3,
							1,
							0
						],
						[
							4,
							3,
							3,
							1,
							0
						],
						[
							4,
							3,
							3,
							2,
							0
						],
						[
							4,
							3,
							3,
							2,
							0
						],
						[
							4,
							3,
							3,
							3,
							1
						],
						[
							4,
							3,
							3,
							3,
							1
						],
						[
							4,
							3,
							3,
							3,
							2
						],
						[
							4,
							3,
							3,
							3,
							2
						]
					]
				}
			],
			"classSpells": [
				"Chill Touch",
				"Create Bonfire|xge",
				"Frostbite|xge",
				"Infestation|xge",
				"Lightning Lure|tce",
				"Mind Sliver|tce",
				"Minor Illusion",
				"Prestidigitation",
				"Ray of Frost",
				"Sacred Flame",
				"sapping sting|egw",
				"thunderclap|xge",
				"toll the dead|xge",
				"word of radiance|xge",
				"Alarm",
				"Arms of Hadar",
				"beast bond|xge",
				"cause fear|xge",
				"Color Spray",
				"Dissonant Whispers",
				"earth tremor|xge",
				"Entangle",
				"Faerie Fire",
				"Fog Cloud",
				"Grease",
				"ice knife|xge",
				"Inflict Wounds",
				"magnify gravity|egw",
				"Ray of Sickness",
				"Silent Image",
				"Tasha's Hideous Laughter",
				"Thunderwave",
				"Witch Bolt",
				"Blindness/Deafness",
				"Calm Emotions",
				"Cloud of Daggers",
				"Crown of Madness",
				"Darkness",
				"earthbind|xge",
				"Enlarge/Reduce",
				"Flaming Sphere",
				"immovable object|egw",
				"Knock",
				"Levitate",
				"maximilian's earthen grasp|xge",
				"Melf's Acid Arrow",
				"mind spike|xge",
				"Phantasmal Force",
				"Ray of Enfeeblement",
				"Shatter",
				"Silence",
				"snilloc's snowball swarm|xge",
				"Spike Growth",
				"Suggestion",
				"Warding Bond",
				"Web",
				"Bestow Curse",
				"Daylight",
				"Dispel Magic",
				"enemies abound|xge",
				"erupting earth|xge",
				"Fear",
				"Fireball",
				"Hunger of Hadar",
				"Hypnotic Pattern",
				"Major Image",
				"pulse wave|egw",
				"Sleet Storm",
				"Stinking Cloud",
				"wall of sand|xge",
				"wall of water|xge",
				"Banishment",
				"Blight",
				"Confusion",
				"elemental bane|xge",
				"Evard's Black Tentacles",
				"Ice Storm",
				"Phantasmal Killer",
				"Polymorph",
				"sickening radiance|xge",
				"storm sphere|xge",
				"vitriolic sphere|xge",
				"Wall of Fire",
				"Cloudkill",
				"Cone of Cold",
				"Contagion",
				"dawn|xge",
				"Destructive Wave",
				"enervation|xge",
				"immolation|xge",
				"Insect Plague",
				"maelstrom|xge",
				"negative energy flood|xge",
				"synaptic static|xge",
				"Blade Barrier",
				"Chain Lightning",
				"Circle of Death",
				"Disintegrate",
				"Flesh to Stone",
				"mental prison|xge",
				"Otto's Irresistible Dance",
				"scatter|xge"
			],
			"classFeatures": [
				"Practiced Hands|Marksman|DXMarksman|1",
				"Techniques|Marksman|DXMarksman|1",
				"Fighting Style|Marksman|DXMarksman|2",
				{
					"classFeature": "Marksman Archetype|Marksman|DXMarksman|3",
					"gainSubclassFeature": true
				},
				"Ability Score Improvement|Marksman|DXMarksman|4",
				"Martial Versatility|Marksman|DXMarksman|4",
				"Velocity Spellcasting|Marksman|DXMarksman|5",
				"Spell Slinger|Marksman|DXMarksman|5",
				{
					"classFeature": "Marksman Archetype Feature|Marksman|DXMarksman|6",
					"gainSubclassFeature": true
				},
				"Enchanted Projectiles|Marksman|DXMarksman|7",
				"Magical Techniques|Marksman|DXMarksman|7",
				"Techniques|Marksman|DXMarksman|7",
				"Ability Score Improvement|Marksman|DXMarksman|8",
				"Cantrip Versatility|Marksman|DXMarksman|8",
				"Conjure Weapons|Marksman|DXMarksman|9",
				"Mystic Guidance|Marksman|DXMarksman|9",
				{
					"classFeature": "Marksman Archetype Feature|Marksman|DXMarksman|10",
					"gainSubclassFeature": true
				},
				"Extra Attack|Marksman|DXMarksman|11",
				"Techniques: Echo Sling|Marksman|DXMarksman|11",
				"Ability Score Improvement|Marksman|DXMarksman|12",
				"Velocity Downcasting (5th level)|Marksman|DXMarksman|13",
				"Mystic Predictions|Marksman|DXMarksman|14",
				"Techniques|Marksman|DXMarksman|14",
				{
					"classFeature": "Marksman Archetype Feature|Marksman|DXMarksman|15",
					"gainSubclassFeature": true
				},
				"Ability Score Improvement|Marksman|DXMarksman|16",
				"Velocity Downcasting (6th level)|Marksman|DXMarksman|18",
				"Ability Score Improvement|Marksman|DXMarksman|19",
				"Magical Synergy|Marksman|DXMarksman|20"
			]
		}
	],
	"classFeature": [
		{
			"name": "Practiced Hands",
			"source": "DXMarksman",
			"className": "Marksman",
			"classSource": "DXMarksman",
			"level": 1,
			"entries": [
				"你在投掷武器的艺术方面的技能是不容易竞争的。你花时间磨练你的技艺，使你发现了比使用蛮力更有效的投掷方法。任何具有投掷属性的武器，只要你能熟练掌握，也被认为具有技巧属性。"
			]
		},
		{
			"name": "Techniques",
			"source": "DXMarksman",
			"className": "Marksman",
			"classSource": "DXMarksman",
			"level": 1,
			"entries": [
				"你的训练和实践使你对你的投掷武器有了特殊的技术。你已经找到了方法，不仅仅是把飞镖嵌入你的敌人体内。",
				"从1级开始，你学习两个你选择的跟随技术。你在第7级和第14级时又获得一个。你对这些技巧的使用是由技巧点数来表示的。你的射手等级决定了你拥有的点数，如射手表的技巧点数一栏所示。你可以花费这些点数来使用你可以使用的各种技巧。当你完成短期或长期休息时，你会重新获得所有消耗的技巧点数。你每次攻击只能使用一种技巧，除非另有说明。",
				"你的一些技巧需要你的目标做一个蓄力动作来抵制技巧的效果。蓄力动作的计算方法如下。",
				{
					"type": "abilityDc",
					"name": "Technique",
					"attributes": [
						"dex"
					]
				},
				{
					"type": "refOptionalfeature",
					"optionalfeature": "Blunt Throw|DXMarksman"
				},
				{
					"type": "refOptionalfeature",
					"optionalfeature": "Calculated Throw|DXMarksman"
				},
				{
					"type": "refOptionalfeature",
					"optionalfeature": "Deflect Projectile|DXMarksman"
				},
				{
					"type": "refOptionalfeature",
					"optionalfeature": "Disarming Throw|DXMarksman"
				},
				{
					"type": "refOptionalfeature",
					"optionalfeature": "Disorienting Throw|DXMarksman"
				}
			]
		},
		{
			"name": "Fighting Style",
			"source": "DXMarksman",
			"className": "Marksman",
			"classSource": "DXMarksman",
			"level": 2,
			"entries": [
				"在2级时，你采用一种特定的战斗风格作为你的专长。从以下选项中选择一个。你不能多次选择相同的格斗风格，即使你可以再次选择。",
				{
					"type": "options",
					"entries": [
						{
							"type": "refOptionalfeature",
							"optionalfeature": "Archery|DXMarksman"
						},
						{
							"type": "refOptionalfeature",
							"optionalfeature": "Defense|DXMarksman"
						},
						{
							"type": "refOptionalfeature",
							"optionalfeature": "Interception|DXMarksman"
						},
						{
							"type": "refOptionalfeature",
							"optionalfeature": "Thrown Weapon Fighting|DXMarksman"
						}
					]
				}
			]
		},
		{
			"name": "Marksman Archetype",
			"source": "DXMarksman",
			"className": "Marksman",
			"classSource": "DXMarksman",
			"level": 3,
			"entries": [
				"在3级的时候，你选择一个你努力模仿的远程战斗风格的原型。你的选择在3级时授予特性，并在6级、10级和15级时再次授予特性。"
			]
		},
		{
			"name": "Ability Score Improvement",
			"source": "DXMarksman",
			"className": "Marksman",
			"classSource": "DXMarksman",
			"level": 4,
			"entries": [
				"当你达到四级时，你可以将你选择的一项能力得分提高2分，或者将你选择的两项能力得分提高1分。",
				"如果你的DM允许使用功法，你可以改用（%0%）。"
			]
		},
		{
			"name": "Martial Versatility",
			"source": "DXMarksman",
			"className": "Marksman",
			"classSource": "DXMarksman",
			"level": 4,
			"isClassFeatureVariant": true,
			"entries": [
				"每当你在这个等级中达到一个赋予能力分值提升功能的等级时，你可以做以下一件事，因为你转移了你投掷武器练习的重点。",
				{
					"type": "list",
					"items": [
						"将你知道的一个{@filter fighting style|optionalfeatures|feature type=fs:m}替换成射手可以使用的另一种战斗方式。",
						"用不同的技术取代你所知道的一个（%0%）。"
					]
				}
			]
		},
		{
			"name": "Velocity Spellcasting",
			"source": "DXMarksman",
			"className": "Marksman",
			"classSource": "DXMarksman",
			"level": 5,
			"entries": [
				"从5级开始，你获得了施放改良法术的能力。在你进一步研究你的武器装备的多功能性时，你了解到你可以将某些法术和效果注入它们。在静止状态下，这些法术几乎瞬间就会消散而不被激活。然而，你发现当投掷时，动量可以保持咒语的活性，刚好足够让它到达目标。",
				"由于你的法术研究的特殊性质，你不能以传统的方式施法。相反，你只能使用 \"法术吊索 \"功能来施展你的法术。",
				{
					"type": "entries",
					"name": "Cantrips",
					"entries": [
						"你从（%0%）中学习四个咒语。你在10级的时候会额外学习一个你选择的神射手咒语，如神射手表格中已知的咒语一栏所示。"
					]
				},
				{
					"type": "entries",
					"name": "Spell Slots",
					"entries": [
						"射手表显示了你有多少个法术槽来施放你的（%0%）一级及以上的法术。要施展其中一个法术，你必须消耗一个该法术等级或更高的法术槽。当你完成一个长时间的休息时，你会重新获得所有消耗的法术槽。",
						"例如，如果你知道一级法术（%0%），并且有一个一级和一个二级法术槽可用，你可以用任何一个槽来施放它。"
					]
				},
				{
					"type": "entries",
					"name": "Spells Known of 1st Level and Higher",
					"entries": [
						"你知道四个一级和两个二级的法术，你可以从射手法术列表中选择。",
						"射手表的 \"已知法术 \"一栏显示你何时学习更多你选择的射手法术。每个法术都必须是你有法术槽的级别。例如，当你在这个等级达到9级时，你可以学习一个2级或3级的新法术。",
						"此外，当你在这个类别中获得一个等级时，你可以从你所知道的神射手法术中选择一个，并用神射手法术列表中的另一个法术来代替，这个法术也必须是你有法术槽的等级。"
					]
				},
				{
					"type": "entries",
					"name": "Spellcasting Ability",
					"entries": [
						"智力是你的射手法术的法术能力，因为你通过对武器的试验和错误来学习你的法术。每当法术提到你的法术能力时，你就会使用你的智力。此外，在设定你所施展的神射手法术的蓄力DC时，你会使用你的智力修改器。",
						{
							"type": "abilityDc",
							"name": "Spell",
							"attributes": [
								"int"
							]
						}
					]
				},
				{
					"type": "entries",
					"name": "Spellcasting Focus",
					"entries": [
						"你可以使用一个{@item arcane focus|phb}作为你的射手法术的施法重点。"
					]
				}
			]
		},
		{
			"name": "Spell Slinger",
			"source": "DXMarksman",
			"className": "Marksman",
			"classSource": "DXMarksman",
			"level": 5,
			"entries": [
				"每回合一次，当你进行投掷武器攻击时，你可以施放一个法术并将其注入武器中。咒语在击中某物时激活，将被击中的物体或生物作为咒语的目标。如果该咒语影响到其范围内的多个生物，则投射物被视为该咒语的起源。如果法术的目标是一个圆锥体，那么武器移动的方向决定了圆锥体的方向。如果法术需要范围内的法术攻击，它反而会迫使目标做一个灵巧的蓄力动作，对成功没有影响。必要时，法术仍然需要集中注意力。",
				"如果一个法术的目标是一些生物，包括在较高等级时施放的法术，你可以使用该法术的同一实例进行多次攻击。在你使用 \"法术投掷者 \"特征施放法术并攻击一个生物后，你可以在你的回合中使用任何额外的攻击来增加另一个生物。你的目标生物数量只能达到法术的上限，而且不能用法术的同一实例针对同一生物。如果一个法术规定所选择的目标必须在一定的距离之内，比如慢速法术，你可以忽略这个距离。",
				"你只能将某些法术注入你的武器中，因此只能注入射手法术列表中的法术。如果你通过另一个等级的 \"施法 \"或 \"契约魔法 \"特征获得了施法的能力。你可以正常施展你的任何法术，如果该法术存在于该类别的法术列表中。"
			]
		},
		{
			"name": "Marksman Archetype Feature",
			"source": "DXMarksman",
			"className": "Marksman",
			"classSource": "DXMarksman",
			"level": 6,
			"entries": [
				"在6级时，你获得一个由你的神枪手原型赋予的功能。"
			]
		},
		{
			"name": "Enchanted Projectiles",
			"source": "DXMarksman",
			"className": "Marksman",
			"classSource": "DXMarksman",
			"level": 7,
			"entries": [
				"在第7级时，你能够开始弥合你的世俗武器和你新发现的魔法之间的差距。你用 \"法术投掷者 \"或 \"魔法武器 \"功能进行的任何攻击都被认为是魔法的，以克服对非魔法攻击和伤害的抵抗和免疫。"
			]
		},
		{
			"name": "Magical Techniques",
			"source": "DXMarksman",
			"className": "Marksman",
			"classSource": "DXMarksman",
			"level": 7,
			"entries": [
				"从第七级开始，你新发现了与魔法互动的新方法，并能学习一些利用魔法的新技巧。",
				"当你选择技术时，你可以获得以下补充选项。",
				{
					"type": "refOptionalfeature",
					"optionalfeature": "Deflect Magic|DXMarksman"
				},
				{
					"type": "refOptionalfeature",
					"optionalfeature": "Forceful Spell|DXMarksman"
				},
				{
					"type": "refOptionalfeature",
					"optionalfeature": "Offset Magic|DXMarksman"
				}
			]
		},
		{
			"name": "Techniques",
			"source": "DXMarksman",
			"className": "Marksman",
			"classSource": "DXMarksman",
			"level": 7,
			"entries": [
				"在第7级时，你将学习一个额外的技术。"
			]
		},
		{
			"name": "Ability Score Improvement",
			"source": "DXMarksman",
			"className": "Marksman",
			"classSource": "DXMarksman",
			"level": 8,
			"entries": [
				"当你达到8级时，你可以将你选择的一项能力得分提高2分，或者将你选择的两项能力得分提高1分。",
				"如果你的DM允许使用功法，你可以改用（%0%）。"
			]
		},
		{
			"name": "Cantrip Versatility",
			"source": "DXMarksman",
			"className": "Marksman",
			"classSource": "DXMarksman",
			"level": 8,
			"isClassFeatureVariant": true,
			"entries": [
				"每当你在这个等级中达到一个赋予能力分数提升功能的等级时，你可以用另一个来自（%0%）的咒语来替换你从这个等级的速度法术功能中学到的一个咒语。"
			]
		},
		{
			"name": "Conjure Weapons",
			"source": "DXMarksman",
			"className": "Marksman",
			"classSource": "DXMarksman",
			"level": 9,
			"entries": [
				"9级时，你的法术研究为你展示了一种凭空变出武器的方法。你现在可以用一只空手进行投掷武器的攻击，当你模仿投掷武器的手势时。当武器离开你的手时，一个闪亮的、半透明的武器会出现，就像你扔出去的一样。",
				"该武器的形式是任何具有投掷属性的简单或武术武器。该武器造成{@dice 1d10}或0(你选择)的打击、穿刺或砍击伤害(你选择)，并具有精巧、轻盈和投掷(范围30/120)属性。一旦击中目标，它就会破碎成无害的光斑，这些光斑会继续保持势头，穿过生物和物体，几秒钟后就会消失。",
				"你可以将此功能与 \"咒语投掷者 \"功能同时使用。"
			]
		},
		{
			"name": "Mystic Guidance",
			"source": "DXMarksman",
			"className": "Marksman",
			"classSource": "DXMarksman",
			"level": 9,
			"entries": [
				"从9级开始，你的魔法开始改变你投掷的轨迹，有时是以不可能的方式。你能够击中通常情况下几乎不可能击中的目标。每当你进行投掷武器的攻击时，你会忽略一半的掩护和四分之三的掩护。"
			]
		},
		{
			"name": "Marksman Archetype Feature",
			"source": "DXMarksman",
			"className": "Marksman",
			"classSource": "DXMarksman",
			"level": 10,
			"entries": [
				"在10级时，你获得一个由你的神枪手原型授予的功能。"
			]
		},
		{
			"name": "Extra Attack",
			"source": "DXMarksman",
			"className": "Marksman",
			"classSource": "DXMarksman",
			"level": 11,
			"entries": [
				"从11级开始，每当你在你的回合中采取{@action Attack}行动时，你可以攻击两次，而不是一次。"
			]
		},
		{
			"name": "Techniques: Echo Sling",
			"source": "DXMarksman",
			"className": "Marksman",
			"classSource": "DXMarksman",
			"level": 11,
			"entries": [
				"在11级时，你能够一次注入更多的魔法，因此可以复制你的法术效果。你学会了以下技术。",
				{
					"type": "refOptionalfeature",
					"optionalfeature": "Echo Sling|DXMarksman"
				}
			]
		},
		{
			"name": "Ability Score Improvement",
			"source": "DXMarksman",
			"className": "Marksman",
			"classSource": "DXMarksman",
			"level": 12,
			"entries": [
				"当你达到12级时，你可以将你选择的一个能力得分提高2分，或者将你选择的两个能力得分提高1分。",
				"如果你的DM允许使用功法，你可以改用（%0%）。"
			]
		},
		{
			"name": "Velocity Downcasting (5th level)",
			"source": "DXMarksman",
			"className": "Marksman",
			"classSource": "DXMarksman",
			"level": 13,
			"entries": [
				"从13级开始，你发现了一种方法，在这种方法中，投掷武器的速度更快，可以使你更有效地施放某些法术。你学会了一个（%0%）。它对你来说算作一个神射手法术，但它不计入你所会的法术数量。你可以用一个四级法术槽来施展这个法术。",
				"此外，挑选一个你已经知道的（%0%），你可以分别使用一级或二级的法术槽来施展这个法术。",
				"你只能在较低的等级下使用 \"法术投掷 \"功能来施放这些法术。这些法术也保留了它们的原始等级，以便于施展诸如（%0%）的法术。",
				"在18级时，你学会了一个额外的法术，并且可以施放它和另一个较低等级的法术。你学会了一个6级的法术，可以用5级的法术槽来施放它。你也可以选择一个你已经知道的4级或5级法术，分别用3级或4级的法术槽来施放。"
			]
		},
		{
			"name": "Mystic Predictions",
			"source": "DXMarksman",
			"className": "Marksman",
			"classSource": "DXMarksman",
			"level": 14,
			"entries": [
				"在14级时，你能够进一步信任指导你投掷的魔法，让你击中你视线之外的目标。每当一个你能看到的生物进入完全的掩体或变得不为你所见，你就知道它的位置，直到它从你最后看到它的地方移动到30英尺以外。当你以这种方式知道他们的位置时，该生物不能从掩护中获益。针对这种生物的攻击会以最短的距离到达目标，而不会撞到障碍物。然而，如果有一个障碍物，例如一扇门，完全阻挡了路径，你就不能以这种方式瞄准一个生物。"
			]
		},
		{
			"name": "Techniques",
			"source": "DXMarksman",
			"className": "Marksman",
			"classSource": "DXMarksman",
			"level": 14,
			"entries": [
				"在14级时，你将学习一个额外的技术。"
			]
		},
		{
			"name": "Marksman Archetype Feature",
			"source": "DXMarksman",
			"className": "Marksman",
			"classSource": "DXMarksman",
			"level": 15,
			"entries": [
				"在15级时，你获得一个由你的神枪手原型授予的功能。"
			]
		},
		{
			"name": "Ability Score Improvement",
			"source": "DXMarksman",
			"className": "Marksman",
			"classSource": "DXMarksman",
			"level": 16,
			"entries": [
				"当你达到16级时，你可以将你选择的一项能力得分提高2分，或者将你选择的两项能力得分提高1分。",
				"如果你的DM允许使用功法，你可以改用（%0%）。"
			]
		},
		{
			"name": "Velocity Downcasting (6th level)",
			"source": "DXMarksman",
			"className": "Marksman",
			"classSource": "DXMarksman",
			"level": 18,
			"entries": [
				"你学会了一个（%0%）。它对你来说算作一个神射手法术，但它不计入你所知道的法术数量。你可以用一个5级的法术槽来施展这个法术。",
				"此外，挑选一个你已经知道的（%0%），你可以分别使用4级或5级的法术槽来施展这个法术。",
				"你只能在较低的等级下使用 \"法术投掷 \"功能来施放这些法术。这些法术也保留了它们的原始等级，以便于施展诸如（%0%）的法术。"
			]
		},
		{
			"name": "Ability Score Improvement",
			"source": "DXMarksman",
			"className": "Marksman",
			"classSource": "DXMarksman",
			"level": 19,
			"entries": [
				"当你达到19级时，你可以将你选择的一项能力得分提高2分，或者将你选择的两项能力得分提高1分。",
				"如果你的DM允许使用功法，你可以改用（%0%）。"
			]
		},
		{
			"name": "Magical Synergy",
			"source": "DXMarksman",
			"className": "Marksman",
			"classSource": "DXMarksman",
			"level": 20,
			"entries": [
				"在20级时，你已经将你的武器和魔法完全编织成一个整体，因此能够利用你投掷的动力为你的法术提供能量。你获得了相当于你的灵巧修饰的法术防御DC的奖励。"
			]
		}
	],
	"subclass": [
		{
			"name": "Tactician",
			"subclassFeatures": [
				"Tactician|Marksman|DXMarksman|Tactician|DXMarksman|3",
				"Tactician's Spellbook|Marksman|DXMarksman|Tactician|DXMarksman|6",
				"Ricochet|Marksman|DXMarksman|Tactician|DXMarksman|6",
				"Own the Battlefield|Marksman|DXMarksman|Tactician|DXMarksman|10",
				"Selective Interference|Marksman|DXMarksman|Tactician|DXMarksman|15"
			],
			"source": "DXMarksman",
			"shortName": "Tactician",
			"className": "Marksman",
			"classSource": "DXMarksman",
			"subclassSpells": [
				"Command",
				"Web",
				"Haste",
				"Slow",
				"Confusion",
				"Death Ward",
				"Circle of Power",
				"Antilife Shell"
			]
		},
		{
			"name": "Arsonist",
			"subclassFeatures": [
				"Arsonist|Marksman|DXMarksman|Arsonist|DXMarksman|3",
				"Techniques: Power Over Accuracy|Marksman|DXMarksman|Arsonist|DXMarksman|3",
				"Scorched Experiences|Marksman|DXMarksman|Arsonist|DXMarksman|3",
				"Arsonist's Cookbook|Marksman|DXMarksman|Arsonist|DXMarksman|6",
				"Incendiary Magic|Marksman|DXMarksman|Arsonist|DXMarksman|6",
				"Explosive Shot|Marksman|DXMarksman|Arsonist|DXMarksman|10",
				"Hellish Inferno|Marksman|DXMarksman|Arsonist|DXMarksman|15"
			],
			"source": "DXMarksman",
			"shortName": "Arsonist",
			"className": "Marksman",
			"classSource": "DXMarksman",
			"subclassSpells": [
				"Burning Hands",
				"Heat Metal",
				"Fireball",
				"Hunger of Hadar",
				"elemental bane|xge",
				"Wall of Fire",
				"Flame Strike",
				"immolation|xge"
			]
		}
	],
	"subclassFeature": [
		{
			"name": "Tactician",
			"source": "DXMarksman",
			"className": "Marksman",
			"classSource": "DXMarksman",
			"subclassShortName": "Tactician",
			"subclassSource": "DXMarksman",
			"level": 3,
			"entries": [
				"遵循战术家之路的射手是重视战略而非蛮力的人。与其冒着生命危险将对手打得落花流水，不如利用其他生物的力量来对付自己，这才是更清晰的道路。战场就像一场国际象棋比赛，你在上面监督棋盘。",
				{
					"type": "refSubclassFeature",
					"subclassFeature": "Techniques: Disrupt Mobility|Marksman|DXMarksman|Tactician|DXMarksman|3"
				},
				{
					"type": "refSubclassFeature",
					"subclassFeature": "Spacial Awareness|Marksman|DXMarksman|Tactician|DXMarksman|3"
				}
			]
		},
		{
			"name": "Techniques: Disrupt Mobility",
			"source": "DXMarksman",
			"className": "Marksman",
			"classSource": "DXMarksman",
			"subclassShortName": "Tactician",
			"subclassSource": "DXMarksman",
			"level": 3,
			"header": 1,
			"entries": [
				"在3级时，你开始专门研究你的战斗方法，并且能够绊倒那些试图在你周围重新定位的人。你学会了以下技巧。",
				{
					"type": "refOptionalfeature",
					"optionalfeature": "Disrupt Mobility|DXMarksman"
				}
			]
		},
		{
			"name": "Spacial Awareness",
			"source": "DXMarksman",
			"className": "Marksman",
			"classSource": "DXMarksman",
			"subclassShortName": "Tactician",
			"subclassSource": "DXMarksman",
			"level": 3,
			"header": 1,
			"entries": [
				"从3级开始，你对战场的掌控能力开始变得明显。靠近你的敌人不再是你攻击的障碍，而敌人会发现你更难被抓住。在敌对生物的5英尺范围内，不会对你的投掷攻击卷施加不利因素。",
				"此外，在你的回合中，如果你在一个敌人的5英尺范围内，你可以使用你的反应来移动10英尺。这种移动不会激起机会攻击。你可以这样做的次数等于你的灵巧修饰值，并且在你完成长时间休息时恢复所有消耗的使用。"
			]
		},
		{
			"name": "Tactician's Spellbook",
			"source": "DXMarksman",
			"className": "Marksman",
			"classSource": "DXMarksman",
			"subclassShortName": "Tactician",
			"subclassSource": "DXMarksman",
			"level": 6,
			"header": 2,
			"entries": [
				"当你在这个等级中达到一定级别时，你会学习额外的法术，如战术师法术表所示。这些法术中的每一个都算作你的一个神射手法术，但它不计入你所知道的神射手法术的数量。",
				{
					"type": "table",
					"caption": "Tactician Spells",
					"colLabels": [
						"Marksman Level",
						"Spells"
					],
					"colStyles": [
						"col-2 text-center",
						"col-10"
					],
					"rows": [
						[
							"6th",
							"{@spell command}, {@spell web}"
						],
						[
							"9th",
							"{@spell haste}, {@spell slow}"
						],
						[
							"13th",
							"{@spell confusion}, {@spell death ward}"
						],
						[
							"17th",
							"{@spell circle of power}, {@spell antilife shell}"
						]
					]
				}
			]
		},
		{
			"name": "Ricochet",
			"source": "DXMarksman",
			"className": "Marksman",
			"classSource": "DXMarksman",
			"subclassShortName": "Tactician",
			"subclassSource": "DXMarksman",
			"level": 6,
			"header": 2,
			"entries": [
				"从第6级开始，对你来说，做出类似弹跳的投掷动作变得轻而易举。每回合一次，当你用投掷武器的攻击击中一个生物时，你可以让它从该生物身上弹起并击中另一个目标。第二个目标必须在武器与生物的正常范围内。如果新的目标是一个生物，他们必须对你的技术救赎DC做一个灵巧的救赎，否则就会被武器击中。",
				"这次攻击可以在适当的法术中增加一个目标，就像你进行多次攻击一样，如法术投掷者特征中所列。",
				"例如，如果你在施放{@spell cause fear|XGE}法术时用手斧击中一个生物，第一个生物就是该法术的第一个目标。然后你可以将武器弹射到20英尺（正常手斧范围）内的另一个生物身上，击中后造成正常的武器伤害，并将该生物作为该法术的第二个目标。"
			]
		},
		{
			"name": "Own the Battlefield",
			"source": "DXMarksman",
			"className": "Marksman",
			"classSource": "DXMarksman",
			"subclassShortName": "Tactician",
			"subclassSource": "DXMarksman",
			"level": 10,
			"header": 2,
			"entries": [
				"在10级时，你能够更好地利用旨在塑造对你有利的战场的法术。每当你施展一个不直接造成伤害的法术，同时影响到一个圆形或立方体时，你可以将该区域的大小加倍。当生物进入法术区域或在那里开始其回合时，对其造成伤害的法术，如（%0%），也会受到此特性的影响。",
				"例如，{@spell darkness}法术会影响一个30英尺半径的球体，而{@spell web}法术会影响一个40英尺的立方体。"
			]
		},
		{
			"name": "Selective Interference",
			"source": "DXMarksman",
			"className": "Marksman",
			"classSource": "DXMarksman",
			"subclassShortName": "Tactician",
			"subclassSource": "DXMarksman",
			"level": 15,
			"header": 2,
			"entries": [
				"在15级时，你对战场的指挥能力变得如此强大，以至于你能够改变你的法术，以不妨碍你的盟友。每当你施展法术时，你可以定义与你智力修饰值相等数量的生物（最小为1）。被选中的生物对该法术的所有效果都免疫，除了伤害。",
				"例如，{@spell erupting earth|XGE}的法术仍然会对所选择的生物造成伤害，但不会成为它们的困难地形。"
			]
		},
		{
			"name": "Arsonist",
			"source": "DXMarksman",
			"className": "Marksman",
			"classSource": "DXMarksman",
			"subclassShortName": "Arsonist",
			"subclassSource": "DXMarksman",
			"level": 3,
			"entries": [
				"纵火犯的专长是火，正如其名字所示。但并不是每个纵火犯都把火用到了疯狂的地步，这可能只是因为火是他们最亲近的元素而已。无论是哪种情况，在与纵火犯的战斗中毫发无损地逃脱是一个挑战，大多数人都无法成功。",
				{
					"type": "refSubclassFeature",
					"subclassFeature": "Techniques: Power Over Accuracy|Marksman|DXMarksman|Arsonist|DXMarksman|3"
				},
				{
					"type": "refSubclassFeature",
					"subclassFeature": "Scorched Experiences|Marksman|DXMarksman|Arsonist|DXMarksman|3"
				}
			]
		},
		{
			"name": "Techniques: Power Over Accuracy",
			"source": "DXMarksman",
			"className": "Marksman",
			"classSource": "DXMarksman",
			"subclassShortName": "Arsonist",
			"subclassSource": "DXMarksman",
			"level": 3,
			"header": 1,
			"entries": [
				"在3级时，你开始专门研究你的战斗方法，并能以更大的力量投掷你的武器，但要牺牲你的准确性。你学会了以下技术。",
				{
					"type": "refOptionalfeature",
					"optionalfeature": "Power Over Accuracy|DXMarksman"
				}
			]
		},
		{
			"name": "Scorched Experiences",
			"source": "DXMarksman",
			"className": "Marksman",
			"classSource": "DXMarksman",
			"subclassShortName": "Arsonist",
			"subclassSource": "DXMarksman",
			"level": 3,
			"header": 1,
			"entries": [
				"由于你与火打交道，你已经建立了对它的天然抵抗力，因为你的身体从它的错误中学习。你获得对火灾伤害的抵抗力。"
			]
		},
		{
			"name": "Arsonist's Cookbook",
			"source": "DXMarksman",
			"className": "Marksman",
			"classSource": "DXMarksman",
			"subclassShortName": "Arsonist",
			"subclassSource": "DXMarksman",
			"level": 6,
			"header": 2,
			"entries": [
				"当你在这个等级中达到一定级别时，你会学习额外的法术，如纵火犯法术表所示。这些法术中的每一个都算作你的一个神射手法术，但它不计入你所知道的神射手法术的数量。",
				{
					"type": "table",
					"caption": "Aronist Spells",
					"colLabels": [
						"Marksman Level",
						"Spells"
					],
					"colStyles": [
						"col-2 text-center",
						"col-10"
					],
					"rows": [
						[
							"6th",
							"{@spell burning hands}, {@spell heat metal}"
						],
						[
							"9th",
							"{@spell fireball}, {@spell hunger of hadar}"
						],
						[
							"13th",
							"{@spell elemental bane|XGE}(仅限火灾), {@spell wall of fire}"
						],
						[
							"17th",
							"{@spell flame strike}, {@spell immolation|XGE}"
						]
					]
				}
			]
		},
		{
			"name": "Incendiary Magic",
			"source": "DXMarksman",
			"className": "Marksman",
			"classSource": "DXMarksman",
			"subclassShortName": "Arsonist",
			"subclassSource": "DXMarksman",
			"level": 6,
			"header": 2,
			"entries": [
				"从6级开始，你对火的掌握开始塑造你的其他魔法。每当你施放一个造成伤害的法术时，你可以选择将伤害类型改为火。",
				"此外，如果一个攻击的原始伤害类型是火，它就会烧得更旺。对火系伤害免疫的生物对你的攻击有抵抗力，而有抵抗力的生物会受到普通伤害。在15级时，生物对你的任何攻击的火系伤害都没有抵抗力或免疫力。"
			]
		},
		{
			"name": "Explosive Shot",
			"source": "DXMarksman",
			"className": "Marksman",
			"classSource": "DXMarksman",
			"subclassShortName": "Arsonist",
			"subclassSource": "DXMarksman",
			"level": 10,
			"header": 2,
			"entries": [
				"从10级开始，你可以故意在你施放的法术中造成不稳定，在命中时引起爆炸。每当你使用法术投掷者功能进行投掷武器攻击时，你也可以选择使法术不稳定。一旦武器到达目的地或撞击到固体表面，它就会爆炸。在武器5英尺范围内的每个生物必须对你的法术救赎DC做一个灵巧的救赎。救赎失败时，生物会受到{@dice 2d6}的火焰伤害，成功时则受到一半的伤害。用于此功能的非魔法武器在爆炸时被摧毁。",
				"你可以使用这个功能的次数等于你的智力修饰值，并且在短期或长期休息后恢复所有消耗的使用。"
			]
		},
		{
			"name": "Hellish Inferno",
			"source": "DXMarksman",
			"className": "Marksman",
			"classSource": "DXMarksman",
			"subclassShortName": "Arsonist",
			"subclassSource": "DXMarksman",
			"level": 15,
			"header": 2,
			"entries": [
				"在15级时，你的火系魔法没有界限，能够吞噬其路径上的任何东西。每当你施展的法术造成火系伤害时，你可以额外掷出一个伤害模子。",
				"此外，对于你所施放的任何造成火焰伤害的法术，你的法术救赎DC获得+2的奖励。"
			]
		}
	],
	"feat": [
		{
			"name": "Spell Slinger Initiate",
			"source": "DXMarksman",
			"prerequisite": [
				{
					"otherSummary": {
						"entry": "咒语，契约魔法，或速度咒语功能",
						"entrySummary": "Spellcasting"
					}
				}
			],
			"entries": [
				"你从{@filter marksman spell list|spells|class=marksman (DXM)}中学习两个你选择的咒语。",
				"你对这些法术的施法能力是智力。如果该法术也在你拥有法术或契约魔法特性的类别的法术列表中，你可以使用该类别的法术能力来代替。",
				"此外，你可以从神射手法术列表中施放任何你知道的法术，就像你拥有神射手等级的（%0%）特征一样。"
			]
		}
	],
	"optionalfeature": [
		{
			"name": "Blunt Throw",
			"source": "DXMarksman",
			"featureType": [
				"TQ:M"
			],
			"entries": [
				"当你用投掷武器攻击击中一个生物时，你可以花费1个技巧点来尝试推搡一个大型或小型生物。你可以使用你的技巧救赎DC，而不是进行力量（运动）检查来进行推搡。",
				"你可以花费2个技巧点来尝试推开一个更大的生物。"
			]
		},
		{
			"name": "Calculated Throw",
			"source": "DXMarksman",
			"featureType": [
				"TQ:M"
			],
			"entries": [
				"当你在你的回合中进行投掷武器攻击时，你可以花费1个技巧点来排列一个更远的目标。你的攻击范围会增加一倍。",
				"即使你在攻击过程中已经使用了不同的技法，你也可以使用计算投掷。"
			]
		},
		{
			"name": "Deflect Projectile",
			"source": "DXMarksman",
			"featureType": [
				"TQ:M"
			],
			"entries": [
				"当你能看到的生物用远程武器攻击你60英尺范围内的目标时，你可以尝试偏移弹丸。作为反应，你可以花费2个技巧点，对投射物进行一次投掷武器攻击。攻击力等于原始攻击卷。一旦命中，你就能成功地偏转来袭的攻击。",
				"作为同一反应的一部分，你可以再花2个技巧点来尝试将射出的子弹转向原目标5英尺内的另一个生物。该生物必须做一个灵巧的拯救动作。如果拯救失败，该生物将被原来的弹丸击中。"
			]
		},
		{
			"name": "Disarming Throw",
			"source": "DXMarksman",
			"featureType": [
				"TQ:M"
			],
			"entries": [
				"当你用投掷武器攻击击中一个生物时，你可以花费2个技巧点来尝试解除目标的武装，迫使它放下一件你选择的它所持有的物品。目标必须做一个力量救赎动作。如果救赎失败，它将丢掉你选择的物品。该物品会落在它的脚下。"
			]
		},
		{
			"name": "Disorienting Throw",
			"source": "DXMarksman",
			"featureType": [
				"TQ:M"
			],
			"entries": [
				"当你用投掷武器攻击击中一个生物时，你可以花费2个技巧点来试图使目标迷失方向。目标必须做一个智慧救赎动作。如果救赎失败，该生物将受到迷惑法术的影响，直到其下一回合结束。",
				"蓄力成功的目标在接下来的24小时内对这个技巧有优势。"
			]
		},
		{
			"name": "Deflect Magic",
			"source": "DXMarksman",
			"featureType": [
				"TQ:M"
			],
			"prerequisite": [
				{
					"level": {
						"level": 7,
						"class": {
							"name": "Marksman",
							"source": "DXMarksman",
							"visible": true
						}
					}
				}
			],
			"entries": [
				"当一个你能看到的生物用远程法术攻击击中你60英尺范围内的单个生物时，你可以尝试在飞行过程中驱散该魔法。作为反应，你可以花费2个技巧点，对该法术进行一次投掷武器攻击。攻击力等于原始攻击卷。一旦命中，你就会成功地偏离传来的咒语。"
			]
		},
		{
			"name": "Forceful Spell",
			"source": "DXMarksman",
			"featureType": [
				"TQ:M"
			],
			"prerequisite": [
				{
					"level": {
						"level": 7,
						"class": {
							"name": "Marksman",
							"source": "DXMarksman",
							"visible": true
						}
					}
				}
			],
			"entries": [
				"当你使用 \"法术投掷者 \"功能施放一个造成伤害的法术时，你可以花费1个技巧点将该法术的伤害类型改为强制伤害。",
				"即使你在攻击过程中已经使用了不同的技法，你也可以使用强力咒语。"
			]
		},
		{
			"name": "Offset Magic",
			"source": "DXMarksman",
			"featureType": [
				"TQ:M"
			],
			"prerequisite": [
				{
					"level": {
						"level": 7,
						"class": {
							"name": "Marksman",
							"source": "DXMarksman",
							"visible": true
						}
					}
				}
			],
			"entries": [
				"当你用投掷武器攻击击中一个生物时，你可以使咒语从目标处跃起一段距离。你可以花费2个技巧点将法术目标（或起源）改变为原始目标10英尺内的生物（或地点）。",
				"即使你在攻击过程中已经使用了不同的技术，你也可以使用偏移魔法。"
			]
		},
		{
			"name": "Echo Sling",
			"source": "DXMarksman",
			"featureType": [
				"TQ:M"
			],
			"prerequisite": [
				{
					"level": {
						"level": 11,
						"class": {
							"name": "Marksman",
							"source": "DXMarksman",
							"visible": true
						}
					}
				}
			],
			"entries": [
				"在你使用施法者功能施法后，如果你能够进行另一次攻击，你可以花费3个技巧点再次使用它。施放的法术必须与第一次攻击相同，但不一定要有相同的目标。一级或以上的法术需要第二个法术槽。",
				"如果一个法术需要集中注意力，你仍然可以用这个技巧施放两次。然而，这两次施法都算作是同一个浓度。",
				"你不能同时使用这个技巧和并为第一个法术实例添加一个目标。在使用这个技巧时，第一个法术不能有生物使用额外的攻击加入其中。",
				"你每回合只能使用一次回音吊带技术。"
			]
		},
		{
			"name": "Disrupt Mobility",
			"source": "DXMarksman",
			"featureType": [
				"TQ:M"
			],
			"prerequisite": [
				{
					"level": {
						"level": 3,
						"class": {
							"name": "Marksman",
							"source": "DXMarksman"
						},
						"subclass": {
							"name": "Tactician",
							"visible": true,
							"source": "DXMarksman"
						}
					}
				}
			],
			"entries": [
				"当你能看到的30英尺范围内的生物在地上移动时，你可以尝试绊倒他们。作为反应，你可以花费2个技巧点将武器扔到他们面前的地上。该生物必须做一个灵巧的蓄力动作。如果救赎失败，该生物就会倒下，而且它的速度会降低10英尺，直到你下一个回合结束。成功时，该生物不会跌倒，但在躲避障碍物时仍会降低速度。",
				"没有挑起机会攻击的生物会自动成功地进行拯救动作。"
			]
		},
		{
			"name": "Power Over Accuracy",
			"source": "DXMarksman",
			"featureType": [
				"TQ:M"
			],
			"prerequisite": [
				{
					"level": {
						"level": 3,
						"class": {
							"name": "Marksman",
							"source": "DXMarksman"
						},
						"subclass": {
							"name": "Arsonist",
							"visible": true,
							"source": "DXMarksman"
						}
					}
				}
			],
			"entries": [
				"每当你进行投掷武器的攻击时，你可以花费1个技巧点，并在攻击卷的惩罚为-3的情况下进行攻击。一旦命中，你的武器会造成与你的熟练度加成相等的额外伤害。在第七级时，额外伤害的类型变为火。"
			]
		},
		{
			"name": "Archery",
			"source": "DXMarksman",
			"featureType": [
				"FS:M"
			],
			"entries": [
				"你在使用远程武器进行攻击时获得+2的奖励。"
			]
		},
		{
			"name": "Defense",
			"source": "DXMarksman",
			"featureType": [
				"FS:M"
			],
			"entries": [
				"当你穿着盔甲时，你会获得一个+1的交流奖励。"
			]
		},
		{
			"name": "Interception",
			"source": "DXMarksman",
			"featureType": [
				"FS:M"
			],
			"entries": [
				"当一个你能看到的生物用攻击击中你周围5英尺内的目标（除你之外）时，你可以使用你的反应来减少目标受到的伤害（%0%）+你的熟练度加成（最低为0伤害）。你必须挥舞着{@item shield|phb}或简单武器或武术武器才能使用这个反应。"
			]
		},
		{
			"name": "Thrown Weapon Fighting",
			"source": "DXMarksman",
			"featureType": [
				"FS:M"
			],
			"entries": [
				"你可以拔出具有投掷属性的武器，作为你用该武器进行攻击的一部分。",
				"此外，当你使用投掷武器进行远程攻击时，你会获得一个+2的伤害卷奖励。"
			]
		},
		{
			"name": "Thrown Weapon Techniques",
			"source": "DXMarksman",
			"featureType": [
				"FS:F",
				"FS:R"
			],
			"entries": [
				"你在1级时从神射手等级可用的技能中选择一个（%0%）进行学习。如果你使用的技巧需要你的目标进行蓄力以抵抗该技巧的效果，蓄力DC等于8+你的熟练度加成+你的灵巧修正值。",
				"你获得3个技巧点用于技巧（这些技巧点会加到你从其他来源获得的任何技巧点上）。当你完成长时间的休息时，你会重新获得所有花费的技巧点数。"
			]
		}
	],
	"item": [
		{
			"name": "Echoing Training Dart",
			"source": "DXMarksman",
			"type": "R",
			"rarity": "varies",
			"weight": 0.25,
			"weaponCategory": "simple",
			"bonusWeaponAttack": "varies",
			"property": [
				"F",
				"S",
				"T"
			],
			"range": "20/60",
			"fluff": {
				"images": [
					{
						"type": "image",
						"href": {
							"type": "external",
							"url": "https://i.imgur.com/xngp1Cd.png"
						}
					}
				]
			},
			"entries": [
				"一个回声武器看起来和它的世俗对应物一模一样，除了在它的某个地方刻有一个小符文。该武器被灌注了射手法术列表中的一个法术。",
				"你在使用该魔法武器进行攻击时有一个额外的奖励。该奖励在下面确定。用此武器攻击后，它立即消失并重新出现在你手中。",
				"这把武器有4次充电。在持有它的时候，你可以消耗它的一个电荷来进行攻击，就像你使用神射手级别的法术投掷者功能一样。你只能施放已经灌注在武器中的法术。如果你在那一回合能够进行另一次攻击，你可以再花2个电荷来进行攻击，就像你使用神射手级别的回音吊带技术一样。你不需要花费技巧点数来使用这个技巧。该武器每天在黎明时分重新获得1d4+1个已消耗的能量。",
				{
					"type": "table",
					"caption": "Echoing Weapon",
					"colLabels": [
						"Spell Level",
						"Rarity",
						"Bonus"
					],
					"colStyles": [
						"col-3 text-center",
						"col-3 text-center",
						"col-3 text-center"
					],
					"rows": [
						[
							"坎特里普",
							"不常见",
							"\u2014"
						],
						[
							"1st",
							"不常见",
							"+1"
						],
						[
							"2nd",
							"Rare",
							"+2"
						],
						[
							"3rd",
							"Rare",
							"+2"
						],
						[
							"4th",
							"非常罕见",
							"+3"
						],
						[
							"5th",
							"非常罕见",
							"+3"
						],
						[
							"6th",
							"传说中的",
							"+3"
						]
					]
				}
			],
			"tier": "major",
			"reqAttune": "by a spellcaster",
			"hasFluffImages": true
		}
	],
	"baseitem": [
		{
			"name": "Training Dart",
			"source": "DXMarksman",
			"page": 0,
			"type": "R",
			"rarity": "none",
			"weight": 0.25,
			"value": 2,
			"weaponCategory": "simple",
			"property": [
				"F",
				"S",
				"T"
			],
			"range": "20/60",
			"weapon": true,
			"fluff": {
				"entries": [
					{
						"type": "entries",
						"entries": [
							"训练用的飞镖是由布包裹的动物骨头组成的。它的顶端有一块非常小的皮革，表面有弱的粘性。它可以粘在大多数表面上，但可以很容易地被移除。使用几次后，需要用水泼洒粘合剂以保持粘合剂的作用。",
							"训练用的飞镖是造成分心的理想选择，或者对于希望在不伤害目标的情况下施展法术的射手来说。"
						]
					}
				]
			}
		}
	],
	"magicvariant": [
		{
			"name": "Echoing Weapon",
			"type": "GV",
			"requires": [
				{
					"weapon": true
				}
			],
			"excludes": {
				"firearm": true,
				"name": [
					"Battleaxe",
					"Blowgun",
					"Club",
					"Double-Bladed Scimitar",
					"Flail",
					"Glaive",
					"Greataxe",
					"Greatclub",
					"Greatsword",
					"Halberd",
					"Hand Crossbow",
					"Heavy Crossbow",
					"Hooked Shortspear",
					"Lance",
					"Light Crossbow",
					"Light Repeating Crossbow",
					"Longbow",
					"Longsword",
					"Mace",
					"Maul",
					"Morningstar",
					"Net",
					"Pike",
					"Quarterstaff",
					"Rapier",
					"Scimitar",
					"Shortbow",
					"Shortsword",
					"Sickle",
					"Sling",
					"War Pick",
					"Warhammer",
					"Whip",
					"Training Dart"
				]
			},
			"inherits": {
				"namePrefix": "Echoing ",
				"source": "DXMarksman",
				"page": 0,
				"tier": "major",
				"rarity": "unknown (magic)",
				"bonusWeapon": "varies",
				"reqAttune": "by a spellcaster",
				"entries": [
					"一个回声武器看起来和它的世俗对应物一模一样，除了在它的某个地方刻有一个小符文。该武器被灌注了射手法术列表中的一个法术。",
					"你对使用该魔法武器的攻击和伤害卷有一个加成。该奖励在下面确定。用此武器攻击后，它立即消失并重新出现在你的手中。",
					"这把武器有4次充电。在持有它的时候，你可以消耗它的一个电荷来进行攻击，就像你使用神射手级别的法术投掷者功能一样。你只能施放已经灌注在武器中的法术。如果你在那一回合能够进行另一次攻击，你可以再花2个电荷来进行攻击，就像你使用神射手级别的回音吊带技术一样。你不需要花费技巧点数来使用这个技巧。该武器每天在黎明时分重新获得1d4+1个已消耗的能量。",
					{
						"type": "table",
						"caption": "Echoing Weapon",
						"colLabels": [
							"Spell Level",
							"Rarity",
							"Bonus"
						],
						"colStyles": [
							"col-3 text-center",
							"col-3 text-center",
							"col-3 text-center"
						],
						"rows": [
							[
								"坎特里普",
								"不常见",
								"\u2014"
							],
							[
								"1st",
								"不常见",
								"+1"
							],
							[
								"2nd",
								"Rare",
								"+2"
							],
							[
								"3rd",
								"Rare",
								"+2"
							],
							[
								"4th",
								"非常罕见",
								"+3"
							],
							[
								"5th",
								"非常罕见",
								"+3"
							],
							[
								"6th",
								"传说中的",
								"+3"
							]
						]
					}
				],
				"fluff": {
					"images": [
						{
							"type": "image",
							"href": {
								"type": "external",
								"url": "https://i.imgur.com/xngp1Cd.png"
							}
						}
					]
				}
			},
			"entries": [
				"一个回声武器看起来和它的世俗对应物一模一样，除了在它的某个地方刻有一个小符文。该武器被灌注了射手法术列表中的一个法术。",
				"你对使用该魔法武器的攻击和伤害卷有一个加成。该奖励在下面确定。用此武器攻击后，它立即消失并重新出现在你的手中。",
				"这把武器有4次充电。在持有它的时候，你可以消耗它的一个电荷来进行攻击，就像你使用神射手级别的法术投掷者功能一样。你只能施放已经灌注在武器中的法术。如果你在那一回合能够进行另一次攻击，你可以再花2个电荷来进行攻击，就像你使用神射手级别的回音吊带技术一样。你不需要花费技巧点数来使用这个技巧。该武器每天在黎明时分重新获得1d4+1个已消耗的能量。",
				{
					"type": "table",
					"caption": "Echoing Weapon",
					"colLabels": [
						"Spell Level",
						"Rarity",
						"Bonus"
					],
					"colStyles": [
						"col-3 text-center",
						"col-3 text-center",
						"col-3 text-center"
					],
					"rows": [
						[
							"坎特里普",
							"不常见",
							"\u2014"
						],
						[
							"1st",
							"不常见",
							"+1"
						],
						[
							"2nd",
							"Rare",
							"+2"
						],
						[
							"3rd",
							"Rare",
							"+2"
						],
						[
							"4th",
							"非常罕见",
							"+3"
						],
						[
							"5th",
							"非常罕见",
							"+3"
						],
						[
							"6th",
							"传说中的",
							"+3"
						]
					]
				}
			],
			"hasFluffImages": true,
			"fluff": {
				"images": [
					{
						"type": "image",
						"href": {
							"type": "external",
							"url": "https://i.imgur.com/xngp1Cd.png"
						}
					}
				]
			}
		}
	]
}
