{
	"_meta": {
		"sources": [
			{
				"json": "InfKore:Disciple",
				"full": "Disciple Class",
				"abbreviation": "Disc",
				"authors": [
					"InfKore"
				],
				"convertedBy": [
					"Ikaguia"
				],
				"url": "https://www.reddit.com/r/UnearthedArcana/comments/a2h3iu/the_disciple_become_a_wandering_disciple_a/",
				"version": "2018.12.02"
			}
		],
		"optionalFeatureTypes": {
			"Disc:D": "Discipline"
		},
		"dateAdded": 1556992506,
		"dateLastModified": 1556992506,
		"_dateLastModifiedHash": "821be28725"
	},
	"class": [
		{
			"name": "Disciple",
			"source": "InfKore:Disciple",
			"hd": {
				"number": 1,
				"faces": 8
			},
			"proficiency": [
				"str",
				"wis"
			],
			"startingProficiencies": {
				"armor": [
					"light",
					"medium",
					"heavy",
					"{@item shield|phb|shields}"
				],
				"weapons": [
					"simple",
					"martial"
				],
				"tools": [
					"Choose one type of artisan's tools or one musical instrument"
				],
				"skills": [
					{
						"choose": {
							"from": [
								"acrobatics",
								"athletics",
								"history",
								"insight",
								"intimidation",
								"perception",
								"religion",
								"sleight of hand"
							],
							"count": 2
						}
					}
				]
			},
			"startingEquipment": {
				"additionalFromBackground": true,
				"default": [
					"(a) a {@item chain mail|phb}, (b) a {@item scale mail|phb} or (c) a {@item leather armor|phb}",
					"(a) a {@filter martial weapon|items|source=phb|category=basic|type=martial weapon} and a {@item shield|phb} or (b) two {@filter martial weapons|items|source=phb|category=basic|type=martial weapon}",
					"(a) {@item javelin|phb|two javelins} or (b) {@item dagger|phb|three daggers}",
					"(a) a {@item dungeoneer's pack|PHB} or (b) an {@item explorer's pack|PHB}"
				],
				"goldAlternative": "{@dice 4d4×10|4d4 × 10|Starting Gold}",
				"defaultData": [
					{
						"a": [
							"chain mail|phb"
						],
						"b": [
							"scale mail|phb"
						],
						"c": [
							"leather armor|phb"
						]
					},
					{
						"a": [
							{
								"equipmentType": "weaponMartial"
							},
							"shield|phb"
						],
						"b": [
							{
								"equipmentType": "weaponMartial",
								"quantity": 2
							}
						]
					},
					{
						"a": [
							"javelin|phb"
						],
						"b": [
							"dagger|phb"
						]
					},
					{
						"a": [
							"dungeoneer's pack|PHB"
						],
						"b": [
							"explorer's pack|PHB"
						]
					}
				]
			},
			"multiclassing": {
				"requirements": {
					"or": [
						{
							"str": 13,
							"dex": 13
						}
					],
					"wis": 13
				},
				"proficienciesGained": {
					"armor": [
						"light",
						"medium",
						"{@item shield|phb|shields}"
					],
					"weapons": [
						"simple",
						"martial"
					]
				}
			},
			"fluff": [
				{
					"source": "InfKore:Disciple",
					"page": 1,
					"entries": [
						"一个精灵女子平静地穿过森林绿荫，一边笑着一边巧妙地握着出鞘的刀。当强盗们从周围的灌木丛中跳出来时，她闭上了眼睛。在他们还没来得及喊出他们的要求时，这个女人的刀就在这群人身上划出了一个大弧度。每个强盗都设法勉强躲过她的先发制人的一击，但他们的动作突然停止，因为他们开始拔刀。在她的刀刃擦过的地方，他们每个人的躯体上都出现了一个大伤口，然后他们瘫倒在地。",
						"在一个长满草的高原上，一个孤独的人影站在一群盘旋的幽灵刀中，全神贯注。就像一个高超的指挥家，这个人物指挥着刀片流畅地攻击周围石头上的目标。伴随着骄傲的低语，这个人影回忆起这些刀片，然后愿意让它们落入灰尘，随风飘散。",
						"一场战斗在一个被鲜血浸透的场地上激烈地进行着，而这个场地被一个高贵的城堡所俯瞰。在战斗的中心，站着一个孤独的、饱经战火的铁皮人在为自己的生命而战。一对巨大的幽灵手臂从他的背上伸出来，让这个铁皮人可以同时挥舞四把斧头。他冲向一群士兵，当这个孤独的身影切入敌人的阵营时，他用火焰包裹着自己。每一步都可能是他的最后一步，但这个铁皮人却带着最灿烂的笑容战斗。",
						"虽然这些战士使用各种不同的非凡方法作战，但他们都是门徒。门徒的定义是他们神秘的战斗风格和赋予其训练目的的内省焦点。对弟子来说，战斗是自我完善的渠道，而战场的存在是为了检验理想的力量。",
						{
							"type": "entries",
							"name": "Masters of Tempo",
							"entries": [
								"弟子的魔法能力的关键是意识和专注。一个生物的每一个动作都会在魔法编织的元素中引起一个微小的、几乎无法察觉的涟漪。使用他们的理想作为他们注意力的锚，弟子们进入一个完全清晰的状态，在那里他们可以感知和阅读这些波纹，最终利用这些波纹中的力量--称为（%0%）--来推动他们的神秘技术。随着弟子的成长和对理想的巩固，他们保持这种专注的能力会大大增加，从而提高他们的武术能力。"
							]
						},
						{
							"type": "entries",
							"name": "Forged Ideals",
							"entries": [
								"弟子的理想在他们的战斗风格中表现为他们所遵循的崇高纪律。有些弟子自己发现了这些道路，有些则是从艺术大师那里学到的。每一门崇高学问都有一个高于所有其他学问的理想，它是该学问的节奏技术的支柱。因此，使用这些学科的战斗是一种自我表达的形式，也是完善自己理念的机会。战场上的危险和严酷提供了一个完美的环境来测试弟子的注意力，他们对自己的理解，以及他们的价值观。"
							]
						}
					],
					"name": "Disciple",
					"type": "section"
				},
				{
					"source": "InfKore:Disciple",
					"page": 2,
					"entries": [
						{
							"type": "entries",
							"name": "Born Wanderers",
							"entries": [
								"由于这种对经验和冲突的倾向性，你很少会发现一个弟子在一个地方呆得太久，或在军事管制的枷锁下生存。他们是天生的流浪者，并倾向于涌向有趣的人，这些人可能会带领他们接受更大的挑战和冒险。这样的人往往被证明是流浪弟子值得信赖的对手和终生的朋友：是点燃灵感之火的完美火花。"
							]
						},
						{
							"type": "entries",
							"name": "Eternal Students",
							"entries": [
								"对弟子来说，生存往往是次要的，而不是成长。为此，你可能会发现弟子们在做卖身契或雇佣兵，试图寻找新的冲突来测试自己。每一场战斗都是一个突破自己极限的机会，不仅考验能力，而且考验他们的意志力和决心。弟子的道路是一条充满决定的道路。每个人都必须决定追求哪些纪律，放弃哪些纪律，因为通往完美的道路上充满了破碎的哲学和脆弱的心。"
							]
						},
						{
							"type": "entries",
							"name": "Creating a Disciple",
							"entries": [
								"当你在创造你的弟子时，最重要的事情是考虑他们为什么要战斗。对弟子来说，战斗是一种自我发现和肯定的手段。到目前为止，他们的战斗给他们带来了什么样的教训？他们努力成为什么样的人或战士，以及他们离那个理想化的自己有多远？他们是否有一个特定的人或生物，他们正试图打败它？或者，他们正在寻找一位新的导师，以填补他们在技能或人格方面的空白？考虑一下你的角色在面对看似无法克服的威胁时的感受，以及他们在失去或击败威胁后的感受。",
								"同样重要的是，你的角色何时开始注意到他们周围的节奏流动。这是他们一直看到的东西，但从未意识到它的重要性？也许是遗传的？或者也许这种力量是在情感或身体危险的严峻时刻被释放出来的？还是你最终通过刻意的训练看到了节奏的卷轴，无论是单独的还是在大师或学校的指导下？你首先体现的是哪一门学科，为什么？最后，你的角色现在对自己的力量有什么感觉？你的角色最初是如何接触到这种魔法的，应该影响他们对这种魔法和他们自己的感觉。"
							]
						},
						{
							"type": "entries",
							"name": "Quick Build",
							"entries": [
								"按照这些建议，你可以快速地制造一个弟子。首先，将力量或灵巧作为你的最高能力得分，这取决于你是想专注于使用力量的武器还是使用技巧的武器。你的第二高能力得分应该是智慧，然后你把宪法作为第三高得分。第二，选择（%0%）的背景。"
							]
						}
					],
					"type": "section"
				}
			],
			"classTableGroups": [
				{
					"colLabels": [
						"Tempo Points",
						"Disciplines Known"
					],
					"rows": [
						[
							0,
							1
						],
						[
							2,
							2
						],
						[
							3,
							2
						],
						[
							3,
							2
						],
						[
							4,
							3
						],
						[
							4,
							3
						],
						[
							5,
							3
						],
						[
							5,
							3
						],
						[
							6,
							4
						],
						[
							6,
							4
						],
						[
							7,
							4
						],
						[
							7,
							4
						],
						[
							8,
							4
						],
						[
							8,
							4
						],
						[
							9,
							4
						],
						[
							9,
							4
						],
						[
							10,
							4
						],
						[
							10,
							4
						],
						[
							10,
							4
						],
						[
							10,
							4
						]
					]
				}
			],
			"classFeatures": [
				"Sublime Discipline|Disciple|InfKore:Disciple|1",
				"Martial Intuition|Disciple|InfKore:Disciple|1",
				"Tempo|Disciple|InfKore:Disciple|2",
				"Fighting Style|Disciple|InfKore:Disciple|2",
				{
					"classFeature": "Sublime Journey|Disciple|InfKore:Disciple|3",
					"gainSubclassFeature": true
				},
				"Ability Score Improvement|Disciple|InfKore:Disciple|4",
				"Extra Attack|Disciple|InfKore:Disciple|5",
				"Alacrity|Disciple|InfKore:Disciple|5",
				"Preternatural Awareness|Disciple|InfKore:Disciple|6",
				{
					"classFeature": "Sublime Journey Feature|Disciple|InfKore:Disciple|7",
					"gainSubclassFeature": true
				},
				"Ability Score Improvement|Disciple|InfKore:Disciple|8",
				"Blind Sense|Disciple|InfKore:Disciple|9",
				"Ability Score Improvement|Disciple|InfKore:Disciple|10",
				{
					"classFeature": "Sublime Journey Feature|Disciple|InfKore:Disciple|11",
					"gainSubclassFeature": true
				},
				"Ability Score Improvement|Disciple|InfKore:Disciple|12",
				"Imprinted Growth|Disciple|InfKore:Disciple|13",
				{
					"classFeature": "Sublime Journey Feature|Disciple|InfKore:Disciple|14",
					"gainSubclassFeature": true
				},
				"Timeless Body|Disciple|InfKore:Disciple|15",
				"Ability Score Improvement|Disciple|InfKore:Disciple|16",
				"Tempo Mastery|Disciple|InfKore:Disciple|17",
				{
					"classFeature": "Sublime Journey Feature|Disciple|InfKore:Disciple|18",
					"gainSubclassFeature": true
				},
				"Ability Score Improvement|Disciple|InfKore:Disciple|19",
				"Great Master|Disciple|InfKore:Disciple|20"
			],
			"subclassTitle": "Sublime Journey"
		}
	],
	"optionalfeature": [
		{
			"name": "Ardent Lion",
			"source": "InfKore:Disciple",
			"featureType": [
				"Disc:D"
			],
			"entries": [
				"没有一个真正的战士是孤立地战斗的；他们的朋友、家人和所有的盟友都跟随他们参加每一场战斗。热心的狮子会弟子在战斗中使用集结号，并利用他们的纽带力量在战斗中表现出超人的能力。",
				{
					"type": "entries",
					"name": "Ideal: Camaraderie",
					"entries": [
						"你的盟友就是你的家人，这些纽带比世界上的任何东西都要珍贵。珍惜他们，照顾他们，因为他们将使你成为最好的自己。"
					]
				},
				{
					"type": "entries",
					"name": "Signature Art: Rally",
					"entries": [
						"作为一个动作，你发出一个令人振奋的战吼，让你的盟友身体产生震动。30英尺范围内的任何盟友都可以使用他们的反应来移动到他们的速度而不引起机会攻击。",
						"这个能力的范围在你达到5级（60英尺）、11级（90英尺）和17级（120英尺）时增加30英尺。"
					]
				},
				{
					"type": "entries",
					"name": "Techniques",
					"entries": [
						{
							"type": "entries",
							"name": "Warding Strike (2nd Level)",
							"entries": [
								"当你用近战武器攻击击中一个生物时，你可以使用你的额外行动并花费1个节奏点在它们体内灌输犹豫。它在你下一回合开始前进行的下一次攻击，如果是针对你以外的人，则有劣势。"
							]
						},
						{
							"type": "entries",
							"name": "Bolstering Bond (5th Level)",
							"entries": [
								"作为一个行动，你可以花费最多5个节奏点来增强你和一个盟友的力量。你和你所选择的30英尺内的盟友，每花费一个节奏点就会获得{@dice 1d8}的临时命中率。这些临时命中率持续1分钟，直到你再次使用这个技巧，或者直到你集中精力恢复你的节奏。"
							]
						},
						{
							"type": "entries",
							"name": "Unified Assault (11th Level)",
							"entries": [
								"每当你用近战武器攻击击中一个生物时，你可以使用你的额外行动并花费3个节奏点来召唤攻击。在你30英尺范围内，你所选择的单一盟友生物可以使用他们的反应来对同一生物进行武器攻击。"
							]
						},
						{
							"type": "entries",
							"name": "Fury of the Fallen (17th Level)",
							"entries": [
								"每当你看到一个生物将一个盟友的命中率降至0，你可以使用你的反应并花费4个节奏点来移动到你的速度并对攻击的生物进行攻击。一旦命中，攻击会造成正常的伤害，并且盟友生物会恢复与你等级相当的命中率。"
							]
						}
					]
				}
			]
		},
		{
			"name": "Coursing Ember",
			"source": "InfKore:Disciple",
			"featureType": [
				"Disc:D"
			],
			"entries": [
				"袖手旁观的生活，无聊和不满，就是没有真正的生活。学习微光术的弟子都是火热的人，他们追随自己的奇思妙想和激情到天涯海角。奔跑的微光技术利用弟子的内在火焰，赋予他们惊人的流动性和存在感。",
				{
					"type": "entries",
					"name": "Ideal: Passion",
					"entries": [
						"你的心必须像沙漠的太阳一样燃烧。不要无所事事地生活，让机会与你擦肩而过。对你选择的每一个行动都要投入，用你眼中的火焰来引导你走向未来。"
					]
				},
				{
					"type": "entries",
					"name": "Signature Art: Stance of the Searing Lash",
					"entries": [
						"在你的回合中，你可以选择将你挥舞的任何武器笼罩在火焰中，持续一分钟（不需要行动），或者直到你失去注意力（就像你在专注于一个法术）。在这段时间内，每当你在你的回合中用这些武器进行近战攻击时，你的攻击范围比正常情况下大5英尺，你的攻击会造成火力伤害而不是正常伤害。",
						"你的触角在5级时额外增加5英尺，并在11级和17级时再次增加。"
					]
				},
				{
					"type": "entries",
					"name": "Techniques",
					"entries": [
						{
							"type": "entries",
							"name": "Pyroclastic Charge (2nd Level)",
							"entries": [
								"当你在你的回合中采取冲刺行动时，你可以花费1个或更多的节奏点来驾驭汹涌的烈焰。在你的回合结束时，你周围5英尺内的每个生物都必须做一个灵巧的蓄力动作。如果失败，你所花费的每一个节奏点都会受到1d8的火焰伤害，如果成功，则受到一半的伤害。"
							]
						},
						{
							"type": "entries",
							"name": "Infernal Echo (5th Level)",
							"entries": [
								"当你能看到的敌对生物离开你的范围时，你可以使用你的反应并花费2个节奏点来短暂地变成一团活的火焰。作为这个反应的一部分，你可以按照你的速度移动。如果你在触发这个反应的生物的范围内结束这个移动，你可以对它进行一次近战武器攻击，击中后造成额外的1d6火焰伤害。"
							]
						},
						{
							"type": "entries",
							"name": "Flame's Blessing Stance (11th Level)",
							"entries": [
								"在你的回合开始时，你可以花费2点节奏点将自己吞噬在美丽的火焰中。直到你的下一回合开始，你对火焰伤害免疫，而生物在对你进行近身攻击时，会受到1d8的火焰伤害。"
							]
						},
						{
							"type": "entries",
							"name": "Crossfire (17th Level)",
							"entries": [
								"作为一个行动，你可以花费最多5个节奏点（最少3个），每花费一个节奏点就选择一个在你周围100英尺内的生物。每个生物必须做一个 \"魅力储蓄\"。如果一个生物失败了，它将受到4d6辐射伤害，因为它的精神被灼热的火焰所征服。生物可以选择不做这个蓄力动作。",
								"一条5英尺宽的火线会从每个拯救失败的生物（不包括该生物的空间）到每个其他拯救失败的生物之间爆发出来。如果一个生物在至少一条火线上，它必须做一个灵巧的救赎动作。一旦失败，该生物将受到8d6的火力伤害。"
							]
						}
					]
				}
			]
		},
		{
			"name": "Diamond Mind",
			"source": "InfKore:Disciple",
			"featureType": [
				"Disc:D"
			],
			"entries": [
				"金刚心法的学生以其在最危险的情况下保持冷静的能力而闻名。战斗是一个有待解决的方程，钻石心法的实践就是要理解它的所有元素。这种观点有助于形成一种预知的战斗风格，练习者似乎能够在不可能的短时间内采取行动。",
				{
					"type": "entries",
					"name": "Ideal: Order",
					"entries": [
						"每件事都有一个原因和一个结果。世界可能看起来很混乱，但在这一切的基础上有一层干净的秩序。你越是发现和理解这种秩序，你就越是成为一个伟大的战士，越是成为一个有成就感的人。"
					]
				},
				{
					"type": "entries",
					"name": "Signature Art: Quick Draw",
					"entries": [
						"如果你不感到惊讶，在主动权被掷出之后，但在任何人采取行动之前，你可以提高你的一半速度并进行一次武器攻击。该攻击对物体和结构造成双倍伤害。",
						"如果你感到惊讶，你反而可以用这种签名艺术来不再感到惊讶。"
					]
				},
				{
					"type": "entries",
					"name": "Techniques",
					"entries": [
						{
							"type": "entries",
							"name": "Prescient Counter (2nd Level)",
							"entries": [
								"当你被攻击击中时，你可以使用你的反应并花费2个节奏点来获得与你的智慧修饰值相等的攻击力加成，有可能导致攻击失败。"
							]
						},
						{
							"type": "entries",
							"name": "Flicker Step (5th Level)",
							"entries": [
								"作为一个行动，你可以花费3个节奏点，在你的20英尺范围内选择一个敌对的生物。你可以传送到该生物5英尺范围内的一个无人空间，并对从你原来的位置到新位置的5英尺宽的线上的任何生物进行近战武器攻击。",
								"如果在你的回合结束时，被这个技巧伤害的生物的命中率低于或等于你的弟子等级，它就会下降到0命中率。"
							]
						},
						{
							"type": "entries",
							"name": "Ruby Storm Stance (11th Level)",
							"entries": [
								"当你采取闪避行动时，你可以立即使用你的额外行动，并花费1个节奏点进入一个时间减慢的姿态。在你下一回合开始之前，你不能被击倒或移动，而且每当你周围5英尺内的生物进行攻击时，你可以立即对它进行近战攻击。"
							]
						},
						{
							"type": "entries",
							"name": "Trace (17th Level)",
							"entries": [
								"作为一个动作，你可以花费4个节奏点，传送到一个目标范围内的无人空间，并对其进行一次近战武器攻击，最多可以传送60英尺。一旦命中，这些攻击会造成额外的2d8武力伤害。作为同一行动的一部分，你最多可以再做5次，只要你攻击的每个目标是不同的。"
							]
						}
					]
				}
			]
		},
		{
			"name": "Hero's Charge",
			"source": "InfKore:Disciple",
			"featureType": [
				"Disc:D"
			],
			"entries": [
				"这个世界充满了怪兽和那些想剥削弱者的人。英雄冲锋队的弟子们以成为希望的象征为己任，将巨大的威胁打倒给所有人看。这门学科的技术重点是锤炼不屈不挠的意志和打倒强者。",
				{
					"type": "entries",
					"name": "Ideal: Heroism",
					"entries": [
						"人们应该得到和平和幸福，因此你要承担起成为传递和平和幸福的工具的责任。压倒性的困难是一个受欢迎的挑战，因为只要还有一个灵魂需要拯救，你就必须成为鼓舞人心的灯塔。"
					]
				},
				{
					"type": "entries",
					"name": "Signature Art: Symbol of Hope",
					"entries": [
						"当你能看到至少一个盟友，并且你被降低到0点生命值但没有被直接杀死时，你可以下降到1点生命值，而不是。",
						"每当你在长时间休息后第一次使用这个功能时，你就会获得一个疲惫等级。当你完成一个长时间的休息时，所有通过这种方式获得的疲惫等级都会消失。"
					]
				},
				{
					"type": "entries",
					"name": "Techniques",
					"entries": [
						{
							"type": "entries",
							"name": "Topple (2nd Level)",
							"entries": [
								"你可以在你的回合中放弃一次近战武器攻击，并花费至少1个节奏点来尝试推翻一个触手可及的生物。目标必须做一个力量救赎动作。如果失败，目标会俯卧在地，每花费一个节奏点就会受到1d8的重击伤害。如果目标是大型或更大，它在这个蓄力动作上有劣势，而每花一个节奏点就会受到1d10的重击伤害。"
							]
						},
						{
							"type": "entries",
							"name": "Blinding Courage (5th Level)",
							"entries": [
								"每当有生物试图惊吓你或你身边10英尺内的非敌对生物时，你可以使用你的反应并花费3点节奏点，使你身边10英尺内的每个非敌对生物都不能被惊吓，直到你下一回合开始。"
							]
						},
						{
							"type": "entries",
							"name": "Revolution (11th Level)",
							"entries": [
								"作为一个行动，你可以花费3个节奏点，对你周围5英尺内的每个生物进行近战攻击。如果这些生物中的任何一个是大型或更大的，它就会受到相当于你的武器伤害模子的额外伤害。"
							]
						},
						{
							"type": "entries",
							"name": "Tyrant's Downfall (17th Level)",
							"entries": [
								"作为一个行动，你可以花费5个节奏点，使一个巨大的发光武器出现。这个武器在一个60英尺高、10英尺半径的圆柱体中坠落，以你60英尺范围内可以看到的点为中心。该区域内的任何生物都必须做一个魅力救赎动作，否则将受到5d12的辐射伤害，如果成功，将受到该伤害的一半。如果一个生物是大型或更大的，它会受到额外的2d12的伤害。"
							]
						}
					]
				}
			]
		},
		{
			"name": "Howling Gale",
			"source": "InfKore:Disciple",
			"featureType": [
				"Disc:D"
			],
			"entries": [
				"人们常常把自己锁在地球上，成为他们从未真正享受过的生活的囚犯。嚎叫之风的门徒们把为自己决定下一步道路的能力放在首位。这门学科的技术集中在难以触及和击退压迫性的进展上。",
				{
					"type": "entries",
					"name": "Ideal: Freedom",
					"entries": [
						"生命不过是一阵小风，在宇宙的混乱之风中转瞬即逝。不要把它浪费在背负不适当的负担上，使你被压垮。从你自己和你周围的人身上卸下这些负担，反思一下，自由生活是多么的快乐。"
					]
				},
				{
					"type": "entries",
					"name": "Signature Art: Gale Surge",
					"entries": [
						"作为一个额外动作，你在身体周围刮起一阵狂风，并短暂地变成风。在接下来的一分钟内，你在灵巧的救赎上有优势，而且每当有生物攻击你时，你可以移动5英尺而不引起机会攻击。"
					]
				},
				{
					"type": "entries",
					"name": "Techniques",
					"entries": [
						{
							"type": "entries",
							"name": "Driving Wind (2nd Level)",
							"entries": [
								"你可以使用你的行动并花费最多5个节奏点，从你的武器中释放出一个锥形的冲天空气。锥体的大小等于你花费的节奏点的10倍。锥体中的每个生物都必须做一个力量救赎动作，否则就会被向后推，直到他们到达锥体末端的一个无人空间。"
							]
						},
						{
							"type": "entries",
							"name": "Wind Scar (5th Level)",
							"entries": [
								"你可以使用你的行动并花费任意数量的节奏点来挥动你的武器，向前方释放出一道空气之刃。在你60英尺范围内最多挑选3个你能看到的生物。如果你的目标不止一个生物，每个目标必须在至少一个其他目标的5英尺范围内，而且他们都不能有你的掩护。这些目标中的每一个都必须在一个灵巧的蓄力动作上取得成功。失败时，你每花费一点节奏，生物就会受到1d8的魔法伤害，成功时则是一半的伤害。"
							]
						},
						{
							"type": "entries",
							"name": "The Wind That Walks (11th Level)",
							"entries": [
								"作为一个额外的动作，你可以花费3个节奏点来变得隐身，并且能够在任何生物的空间中移动，以及通过1英寸的缝隙而不消耗额外的移动，直到你下一个回合开始，或者直到你攻击一个生物或迫使它做出一个拯救动作。"
							]
						},
						{
							"type": "entries",
							"name": "Tranquil Windstorm (17th Level)",
							"entries": [
								"作为一个额外的动作，你可以花费3个节奏点来创造一个半径为10英尺的旋转空气球，跟随你，持续到你下一个回合结束。在球体内，你选择的生物可以无视困难的地形，而且你可以对任何以球体内的生物为目标的远程攻击施加不利条件。此外，如果一个生物在球体内开始其回合，你可以使其速度增加10，直到其回合结束。"
							]
						}
					]
				}
			]
		},
		{
			"name": "Mercurial Wolf",
			"source": "InfKore:Disciple",
			"featureType": [
				"Disc:D"
			],
			"entries": [
				"当一个人坚持传统思想的约束性路线时，他怎么能真正声称自己是在生活？水狼门徒重视自发性和变化，因此他们的技术包括通过幻觉和诡计在战场上制造复杂和混乱的局面。",
				{
					"type": "entries",
					"name": "Ideal: Chaos",
					"entries": [
						"停滞是成长的敌人，所以要靠你来确保世界不断变化。适应你带来的情况，通过这种行为你会找到完整。"
					]
				},
				{
					"type": "entries",
					"name": "Signature Art: Quicksilver Pack",
					"entries": [
						"作为一个动作，你创造一个自己的虚幻副本。这个效果持续1分钟，需要你保持专注，就像专注于一个法术一样。幻象出现在你周围10英尺内你能看到的一个无人的空间。复制品具有与你相同的攻击力，并且每当它受到攻击、法术或魔法效果的伤害时就会消失。作为你回合的额外行动，你可以将这个艺术所创造的任何一个复制体移动到你能看到的空间，最远可达30英尺。只有在你也有飞行速度的情况下，复制体才能以这种方式飞行。或者，你可以用你的额外行动来摧毁一个复制体，并传送到它的空间，只要你能看到这个复制体。",
						"你可以用这个能力制造的复制数量在5级时增加到2个，11级时增加到3个，17级时增加到4个。"
					]
				},
				{
					"type": "entries",
					"name": "Techniques",
					"entries": [
						{
							"type": "entries",
							"name": "Mirror Step (2nd Level)",
							"entries": [
								"你将世界围绕着一个生物旋转，使其对你的位置产生错觉。当一个生物在你的5英尺范围内移动时，你可以使用你的反应并花费1个节奏点来迫使该生物做一个智力储蓄动作。如果失败，你可以传送到该生物5英尺范围内的任何空间，并且它在回合结束前对你进行的下一次攻击是以劣势进行的。"
							]
						},
						{
							"type": "entries",
							"name": "Inversion (5th Level)",
							"entries": [
								"作为一个行动，你可以花费3个节奏点来迫使你30英尺范围内的一个你能看到的生物做一个魅力储蓄动作。如果失败，你会传送到该生物所占据的空间，并使该生物传送到你的空间。如果你和那个生物在对方所站的地方没有空间，这个技巧就会失败。"
							]
						},
						{
							"type": "entries",
							"name": "Altered Perspective (11th Level)",
							"entries": [
								"当一个敌对生物的近战攻击没有击中你时，你可以使用你的反应并花费3个节奏点，迫使该生物对你选择的另一个生物（除其自身外）重复同样的攻击。"
							]
						},
						{
							"type": "entries",
							"name": "Shifting Sides (17th Level)",
							"entries": [
								"作为一个额外的行动，你可以花费4个节奏点，试图改变一个生物对战场的感知。在你30英尺范围内，你选择的生物必须做一个智力测验，以看穿你强加给它的幻觉。如果蓄力失败，该生物在下一回合开始前不能做出反应，并立即对其范围内你选择的生物进行一次近战武器攻击。"
							]
						}
					]
				}
			]
		},
		{
			"name": "Raven's Gaze",
			"source": "InfKore:Disciple",
			"featureType": [
				"Disc:D"
			],
			"entries": [
				"以眼还眼使世界失明，但没有任何错误能真正逃脱乌鸦的注视。乌鸦之眼的弟子们不允许任何针对他们或他们的同胞的诡计不受惩罚。乌鸦之眼 \"的技巧围绕着在击倒攻击者之前给他们灌输恐惧。",
				{
					"type": "entries",
					"name": "Ideal: Revenge",
					"entries": [
						"你已经受了委屈。如果你没有被冤枉，你会被冤枉。你的责任是将你的怒火转向那些试图将你打倒的人，并从他们那里夺走你应得的东西。他们试图让你跪下，但现在你被复仇的黑色翅膀吊起来了。"
					]
				},
				{
					"type": "entries",
					"name": "Signature Art: Will of the Conspiracy.",
					"entries": [
						"作为一个额外的行动，你可以强迫一个你能看到的生物做一个智慧救赎动作。如果失败，目标的视觉和听觉会被一群乌鸦所取代。直到你的下一个回合结束，它都会被震聋，并感知到它周围10英尺半径以外的区域是神奇的黑暗。如果你在这个半径之外开始你的回合，你可以使用你的额外行动来传送到它里面的一个无人的空间。如果目标成功地进行了救赎，目标就不会暗示你试图对它使用这种艺术。"
					]
				},
				{
					"type": "entries",
					"name": "Techniques",
					"entries": [
						{
							"type": "entries",
							"name": "Gaze of the Flock (2nd Level)",
							"entries": [
								"当一个你能看到的在你30英尺范围内的生物对你造成伤害或迫使你做拯救动作时，你可以使用你的反应并花费2个节奏点来迫使它做一个智慧拯救动作。一旦失败，它就会对你感到恐惧，直到你下一个回合结束。在你的每个回合结束时，当一个生物以这种方式被你吓到时，你可以花费1个节奏点来迫使该生物再次进行智慧救赎。如果失败，该生物将继续被你吓到，直到你下一回合结束。"
							]
						},
						{
							"type": "entries",
							"name": "Unkindness In Turn (5th Level)",
							"entries": [
								"你可以花费你的额外行动和2个节奏点，传送到你身边30英尺范围内的一个对你感到恐惧的生物。该生物必须做一个智慧救赎动作。如果失败，它就会因恐惧而瘫痪，直到他们的回合开始。"
							]
						},
						{
							"type": "entries",
							"name": "Futility (11th Level)",
							"entries": [
								"在你的每个回合，当你用近战武器攻击击中一个生物时，你可以花费1个节奏点，让它做一个智慧救赎动作。如果失败，它的速度就会减半，并且在对受惊的救赎上有劣势，直到下一回合结束。"
							]
						},
						{
							"type": "entries",
							"name": "Vengeance of the Swarm (17th Level)",
							"entries": [
								"一股空灵的乌鸦黑雾从你身上涌出，以进行你的复仇。当一个生物对你造成伤害时，你可以使用你的反应并花费4个节奏点，使该生物失去与你所受伤害相等的命中率（最多40个伤害）。"
							]
						}
					]
				}
			]
		},
		{
			"name": "Stone Dragon",
			"source": "InfKore:Disciple",
			"featureType": [
				"Disc:D"
			],
			"entries": [
				"就像在世界表面移动的板块一样，你对你遇到的每个人都留下了持久的影响。石龙门的追随者们非常重视每一句话和每一个属于他们的行动都不是花言巧语。石龙弟子的技巧集中在利用大地来保持你的中心，并进行果断的打击。",
				{
					"type": "entries",
					"name": "Ideal: Stoicism",
					"entries": [
						"表达是一种强大的东西，最好不要轻率地使用。当你的言语和行动推动你的道路时，你要说话和行动，并确保每一个字都有如坠落的巨石一样的冲击力。"
					]
				},
				{
					"type": "entries",
					"name": "Signature Art: Dragon Sentinel",
					"entries": [
						"作为一个行动，你可以在你周围30英尺内无人的地方召唤一个中龙雕像，持续1分钟或直到你失去注意力（就像你在集中精力施法）。这条龙的攻击力等于13+你的智慧修饰，对毒药和精神伤害免疫，命中率等于5+你弟子等级的两倍。",
						"作为召唤这个雕像的行动的一部分，或者作为反应，每当一个生物移动到它的5英尺范围内或者移动到它的范围外，你可以使它对它5英尺范围内的目标进行一次特殊的近战法术攻击。龙在其攻击卷中加入你的熟练度加成和智慧修饰，命中后造成2d6的魔法穿刺伤害。任何被雕像击中的生物都会被石链缠绕，导致其速度降低一半，直到下一回合开始。",
						"龙的伤害在5级时增加1d6（3d6），并在11级（4d6）和17级（5d6）再次增加。"
					]
				},
				{
					"type": "entries",
					"name": "Techniques",
					"entries": [
						{
							"type": "entries",
							"name": "Roots of the Earth (2nd Level)",
							"entries": [
								"当一个效果会将你打倒在地或违背你的意愿移动你时，你可以花费1个节奏点来钩住大地。在你下一回合开始之前，你不能被击倒或违背你的意志而移动，包括违背原来的效果。"
							]
						},
						{
							"type": "entries",
							"name": "Mountain Hammer (5th Level)",
							"entries": [
								"当你用近战武器攻击击中一个生物时，你可以花费2个节奏点将其嵌入其下方的一个裂缝中。目标必须做一个力量救赎的动作。如果失败，目标会被击倒在地。如果目标已被击倒，它将被击倒并被限制，直到下一回合结束。"
							]
						},
						{
							"type": "entries",
							"name": "Earthbound (11th Level)",
							"entries": [
								"作为一个动作，你可以花费3点节奏点来石化自己，直到你下一个回合开始。在以这种方式石化时，你受到的任何伤害都会减半，而且你的形态不能改变。",
								"此外，你脚下的土地会试图将你周围的人包裹起来。在你周围15英尺范围内的每个生物都必须做一个灵巧的蓄力动作。如果失败，该生物将被束缚，直到你下一回合结束。"
							]
						},
						{
							"type": "entries",
							"name": "Breath of Ages (17th Level)",
							"entries": [
								"作为一个行动，你可以花5点节奏点呼出一股侵蚀的雾气，这股雾气来自你或你的龙哨兵。所有在60英尺范围内的生物都必须做一个 \"宪法救赎 \"动作，这个动作会在角落里扩散。如果失败，该生物的身体会变得沉重和迟钝，直到你的下一个回合结束。在这段时间内，该生物的速度减半，并且不能使用反应。在它的回合中，它可以使用一个行动或一个额外行动，但不能同时使用。无论该生物的能力或魔法物品如何，它在其回合内不能进行超过一次近战或远程攻击。",
								"每回合一次，当你用近战武器攻击击中一个迟钝的生物时，你可以强迫它做一个宪法规定的蓄力动作。如果失败，目标会被石化，直到你下一回合结束。"
							]
						}
					]
				}
			]
		},
		{
			"name": "Titan Fury",
			"source": "InfKore:Disciple",
			"featureType": [
				"Disc:D"
			],
			"entries": [
				"战士的道路上充满了对手和障碍。泰坦之怒的追随者将粉碎竞争作为他们的目标，并明确表示他们的力量是绝对的。泰坦之怒 \"学科的技术重点是摧毁弱者和懦夫，并撕破阻止你前进的企图。",
				{
					"type": "entries",
					"name": "Ideal: Power",
					"entries": [
						"仅仅打败你的敌人是不够的；你必须战胜他们，展示你能力的差距。你必须向自己和世界证明，你的力量是无与伦比的。"
					]
				},
				{
					"type": "entries",
					"name": "Signature Art: Blood of the Ancients.",
					"entries": [
						"作为一个额外动作，你可以加强你的形态。你获得相当于你的智慧修正值+你的弟子等级的一半的临时命中率，持续1分钟（四舍五入，最小值为1.5）。",
						"只要你有这些临时命中率，每当你进行力量检查或蓄力投掷时，如果你在D20上掷出的数字低于你的智慧分数的一半，你就可以将该掷出的数字视为你智慧分数的一半。",
						"从5级开始，只要你有这些临时命中率，你的体型就会增加到大，如果你还不是大或者更大的话。这意味着你的体型在各个维度上都增加了一倍，而且你的体重也增加了8倍。你的装备会随着你的新体型而增长。如果没有足够的空间让你的体型翻倍，你就会在现有的空间里达到最大可能的体型。"
					]
				},
				{
					"type": "entries",
					"name": "Techniques",
					"entries": [
						{
							"type": "entries",
							"name": "Power Overwhelming (2nd Level)",
							"entries": [
								"当你用近战武器攻击击中一个目标时，你可以使用你的额外行动并花费最多5点节奏。你每花费一点节奏点，目标就被向后推5英尺。",
								"如果这个移动会迫使目标撞击一个生物、物体或结构，那么它和与之相撞的任何东西都会在每5英尺的强制移动中受到1d6的重击伤害（最小为无伤害）。"
							]
						},
						{
							"type": "entries",
							"name": "Cull the Meek (5th Level)",
							"entries": [
								"那些试图破坏你而不面对你的人应该受到迅速的惩罚。当一个你看不到的生物击中你或一个生物用远程攻击击中你时，你可以使用你的反应并花费3个节奏点来减少该伤害1d10+你的智慧修饰，然后迫使该生物在智慧救赎中成功，否则就会受到与你减少的数量相等的精神伤害。"
							]
						},
						{
							"type": "entries",
							"name": "Titan's Will (11th Level)",
							"entries": [
								"在你的回合开始时，你可以花费4个节奏点来消除自己身上的下列状况之一：失明、被魅惑、失聪、受惊、无能力、麻痹、中毒或被击晕。"
							]
						},
						{
							"type": "entries",
							"name": "Arduous Wrath (17th Level)",
							"entries": [
								"作为一个动作，你可以花费4个节奏点，对一个生物进行最多三次武器攻击。如果其中至少有两次攻击命中，你可以在同一动作中再进行两次攻击。"
							]
						}
					]
				}
			]
		}
	],
	"classFeature": [
		{
			"name": "Sublime Discipline",
			"source": "InfKore:Disciple",
			"className": "Disciple",
			"classSource": "InfKore:Disciple",
			"level": 1,
			"entries": [
				"弟子的道路从学习崇高的纪律开始。崇高纪律是一种神秘的武术。每一门学科都以弟子要理解和内化的理想为中心。",
				"在1级时，选择一个（%0%），详见等级描述的最后。当你获得某些弟子等级时，你会获得新的学科知识，如弟子表的学科知识一栏所示。",
				"此外，当你在这门课上获得一个等级时，你可以选择你所知道的一个学科，并用另一个学科来代替它。",
				{
					"type": "entries",
					"name": "Signature Art",
					"entries": [
						"每个崇高的学科都有一个相关的签名术，即该学科的基础能力。你可以使用这个功能来调用你所知道的一个学科的招牌艺术的效果。你在同一时间只能有一个签名术的效果。",
						"你可以使用这个功能的次数与你的智慧修饰值相等（最少一次）。当你完成一个长时间的休息时，你会重新获得所有已消耗的使用次数。"
					]
				},
				{
					"type": "entries",
					"name": "Tempo Techniques",
					"entries": [
						"每一门学科都有一个技术清单--它的学科技术--你在学科描述中指出的弟子等级中获得。这些技巧需要你花费节奏点来使用，你在2级时获得。",
						"有些技术会修改一个特定的攻击。每次攻击只能使用一个这样的技术。"
					]
				},
				{
					"type": "entries",
					"name": "Tempo Ability",
					"entries": [
						"你利用节奏的能力与你的直觉和感知周围魔法涟漪的能力有关；因此，智慧是弟子的关键能力。你的一些修行特征需要你的目标进行蓄力，以抵抗该特征的效果。",
						{
							"type": "entries",
							"name": "Saving Throws",
							"entries": [
								"拯救动作的DC计算如下。",
								{
									"type": "abilityDc",
									"name": "Tempo",
									"attributes": [
										"wis"
									]
								}
							]
						}
					]
				}
			]
		},
		{
			"name": "Martial Intuition",
			"source": "InfKore:Disciple",
			"className": "Disciple",
			"classSource": "InfKore:Disciple",
			"level": 1,
			"entries": [
				"你的对手的打击散发着某种节奏，你的身体已经学会了阅读。如果一个生物攻击你或迫使你做拯救动作，你的管理员会告诉你关于它的能力的下列事情之一（你选择）。",
				{
					"type": "list",
					"items": [
						"如果它的一个你选择的能力分数高于、低于或等于你的相同能力分数。",
						"如果它的任何一个速度高于、低于或等于你的一个单一速度（你选择）。",
						"如果他们的统计数据被法术或魔法效果所改变。",
						"如果他们至少熟练掌握一种（%0%）。"
					]
				}
			]
		},
		{
			"name": "Tempo",
			"source": "InfKore:Disciple",
			"className": "Disciple",
			"classSource": "InfKore:Disciple",
			"level": 2,
			"entries": [
				"从2级开始，你获得了感知和利用周围魔法涟漪中的力量的能力，称为节奏。你对这种神秘能量的使用由节奏点的数量来表示。你的弟子等级决定了你拥有的点数，如弟子表的节奏点数一栏所示。",
				"你可以用这些点数来推动你的学科所赋予的各种节奏技术。当你花掉一个节奏点时，它就变得不可用。当你采取躲避行动时，你可以使用你的额外行动来集中精力，并重新获得任何已消耗的节奏点。"
			]
		},
		{
			"name": "Fighting Style",
			"source": "InfKore:Disciple",
			"className": "Disciple",
			"classSource": "InfKore:Disciple",
			"level": 2,
			"entries": [
				"你采用一种特殊的战斗风格作为你的专长。选择其中的一种（%0%）。你不能多次选择相同的格斗风格，即使你可以再次选择。",
				{
					"type": "options",
					"entries": [
						{
							"type": "entries",
							"name": "Dueling",
							"entries": [
								"当你单手挥舞近战武器而没有其他武器时，你使用该武器的伤害卷获得+2奖励。"
							]
						},
						{
							"type": "entries",
							"name": "Great Weapon Fighting",
							"entries": [
								"当你用双手挥舞的近战武器进行攻击时，你可以重新掷骰子，并且必须使用新的骰子，即使新的骰子是1或2。"
							]
						},
						{
							"type": "entries",
							"name": "Protection",
							"entries": [
								"当一个你能看到的生物攻击一个你以外的、在你5英尺范围内的目标时，你可以用你的反应在攻击卷上施加不利条件。你必须挥舞着一个盾牌。"
							]
						},
						{
							"type": "entries",
							"name": "Two-Weapon Fighting",
							"entries": [
								"当你进行双武器战斗时，你可以在第二次攻击的伤害上加上你的能力修改值。"
							]
						}
					]
				}
			]
		},
		{
			"name": "Sublime Journey",
			"source": "InfKore:Disciple",
			"className": "Disciple",
			"classSource": "InfKore:Disciple",
			"level": 3,
			"entries": [
				"在3级时，你已经踏上了一段个人旅程，这段旅程塑造了你的技能，并将你引向某些天生的魔法天赋。选择跟随刀锋舞者的旅程、巫师的旅程或战神的旅程。你选择的崇高旅程在3级时赋予你特性，并在7级、11级、14级和18级时再次赋予你特性。"
			]
		},
		{
			"name": "Ability Score Improvement",
			"source": "InfKore:Disciple",
			"className": "Disciple",
			"classSource": "InfKore:Disciple",
			"level": 4,
			"entries": [
				"当你达到4级、8级、10级、12级、16级和19级时，你可以将你选择的一项能力得分提高2分，或者将你选择的两项能力得分提高1分。",
				"如果你的DM允许使用特技，你可以改用{@5etools feat|feats.html}。"
			]
		},
		{
			"name": "Extra Attack",
			"source": "InfKore:Disciple",
			"className": "Disciple",
			"classSource": "InfKore:Disciple",
			"level": 5,
			"entries": [
				"从5级开始，每当你在你的回合中采取{@action Attack}行动时，你可以攻击两次，而不是一次。"
			]
		},
		{
			"name": "Alacrity",
			"source": "InfKore:Disciple",
			"className": "Disciple",
			"classSource": "InfKore:Disciple",
			"level": 5,
			"entries": [
				"同样在5级的时候，你可以在主动性卷轴上加上你的智慧修饰，你的速度增加10英尺。"
			]
		},
		{
			"name": "Preternatural Awareness",
			"source": "InfKore:Disciple",
			"className": "Disciple",
			"classSource": "InfKore:Disciple",
			"level": 6,
			"entries": [
				"在第6级时，你的身体对节奏的熟悉使它能够对冲突做出反应，即使你的思想落后于人。在你有意识的时候，你不能成为（%0%）。"
			]
		},
		{
			"name": "Sublime Journey Feature",
			"source": "InfKore:Disciple",
			"className": "Disciple",
			"classSource": "InfKore:Disciple",
			"level": 7,
			"entries": [
				"在第7级时，你从你的崇高之旅中获得一个特性。"
			]
		},
		{
			"name": "Ability Score Improvement",
			"source": "InfKore:Disciple",
			"className": "Disciple",
			"classSource": "InfKore:Disciple",
			"level": 8,
			"entries": [
				"当你达到8级时，你可以将你选择的一项能力得分提高2分，或者将你选择的两项能力得分提高1分。",
				"如果你的DM允许使用特技，你可以改用{@5etools feat|feats.html}。"
			]
		},
		{
			"name": "Blind Sense",
			"source": "InfKore:Disciple",
			"className": "Disciple",
			"classSource": "InfKore:Disciple",
			"level": 9,
			"entries": [
				"9级时，你能够探测到由隐藏生物的细微动作所引起的薄薄的魔法涟漪。你能察觉到在你10英尺范围内的任何隐藏生物或（%0%）生物的位置。"
			]
		},
		{
			"name": "Ability Score Improvement",
			"source": "InfKore:Disciple",
			"className": "Disciple",
			"classSource": "InfKore:Disciple",
			"level": 10,
			"entries": [
				"当你达到10级时，你可以将你选择的一个能力得分提高2分，或者将你选择的两个能力得分提高1分。",
				"如果你的DM允许使用特技，你可以改用{@5etools feat|feats.html}。"
			]
		},
		{
			"name": "Sublime Journey Feature",
			"source": "InfKore:Disciple",
			"className": "Disciple",
			"classSource": "InfKore:Disciple",
			"level": 11,
			"entries": [
				"11级时，你从你的崇高之旅中获得一个特性。"
			]
		},
		{
			"name": "Ability Score Improvement",
			"source": "InfKore:Disciple",
			"className": "Disciple",
			"classSource": "InfKore:Disciple",
			"level": 12,
			"entries": [
				"当你达到12级时，你可以将你选择的一项能力得分提高2分，或者将你选择的两项能力得分提高1分。",
				"如果你的DM允许使用特技，你可以改用{@5etools feat|feats.html}。"
			]
		},
		{
			"name": "Imprinted Growth",
			"source": "InfKore:Disciple",
			"className": "Disciple",
			"classSource": "InfKore:Disciple",
			"level": 13,
			"entries": [
				"从13级开始，你获得对灵巧或体质救赎的熟练程度（由你选择）。"
			]
		},
		{
			"name": "Sublime Journey Feature",
			"source": "InfKore:Disciple",
			"className": "Disciple",
			"classSource": "InfKore:Disciple",
			"level": 14,
			"entries": [
				"在14级时，你从你的崇高之旅中获得一个特性。"
			]
		},
		{
			"name": "Timeless Body",
			"source": "InfKore:Disciple",
			"className": "Disciple",
			"classSource": "InfKore:Disciple",
			"level": 15,
			"entries": [
				"在15级时，你的身体已经有能力抵抗年龄的影响。你不会受到衰老的影响，你也不能通过魔法变老。然而，你仍然可以因年老而死亡。此外，你不再需要食物和水。"
			]
		},
		{
			"name": "Ability Score Improvement",
			"source": "InfKore:Disciple",
			"className": "Disciple",
			"classSource": "InfKore:Disciple",
			"level": 16,
			"entries": [
				"当你达到16级时，你可以将你选择的一项能力得分提高2分，或者将你选择的两项能力得分提高1分。",
				"如果你的DM允许使用特技，你可以改用{@5etools feat|feats.html}。"
			]
		},
		{
			"name": "Tempo Mastery",
			"source": "InfKore:Disciple",
			"className": "Disciple",
			"classSource": "InfKore:Disciple",
			"level": 17,
			"entries": [
				"在17级时，当你完成短期或长期休息时，你会恢复所有已消耗的招牌艺术。"
			]
		},
		{
			"name": "Sublime Journey Feature",
			"source": "InfKore:Disciple",
			"className": "Disciple",
			"classSource": "InfKore:Disciple",
			"level": 18,
			"entries": [
				"在18级时，你从你的崇高之旅中获得一个特性。"
			]
		},
		{
			"name": "Ability Score Improvement",
			"source": "InfKore:Disciple",
			"className": "Disciple",
			"classSource": "InfKore:Disciple",
			"level": 19,
			"entries": [
				"当你达到19级时，你可以将你选择的一项能力得分提高2分，或者将你选择的两项能力得分提高1分。",
				"如果你的DM允许使用特技，你可以改用{@5etools feat|feats.html}。"
			]
		},
		{
			"name": "Great Master",
			"source": "InfKore:Disciple",
			"className": "Disciple",
			"classSource": "InfKore:Disciple",
			"level": 20,
			"entries": [
				"在20级时，你的成长达到顶峰，成为一门学科的大师。选择你所遵循的任何一门学科。每当你使用该门派的节奏技巧时，你所花费的节奏点会比原来少1点（最少1点）。"
			]
		}
	],
	"subclassFeature": [
		{
			"name": "Journey of the Blade Dancer",
			"source": "InfKore:Disciple",
			"className": "Disciple",
			"classSource": "InfKore:Disciple",
			"subclassShortName": "Blade Dancer",
			"subclassSource": "InfKore:Disciple",
			"level": 3,
			"entries": [
				"一把刀的挥舞比它看起来更多，这对遵循刀锋舞者之旅的弟子来说尤其如此。刀锋舞者是那些身体已经完全与周围的涟漪融合在一起的弟子。他们新发现的神奇感觉促使他们在执行步骤和技巧时寻求灵活性。他们精确的横扫动作切入了魔法本身的结构，为他们注入了超自然的杂技能力和战斗中的优雅。",
				{
					"type": "refSubclassFeature",
					"subclassFeature": "Blade Dance|Disciple|InfKore:Disciple|Blade Dancer|InfKore:Disciple|3"
				},
				{
					"type": "refSubclassFeature",
					"subclassFeature": "Elegance|Disciple|InfKore:Disciple|Blade Dancer|InfKore:Disciple|3"
				}
			]
		},
		{
			"name": "Blade Dance",
			"entries": [
				"当你在3级时选择这个旅程时，你的攻击会伴随着神奇的涟漪，呼应你的意图。每当你对一个生物进行近战武器攻击而未命中时，你可以使该生物受到相当于你智慧修正值的力量伤害。",
				"此外，在你的回合中，如果你对一个生物进行了近战攻击，该生物在你回合的剩余时间内不能对你进行机会攻击。"
			],
			"source": "InfKore:Disciple",
			"className": "Disciple",
			"classSource": "InfKore:Disciple",
			"subclassShortName": "Blade Dancer",
			"subclassSource": "InfKore:Disciple",
			"level": 3,
			"header": 1
		},
		{
			"name": "Elegance",
			"entries": [
				"同样在3级时，如果你还没有熟练掌握{@skill Performance}的技能，你会获得熟练度，并且可以在使用该熟练度的能力检查中加入你的智慧修改值。"
			],
			"source": "InfKore:Disciple",
			"className": "Disciple",
			"classSource": "InfKore:Disciple",
			"subclassShortName": "Blade Dancer",
			"subclassSource": "InfKore:Disciple",
			"level": 3,
			"header": 1
		},
		{
			"name": "Evasion",
			"source": "InfKore:Disciple",
			"className": "Disciple",
			"classSource": "InfKore:Disciple",
			"subclassShortName": "Blade Dancer",
			"subclassSource": "InfKore:Disciple",
			"level": 7,
			"header": 2,
			"entries": [
				"在7级时，你的本能的敏捷性可以让你躲避某些区域效应，例如蓝龙的闪电气息或火球术。当你受到一个允许你做出灵巧救赎的效果，只受到一半的伤害时，如果你救赎成功，你就不会受到伤害，如果你失败，就只受到一半伤害。"
			]
		},
		{
			"name": "Accelerando",
			"source": "InfKore:Disciple",
			"className": "Disciple",
			"classSource": "InfKore:Disciple",
			"subclassShortName": "Blade Dancer",
			"subclassSource": "InfKore:Disciple",
			"level": 11,
			"header": 2,
			"entries": [
				"11级时，你在近战武器攻击的伤害上加上你的智慧修饰值（最低+1）。此外，你可以将（%0%）行动作为一个额外行动。"
			]
		},
		{
			"name": "Rushing Agility",
			"source": "InfKore:Disciple",
			"className": "Disciple",
			"classSource": "InfKore:Disciple",
			"subclassShortName": "Blade Dancer",
			"subclassSource": "InfKore:Disciple",
			"level": 14,
			"header": 2,
			"entries": [
				"在14级时，你对身体重量的掌握使你可以藐视自然限制。你可以用你的剩余动作来决定你能跳的最大距离（长距离或高距离），而不是正常的计算。你可以在有或没有跑步起步的情况下跳出你的全部距离。",
				"此外，你可以沿着垂直表面移动，并在转身时穿过液体，而不会在移动中摔倒。"
			]
		},
		{
			"name": "Free Stride",
			"source": "InfKore:Disciple",
			"className": "Disciple",
			"classSource": "InfKore:Disciple",
			"subclassShortName": "Blade Dancer",
			"subclassSource": "InfKore:Disciple",
			"level": 18,
			"header": 2,
			"entries": [
				"在18级时，你的动作变得无法停止。你的移动不受困难地形的影响，法术和魔法效果不能降低你的速度，也不能使你的速度降低（%0%）或（%1%）。你可以花费5英尺的移动距离来自动摆脱非魔法的束缚。此外，在水下对你的移动和攻击没有惩罚。"
			]
		},
		{
			"name": "Journey of the Conjurer",
			"source": "InfKore:Disciple",
			"className": "Disciple",
			"classSource": "InfKore:Disciple",
			"subclassShortName": "Conjurer",
			"subclassSource": "InfKore:Disciple",
			"level": 3,
			"entries": [
				"在战斗中，它是战士的武器，给他们带来慰藉；在这里，它不仅仅是用来带来胜利或生存的工具，而是你信任自己生命的盟友。正是在这种心态下，节奏对那些跟随魔术师旅程的人产生了影响。",
				"大多数情况下，魔术师的旅程始于一个反复出现的梦境，梦见一个无边无际的领域，到处都是历代的武器装备。在这个空间里，你可以自由地使用和操纵，形成和改造你认为合适的武器和景观，永远都在追求完美的武器库。这个梦不断重复，变得越来越清晰，直到你在一团飞行的武器中醒来，这些武器随着你的想法流动，从那天起，你接触的每一件武器，以及你在梦中的每一次改变，都将反映在你对飞行武器库的控制中。",
				{
					"type": "refSubclassFeature",
					"subclassFeature": "Conjure Weapon|Disciple|InfKore:Disciple|Conjurer|InfKore:Disciple|3"
				}
			]
		},
		{
			"name": "Conjure Weapon",
			"entries": [
				"当你在第三级选择这个旅程时，每当你掷出主动权或作为奖励动作时，你可以变出或遣散一个只有你能挥舞的无重量的幽灵武器库，它们在你的空间中盘旋。在不挥舞盾牌的情况下，你可以在精神上挥舞这些武器，而且它们具有任何缺乏特殊属性的简单或武术近战武器的统计数据（对于具有多功能属性的武器，请使用你选择的一只或两只手）。这些武器会造成力的伤害，而不是其正常的伤害类型，如果它们还没有获得投掷属性（射程20/60），并在击中或未击中时自动返回你的空间。如果你昏迷了，这些武器就会失效。",
				"此外，当你召唤这些武器时，以及作为后续回合的额外行动，你可以将这些武器置于以下阵型之一。",
				{
					"type": "entries",
					"name": "Assault",
					"entries": [
						"你的武器向外指向最近的敌人。这些武器的射程增加5英尺，用这些武器对你能看到的目标进行攻击不能有劣势。"
					]
				},
				{
					"type": "entries",
					"name": "Storm",
					"entries": [
						"你的武器扩展到你周围10英尺内的区域，将其变成你选择的生物的困难地形。"
					]
				},
				{
					"type": "entries",
					"name": "Ward",
					"entries": [
						"你的武器形成一个保护屏障。在你每个回合开始后，你第一次受到伤害时，会减少相当于你的智慧修正值的数量（最小为1）。"
					]
				}
			],
			"source": "InfKore:Disciple",
			"className": "Disciple",
			"classSource": "InfKore:Disciple",
			"subclassShortName": "Conjurer",
			"subclassSource": "InfKore:Disciple",
			"level": 3,
			"header": 1
		},
		{
			"name": "Blade Affinity",
			"source": "InfKore:Disciple",
			"className": "Disciple",
			"classSource": "InfKore:Disciple",
			"subclassShortName": "Conjurer",
			"subclassSource": "InfKore:Disciple",
			"level": 7,
			"header": 2,
			"entries": [
				"在第七级时，你可以分析根植于使用过的武器上的残留信息。在1分钟的时间里，你可以分析你所接触的武器。在这一分钟结束时，你可以收集到以下内容之一（由DM选择）。",
				{
					"type": "list",
					"items": [
						"清楚地显示出武器的最后一个持有者拔出武器进行战斗时的情景。",
						"瞥见上一个持有者在挥舞武器时使用的一种神奇能力。",
						"最后的持枪者是否以恶意、荣誉、保护或其他形式的意图使用该武器。",
						"瞥见最后一个被这种武器杀死的生物。"
					]
				},
				"一旦你使用了这个功能，你就不能再这样做了，直到你完成一个短期休息或长期休息。这个过程会耗尽留在武器上的魔法印记，所以一旦你对某件武器使用了这个功能，你就不能再对该武器使用，直到它在战斗中被使用。"
			]
		},
		{
			"name": "Ultimate Arsenal",
			"source": "InfKore:Disciple",
			"className": "Disciple",
			"classSource": "InfKore:Disciple",
			"subclassShortName": "Conjurer",
			"subclassSource": "InfKore:Disciple",
			"level": 11,
			"header": 2,
			"entries": [
				"在11级时，你的控制力和你的武器库的质量都得到了提高。用你的魔法武器进行的任何攻击都会造成额外的1d8的伤害，而且你的阵型也会得到改善。",
				{
					"type": "entries",
					"name": "Assault",
					"entries": [
						"在你的每个回合中，如果你用魔法武器攻击两个不同的目标，作为{@action Attack}行动的一部分，你可以对第三个生物进行一次额外的攻击。"
					]
				},
				{
					"type": "entries",
					"name": "Storm",
					"entries": [
						"武器反而会扩展到你20英尺以内的区域。"
					]
				},
				{
					"type": "entries",
					"name": "Ward",
					"entries": [
						"伤害会减少两倍于你的智慧修饰值（最低为2）。"
					]
				}
			]
		},
		{
			"name": "Conjured Body",
			"source": "InfKore:Disciple",
			"className": "Disciple",
			"classSource": "InfKore:Disciple",
			"subclassShortName": "Conjurer",
			"subclassSource": "InfKore:Disciple",
			"level": 14,
			"header": 2,
			"entries": [
				"在14级时，你已经学会了如何将你的身体与你的武器装备融合在一起，在你体内嵌入其流畅的运动。当你拥有你的武器库时，你获得了与你的步行速度相等的飞行速度，这在视觉上表现为像翅膀一样的刀片，骑着飞剑，或类似的效果。"
			]
		},
		{
			"name": "Dream Gate",
			"source": "InfKore:Disciple",
			"className": "Disciple",
			"classSource": "InfKore:Disciple",
			"subclassShortName": "Conjurer",
			"subclassSource": "InfKore:Disciple",
			"level": 18,
			"header": 2,
			"entries": [
				"在18级时，你可以在一瞬间发挥出你武器库的全部力量。作为一个动作，你在身后创造一个你的领域的幻象，并在你周围召唤出100个武器。在你周围120英尺范围内选择任意数量的生物，并在它们之间分配100个弹丸（一个生物最多可以被10个弹丸所瞄准）。每个生物都必须做一个灵巧的蓄力动作，每向它发射一个弹丸，就会受到{@dice 1d8}力的伤害，如果蓄力成功，则会受到一半的伤害。这些武器会在你的回合结束时消失。",
				"一旦你使用这个功能，你就不能再使用它，直到你完成长时间的休息。"
			]
		},
		{
			"name": "Journey of the War God",
			"source": "InfKore:Disciple",
			"className": "Disciple",
			"classSource": "InfKore:Disciple",
			"subclassShortName": "War God",
			"subclassSource": "InfKore:Disciple",
			"level": 3,
			"entries": [
				"遵循战神之旅的弟子在战场上的表现是明确无误的，他们的灵魂与他们并肩作战，往往采取幽灵般的手臂或在他们背后的一个隐约的身影。",
				"节奏的影响可以达到比大多数人想象的更远；毕竟一切都在运动，甚至你自己的精神。以强烈的情绪定义自己的弟子，或需要证明自己的自我价值的弟子，可以发展出对自己灵魂运动的敏感性。经过足够的时间，弟子会获得在战斗中召唤和挥舞这种灵魂元素的能力。传说中的弟子能达到明确的控制，并最终学会驾驭居住在他们体内的神性火花。",
				{
					"type": "refSubclassFeature",
					"subclassFeature": "Spirit of the War God|Disciple|InfKore:Disciple|War God|InfKore:Disciple|3"
				}
			]
		},
		{
			"name": "Spirit of the War God",
			"entries": [
				"当你在3级时选择这个旅程时，你的激情可以召唤出你灵魂中陶醉于战斗荣耀的部分。作为一个额外的动作或当你掷出主动权时，你可以显现或解散两个与你上半身相连的幽灵手臂。当被召唤时，以及此后的每个回合，每条手臂都可以进行物体互动，例如拔出武器。你可以很容易地控制这些手臂，而且它们的行动与你的其他手臂一样。",
				"作为一个动作，你可以用你和你的幽灵手臂所挥舞的每一件近战武器进行一次攻击（最多四次攻击）。你不会将你的能力修饰值加到这些攻击的伤害上，除非该修饰值为负值。当挥舞双手武器时，你的精神手臂必须一直用双手握住武器。",
				"在5级时，你在你用手挥舞的武器的伤害卷上加上你的能力修饰（最多两次攻击）。在11级时，你也会在你的精神手臂所挥舞的武器的伤害卷中加入你的能力修饰。"
			],
			"source": "InfKore:Disciple",
			"className": "Disciple",
			"classSource": "InfKore:Disciple",
			"subclassShortName": "War God",
			"subclassSource": "InfKore:Disciple",
			"level": 3,
			"header": 1
		},
		{
			"name": "Cosmic Presence",
			"source": "InfKore:Disciple",
			"className": "Disciple",
			"classSource": "InfKore:Disciple",
			"subclassShortName": "War God",
			"subclassSource": "InfKore:Disciple",
			"level": 7,
			"header": 2,
			"entries": [
				"在第7级时，你与内在自我的联系赋予你更大的存在感。当你进行{@skill Intimidation}或{@skill Persuasion}的检查时，你可以将你的智慧修正值加入卷轴，而不是你的魅力修正值。",
				"此外，作为一项行动，你可以将你的存在放大一百倍。在你周围60英尺范围内，你选择的生物必须对你的节奏救赎DC进行魅力救赎成功，否则就会意识到你的存在。在接下来的10分钟内，你对这些生物的所有智慧和魅力检查都有优势。",
				"一旦你使用这个动作，你必须完成一个短期或长期的休息才能再次使用。"
			]
		},
		{
			"name": "Encroaching Omniscience",
			"source": "InfKore:Disciple",
			"className": "Disciple",
			"classSource": "InfKore:Disciple",
			"subclassShortName": "War God",
			"subclassSource": "InfKore:Disciple",
			"level": 11,
			"header": 2,
			"entries": [
				"11级时，你的灵魂成为你的守夜人，因为你的头部周围可以描画出人脸的形状。每当你作为反应的一部分进行攻击时，你可以用你的一只幽灵手臂进行一次额外的攻击。",
				"此外，在你的每个回合中，当你的武器攻击失败时，你可以用你的幽灵手臂挥舞的武器进行一次额外的武器攻击，作为同一行动的一部分。"
			]
		},
		{
			"name": "Lens of Truth",
			"source": "InfKore:Disciple",
			"className": "Disciple",
			"classSource": "InfKore:Disciple",
			"subclassShortName": "War God",
			"subclassSource": "InfKore:Disciple",
			"level": 14,
			"header": 2,
			"entries": [
				"在14级的时候，你的视力上升到了神的视力。你可以在正常和魔法的黑暗中清楚地看到120英尺以外的地方，也可以看到虚空界。当任何变身者或被幻象或转化魔法掩盖的生物在此范围内且在视线范围内时，你可以看到该生物的真实形态。"
			]
		},
		{
			"name": "Shard of Divinity",
			"source": "InfKore:Disciple",
			"className": "Disciple",
			"classSource": "InfKore:Disciple",
			"subclassShortName": "War God",
			"subclassSource": "InfKore:Disciple",
			"level": 18,
			"header": 2,
			"entries": [
				"在18级时，你已经完全与你的灵魂重新连接，释放了其中的神力。你对武器攻击的伤害有抵抗力，你用武器攻击或节奏技巧造成的任何伤害都无视抵抗力，并绕过免疫力。",
				"你不能再因年老而死亡，你的灵魂不能被偷窃、困住或摧毁，也不能不情愿地被提升为亡灵，除非有神的干预。"
			]
		}
	],
	"subclass": [
		{
			"name": "Journey of the Blade Dancer",
			"shortName": "Blade Dancer",
			"source": "InfKore:Disciple",
			"subclassFeatures": [
				"Journey of the Blade Dancer|Disciple|InfKore:Disciple|Blade Dancer|InfKore:Disciple|3",
				"Evasion|Disciple|InfKore:Disciple|Blade Dancer|InfKore:Disciple|7",
				"Accelerando|Disciple|InfKore:Disciple|Blade Dancer|InfKore:Disciple|11",
				"Rushing Agility|Disciple|InfKore:Disciple|Blade Dancer|InfKore:Disciple|14",
				"Free Stride|Disciple|InfKore:Disciple|Blade Dancer|InfKore:Disciple|18"
			],
			"className": "Disciple",
			"classSource": "InfKore:Disciple"
		},
		{
			"name": "Journey of the Conjurer",
			"shortName": "Conjurer",
			"source": "InfKore:Disciple",
			"subclassFeatures": [
				"Journey of the Conjurer|Disciple|InfKore:Disciple|Conjurer|InfKore:Disciple|3",
				"Blade Affinity|Disciple|InfKore:Disciple|Conjurer|InfKore:Disciple|7",
				"Ultimate Arsenal|Disciple|InfKore:Disciple|Conjurer|InfKore:Disciple|11",
				"Conjured Body|Disciple|InfKore:Disciple|Conjurer|InfKore:Disciple|14",
				"Dream Gate|Disciple|InfKore:Disciple|Conjurer|InfKore:Disciple|18"
			],
			"className": "Disciple",
			"classSource": "InfKore:Disciple"
		},
		{
			"name": "Journey of the War God",
			"shortName": "War God",
			"source": "InfKore:Disciple",
			"subclassFeatures": [
				"Journey of the War God|Disciple|InfKore:Disciple|War God|InfKore:Disciple|3",
				"Cosmic Presence|Disciple|InfKore:Disciple|War God|InfKore:Disciple|7",
				"Encroaching Omniscience|Disciple|InfKore:Disciple|War God|InfKore:Disciple|11",
				"Lens of Truth|Disciple|InfKore:Disciple|War God|InfKore:Disciple|14",
				"Shard of Divinity|Disciple|InfKore:Disciple|War God|InfKore:Disciple|18"
			],
			"className": "Disciple",
			"classSource": "InfKore:Disciple"
		}
	]
}
