{
	"_meta": {
		"sources": [
			{
				"json": "TheTitanClass",
				"abbreviation": "Titan",
				"full": "The Titan Class",
				"authors": [
					"Drifter"
				],
				"version": "1",
				"convertedBy": [
					"Itsalittlewaterlizard"
				],
				"url": "https://homebrewery.naturalcrit.com/share/WIwaFH27MC5d",
				"targetSchema": "1.0.0"
			}
		],
		"dateAdded": 1644686517,
		"dateLastModified": 1644686517,
		"_dateLastModifiedHash": "7dc7184386"
	},
	"class": [
		{
			"name": "Titan",
			"source": "TheTitanClass",
			"hd": {
				"number": 1,
				"faces": 12
			},
			"proficiency": [
				"str",
				"con"
			],
			"classTableGroups": [
				{
					"colLabels": [
						"Might Points"
					],
					"rows": [
						[
							1
						],
						[
							2
						],
						[
							3
						],
						[
							4
						],
						[
							5
						],
						[
							6
						],
						[
							7
						],
						[
							8
						],
						[
							9
						],
						[
							10
						],
						[
							11
						],
						[
							12
						],
						[
							13
						],
						[
							14
						],
						[
							15
						],
						[
							16
						],
						[
							17
						],
						[
							18
						],
						[
							19
						],
						[
							20
						]
					]
				}
			],
			"startingProficiencies": {
				"armor": [
					"light",
					"medium",
					"heavy",
					"{@item shield|phb|shields}"
				],
				"weapons": [
					"simple",
					"martial"
				],
				"skills": [
					{
						"choose": {
							"from": [
								"athletics",
								"history",
								"investigation",
								"medicine",
								"perception",
								"intimidation"
							],
							"count": 2
						}
					}
				]
			},
			"startingEquipment": {
				"additionalFromBackground": true,
				"default": [
					"(a) {@item scale mail|phb} or (b) a {@item chain mail|phb}",
					"(a) a {@item greatsword|phb} or (b) a {@filter melee weapon|items|type=melee weapon|source=phb}",
					"(a) a {@item shield|phb} or (b) a {@filter melee weapon|items|type=melee weapon|source=phb}",
					"(a) a {@item dungeoneer's pack|phb} or (b) an {@item explorer's pack|phb}"
				],
				"goldAlternative": "{@dice 5d4×10|5d4 × 10|Starting Gold}"
			},
			"multiclassing": {
				"requirements": {
					"or": [
						{
							"str": 13,
							"dex": 13
						}
					],
					"con": 13
				},
				"proficienciesGained": {
					"armor": [
						"light",
						"medium",
						"{@item shield|phb|shields}"
					],
					"weapons": [
						"simple",
						"martial"
					]
				}
			},
			"classFeatures": [
				"Might|Titan|TheTitanClass|1",
				"Permanence|Titan|TheTitanClass|1",
				"Staggering Strike|Titan|TheTitanClass|1",
				"Living Weapon|Titan|TheTitanClass|2",
				"Fighting Style|Titan|TheTitanClass|2",
				"Rocksteady|Titan|TheTitanClass|3",
				"Ability Score Improvement|Titan|TheTitanClass|4",
				{
					"classFeature": "Codex|Titan|TheTitanClass|5",
					"gainSubclassFeature": true
				},
				"Ability Score Improvement|Titan|TheTitanClass|6",
				"Solemn Vigil|Titan|TheTitanClass|7",
				"Ability Score Improvement|Titan|TheTitanClass|8",
				"Earthshaker|Titan|TheTitanClass|9",
				{
					"classFeature": "Codex Feature|Titan|TheTitanClass|10",
					"gainSubclassFeature": true
				},
				"Martial Prowess|Titan|TheTitanClass|11",
				"Ability Score Improvement|Titan|TheTitanClass|12",
				"Strategos|Titan|TheTitanClass|13",
				"Unbreakable Mind|Titan|TheTitanClass|14",
				{
					"classFeature": "Codex Feature|Titan|TheTitanClass|15",
					"gainSubclassFeature": true
				},
				"Ability Score Improvement|Titan|TheTitanClass|16",
				"Invigorated Existence|Titan|TheTitanClass|17",
				"Martial Prowess (2)|Titan|TheTitanClass|17",
				"Against All Odds|Titan|TheTitanClass|18",
				"Ability Score Improvement|Titan|TheTitanClass|19",
				{
					"classFeature": "Codex Feature|Titan|TheTitanClass|20",
					"gainSubclassFeature": true
				}
			],
			"subclassTitle": "Codex",
			"fluff": [
				{
					"name": "Titan",
					"source": "TheTitanClass",
					"type": "section",
					"entries": [
						"泰坦是展现魔法和武术力量的大师，是为他们的武器注入元素力量的战士。泰坦的两个最著名的品种是Blademasters和Magisters，前者更专注于其职业的武术方面，后者则是深入研究魔法传说的奥术学者。",
						{
							"type": "entries",
							"name": "Titan Multiclassing",
							"entries": [
								"如果你想成为泰坦，你需要具备以下的前提条件和能力。",
								{
									"type": "entries",
									"name": "Titan Multiclassing Prerequisites",
									"entries": [
										{
											"type": "entries",
											"name": "Ability Score Minimum",
											"entries": [
												"力量13或灵巧13，和体质13"
											]
										}
									]
								},
								{
									"type": "entries",
									"name": "Titan Multiclassing Proficiencies",
									"entries": [
										{
											"type": "entries",
											"name": "Proficiencies Gained",
											"entries": [
												"轻型盔甲，中型盔甲，盾牌，简单武器，武术武器。"
											]
										}
									]
								}
							]
						}
					]
				}
			]
		}
	],
	"classFeature": [
		{
			"name": "Might",
			"source": "TheTitanClass",
			"className": "Titan",
			"classSource": "TheTitanClass",
			"level": 1,
			"entries": [
				"在1级时，你有一个身体力量的源泉，使你能够强化你的身体并将你的意志强加于世界。力量可以用来移动对手，也可以用来强化你自己的身体。",
				"你拥有的最大威力点数等于你的等级。每当你受到致命一击，或者在你通过了敌人对你施加的非集中注意力的蓄力后，你就会恢复一个威力点。此外，你在长时间的休息中会恢复所有消耗的力量值。你的某些威力特性需要你的目标做一个蓄力动作来抵抗该特性的效果。蓄力动作的计算方式如下。",
				{
					"type": "abilityDc",
					"name": "Might",
					"attributes": [
						"con"
					]
				}
			]
		},
		{
			"name": "Permanence",
			"source": "TheTitanClass",
			"className": "Titan",
			"classSource": "TheTitanClass",
			"level": 1,
			"entries": [
				"从第一级开始，强化你的身体以抵御来袭的攻击或打击成为你的第二天性。",
				"作为受到伤害的反应，你可以消耗一个力量点来减轻伤害。你所减轻的伤害量等于你的体质修正值加上你的泰坦等级。"
			]
		},
		{
			"name": "Staggering Strike",
			"source": "TheTitanClass",
			"className": "Titan",
			"classSource": "TheTitanClass",
			"level": 1,
			"entries": [
				"把你的力量放在你的打击背后对泰坦来说是至关重要的，无论是让地面颤抖，甚至是压倒比你大的对手。",
				"当你用近战武器攻击击中一个生物时，你可以消耗一个威力点来试图迫使他们倒下。目标必须做一个力量救赎动作，否则就会被击倒。如果成功，目标不会被击倒。"
			]
		},
		{
			"name": "Living Weapon",
			"source": "TheTitanClass",
			"className": "Titan",
			"classSource": "TheTitanClass",
			"level": 2,
			"entries": [
				"在2级时，你开始在战场上利用你选择的武器以外的工具。作为一个额外的动作，你可以创造以下效果之一。",
				"你在本回合用近战武器进行的下一次攻击中获得优势。",
				"你用脚踩住一个俯卧在你身边5英尺内的生物。该生物必须对你的力量救赎DC进行宪法救赎。如果失败，目标必须使用其全部动作而不是一半来站立。这只能对比你大一个体型的生物做。",
				"你强化你的身体以抵御来袭的攻击。你获得的临时命中率等于你的体质修正值加上你的泰坦等级的一半（向下取整）。"
			]
		},
		{
			"name": "Fighting Style",
			"source": "TheTitanClass",
			"className": "Titan",
			"classSource": "TheTitanClass",
			"level": 2,
			"entries": [
				"在2级时，你采用一种特定的战斗风格作为你的专长。从以下选项中选择一个。你不能多次选择一种格斗风格的选项，即使你后来可以再次选择。",
				{
					"type": "options",
					"entries": [
						{
							"type": "entries",
							"name": "Blind Fighting",
							"entries": [
								"你的盲视范围为10英尺。在这个范围内，你可以有效地看到任何不在完全遮蔽物后面的东西，即使你被蒙蔽或在黑暗中。此外，你可以在这个范围内看到一个看不见的生物，除非该生物成功地躲避你。"
							]
						},
						{
							"type": "entries",
							"name": "Defense",
							"entries": [
								"当你穿着盔甲时，你会获得一个+1的交流奖励。"
							]
						},
						{
							"type": "entries",
							"name": "Dueling",
							"entries": [
								"当你单手挥舞近战武器而没有其他武器时，你使用该武器的伤害卷获得+2奖励。"
							]
						},
						{
							"type": "entries",
							"name": "Great Weapon Fighting",
							"entries": [
								"当你用双手挥舞的近战武器进行攻击时，你可以重新掷骰子，并且必须使用新的骰子，即使新的骰子是1或2。"
							]
						},
						{
							"type": "entries",
							"name": "Interception",
							"entries": [
								"当一个你能看到的生物用攻击击中你5英尺范围内除你之外的目标时，你可以使用你的反应来减少目标所受的1d10+你的熟练度加成的伤害（最低为0伤害）。你必须挥舞着盾牌或简单武器或武术武器才能使用这个反应。"
							]
						},
						{
							"type": "entries",
							"name": "Pitch Hitter",
							"entries": [
								"你在使用近战武器进行攻击时获得+2的奖励。"
							]
						},
						{
							"type": "entries",
							"name": "Protection",
							"entries": [
								"当一个你能看到的生物攻击一个你以外的、在你5英尺范围内的目标时，你可以用你的反应在攻击卷上施加不利条件。你必须挥舞着一个盾牌。"
							]
						}
					]
				}
			]
		},
		{
			"name": "Rocksteady",
			"source": "TheTitanClass",
			"className": "Titan",
			"classSource": "TheTitanClass",
			"level": 3,
			"entries": [
				"从3级开始，你学会在战场上巩固自己的位置。每当你受到会使你俯卧或移动的影响时，你可以使用你的反应来保持你的位置。在你被抓紧的时候，这个功能不起作用。"
			]
		},
		{
			"name": "Ability Score Improvement",
			"source": "TheTitanClass",
			"className": "Titan",
			"classSource": "TheTitanClass",
			"level": 4,
			"entries": [
				"当你达到四级时，你可以将你选择的一项能力得分提高2分，或者你可以将你选择的两项能力得分提高1分，和通常一样，你不能用这个功能将能力得分提高到20分以上。",
				"如果你的DM允许使用特技，你可以改用特技。"
			]
		},
		{
			"name": "Codex",
			"source": "TheTitanClass",
			"className": "Titan",
			"classSource": "TheTitanClass",
			"level": 5,
			"entries": [
				"在5级的时候，你的训练达到了一个点，你必须采用一个法典来扩展新的视野。一个法典可以是任何东西，从一系列详细说明身体成长技巧的卷轴，到为冲击部队设计的高度军事化的训练团。有三种法典可供你使用，分别是《阿迪提人法典》、《奥尼人法典》和《长城法典》，所有这些都在等级描述的末尾有详细说明。"
			]
		},
		{
			"name": "Ability Score Improvement",
			"source": "TheTitanClass",
			"className": "Titan",
			"classSource": "TheTitanClass",
			"level": 6,
			"entries": [
				"当你达到6级时，你可以将你选择的一项能力得分提高2分，或者你可以将你选择的两项能力得分提高1分，和通常一样，你不能用这个功能将能力得分提高到20分以上。",
				"如果你的DM允许使用特技，你可以改用特技。"
			]
		},
		{
			"name": "Solemn Vigil",
			"source": "TheTitanClass",
			"className": "Titan",
			"classSource": "TheTitanClass",
			"level": 7,
			"entries": [
				"从第七级开始，你可以成为保护你的盟友和同伴的坚守者。当你进行长时间的休息时，你可以保持轻度的活动，例如守望，时间等于你的体质修正值，并且仍然获得长时间休息的好处。"
			]
		},
		{
			"name": "Ability Score Improvement",
			"source": "TheTitanClass",
			"className": "Titan",
			"classSource": "TheTitanClass",
			"level": 8,
			"entries": [
				"当你达到8级时，你可以将你选择的一项能力得分提高2分，或者你可以将你选择的两项能力得分提高1分，和通常一样，你不能用这个功能将能力得分提高到20分以上。",
				"如果你的DM允许使用特技，你可以改用特技。"
			]
		},
		{
			"name": "Earthshaker",
			"source": "TheTitanClass",
			"className": "Titan",
			"classSource": "TheTitanClass",
			"level": 9,
			"entries": [
				"当你达到9级时，你开始利用你的重量来操纵你所发动的战场。在你的回合中，当你对一个生物进行近战武器攻击时，你可以消耗两点力量来创造一个从接触点开始的冲击波，每个回合一次。所有在你周围10英尺内的生物（除你之外）都必须对你的威力救赎DC做出灵巧的救赎，如果失败，则俯卧并受到相当于你的武器基础伤害卷的力量伤害；如果成功，则保持直立并受到一半的伤害。"
			]
		},
		{
			"name": "Codex Feature",
			"source": "TheTitanClass",
			"className": "Titan",
			"classSource": "TheTitanClass",
			"level": 10,
			"entries": [
				"在10级时，你获得一个由你的泰坦法典授予的功能。"
			]
		},
		{
			"name": "Martial Prowess",
			"source": "TheTitanClass",
			"className": "Titan",
			"classSource": "TheTitanClass",
			"level": 11,
			"entries": [
				"在11级时，你挥舞武器的能力远远超过一般的骑士或士兵。",
				"在挥舞你精通的具有双手或重型属性，但没有特殊属性的近战武器时，你的武器的基本伤害模子增加一个尺寸，最大为d12，并且你获得一个额外的伤害模子。此外，如果你是小型或更小的，你的体型会增加到中型。",
				"如果你挥舞的是单手武器和盾牌，你的能力也会增长。如果你的武器具有多功能属性，你可以在使用盾牌时使用双手攻击的伤害模子。",
				"如果你以优雅和灵巧的方式挥舞武器，你对准确性和精确性的关注成为你战斗风格的关键点。每当你用带有灵巧属性的近战武器击中敌人时，如果你的攻击卷轴超过目标的护甲等级，你就会造成相当于你灵巧修饰值的额外伤害。",
				"当你达到18级时，这些功能会再次升级。"
			]
		},
		{
			"name": "Ability Score Improvement",
			"source": "TheTitanClass",
			"className": "Titan",
			"classSource": "TheTitanClass",
			"level": 12,
			"entries": [
				"当你达到12级时，你可以将你选择的一项能力得分提高2分，或者你可以将你选择的两项能力得分提高1分，和平常一样，你不能用这个功能将能力得分提高到20分以上。",
				"如果你的DM允许使用特技，你可以改用特技。"
			]
		},
		{
			"name": "Strategos",
			"source": "TheTitanClass",
			"className": "Titan",
			"classSource": "TheTitanClass",
			"level": 13,
			"entries": [
				"从13级开始，利用你或盟友在战场上创造的机会变得很自然，而且效果巨大。",
				"当你移动到一个处于俯卧状态且在你可及范围内的生物旁边时，或者一个生物在你可及范围内被击倒，你可以对该生物进行武器攻击作为反应。"
			]
		},
		{
			"name": "Unbreakable Mind",
			"source": "TheTitanClass",
			"className": "Titan",
			"classSource": "TheTitanClass",
			"level": 14,
			"entries": [
				"从14级开始，你作为泰坦的训练和心态使你的思想更加坚韧，不会受到会使你偏离目标的影响。你对那些会使你迷惑、眩晕、惊吓、或使你失去意识的效果进行蓄力攻击是有利的。"
			]
		},
		{
			"name": "Codex Feature",
			"source": "TheTitanClass",
			"className": "Titan",
			"classSource": "TheTitanClass",
			"level": 15,
			"entries": [
				"15级时，你获得一个由你的泰坦法典授予的功能。"
			]
		},
		{
			"name": "Ability Score Improvement",
			"source": "TheTitanClass",
			"className": "Titan",
			"classSource": "TheTitanClass",
			"level": 16,
			"entries": [
				"当你达到16级时，你可以将你选择的一项能力得分提高2分，或者你可以将你选择的两项能力得分提高1分，和平常一样，你不能用这个功能将能力得分提高到20分以上。",
				"如果你的DM允许使用特技，你可以改用特技。"
			]
		},
		{
			"name": "Invigorated Existence",
			"source": "TheTitanClass",
			"className": "Titan",
			"classSource": "TheTitanClass",
			"level": 17,
			"entries": [
				"从17级开始，你开始达到身体能力的顶点。一旦你达到这一点，你的身体会被动地获得以下好处。",
				"你在所有体质测试中获得优势。",
				"你可以屏住呼吸，时间相当于你体质得分的2倍，即使你开始窒息时没有屏住呼吸。",
				"你在所有针对疲惫的拯救动作上都有优势，而且你不会因为疲惫而死亡。",
				"你获得对毒物伤害的免疫力，以及对所有疾病的免疫力。",
				"一天的食物和水可以让你维持3天。",
				"只有在3天没有长时间休息的情况下，你才会因缺乏休息而感到疲惫。"
			]
		},
		{
			"name": "Martial Prowess (2)",
			"source": "TheTitanClass",
			"className": "Titan",
			"classSource": "TheTitanClass",
			"level": 17,
			"entries": [
				"你的没有特殊属性的双手或重型武器再次获得一个额外的模子，并且模子的大小再次增加到最大d12。",
				"此外，当你挥舞盾牌和具有多功能属性的武器时，除了在进行单手攻击时使用多功能模之外，你还会获得一个额外的伤害模。",
				"最后，当你挥舞着具有精巧属性的武器，用近战武器攻击击中一个生物时，如果你的攻击卷比目标的护甲等级大5或更多，则该生物会被认为容易受到攻击的伤害。"
			]
		},
		{
			"name": "Against All Odds",
			"source": "TheTitanClass",
			"className": "Titan",
			"classSource": "TheTitanClass",
			"level": 18,
			"entries": [
				"在18级时，当你的命中率降至0但没有被直接杀死时，你可以用你的反应来代替降至1的命中率。",
				"当你使用这个能力时，你会消耗所有剩余的力量值。你获得的临时命中率等于你的体质修正值乘以所消耗的力量值。这些临时命中率持续一分钟，当你拥有这些命中率时，你会在你的回合开始时重新获得相当于你的泰坦等级加上你的体质修正值的命中率。",
				"你可以在每个长期休息时间使用此功能一次。"
			]
		},
		{
			"name": "Ability Score Improvement",
			"source": "TheTitanClass",
			"className": "Titan",
			"classSource": "TheTitanClass",
			"level": 19,
			"entries": [
				"当你达到19级时，你可以将你选择的一项能力得分提高2分，或者你可以将你选择的两项能力得分提高1分，和平常一样，你不能用这个功能将能力得分提高到20分以上。",
				"如果你的DM允许使用特技，你可以改用特技。"
			]
		},
		{
			"name": "Codex Feature",
			"source": "TheTitanClass",
			"className": "Titan",
			"classSource": "TheTitanClass",
			"level": 20,
			"entries": [
				"在20级时，你获得一个由你的泰坦法典授予的功能。"
			]
		}
	],
	"subclassFeature": [
		{
			"name": "Codex of the Oni",
			"source": "TheTitanClass",
			"className": "Titan",
			"classSource": "TheTitanClass",
			"subclassShortName": "Oni",
			"subclassSource": "TheTitanClass",
			"level": 5,
			"entries": [
				"泰坦明白他们的身体是一种武器，然而，那些奥尼族人知道他们的身体也是一种资源。牺牲是有力量的，没有人比遵循这一信条的恶魔更能实践这一事实。"
			]
		},
		{
			"name": "Visage of the Oni",
			"source": "TheTitanClass",
			"className": "Titan",
			"classSource": "TheTitanClass",
			"subclassShortName": "Oni",
			"subclassSource": "TheTitanClass",
			"level": 5,
			"header": 2,
			"entries": [
				"在5级的时候，当你致力于训练鬼魂的时候，你的旅程从建造一个面具开始，当你在旅行的时候，你会戴着这个面具。你可以掷出D8并参考表格中的面具，从列表中选择一个，或者建造一个你自己的。",
				{
					"type": "table",
					"colLabels": [
						"{@dice d8}",
						"Mask Appearance"
					],
					"colStyles": [
						"col-1 text-center",
						"col-11"
					],
					"rows": [
						[
							{
								"type": "cell",
								"roll": {
									"exact": 1
								}
							},
							"孟婆面具"
						],
						[
							{
								"type": "cell",
								"roll": {
									"exact": 2
								}
							},
							"能动面具"
						],
						[
							{
								"type": "cell",
								"roll": {
									"exact": 3
								}
							},
							"Hyottolo面具"
						],
						[
							{
								"type": "cell",
								"roll": {
									"exact": 4
								}
							},
							"奥克梅面具"
						],
						[
							{
								"type": "cell",
								"roll": {
									"exact": 5
								}
							},
							"洋鬼子面具"
						],
						[
							{
								"type": "cell",
								"roll": {
									"exact": 6
								}
							},
							"汉雅面具"
						],
						[
							{
								"type": "cell",
								"roll": {
									"exact": 7
								}
							},
							"狐妖面具"
						],
						[
							{
								"type": "cell",
								"roll": {
									"exact": 8
								}
							},
							"天狗面具"
						]
					]
				}
			]
		},
		{
			"name": "Inhuman Resilience",
			"source": "TheTitanClass",
			"className": "Titan",
			"classSource": "TheTitanClass",
			"subclassShortName": "Oni",
			"subclassSource": "TheTitanClass",
			"level": 5,
			"header": 2,
			"entries": [
				"同样在5级时，你在鬼神的教导下的训练使你开始抵抗打击，并以非自然的方式修补自己。当你使用你的永久能力时，如果你抵抗的量大于你将会受到的伤害，你会恢复与之相等的命中率。"
			]
		},
		{
			"name": "Strength of Body",
			"source": "TheTitanClass",
			"className": "Titan",
			"classSource": "TheTitanClass",
			"subclassShortName": "Oni",
			"subclassSource": "TheTitanClass",
			"level": 10,
			"header": 2,
			"entries": [
				"一旦你达到10级，你就会了解到你的身体既是资源，也是你的管道，允许你的意志通过它的力量被塑造。",
				"当你的命中率达到或超过你最大命中率的一半时，你获得的攻击卷奖励等于你的体质修正值的一半，四舍五入。",
				"当你的命中率低于你最大命中率的一半时，你获得的伤害卷奖励等于你的宪法修改器的一半，四舍五入。"
			]
		},
		{
			"name": "Demon's Vitality",
			"source": "TheTitanClass",
			"className": "Titan",
			"classSource": "TheTitanClass",
			"subclassShortName": "Oni",
			"subclassSource": "TheTitanClass",
			"level": 15,
			"header": 2,
			"entries": [
				"从15级开始，你已经开始在奥尼的旗帜下达到你能力的山顶，你的身体开始被你的天职所衍生的生命的力量所塑造。",
				"你在这个等级的每一级都会获得1个额外的最大命中点。这个奖励可追溯到以前获得的等级。",
				"此外，你在救死扶伤方面有优势，在19-20分的情况下，你会以一个命中率站起来。最后，当你的死亡拯救术取得关键性的成功时，你会自动站立而不需要消耗移动力。"
			]
		},
		{
			"name": "Lifeblood of the Oni",
			"source": "TheTitanClass",
			"className": "Titan",
			"classSource": "TheTitanClass",
			"subclassShortName": "Oni",
			"subclassSource": "TheTitanClass",
			"level": 20,
			"header": 2,
			"entries": [
				"在20级的时候，你会成为一个Oni。一个在地球上行走的真正的恶魔。你的身体自我修复的速度比你的敌人能够伤害它的速度更快，你的力量之井几乎变得无限。一旦你达到这一点，你将获得以下好处。",
				"当低于你最大命中率的一半但不是0命中率时，你会在回合开始时重新获得相当于你体质修饰值两倍的命中率。",
				"当你没有力量可供消耗时，你可以利用你的身体来进行消耗。在你没有威力的时候，你可以失去10点命中率来为该能力提供能量，而不是花费一个威力点。这个能力只能在使用需要威力的能力时使用，而且这个能力产生的威力如果没有立即消耗掉，就会丢失。"
			]
		},
		{
			"name": "Codex of the Wall",
			"source": "TheTitanClass",
			"className": "Titan",
			"classSource": "TheTitanClass",
			"subclassShortName": "Wall",
			"subclassSource": "TheTitanClass",
			"level": 5,
			"entries": [
				"泰坦是力量的典范，他们的力量是无止境的，然而本法典中的泰坦遵循一个简单的原则：\"我不会被感动。\""
			]
		},
		{
			"name": "Ironclad",
			"source": "TheTitanClass",
			"className": "Titan",
			"classSource": "TheTitanClass",
			"subclassShortName": "Wall",
			"subclassSource": "TheTitanClass",
			"level": 5,
			"header": 2,
			"entries": [
				"在5级时，作为遵循长城法典的泰坦，你对盔甲和防御技术的训练成为你的武术重点。",
				"此外，当你穿着重甲并挥舞着盾牌时，你的护甲等级增加1。这个减伤在抵抗力之前就已经应用了。"
			]
		},
		{
			"name": "Line in the Sand",
			"source": "TheTitanClass",
			"className": "Titan",
			"classSource": "TheTitanClass",
			"subclassShortName": "Wall",
			"subclassSource": "TheTitanClass",
			"level": 10,
			"header": 2,
			"entries": [
				"当你达到10级时，你会明白，一个军团的士兵可以坚守一个月，然而你可以永远坚守一个阵地。",
				"作为一个额外动作，你可以进入一个防御姿态，直到你下一个回合开始。在这个姿态下，如果你会进行一次机会攻击，你可以花费一个威力点来使这次机会攻击不消耗你的反应。",
				"此外，你可以使用你的反应对在你范围内结束其回合的生物进行一次武器攻击。你只有在本回合内没有移动的情况下才能使用这个奖励动作，而且在你使用奖励动作后，你的速度为0，直到当前回合结束。"
			]
		},
		{
			"name": "Man At Arms",
			"source": "TheTitanClass",
			"className": "Titan",
			"classSource": "TheTitanClass",
			"subclassShortName": "Wall",
			"subclassSource": "TheTitanClass",
			"level": 15,
			"header": 2,
			"entries": [
				"从15级开始，你在防御技术方面的训练已经达到了一个近乎完美的阶段。你的盔甲变成了第二层皮肤，而你的武器则是你意志的延伸。",
				"当你攻击一个敌人时，你可以强迫他们攻击你。该生物必须进行智慧救赎，否则在所有针对非你的目标的攻击卷中都会处于劣势，直到你的第九回合结束。",
				"此外，在穿着重甲时，你对关键打击的影响免疫。"
			]
		},
		{
			"name": "Insurmountable",
			"source": "TheTitanClass",
			"className": "Titan",
			"classSource": "TheTitanClass",
			"subclassShortName": "Wall",
			"subclassSource": "TheTitanClass",
			"level": 20,
			"header": 2,
			"entries": [
				"在20级时，你已经成为不可移动的物体。你的盟友可以在你身后找到避难所，你的盟友也可以成为你所珍视的坚定的卫士。",
				"作为对受到伤害或受到你不想受到的状态效果影响的反应，你可以花费5点力量。如果你这样做了，你就会忽略那一次的伤害或状态效果。此外，在你使用这个反应后，你对所有的伤害都有抵抗力，并且在你的下一个回合开始前，你的所有蓄力动作都是有利的。",
				"你可以在每个长期休息时间使用这个反应两次。"
			]
		},
		{
			"name": "Codex of the Arditi",
			"source": "TheTitanClass",
			"className": "Titan",
			"classSource": "TheTitanClass",
			"subclassShortName": "Arditi",
			"subclassSource": "TheTitanClass",
			"level": 5,
			"entries": [
				"虽然泰坦整体上是身体能力的巅峰，但《阿迪迪法典》的泰坦是那些磨练他们的思想和能力以制作有史以来最伟大的战争武器之一的人。"
			]
		},
		{
			"name": "Mortaio Infernale",
			"source": "TheTitanClass",
			"className": "Titan",
			"classSource": "TheTitanClass",
			"subclassShortName": "Arditi",
			"subclassSource": "TheTitanClass",
			"level": 5,
			"header": 2,
			"entries": [
				"当你采用Arditi的法典时，你会得到一套计划和材料清单，以制作超越那些仅靠力量挥舞的武器。",
				"你获得对工匠工具的熟练度，并可以在使用这些工具进行的任何检查中获得双倍的熟练度奖励。",
				"此外，你还获得了制作武器的能力，可以直接从你的内在力量库中获取动力来驱动它的引擎。这种武器的材料成本是价值500Gp的精细金属、部件和一个小型引擎，此外还需要20天的工作来建造这个武器。",
				"最后，这把武器一旦达到了你的交错打击和撼地者功能，就能使用。交错打击可以对炮弹接触点半径内的单个目标使用，而震地的冲击波则源自接触点。",
				{
					"type": "inset",
					"name": "Mortaio Infernale",
					"entries": [
						"{@i Two-handed, Special}",
						"{@b Range:} 5英尺半径的300英尺内的一个点。",
						"{@b Damage:} 3d8火",
						"{@b Save:}对你的威力救赎DC的灵巧救赎动作",
						"{@b Ammunition:}每次射击都有1种威力",
						"{@i Mortaio Infernale may only be fired once per turn}"
					]
				}
			]
		},
		{
			"name": "Crescendo Ardente",
			"source": "TheTitanClass",
			"className": "Titan",
			"classSource": "TheTitanClass",
			"subclassShortName": "Arditi",
			"subclassSource": "TheTitanClass",
			"level": 10,
			"header": 2,
			"entries": [
				"从10级开始，你利用自己的力量之井制作战争火焰的能力成为你科学的焦点。",
				"你的Mortaio Infernale造成的火灾伤害无视对火灾伤害的抵抗，伤害增加到4d10。这在第17级时再次增加到5d12。"
			]
		},
		{
			"name": "Scudo Termico",
			"source": "TheTitanClass",
			"className": "Titan",
			"classSource": "TheTitanClass",
			"subclassShortName": "Arditi",
			"subclassSource": "TheTitanClass",
			"level": 15,
			"header": 2,
			"entries": [
				"15级时，你的火焰比任何对手都要明亮。你的Mortaio Infernale造成的伤害无视对火伤害的免疫。此外，你作为一个爆炸专家的能力已接近顶峰，并开始对你的迫击炮进行了无数次的小规模更新。你的武器获得了以下特点。",
				{
					"type": "list",
					"items": [
						"当在迫击炮的15英尺范围内，生物对寒冷的伤害有抵抗力，对极度寒冷的影响在蓄力时有优势。",
						"你的迫击炮在15英尺以外产生亮光，在另外15英尺以内产生暗光。",
						"在野营时，你的迫击炮可以作为篝火的替代品，满足篝火的所有需求。在长时间休息时，在迫击炮周围花费至少一半的休息时间的生物会获得相当于泰坦等级+构架修改器的临时命中率。这些命中率会持续24小时，或者直到再次进行长时休息。"
					]
				}
			]
		},
		{
			"name": "Cieli In Fiamme",
			"source": "TheTitanClass",
			"className": "Titan",
			"classSource": "TheTitanClass",
			"subclassShortName": "Arditi",
			"subclassSource": "TheTitanClass",
			"level": 20,
			"header": 2,
			"entries": [
				"最后，在20级的时候，你已经成为战争的预言家，火焰的国王，以及真正的阿迪提斯泰坦。",
				"你获得对火焰伤害的免疫力。此外，每当敌人对你的Mortaio Infernale的灵巧救赎失败，他们就会被点燃。着火的生物在他们的回合开始时受到1d12的火焰伤害，直到他们或5英尺内的其他生物使用他们的行动来扑灭火焰。此外，当一个生物以这种方式着火时，他们的所有攻击都处于劣势，并且不能对任何法术保持专注。"
			]
		}
	],
	"subclass": [
		{
			"name": "Codex of the Oni",
			"subclassFeatures": [
				"Codex of the Oni|Titan|TheTitanClass|Oni|TheTitanClass|5",
				"Visage of the Oni|Titan|TheTitanClass|Oni|TheTitanClass|5",
				"Inhuman Resilience|Titan|TheTitanClass|Oni|TheTitanClass|5",
				"Strength of Body|Titan|TheTitanClass|Oni|TheTitanClass|10",
				"Demon's Vitality|Titan|TheTitanClass|Oni|TheTitanClass|15",
				"Lifeblood of the Oni|Titan|TheTitanClass|Oni|TheTitanClass|20"
			],
			"source": "TheTitanClass",
			"shortName": "Oni",
			"className": "Titan",
			"classSource": "TheTitanClass"
		},
		{
			"name": "Codex of the Wall",
			"subclassFeatures": [
				"Codex of the Wall|Titan|TheTitanClass|Wall|TheTitanClass|5",
				"Ironclad|Titan|TheTitanClass|Wall|TheTitanClass|5",
				"Line in the Sand|Titan|TheTitanClass|Wall|TheTitanClass|10",
				"Man At Arms|Titan|TheTitanClass|Wall|TheTitanClass|15",
				"Insurmountable|Titan|TheTitanClass|Wall|TheTitanClass|20"
			],
			"source": "TheTitanClass",
			"shortName": "Wall",
			"className": "Titan",
			"classSource": "TheTitanClass"
		},
		{
			"name": "Codex of the Arditi",
			"subclassFeatures": [
				"Codex of the Arditi|Titan|TheTitanClass|Arditi|TheTitanClass|5",
				"Mortaio Infernale|Titan|TheTitanClass|Arditi|TheTitanClass|5",
				"Crescendo Ardente|Titan|TheTitanClass|Arditi|TheTitanClass|10",
				"Scudo Termico|Titan|TheTitanClass|Arditi|TheTitanClass|15",
				"Cieli In Fiamme|Titan|TheTitanClass|Arditi|TheTitanClass|20"
			],
			"source": "TheTitanClass",
			"shortName": "Arditi",
			"className": "Titan",
			"classSource": "TheTitanClass"
		}
	]
}
