{
	"_meta": {
		"sources": [
			{
				"json": "NeThingMagicCardSlinger",
				"abbreviation": "TCS",
				"full": "The Card Slinger",
				"version": "1.0.8",
				"url": "https://www.dandwiki.com/w/index.php?title=Card_Slinger_(5e_Class)&offset=&limit=500&action=history",
				"authors": [
					"NeThingMagic"
				],
				"convertedBy": [
					"Too Tall Tye#1025"
				]
			}
		],
		"dateAdded": 1549715846,
		"dateLastModified": 1549715846,
		"_dateLastModifiedHash": "035640ecf2"
	},
	"class": [
		{
			"name": "Card Slinger",
			"source": "NeThingMagicCardSlinger",
			"fluff": [
				{
					"type": "section",
					"name": "The Card Slinger",
					"source": "NeThingMagicCardSlinger",
					"entries": [
						"一个人站在一对从另一边封住的门前。他拿出他的扑克牌，洗了洗，然后从上面抽出一张牌。这张牌在他的手中开始发亮。他把它塞到门之间，然后退后一步。这张牌爆炸了，让门变成了碎片。一个女人在街上跑，被一群暴徒追赶。她掏出她的牌，迅速洗牌。她抽出最上面的牌。这张牌开始发亮。她把它丢在地上。一会儿，当暴徒们从牌上跑过时，这张牌爆炸了，把暴徒们都干掉了。一场战斗在一个被鲜血浸透的场地上激烈地进行着，在这个场地上可以看到一个高贵的城堡。在战斗的中心，站着一个孤独的、饱经战火的铁皮人在为自己的生命而战。一对巨大的幽灵手臂从他的背上长出，让这个铁皮人可以同时挥舞四把斧头。他冲向一群士兵，当这个孤独的身影切入敌人的阵营时，他用火焰包裹着自己。每一步都可能是他的最后一步，但这个铁皮人却带着最灿烂的笑容战斗。",
						"一支冒险队伍在森林中被妖精包围。吊牌手拿出牌组，洗牌后抽出顶牌。这张牌开始发亮，然后吊死鬼扔出了这张牌。一会儿，它爆炸了，干掉了一个妖精。",
						{
							"type": "entries",
							"name": "The Power In Your Hand",
							"entries": [
								"一副牌被洗的声音是你灵魂的音乐。牌在你手中的感觉就像刺客手中的匕首一样自然。牌是你的工具，你的武器，和你的焦点。在你的手中，你的灵魂进入牌中，把它们从普通的牌变成更多的东西。这种联系不仅仅是一种感觉，它是一种魔法，你可以用你的灵魂把牌变成炸弹。"
							]
						},
						{
							"type": "entries",
							"name": "Creating a Card Slinger",
							"entries": [
								"当你创造你的卡片吊索时，请考虑一下你为什么与你的牌组结合在一起。是什么原因导致了卡牌的出现？是什么促使你的角色选择这个职业？是名声、对牌的依恋，还是其他原因？在创造吊牌手时，也要考虑一下你的角色有什么目标。"
							]
						},
						{
							"type": "entries",
							"name": "Quick Build",
							"entries": [
								"按照这些建议，你可以迅速成为一个吊牌手。首先，魅力应该是你最高的能力得分，其次是灵巧。第二，选择慈善家的背景。"
							]
						}
					]
				}
			],
			"hd": {
				"number": 1,
				"faces": 8
			},
			"proficiency": [
				"dex",
				"cha"
			],
			"startingProficiencies": {
				"armor": [
					"light"
				],
				"weapons": [
					"simple",
					"martial"
				],
				"tools": [
					"Deck of Cards"
				],
				"skills": [
					{
						"choose": {
							"from": [
								"arcana",
								"deception",
								"insight",
								"perception",
								"stealth",
								"sleight of hand"
							],
							"count": 3
						}
					}
				]
			},
			"startingEquipment": {
				"additionalFromBackground": true,
				"default": [
					"(a) a {@item dagger|phb} or (b) a {@filter simple weapon|items|source=phb|category=basic|type=simple weapon} or (c) a {@filter martial weapon|items|source=phb|category=basic|type= martial weapon}",
					"(a) a {@item Diplomat's Pack|PHB} or (b) a {@item Burglar's Pack|phb}",
					"(a) {@item leather armor|pbh}, a {@item dagger|phb}, and a deck of playing cards or (b) {@item leather armor|pbh}, a {@item shortsword|phb}, and a deck of playing cards"
				],
				"goldAlternative": "{@dice 4d4×10}",
				"defaultData": [
					{
						"a": [],
						"b": [],
						"c": []
					},
					{
						"a": [],
						"b": []
					},
					{
						"a": [],
						"b": []
					}
				]
			},
			"classTableGroups": [
				{
					"colLabels": [
						"Backstab"
					],
					"rows": [
						[
							"-"
						],
						[
							"{@dice 1d6}"
						],
						[
							"{@dice 1d6}"
						],
						[
							"{@dice 1d6}"
						],
						[
							"{@dice 1d6}"
						],
						[
							"{@dice 1d6}"
						],
						[
							"{@dice 2d6}"
						],
						[
							"{@dice 2d6}"
						],
						[
							"{@dice 2d6}"
						],
						[
							"{@dice 2d6}"
						],
						[
							"{@dice 2d6}"
						],
						[
							"{@dice 3d6}"
						],
						[
							"{@dice 3d6}"
						],
						[
							"{@dice 3d6}"
						],
						[
							"{@dice 3d6}"
						],
						[
							"{@dice 3d6}"
						],
						[
							"{@dice 4d6}"
						],
						[
							"{@dice 4d6}"
						],
						[
							"{@dice 4d6}"
						],
						[
							"{@dice 4d6}"
						]
					]
				}
			],
			"classFeatures": [
				"The Deck|Card Slinger|NeThingMagicCardSlinger|1",
				"One With Shadows|Card Slinger|NeThingMagicCardSlinger|2",
				"Backstab|Card Slinger|NeThingMagicCardSlinger|2",
				"Action Surge|Card Slinger|NeThingMagicCardSlinger|2",
				{
					"classFeature": "Card Slinger Hand|Card Slinger|NeThingMagicCardSlinger|3",
					"gainSubclassFeature": true
				},
				"Ability Score Improvement|Card Slinger|NeThingMagicCardSlinger|4",
				"Gambler's Luck|Card Slinger|NeThingMagicCardSlinger|5",
				"Extra Attack|Card Slinger|NeThingMagicCardSlinger|5",
				"Going the Distance|Card Slinger|NeThingMagicCardSlinger|6",
				{
					"classFeature": "Hand Feature|Card Slinger|NeThingMagicCardSlinger|6",
					"gainSubclassFeature": true
				},
				"Evasion|Card Slinger|NeThingMagicCardSlinger|7",
				"Ability Score Improvement|Card Slinger|NeThingMagicCardSlinger|8",
				"Calling Card|Card Slinger|NeThingMagicCardSlinger|9",
				"Curving the Card|Card Slinger|NeThingMagicCardSlinger|9",
				{
					"classFeature": "Hand Feature|Card Slinger|NeThingMagicCardSlinger|10",
					"gainSubclassFeature": true
				},
				"Mulligan|Card Slinger|NeThingMagicCardSlinger|11",
				"Ability Score Improvement|Card Slinger|NeThingMagicCardSlinger|12",
				"Card Gambit|Card Slinger|NeThingMagicCardSlinger|14",
				{
					"classFeature": "Hand Feature|Card Slinger|NeThingMagicCardSlinger|15",
					"gainSubclassFeature": true
				},
				"Ability Score Improvement|Card Slinger|NeThingMagicCardSlinger|16",
				"Shadow Walk|Card Slinger|NeThingMagicCardSlinger|17",
				"Action Surge (two uses)|Card Slinger|NeThingMagicCardSlinger|17",
				"Resolute Mind|Card Slinger|NeThingMagicCardSlinger|18",
				"Ability Score Improvement|Card Slinger|NeThingMagicCardSlinger|19",
				"Stacked Deck|Card Slinger|NeThingMagicCardSlinger|20"
			],
			"subclassTitle": "Hand"
		}
	],
	"classFeature": [
		{
			"name": "The Deck",
			"source": "NeThingMagicCardSlinger",
			"className": "Card Slinger",
			"classSource": "NeThingMagicCardSlinger",
			"level": 1,
			"entries": [
				"吊牌手使用一副包含四种花色（梅花、方块、红心、黑桃）的数字或字母牌。每种花色都有13张牌，从2到10编号，字母为J、Q、K、A（J、Q、K、A），如果丢了一张牌，就必须更换整副牌。这副牌里必须有每一种花色和数字，否则就不能用，所以用52张黑桃A做一副牌是不行的。此外，如果你的牌组包括Jokers，当你与之结合时，你的牌组中必须有Jokers。牌用完后，你可以拿起牌，把牌重新洗回牌组中。",
				{
					"type": "entries",
					"name": "Using the deck",
					"entries": [
						"作为一个动作，你可以用一张抽到的牌进行一次范围为30英尺的攻击。抽出的牌必须在洗牌后从牌的顶部抽出。洗牌和抽牌被视为行动的一部分。你可以选择使用你的魅力修改器来进行这些攻击卷，而不是使用你的灵巧修改器。",
						"你的一些卡牌效果需要你的目标做出一个蓄力动作来抵抗效果。蓄力DC的计算方法如下。",
						{
							"type": "abilityDc",
							"name": "Card Slinger",
							"attributes": [
								"cha"
							]
						}
					]
				},
				{
					"type": "entries",
					"name": "Bonding with your Deck",
					"entries": [
						"在长时间的休息中，你必须花不少于30分钟来照顾你的牌。这可能是给它们打上新的蜡，把它们分开，把它们晾起来，等等。你还必须至少洗一次牌，以便给它们注入魔法。如果这些事情被省略了，牌就会失去魔力，直到你完成这个过程。"
					]
				},
				{
					"type": "entries",
					"name": "The Suits",
					"entries": [
						"当抽到一张牌时，套装决定了攻击的伤害类型，以及应用于该牌击中的生物的特殊效果。你可以选择在进行攻击卷时，让该生物不受此特殊效果的影响。",
						"增加花色的效果不适用于2、5和8这三张牌（D6）。",
						"对于第3、6和9张牌，（d8的牌），生效的救赎是。",
						"                   等于6+你的魅力修改器的一半（四舍五入）。",
						{
							"type": "list",
							"style": "list-hang",
							"name": "Clubs ♣ ♣️ ♣️  : Lightning Damage",
							"items": [
								"{@b Clubs represents mind, speech and words. These are neutral qualities:}",
								{
									"type": "list",
									"style": "list-no-bullets",
									"items": [
										"{@i A creature hit by the effect of a} {@u {@b Clubs Card ♣ ♣️ ♣️}} {@i needs to pass a Constitution saving throw or be unable to take reactions and bonus actions until the end of its next turn.}"
									]
								}
							]
						},
						{
							"type": "list",
							"style": "list-hang",
							"name": "Hearts ♥️ ♥️ ♥️ : Cold Damage",
							"items": [
								"{@b Hearts stands for love, emotions, imagination, subconscious and other feminine qualities:}",
								{
									"type": "list",
									"style": "list-no-bullets",
									"items": [
										"{@i A creature hit by the effect of a} {@u {@b Hearts card ♥️ ♥️ ♥️}} {@i needs to pass a Constitution saving throw or have its movement speed halved until the end of its next turn.}"
									]
								}
							]
						},
						{
							"type": "list",
							"style": "list-hang",
							"name": "Spades ♠️ ♠️ ♠️ : Fire Damage",
							"items": [
								"{@b Spades symbolizes willpower, courage, strength and other masculine qualities:}",
								{
									"type": "list",
									"style": "list-no-bullets",
									"items": [
										"{@i A creature hit by the effect of a} {@u {@b Spades card ♠️ ♠️ ♠️}} {@i needs to pass a Constitution saving throw or be blinded until the end of its next turn.}"
									]
								}
							]
						},
						{
							"type": "list",
							"style": "list-hang",
							"name": "Diamonds ♦️ ♦️ ♦️ : Acid Damage",
							"items": [
								"{@b Diamonds signifies wealth and matter:}",
								{
									"type": "list",
									"style": "list-no-bullets",
									"items": [
										"{@i A creature hit by the effect of a} {@u {@b Diamonds card ♦️ ♦️ ♦️}} {@i needs to pass a Constitution saving throw poisoned until the end of its next turn.}"
									]
								}
							]
						}
					]
				},
				{
					"type": "entries",
					"name": "The Numbers",
					"entries": [
						"虽然花色选择了爆炸的元素，但牌上的数字却决定了会造成多大的伤害。",
						{
							"type": "list",
							"style": "list-hang",
							"name": "Cards 2, 5, and 8:",
							"items": [
								"这些牌会造成1d6 + 魅力修改器。",
								"5的人也得到一个+1，而8的人得到一个+2。",
								"{@i You gain an additional 1d6 damage die at Card Slinger levels at 4th, 8th, 12th, and 16th.}"
							]
						},
						{
							"type": "list",
							"style": "list-hang",
							"name": "Cards 3, 6, and 9:",
							"items": [
								"这些牌会造成1d8+魅力修改器+套装的伤害",
								"6的人也得到一个+1，而9的人得到一个+2。",
								"{@i You gain an additional 1d8 damage die at Card Slinger levels at 4th, 8th, 12th, and 16th.}"
							]
						},
						{
							"type": "list",
							"style": "list-hang",
							"name": "Cards 4, 7, and 10:",
							"items": [
								"这些牌会造成1d10+魅力修改器加套装的伤害",
								"7的也得到一个+1，而10的得到一个+2。",
								"{@i You gain an additional 1d10 damage die at Card Slinger levels at 4th, 8th, 12th, and 16th.}"
							]
						},
						{
							"type": "list",
							"style": "list-hang",
							"name": "ACE & FACE CARDS:",
							"items": [
								"{@u ACE & FACE CARDS {@b  {@color DO NOT|e40707}}与其他J、Q、K或A叠加！}。",
								"对ACE和FACE牌的套装有{@color NO|e40707}的附加效果。",
								"如果在同一回合抽出一个以上的J、Q、King或A，最后抽出的那张牌是唯一会被激活的牌。",
								{
									"type": "list",
									"items": [
										"然后将未激活的牌加入到弃牌堆中。"
									]
								}
							]
						},
						{
							"type": "list",
							"style": "list-hang",
							"name": "Jacks:",
							"items": [
								"杰克牌赋予下一张牌以力量，给予攻击和伤害卷额外的1D4。",
								"{@i The additional damage becomes at the following Card Slinger levels:}",
								{
									"type": "list",
									"items": [
										"4级1d6。",
										"8级1d8。",
										"12级1d10。",
										"16级1d12。"
									]
								}
							]
						},
						{
							"type": "list",
							"style": "list-hang",
							"name": "Queens:",
							"items": [
								"如果下一张牌是女王牌，那么女王牌就会有以下的奖金。",
								{
									"type": "list",
									"items": [
										"2,3或4=你在这张牌的攻击卷上获得优势。",
										"5到10 = 如果这张牌被击中，该生物在这张牌的伤害套装的宪法保护上有一个-2的惩罚。",
										"在13级时，惩罚增加1，变成-3。"
									]
								}
							]
						},
						{
							"type": "list",
							"style": "list-hang",
							"name": "Kings:",
							"items": [
								"国王牌现在为下一张牌增加了一个AOE。",
								"",
								{
									"type": "list",
									"items": [
										"你将下一张牌掷向范围内的一个生物。你用抽到的牌对目标进行一次远程攻击。一旦命中，目标将受到所掷牌的数量和花色的伤害。",
										"击中后，目标必须进行宪法规定的第一轮救赎。",
										"在击中或未击中的情况下，套装伤害会引起爆炸。目标和它周围10英尺内的每一个生物都必须在灵巧的救赎中成功对抗卡片吊索的DC，否则就会受到2d6的套装伤害。拯救成功后就没有了。"
									]
								}
							]
						},
						{
							"type": "list",
							"style": "list-hang",
							"name": "Aces:",
							"items": [
								"A牌授予下一张牌。",
								{
									"type": "list",
									"items": [
										"在攻击卷上有优势。",
										"使下一张牌的伤害骰子加倍。",
										"无视抵抗力和免疫力的能力。"
									]
								}
							]
						},
						{
							"type": "list",
							"style": "list-hang",
							"name": "Jokers:",
							"items": [
								"小丑为范围内的单个目标治疗1d12+魅力修改器。",
								{
									"type": "list",
									"items": [
										"这张牌还能结束麻痹、眩晕、中毒或失明的状况。",
										"疗效在以下级别增加。",
										"4级2d12。",
										"8级3d12。",
										"12级4d12。",
										"16级5d12。",
										"20级6d12。"
									]
								}
							]
						}
					]
				}
			]
		},
		{
			"name": "One With Shadows",
			"source": "NeThingMagicCardSlinger",
			"className": "Card Slinger",
			"classSource": "NeThingMagicCardSlinger",
			"level": 2,
			"entries": [
				"在2级时，你获得了对隐身技能的熟练度，如果你已经有了熟练度，那么在你进行任何灵巧（隐身）检查时，你的熟练度加成会翻倍。"
			]
		},
		{
			"name": "Backstab",
			"source": "NeThingMagicCardSlinger",
			"className": "Card Slinger",
			"classSource": "NeThingMagicCardSlinger",
			"level": 2,
			"entries": [
				"从第2级开始，打击不知道的目标对你来说已经变得很幸运了。每回合一次，如果你在攻击卷上有优势，你可以对一个被你击中的生物造成额外的1d6伤害。这次攻击必须使用单手武器或远程武器。你的牌可以利用这个额外的伤害。",
				"如果目标的另一个敌人在它的5英尺范围内，该敌人没有丧失能力，并且你在攻击卷上没有劣势，你就不需要在攻击卷上有优势。",
				"额外伤害的数量会随着你在这个等级中获得的等级而增加，如卡片投掷者表格中的背刺一栏所示。"
			]
		},
		{
			"name": "Action Surge",
			"source": "NeThingMagicCardSlinger",
			"className": "Card Slinger",
			"classSource": "NeThingMagicCardSlinger",
			"level": 2,
			"entries": [
				"从第2级开始，你可以暂时超越你的正常极限，推动自己。在你的回合中，你可以在你的常规行动和可能的奖励行动之外，再采取一个额外的行动。",
				"一旦你使用了这个功能，你必须在完成一次短时或长时休息后才能再次使用它。从17级开始，你可以在短时或长时休息前使用它两次，但在同一回合只能使用一次。"
			]
		},
		{
			"name": "Card Slinger Hand",
			"source": "NeThingMagicCardSlinger",
			"className": "Card Slinger",
			"classSource": "NeThingMagicCardSlinger",
			"level": 3,
			"entries": [
				"在3级时，你从可用的手牌中选择一个你努力模仿的手牌。这些手的细节如下。你的选择在3级时授予你特性，在6级、10级和15级时再次授予。"
			]
		},
		{
			"name": "Ability Score Improvement",
			"source": "NeThingMagicCardSlinger",
			"className": "Card Slinger",
			"classSource": "NeThingMagicCardSlinger",
			"level": 4,
			"entries": [
				"当你达到四级时，你可以将你选择的一项能力得分提高2分，或者将你选择的两项能力得分提高1分。",
				"如果你的DM允许使用功法，你可以改用（%0%）。"
			]
		},
		{
			"name": "Gambler's Luck",
			"source": "NeThingMagicCardSlinger",
			"className": "Card Slinger",
			"classSource": "NeThingMagicCardSlinger",
			"level": 5,
			"entries": [
				"从5级开始，你使用单手武器时的近身攻击，在自然条件下的19和20都是关键打击。",
				"此外，当你在远程武器的攻击卷或伤害卷上掷出1时，你可以重新掷出骰子，并且必须使用新的骰子，即使新的骰子是1。"
			]
		},
		{
			"name": "Extra Attack",
			"source": "NeThingMagicCardSlinger",
			"className": "Card Slinger",
			"classSource": "NeThingMagicCardSlinger",
			"level": 5,
			"entries": [
				"从5级开始，每当你在你的回合中采取攻击行动时，你可以攻击两次，而不是一次。"
			]
		},
		{
			"name": "Going the Distance",
			"source": "NeThingMagicCardSlinger",
			"className": "Card Slinger",
			"classSource": "NeThingMagicCardSlinger",
			"level": 6,
			"entries": [
				"从第6级开始，你可以把抽到的牌扔出去的距离增加到120英尺。",
				"在用你的牌进行攻击时，你可以无视半数和四分之三的掩护。",
				"对于第2、5和8张牌，（d6的）救赎效果等于6+你的魅力修正值的一半（四舍五入）。",
				"对于3、6和9这三张牌，（D8）的正常花色效果现在适用于这些牌。",
				"在12级时，所有数字的效果都被正常处理。"
			]
		},
		{
			"name": "Hand Feature",
			"source": "NeThingMagicCardSlinger",
			"className": "Card Slinger",
			"classSource": "NeThingMagicCardSlinger",
			"level": 6,
			"entries": [
				"在6级时，你获得了由你的卡片投掷者之手授予的一项功能。"
			]
		},
		{
			"name": "Evasion",
			"source": "NeThingMagicCardSlinger",
			"className": "Card Slinger",
			"classSource": "NeThingMagicCardSlinger",
			"level": 7,
			"entries": [
				"从7级开始，你可以灵活地躲避某些区域效应，例如红龙的火热气息或冰风暴的咒语。当你受到的效果允许你做一个灵巧的蓄力动作来承受一半的伤害时，如果你蓄力动作成功，你就不会受到伤害，如果失败，你就只会受到一半的伤害。"
			]
		},
		{
			"name": "Ability Score Improvement",
			"source": "NeThingMagicCardSlinger",
			"className": "Card Slinger",
			"classSource": "NeThingMagicCardSlinger",
			"level": 8,
			"entries": [
				"当你达到8级时，你可以将你选择的一个能力得分提高2分，或者将你选择的两个能力得分提高1分。",
				"如果你的DM允许使用功法，你可以改用（%0%）。"
			]
		},
		{
			"name": "Calling Card",
			"source": "NeThingMagicCardSlinger",
			"className": "Card Slinger",
			"classSource": "NeThingMagicCardSlinger",
			"level": 9,
			"entries": [
				"从9级开始，你可以在扔牌的时候选择让它在爆炸后回到你身边。任何你选择返回的牌将在你下一回合开始时回到牌组中。"
			]
		},
		{
			"name": "Curving the Card",
			"source": "NeThingMagicCardSlinger",
			"className": "Card Slinger",
			"classSource": "NeThingMagicCardSlinger",
			"level": 9,
			"entries": [
				"从第9级开始，你可以使你扔出的牌变成曲线，以便它们可以绕过角落。你会变得非常擅长，可以让一张牌弯曲到90度。",
				"你必须站在你想让你的牌绕过的区域的10英尺范围内。",
				"使用此能力时，该卡可移动的距离减半。"
			]
		},
		{
			"name": "Hand Feature",
			"source": "NeThingMagicCardSlinger",
			"className": "Card Slinger",
			"classSource": "NeThingMagicCardSlinger",
			"level": 10,
			"entries": [
				"在10级时，你获得了一个由你的 \"吊卡手 \"授予的功能。"
			]
		},
		{
			"name": "Mulligan",
			"source": "NeThingMagicCardSlinger",
			"className": "Card Slinger",
			"classSource": "NeThingMagicCardSlinger",
			"level": 11,
			"entries": [
				"从11级开始，在你抽到一张牌之后，你可以作为一个额外的动作，将这张牌放回牌组，重新洗牌，然后再次抽牌。",
				"你可以使用这个功能一次，在你掷出主动权时，或在你完成短时或长时休息后，重新获得任何已消耗的功能。"
			]
		},
		{
			"name": "Ability Score Improvement",
			"source": "NeThingMagicCardSlinger",
			"className": "Card Slinger",
			"classSource": "NeThingMagicCardSlinger",
			"level": 12,
			"entries": [
				"当你达到12级时，你可以将你选择的一项能力得分提高2分，或者将你选择的两项能力得分提高1分。",
				"如果你的DM允许使用功法，你可以改用（%0%）。"
			]
		},
		{
			"name": "Card Gambit",
			"source": "NeThingMagicCardSlinger",
			"className": "Card Slinger",
			"classSource": "NeThingMagicCardSlinger",
			"level": 14,
			"entries": [
				"从14级开始，当你30英尺内的敌人用近战或远程攻击没有击中你或盟友时，你可以用你的反应向错过攻击的敌人扔一张牌。"
			]
		},
		{
			"name": "Hand Feature",
			"source": "NeThingMagicCardSlinger",
			"className": "Card Slinger",
			"classSource": "NeThingMagicCardSlinger",
			"level": 15,
			"entries": [
				"在14级时，你获得了由你的 \"吊卡手 \"赋予的一项功能。"
			]
		},
		{
			"name": "Ability Score Improvement",
			"source": "NeThingMagicCardSlinger",
			"className": "Card Slinger",
			"classSource": "NeThingMagicCardSlinger",
			"level": 16,
			"entries": [
				"当你达到16级时，你可以将你选择的一个能力得分提高2分，或者将你选择的两个能力得分提高1分。",
				"如果你的DM允许使用功法，你可以改用（%0%）。"
			]
		},
		{
			"name": "Shadow Walk",
			"source": "NeThingMagicCardSlinger",
			"className": "Card Slinger",
			"classSource": "NeThingMagicCardSlinger",
			"level": 17,
			"entries": [
				"从17级开始，你获得了从一个影子跨入另一个影子的能力。",
				"当你在昏暗的光线或黑暗中时，作为一个额外的动作，你可以用魔法传送到一个你能看到的也在昏暗光线或黑暗中的无人空间，最远可达120英尺。"
			]
		},
		{
			"name": "Action Surge (two uses)",
			"source": "NeThingMagicCardSlinger",
			"className": "Card Slinger",
			"classSource": "NeThingMagicCardSlinger",
			"level": 17,
			"entries": [
				"从第2级开始，你可以暂时超越你的正常极限，推动自己。在你的回合中，你可以在你的常规行动和可能的奖励行动之外，再采取一个额外的行动。",
				"一旦你使用了这个功能，你必须在完成一次短期或长期休息后才能再次使用它。从17级开始，你可以在休息前使用它两次，但在同一回合只能使用一次。"
			]
		},
		{
			"name": "Resolute Mind",
			"source": "NeThingMagicCardSlinger",
			"className": "Card Slinger",
			"classSource": "NeThingMagicCardSlinger",
			"level": 18,
			"entries": [
				"在18级时，你可以在智慧和智力方面获得对魔法的拯救优势。"
			]
		},
		{
			"name": "Ability Score Improvement",
			"source": "NeThingMagicCardSlinger",
			"className": "Card Slinger",
			"classSource": "NeThingMagicCardSlinger",
			"level": 19,
			"entries": [
				"当你达到19级时，你可以将你选择的一项能力得分提高2分，或者将你选择的两项能力得分提高1分。",
				"如果你的DM允许使用功法，你可以改用（%0%）。"
			]
		},
		{
			"name": "Stacked Deck",
			"source": "NeThingMagicCardSlinger",
			"className": "Card Slinger",
			"classSource": "NeThingMagicCardSlinger",
			"level": 20,
			"entries": [
				"在20级时，你学会了你的牌组的复杂性，现在你可以抽到你想要的牌。",
				"作为一个额外的行动，你在你的牌组中搜索你想要的牌并抽出它。",
				"本回合你无法再抽一张牌（如你在进行攻击时通常会抽的那样）。",
				"你可以使用这个功能的次数等于你的魅力修改器（最少1）。",
				"你在长时间休息后会恢复所有的使用。"
			]
		}
	],
	"subclassFeature": [
		{
			"name": "Hand of the Deckmaster",
			"source": "NeThingMagicCardSlinger",
			"className": "Card Slinger",
			"classSource": "NeThingMagicCardSlinger",
			"subclassShortName": "Deckmaster",
			"subclassSource": "NeThingMagicCardSlinger",
			"level": 3,
			"entries": [
				"当涉及到用他们的牌组进行快速表演的时候，牌师是一个奇迹的创造者。一副牌在牌师的手中，可以比作最有能力的战士手中的刀剑风暴。",
				{
					"type": "refSubclassFeature",
					"subclassFeature": "Discard|Card Slinger|NeThingMagicCardSlinger|Deckmaster|NeThingMagicCardSlinger|3"
				}
			]
		},
		{
			"name": "Discard",
			"entries": [
				"在3级时，作为奖励动作，你可以丢弃你的牌组中最上面的牌，以获得你下一次攻击的优势。你可以使用这个功能的次数等同于你的魅力修正值。当你完成短时或长时的休息时，你会重新获得任何已消耗的使用。",
				"此外，当你抽牌时，你可以抽2张牌并丢弃1张牌，而不是只抽一张牌。丢弃一张牌会将其从牌组中移出，直到你完成一个长时间的休息。以这种方式去掉牌并不会破坏牌组的魔力，它可以继续正常工作。你每回合不能丢弃超过1张牌。另一张牌你可以照常丢掉。"
			],
			"source": "NeThingMagicCardSlinger",
			"className": "Card Slinger",
			"classSource": "NeThingMagicCardSlinger",
			"subclassShortName": "Deckmaster",
			"subclassSource": "NeThingMagicCardSlinger",
			"level": 3,
			"header": 1
		},
		{
			"name": "Dealer's Choice",
			"source": "NeThingMagicCardSlinger",
			"className": "Card Slinger",
			"classSource": "NeThingMagicCardSlinger",
			"subclassShortName": "Deckmaster",
			"subclassSource": "NeThingMagicCardSlinger",
			"level": 6,
			"header": 2,
			"entries": [
				"在6级时，你可以作为一个行动，在你的牌组顶部抽出5张牌，选择其中一张，并将其他4张牌放回你的牌组底部，你可以用你抽到的牌进行攻击。"
			]
		},
		{
			"name": "Hat Trick",
			"source": "NeThingMagicCardSlinger",
			"className": "Card Slinger",
			"classSource": "NeThingMagicCardSlinger",
			"subclassShortName": "Deckmaster",
			"subclassSource": "NeThingMagicCardSlinger",
			"level": 10,
			"header": 2,
			"entries": [
				"10级时，你能够投掷多张牌。作为一个行动，从你的牌组中抽出最上面的3张牌。你可以用这些牌中的每一张作为一个动作进行攻击，每个目标必须在30英尺范围内，并且套装效果被忽略。此外，这张牌只对被击中的目标造成伤害。使用此功能后，你必须完成一次短暂或长时间的休息。"
			]
		},
		{
			"name": "Wild Card",
			"source": "NeThingMagicCardSlinger",
			"className": "Card Slinger",
			"classSource": "NeThingMagicCardSlinger",
			"subclassShortName": "Deckmaster",
			"subclassSource": "NeThingMagicCardSlinger",
			"level": 15,
			"header": 2,
			"entries": [
				"在15级时，你可以对这副牌进行个人润色，可以说是。在长时间的休息中，在与牌组结合的时候，选择一张数字牌（2-10）作为野牌。当抽出一张野牌时，你可以选择一个数字并使用该数字，就像那是抽到的牌一样。花色不能改变。除非你在长时间休息时再次与牌组结合，否则不能改变野牌。"
			]
		},
		{
			"name": "Hand of the Spellcard",
			"source": "NeThingMagicCardSlinger",
			"className": "Card Slinger",
			"classSource": "NeThingMagicCardSlinger",
			"subclassShortName": "Spellcard",
			"subclassSource": "NeThingMagicCardSlinger",
			"level": 3,
			"entries": [
				"一些吊牌手更深入地挖掘了他们与纸牌的联系，并发现了用魔法来加强他们精良的吊牌技巧和敏捷性，学习咒语来注入他们的纸牌中。这些吊牌手包括恶作剧者、恶作剧者和相当数量的冒险家。",
				{
					"type": "refSubclassFeature",
					"subclassFeature": "Spellcasting|Card Slinger|NeThingMagicCardSlinger|Spellcard|NeThingMagicCardSlinger|3"
				},
				{
					"type": "refSubclassFeature",
					"subclassFeature": "Charged Cards|Card Slinger|NeThingMagicCardSlinger|Spellcard|NeThingMagicCardSlinger|3"
				}
			]
		},
		{
			"name": "Spellcasting",
			"entries": [
				"当你达到3级时，你获得了施放法术的能力。关于施法的一般规则见{@book chapter 10|PHB|10}，关于{@book chapter 11|PHB|11}的规则见{@filter wizard spell list|spells|class=wizard}。",
				{
					"type": "list",
					"style": "list-hang",
					"name": "Cantrips:",
					"items": [
						{
							"type": "entries",
							"entries": [
								"你可以从巫师法术列表中选择学习三个咒语。你在10级时可以学习另一个你选择的巫师咒语。"
							]
						}
					]
				},
				{
					"type": "entries",
					"entries": [
						{
							"type": "list",
							"style": "list-hang",
							"name": "Spell Slots:",
							"items": [
								"咒语卡之手咒语表显示了你有多少个咒语槽来施展你的1级及以上的法术。要施展其中一个法术，你必须消耗一个该法术等级或更高的法术槽。当你完成长时间的休息时，你会重新获得所有消耗的法术槽。",
								"例如，如果你知道一级法术（%0%），并且有一个一级和一个二级法术槽可用，你可以使用任何一个槽来施放（%1%）。"
							]
						}
					]
				},
				{
					"type": "entries",
					"entries": [
						{
							"type": "list",
							"style": "list-hang",
							"name": "Spells Known of 1st-Level and Higher:",
							"items": [
								"你会三个自选的一级巫师法术，其中两个必须从巫师法术列表中的施法和转化法术中选择。",
								"马克斯法师法术表的 \"已知法术 \"一栏显示了你何时学会更多1级或以上的巫师法术。每一个法术都必须是你所选择的变身或转化法术，并且必须达到你有法术槽的等级。例如，当你达到这个等级的第7级时，你可以学习一个1级或2级的新法术。",
								"你在8级、14级和20级学到的法术可以来自任何魔法流派。",
								"每当你在这个等级中获得一个等级，你可以用你在巫师法术列表中选择的另一个法术替换你所知道的一个巫师法术。新的法术必须是你有法术槽的等级，而且必须是一个魔法或转化法术，除非你替换的是你在8、14或20级获得的法术。"
							]
						}
					]
				},
				{
					"type": "entries",
					"entries": [
						{
							"type": "list",
							"style": "list-hang",
							"name": "Spellcasting Ability:",
							"items": [
								"智力是你的巫师法术的施法能力，因为你通过专门的学习和记忆来学习你的法术。每当法术提到你的法术能力时，你就会使用你的智力。此外，在设定你所施展的巫师法术的蓄力DC时，以及在使用巫师法术进行攻击时，你都会使用你的智力修饰。",
								{
									"type": "abilityDc",
									"name": "Spell",
									"attributes": [
										"int"
									]
								},
								{
									"type": "abilityAttackMod",
									"name": "Spell",
									"attributes": [
										"int"
									]
								}
							]
						}
					]
				},
				{
					"type": "entries",
					"entries": [
						{
							"type": "list",
							"style": "list-hang",
							"name": "Spellcasting Focus:",
							"items": [
								"你可以用你的牌组作为你的法术卡法术的施法焦点"
							]
						}
					]
				}
			],
			"source": "NeThingMagicCardSlinger",
			"className": "Card Slinger",
			"classSource": "NeThingMagicCardSlinger",
			"subclassShortName": "Spellcard",
			"subclassSource": "NeThingMagicCardSlinger",
			"level": 3,
			"header": 1
		},
		{
			"name": "Charged Cards",
			"source": "NeThingMagicCardSlinger",
			"className": "Card Slinger",
			"classSource": "NeThingMagicCardSlinger",
			"subclassShortName": "Spellcard",
			"subclassSource": "NeThingMagicCardSlinger",
			"level": 3,
			"header": 2,
			"entries": [
				"在3级时，你可以使用你的卡牌以具有触摸范围的咒语进行攻击。使用你的卡牌的范围，进行一次范围性的法术攻击。一旦命中，该生物就会受到咒语的影响，就像你触碰了他们一样。"
			]
		},
		{
			"name": "Quick Scaling",
			"source": "NeThingMagicCardSlinger",
			"className": "Card Slinger",
			"classSource": "NeThingMagicCardSlinger",
			"subclassShortName": "Spellcard",
			"subclassSource": "NeThingMagicCardSlinger",
			"level": 6,
			"header": 2,
			"entries": [
				"从6级开始，在施展1级或更高等级的法术后，你可以用一张牌作为奖励动作进行抽签和攻击。"
			]
		},
		{
			"name": "Magical Ambush",
			"source": "NeThingMagicCardSlinger",
			"className": "Card Slinger",
			"classSource": "NeThingMagicCardSlinger",
			"subclassShortName": "Spellcard",
			"subclassSource": "NeThingMagicCardSlinger",
			"level": 10,
			"header": 2,
			"entries": [
				"从10级开始，如果你用卡牌攻击击中一个生物或对其施法时，你是隐藏的，那么该生物在本回合对该法术或卡牌效果所做的任何拯救动作中都处于不利地位。"
			]
		},
		{
			"name": "Magic Deck",
			"source": "NeThingMagicCardSlinger",
			"className": "Card Slinger",
			"classSource": "NeThingMagicCardSlinger",
			"subclassShortName": "Spellcard",
			"subclassSource": "NeThingMagicCardSlinger",
			"level": 15,
			"header": 2,
			"entries": [
				"在15级时，你已经学会了如何将你的牌组的魔法转移到法术槽中。每天一次，当你完成短暂的休息时，你可以选择消耗的法术槽，通过丢弃你的卡片来恢复。这些法术槽的综合等级可以等于或低于你的卡片投掷者等级的一半（向上取整）。例如，如果你是四级巫师，你可以丢弃10张牌，恢复最多两级的法术槽。你可以恢复一个二级法术槽或两个一级法术槽。丢弃一张牌会将其从牌组中移除，直到你完成一次长时间的休息。以这种方式移除卡牌不会破坏卡组的魔法，它可以继续正常工作。"
			]
		}
	],
	"subclass": [
		{
			"name": "Hand of the Deckmaster",
			"source": "NeThingMagicCardSlinger",
			"shortName": "Deckmaster",
			"subclassFeatures": [
				"Hand of the Deckmaster|Card Slinger|NeThingMagicCardSlinger|Deckmaster|NeThingMagicCardSlinger|3",
				"Dealer's Choice|Card Slinger|NeThingMagicCardSlinger|Deckmaster|NeThingMagicCardSlinger|6",
				"Hat Trick|Card Slinger|NeThingMagicCardSlinger|Deckmaster|NeThingMagicCardSlinger|10",
				"Wild Card|Card Slinger|NeThingMagicCardSlinger|Deckmaster|NeThingMagicCardSlinger|15"
			],
			"className": "Card Slinger",
			"classSource": "NeThingMagicCardSlinger"
		},
		{
			"name": "Hand of the Spellcard",
			"source": "NeThingMagicCardSlinger",
			"shortName": "Spellcard",
			"subclassTableGroups": [
				{
					"colLabels": [
						"Cantrips Known",
						"Spells Known"
					],
					"rows": [
						[
							0,
							0
						],
						[
							0,
							0
						],
						[
							3,
							3
						],
						[
							3,
							4
						],
						[
							3,
							4
						],
						[
							3,
							4
						],
						[
							3,
							5
						],
						[
							3,
							6
						],
						[
							3,
							6
						],
						[
							4,
							7
						],
						[
							4,
							8
						],
						[
							4,
							8
						],
						[
							4,
							9
						],
						[
							4,
							10
						],
						[
							4,
							10
						],
						[
							4,
							11
						],
						[
							4,
							11
						],
						[
							4,
							11
						],
						[
							4,
							12
						],
						[
							4,
							13
						]
					]
				},
				{
					"title": "Spell Slots per Spell Level",
					"colLabels": [
						"1st",
						"2nd",
						"3rd",
						"4th"
					],
					"rows": [
						[
							0,
							0,
							0,
							0
						],
						[
							0,
							0,
							0,
							0
						],
						[
							2,
							0,
							0,
							0
						],
						[
							3,
							0,
							0,
							0
						],
						[
							3,
							0,
							0,
							0
						],
						[
							3,
							0,
							0,
							0
						],
						[
							4,
							2,
							0,
							0
						],
						[
							4,
							2,
							0,
							0
						],
						[
							4,
							2,
							0,
							0
						],
						[
							4,
							3,
							0,
							0
						],
						[
							4,
							3,
							0,
							0
						],
						[
							4,
							3,
							0,
							0
						],
						[
							4,
							3,
							2,
							0
						],
						[
							4,
							3,
							2,
							0
						],
						[
							4,
							3,
							2,
							0
						],
						[
							4,
							3,
							3,
							0
						],
						[
							4,
							3,
							3,
							0
						],
						[
							4,
							3,
							3,
							0
						],
						[
							4,
							3,
							3,
							1
						],
						[
							4,
							3,
							3,
							2
						]
					]
				}
			],
			"subclassFeatures": [
				"Hand of the Spellcard|Card Slinger|NeThingMagicCardSlinger|Spellcard|NeThingMagicCardSlinger|3",
				"Quick Scaling|Card Slinger|NeThingMagicCardSlinger|Spellcard|NeThingMagicCardSlinger|6",
				"Magical Ambush|Card Slinger|NeThingMagicCardSlinger|Spellcard|NeThingMagicCardSlinger|10",
				"Magic Deck|Card Slinger|NeThingMagicCardSlinger|Spellcard|NeThingMagicCardSlinger|15"
			],
			"cantripProgression": [
				0,
				0,
				3,
				3,
				3,
				3,
				3,
				3,
				3,
				4,
				4,
				4,
				4,
				4,
				4,
				4,
				4,
				4,
				4,
				4
			],
			"spellsKnownProgression": [
				0,
				0,
				3,
				4,
				4,
				4,
				5,
				6,
				6,
				7,
				8,
				8,
				9,
				10,
				10,
				11,
				11,
				11,
				12,
				13
			],
			"className": "Card Slinger",
			"classSource": "NeThingMagicCardSlinger"
		}
	]
}
