{
	"_meta": {
		"sources": [
			{
				"json": "RannieryJesuinoTheMagus",
				"abbreviation": "MAGUS",
				"full": "The Magus, a Pathfinder inspired spellblade",
				"version": "4.0",
				"url": "https://www.gmbinder.com/share/-MQMr7OSpLLw8VUXS3ju",
				"authors": [
					"Ranniery Jesuino"
				],
				"convertedBy": [
					"Racko#0002"
				]
			}
		],
		"optionalFeatureTypes": {
			"MM:M": "Magic Maneuvers; Magus"
		},
		"dateAdded": 1612761565,
		"dateLastModified": 1668643477,
		"_dateLastModifiedHash": "cf9159272d"
	},
	"class": [
		{
			"name": "Magus",
			"source": "RannieryJesuinoTheMagus",
			"fluff": [
				{
					"type": "section",
					"name": "The Magus",
					"source": "RannieryJesuinoTheMagus",
					"entries": [
						"有些人一生都在翻阅古老的书本和文本，解锁魔法的力量，有些人则花时间完善个人武器的使用，成为无以伦比的大师。魔法师同时是这两种哲学的学生，将魔法能力和武术能力融为一体，成为一种完全独特的学科，在这一学科中，法术和钢铁都被用来产生毁灭性的效果。",
						"随着他们力量的增长，魔法师解锁了强大的奥术形式，使他们能够进一步融合他的才能，在他们艺术的巅峰，魔法师成为钢铁和魔法的混合体，是一种很少有敌人敢于反抗的力量。"
					]
				}
			],
			"hd": {
				"number": 1,
				"faces": 8
			},
			"proficiency": [
				"int",
				"con"
			],
			"spellcastingAbility": "int",
			"casterProgression": "artificer",
			"preparedSpells": "<$level$> / 2 + <$int_mod$>",
			"cantripProgression": [
				3,
				3,
				3,
				4,
				4,
				4,
				4,
				4,
				4,
				5,
				5,
				5,
				5,
				5,
				5,
				5,
				5,
				5,
				5,
				5
			],
			"optionalfeatureProgression": [
				{
					"name": "Magic Maneuvers; Magus",
					"featureType": [
						"MM:M"
					],
					"progression": [
						0,
						0,
						2,
						2,
						2,
						3,
						3,
						3,
						4,
						4,
						4,
						4,
						5,
						5,
						5,
						5,
						6,
						6,
						6,
						6
					]
				}
			],
			"startingProficiencies": {
				"armor": [
					"light",
					"medium"
				],
				"weapons": [
					"simple",
					"martial"
				],
				"skills": [
					{
						"choose": {
							"from": [
								"acrobatics",
								"athletics",
								"arcana",
								"history",
								"insight",
								"intimidation",
								"perception"
							],
							"count": 2
						}
					}
				]
			},
			"startingEquipment": {
				"additionalFromBackground": true,
				"default": [
					"(a) a {@item rapier|phb}, (b) a {@item longsword|phb}, or (c) a {@item longbow|phb} and a {@item quiver|phb} of {@item Arrows (20)|phb|20 arrows} or (d) any {@filter simple weapon|items|source=phb|category=basic|type=simple weapon}",
					"(a) {@item scale mail|phb}, (b) {@item leather armor|phb} or (c) {@item chain mail|phb}",
					"(a) a {@item dungeoneer's pack|phb} or (b) an {@item explorer's pack|phb}",
					"a {@item scholar's pack|phb}"
				],
				"goldAlternative": "{@dice 5d4×10|5d4 × 10|Starting Gold}",
				"defaultData": [
					{
						"a": [
							"rapier|phb"
						],
						"b": [
							"longsword|phb"
						],
						"c": [
							"longbow|phb",
							"Arrows (20)|phb"
						],
						"d": [
							{
								"equipmentType": "weaponMartial"
							}
						]
					},
					{
						"a": [
							"scale mail|phb"
						],
						"b": [
							"leather armor|phb"
						],
						"c": [
							"chain mail|phb"
						]
					},
					{
						"a": [
							"dungeoneer's pack|phb"
						],
						"b": [
							"explorer's pack|phb"
						]
					},
					{
						"a": [
							"scholar's pack|phb"
						]
					}
				]
			},
			"multiclassing": {
				"requirements": {
					"int": 13,
					"or": [
						{
							"str": 13,
							"dex": 13
						}
					]
				},
				"proficienciesGained": {
					"armor": [
						"light",
						"medium"
					],
					"weapons": [
						"simple",
						"martial"
					]
				}
			},
			"classTableGroups": [
				{
					"colLabels": [
						"{@filter Magic Maneuvers|optionalfeatures|feature type=mm:m}",
						"{@filter Cantrips Known|spells|level=0|class=magus (magus)}"
					],
					"rows": [
						[
							0,
							2
						],
						[
							0,
							2
						],
						[
							2,
							2
						],
						[
							2,
							2
						],
						[
							2,
							2
						],
						[
							3,
							2
						],
						[
							3,
							2
						],
						[
							3,
							2
						],
						[
							4,
							2
						],
						[
							4,
							3
						],
						[
							4,
							3
						],
						[
							4,
							3
						],
						[
							5,
							3
						],
						[
							5,
							4
						],
						[
							5,
							4
						],
						[
							5,
							4
						],
						[
							6,
							4
						],
						[
							6,
							4
						],
						[
							6,
							4
						],
						[
							6,
							4
						]
					]
				},
				{
					"title": "Spell Slots per Spell Level",
					"colLabels": [
						"{@filter 1st|spells|level=1|class=magus (magus)}",
						"{@filter 2nd|spells|level=2|class=magus (magus)}",
						"{@filter 3rd|spells|level=3|class=magus (magus)}",
						"{@filter 4th|spells|level=4|class=magus (magus)}",
						"{@filter 5th|spells|level=5|class=magus (magus)}"
					],
					"rows": [
						[
							2,
							0,
							0,
							0,
							0
						],
						[
							2,
							0,
							0,
							0,
							0
						],
						[
							3,
							0,
							0,
							0,
							0
						],
						[
							3,
							0,
							0,
							0,
							0
						],
						[
							4,
							2,
							0,
							0,
							0
						],
						[
							4,
							2,
							0,
							0,
							0
						],
						[
							4,
							3,
							0,
							0,
							0
						],
						[
							4,
							3,
							0,
							0,
							0
						],
						[
							4,
							3,
							2,
							0,
							0
						],
						[
							4,
							3,
							2,
							0,
							0
						],
						[
							4,
							3,
							3,
							0,
							0
						],
						[
							4,
							3,
							3,
							0,
							0
						],
						[
							4,
							3,
							3,
							1,
							0
						],
						[
							4,
							3,
							3,
							1,
							0
						],
						[
							4,
							3,
							3,
							2,
							0
						],
						[
							4,
							3,
							3,
							2,
							0
						],
						[
							4,
							3,
							3,
							3,
							1
						],
						[
							4,
							3,
							3,
							3,
							1
						],
						[
							4,
							3,
							3,
							3,
							2
						],
						[
							4,
							3,
							3,
							3,
							2
						]
					]
				}
			],
			"classFeatures": [
				{
					"classFeature": "Magus Tradition|Magus|RannieryJesuinoTheMagus|1",
					"gainSubclassFeature": true
				},
				"Spellcasting|Magus|RannieryJesuinoTheMagus|1",
				"Spellstrike|Magus|RannieryJesuinoTheMagus|1",
				"Elemental Weapon|Magus|RannieryJesuinoTheMagus|2",
				"Magic Sense|Magus|RannieryJesuinoTheMagus|2",
				"Magic Maneuvers|Magus|RannieryJesuinoTheMagus|3",
				"Ability Score Improvement|Magus|RannieryJesuinoTheMagus|4",
				"Extra Attack|Magus|RannieryJesuinoTheMagus|5",
				{
					"classFeature": "Magus Tradition Feature|Magus|RannieryJesuinoTheMagus|6",
					"gainSubclassFeature": true
				},
				"Ability Score Improvement|Magus|RannieryJesuinoTheMagus|8",
				{
					"classFeature": "Magus Tradition Feature|Magus|RannieryJesuinoTheMagus|10",
					"gainSubclassFeature": true
				},
				"Spell Deflect|Magus|RannieryJesuinoTheMagus|11",
				"Ability Score Improvement|Magus|RannieryJesuinoTheMagus|12",
				{
					"classFeature": "Magus Tradition Feature|Magus|RannieryJesuinoTheMagus|14",
					"gainSubclassFeature": true
				},
				"Maneuver Adaptability|Magus|RannieryJesuinoTheMagus|15",
				"Ability Score Improvement|Magus|RannieryJesuinoTheMagus|16",
				"Dispelling Strike|Magus|RannieryJesuinoTheMagus|18",
				"Ability Score Improvement|Magus|RannieryJesuinoTheMagus|19",
				"Arch Magus|Magus|RannieryJesuinoTheMagus|20"
			],
			"subclassTitle": "Magus Tradition",
			"classSpells": [
				"Acid Splash",
				"Blade Ward",
				"booming blade|tce",
				"Dancing Lights",
				"Fire Bolt",
				"green-flame blade|tce",
				"Light",
				"Lightning Lure",
				"Mage Hand",
				"Magic Stone",
				"Message",
				"Minor Illusion",
				"Poison Spray",
				"Prestidigitation",
				"Ray of Frost",
				"Shocking Grasp",
				"Sword Burst",
				"Thaumaturgy",
				"thunderclap|xge",
				"True Strike",
				"Alarm",
				"Burning Hands",
				"chaos bolt|xge",
				"Color Spray",
				"Comprehend Languages",
				"earth tremor|xge",
				"Expeditious Retreat",
				"Feather Fall",
				"Find Familiar",
				"Fog Cloud",
				"Frost Fingers",
				"Grease",
				"ice knife|xge",
				"Identify",
				"Jump",
				"Longstrider",
				"Mage Armor",
				"Magic Missile",
				"Shield",
				"tasha's caustic brew|tce",
				"Tenser's Floating Disk",
				"Thunderwave",
				"Unseen Servant",
				"Witch Bolt",
				"aganazzar's scorcher|xge",
				"Cloud of Daggers",
				"Darkness",
				"Darkvision",
				"Enhance Ability",
				"Enlarge/Reduce",
				"Flaming Sphere",
				"Gust of Wind",
				"Invisibility",
				"Levitate",
				"Magic Mouth",
				"Mirror Image",
				"Melf's Acid Arrow",
				"Misty Step",
				"Scorching Ray",
				"Silence",
				"Skywrite",
				"Shatter",
				"Spider Climb",
				"Web",
				"Blink",
				"catnap|xge",
				"Dispel Magic",
				"Feign Death",
				"Fireball",
				"flame arrows|xge",
				"Fly",
				"Gaseous Form",
				"Haste",
				"Hypnotic Pattern",
				"Lightning Bolt",
				"Nondetection",
				"Phantom Steed",
				"Sending",
				"Sleet Storm",
				"Slow",
				"Stinking Cloud",
				"tidal wave|xge",
				"Vampiric Touch",
				"Water Walk",
				"Water Breathing",
				"Arcane Eye",
				"Dimension Door",
				"elemental bane|xge",
				"Evard's Black Tentacles",
				"Greater Invisibility",
				"Ice Storm",
				"Phantasmal Killer",
				"Polymorph",
				"Stoneskin",
				"storm sphere|xge",
				"vitriolic sphere|xge",
				"Wall of Fire",
				"Bigby's Hand",
				"Cloudkill",
				"Cone of Cold",
				"immolation|xge",
				"Mislead",
				"Rary's Telepathic Bond",
				"Scrying",
				"steel wind strike|xge",
				"Telekinesis",
				"Wall of Stone"
			]
		}
	],
	"classFeature": [
		{
			"name": "Spellcasting",
			"source": "RannieryJesuinoTheMagus",
			"className": "Magus",
			"classSource": "RannieryJesuinoTheMagus",
			"level": 1,
			"entries": [
				"你吸取和放大你的本质的能力使你有了施法的能力。关于施法的一般规则，请参见法术规则，关于魔法师的法术列表，请参见等级列表的末尾。",
				{
					"type": "entries",
					"name": "Cantrips",
					"entries": [
						"在1级的时候，你会从魔法师的法术列表中选择两个咒语。在更高的等级中，你会学习更多你选择的魔法咒语，如魔法师表格中已知的咒语栏所示。"
					]
				},
				{
					"type": "entries",
					"name": "Preparing and Casting Spells",
					"entries": [
						"魔法师表显示了你有多少法术槽来施展你的魔法师法术。要施展你的一级或更高等级的法术，你必须消耗一个与该法术等级相同或更高的法术槽。当你完成一个长时间的休息时，你会重新获得所有消耗的法术槽。",
						"你准备好可供你施展的魔法师法术清单，从魔法师法术清单中选择。当你这样做时，选择与你的智力修正值+你的魔法师等级的一半相等的魔法师法术数量，向下取整（最少一个法术）。这些法术的等级必须是你有法术槽的。",
						"你可以在完成长时间休息时改变你的准备好的法术清单，每一个法术等级的法术清单上的法术至少有1分钟。"
					]
				},
				{
					"type": "entries",
					"name": "Spellcasting Ability",
					"entries": [
						"智力是你的魔法师法术的施法能力，因为你通过专门的学习和记忆来学习你的法术。每当法术提到你的法术能力时，你就会使用你的智力。此外，在设定你所施展的魔法咒语的蓄力DC时，以及在使用魔法咒语进行攻击时，你都会使用你的智力修改器。",
						{
							"type": "abilityDc",
							"name": "Spell",
							"attributes": [
								"int"
							]
						},
						{
							"type": "abilityAttackMod",
							"name": "Spell",
							"attributes": [
								"int"
							]
						}
					]
				},
				{
					"type": "entries",
					"name": "Ritual Casting",
					"entries": [
						"你可以把你知道的任何魔法师的咒语作为一种仪式来施放，如果该咒语有仪式标签。"
					]
				},
				{
					"type": "entries",
					"name": "Spellcasting Focus",
					"entries": [
						"如果你精通一种简单的或武术的武器，你可以用它作为你的魔法咒语的施法重点。"
					]
				}
			]
		},
		{
			"name": "Magus Tradition",
			"source": "RannieryJesuinoTheMagus",
			"className": "Magus",
			"classSource": "RannieryJesuinoTheMagus",
			"level": 1,
			"entries": [
				"在1级时，你选择一个传统，它决定了你在战斗中结合法术和武器的方式，每个传统都在等级描述的末尾有详细说明。你选择的传统在1级时赋予你特性，在6级、10级和14级时再次赋予你特性。"
			]
		},
		{
			"name": "Spellstrike",
			"source": "RannieryJesuinoTheMagus",
			"className": "Magus",
			"classSource": "RannieryJesuinoTheMagus",
			"level": 1,
			"entries": [
				"从1级开始，魔法师学会了在施法的同时挥舞他的武器。要使用这个能力，你必须有一只自由的手，并且挥舞着你精通的单手近战武器。每回合一次，当你施展一级或以上的魔法师法术时，作为奖励动作，你可以进行一次近战武器攻击。"
			]
		},
		{
			"name": "Magic Sense",
			"source": "RannieryJesuinoTheMagus",
			"className": "Magus",
			"classSource": "RannieryJesuinoTheMagus",
			"level": 2,
			"entries": [
				"你已经磨练了你的感官，以注意到你周围世界中微妙的魔法迹象。从1级开始，你可以使用一个动作来打开你的感官，就像你施展了探测魔法一样。与侦测魔法不同，你的法术之眼只持续1分钟。",
				"如果在你的法术视线范围内有一个生物，你可以选择将你的感官集中在它身上，而不考虑其他事物。你会了解该生物的法术能力（如果它有的话）以及它能施展的最高法术的等级。如果该生物被隐藏在占卜魔法之外，它就会显示为非魔法生物。",
				"你可以使用这个功能的次数等于1+你的智力修改器。当你完成一个长时间的休息时，你会恢复所有已消耗的使用。"
			]
		},
		{
			"name": "Elemental Weapon",
			"source": "RannieryJesuinoTheMagus",
			"className": "Magus",
			"classSource": "RannieryJesuinoTheMagus",
			"level": 2,
			"entries": [
				"从2级开始，你学会利用法术的元素力量并将其注入你的武器中。每当你施放一个1级或以上的魔法师法术，并造成酸、冷、火、闪电或雷电伤害时，你可以使用一个额外动作，将相同类型的伤害注入你的武器。在1分钟内，每当你用近战法术攻击或近战武器攻击命中时，会造成该类型的额外1d4伤害。如果一个法术有不止一次攻击，你只对第一次攻击命中的人施加这种额外伤害。你可以用一个额外的动作提前结束这个效果，在它已经生效的时候，你不能使用这个功能。",
				"额外的伤害模子根据用于施法的法术槽的等级而改变。2级法术槽的模子变成了d6，3级是d8，4级是d10，5级法术槽是d12。"
			]
		},
		{
			"name": "Magic Maneuvers",
			"source": "RannieryJesuinoTheMagus",
			"className": "Magus",
			"classSource": "RannieryJesuinoTheMagus",
			"level": 3,
			"entries": [
				"从3级开始，你学会了如何使用魔法演习，每个魔法演习都在等级描述的末尾有详细说明。除非另有说明，否则每个魔法操作都需要一个行动来使用。你所知道的魔法操作的数量在等级表的魔法操作一栏中标明。",
				"在{@filter Optional Features|optionalfeatures|Feature Type=MM:M}的页面上可以找到可用的魔法演习的清单。",
				"每个魔法动作只能使用一次，每当你完成短时或长时休息时，就会恢复所有消耗的魔法动作。",
				"此外，当你在这个等级中获得一个级别时，你可以选择你所知道的一个魔法动作，并以另一个魔法动作代替它，只要你满足其先决条件。",
				"你的一些魔法动作需要你的目标做一个蓄力动作来抵制魔法动作的效果。蓄力值的计算方法如下。",
				{
					"type": "abilityDc",
					"name": "Magic Maneuver",
					"attributes": [
						"int"
					]
				}
			]
		},
		{
			"name": "Ability Score Improvement",
			"source": "RannieryJesuinoTheMagus",
			"className": "Magus",
			"classSource": "RannieryJesuinoTheMagus",
			"level": 4,
			"entries": [
				"当你达到四级时，你可以将你选择的一项能力得分提高2分，或者将你选择的两项能力得分提高1分。",
				"如果你的DM允许使用特技，你可以改用特技。"
			]
		},
		{
			"name": "Extra Attack",
			"source": "RannieryJesuinoTheMagus",
			"className": "Magus",
			"classSource": "RannieryJesuinoTheMagus",
			"level": 5,
			"entries": [
				"从5级开始，只要你在你的回合中采取攻击行动，你就可以攻击两次，而不是一次。此外，你可以施放你的一个咒语来代替其中一次攻击。"
			]
		},
		{
			"name": "Magus Tradition Feature",
			"source": "RannieryJesuinoTheMagus",
			"className": "Magus",
			"classSource": "RannieryJesuinoTheMagus",
			"level": 6,
			"entries": [
				"6级时，你获得一个由你的法师传统赋予你的特性。"
			]
		},
		{
			"name": "Ability Score Improvement",
			"source": "RannieryJesuinoTheMagus",
			"className": "Magus",
			"classSource": "RannieryJesuinoTheMagus",
			"level": 8,
			"entries": [
				"当你达到8级时，你可以将你选择的一个能力得分提高2分，或者将你选择的两个能力得分提高1分。",
				"如果你的DM允许使用特技，你可以改用特技。"
			]
		},
		{
			"name": "Magus Tradition Feature",
			"source": "RannieryJesuinoTheMagus",
			"className": "Magus",
			"classSource": "RannieryJesuinoTheMagus",
			"level": 10,
			"entries": [
				"10级时，你获得一个由你的法师传统赋予你的特性。"
			]
		},
		{
			"name": "Spell Deflect",
			"source": "RannieryJesuinoTheMagus",
			"className": "Magus",
			"classSource": "RannieryJesuinoTheMagus",
			"level": 11,
			"entries": [
				"在11级时，每当你能看到的120英尺范围内的生物对你施放伤害性的法术时，你可以用你的反应来对施法者的法术保命卷进行一次法术攻击。如果成功，针对你的法术就会失败，并且没有效果。对该法术的其他目标的任何影响都会正常解决。",
				"如果该咒语有不止一次针对你的攻击，你可以在同一回合内，作为同一反应的一部分，进一步偏转同一咒语的攻击，而无需再花费此功能的使用次数，但你必须为每一次以这种方式偏转的攻击进行单独的咒语攻击。",
				"你可以使用这个功能的次数与你的熟练度加成相等，并且在你完成长时间休息时恢复所有消耗的使用。"
			]
		},
		{
			"name": "Ability Score Improvement",
			"source": "RannieryJesuinoTheMagus",
			"className": "Magus",
			"classSource": "RannieryJesuinoTheMagus",
			"level": 12,
			"entries": [
				"当你达到12级时，你可以将你选择的一项能力得分提高2分，或者将你选择的两项能力得分提高1分。",
				"如果你的DM允许使用特技，你可以改用特技。"
			]
		},
		{
			"name": "Magus Tradition Feature",
			"source": "RannieryJesuinoTheMagus",
			"className": "Magus",
			"classSource": "RannieryJesuinoTheMagus",
			"level": 14,
			"entries": [
				"在14级时，你获得一个由你的法师传统赋予你的特性。"
			]
		},
		{
			"name": "Maneuver Adaptability",
			"source": "RannieryJesuinoTheMagus",
			"className": "Magus",
			"classSource": "RannieryJesuinoTheMagus",
			"level": 15,
			"entries": [
				"在15级时，你学会了如何更好地利用自己体内的魔法流。你可以用你的任何一个未使用的魔法动作来重新获得你其他已消耗的魔法动作，无需行动。"
			]
		},
		{
			"name": "Ability Score Improvement",
			"source": "RannieryJesuinoTheMagus",
			"className": "Magus",
			"classSource": "RannieryJesuinoTheMagus",
			"level": 16,
			"entries": [
				"当你达到16级时，你可以将你选择的一项能力得分提高2分，或者将你选择的两项能力得分提高1分。",
				"如果你的DM允许使用特技，你可以改用特技。"
			]
		},
		{
			"name": "Dispelling Strike",
			"source": "RannieryJesuinoTheMagus",
			"className": "Magus",
			"classSource": "RannieryJesuinoTheMagus",
			"level": 18,
			"entries": [
				"从18级开始，当你击中一个受法术影响的生物或物体，或直接攻击一个法术（比如一个看不见的仆人或小木屋），你可以尝试驱散该法术，就像你施放的驱散魔法的等级与你最高等级的魔法师法术槽相同。",
				"你可以使用这个功能的次数等于你的智力修饰值（最少一次），当你完成一个长时间的休息时，你会重新获得所有已消耗的使用。如果你没有剩余的使用次数，你可以消耗一个法术槽来再次使用它。"
			]
		},
		{
			"name": "Ability Score Improvement",
			"source": "RannieryJesuinoTheMagus",
			"className": "Magus",
			"classSource": "RannieryJesuinoTheMagus",
			"level": 19,
			"entries": [
				"当你达到19级时，你可以将你选择的一项能力得分提高2分，或者将你选择的两项能力得分提高1分。",
				"如果你的DM允许使用特技，你可以改用特技。"
			]
		},
		{
			"name": "Arch Magus",
			"source": "RannieryJesuinoTheMagus",
			"className": "Magus",
			"classSource": "RannieryJesuinoTheMagus",
			"level": 20,
			"entries": [
				"在20级时，你完善了你的魔法师技术。每当你使用你的法术攻击时，作为同一奖励行动的一部分，你可以攻击两次，而不是一次。此外，你可以施展你的一个咒语来代替其中一次攻击。"
			]
		}
	],
	"subclassFeature": [
		{
			"name": "Armored Battlemage",
			"source": "RannieryJesuinoTheMagus",
			"className": "Magus",
			"classSource": "RannieryJesuinoTheMagus",
			"subclassShortName": "Armored Battlemage",
			"subclassSource": "RannieryJesuinoTheMagus",
			"level": 1,
			"header": 1,
			"entries": [
				"许多战斗法师纯粹专注于破坏性的唤醒，但有些人将他们的战术研究扩展到包括使用久经考验的钢铁保护。这些装甲战斗法师学会了在最具限制性的盔甲中移动和施法。",
				{
					"type": "refSubclassFeature",
					"subclassFeature": "Magus Tradition Spells|Magus|RannieryJesuinoTheMagus|Armored Battlemage|RannieryJesuinoTheMagus|1"
				}
			]
		},
		{
			"name": "Magus Tradition Spells",
			"source": "RannieryJesuinoTheMagus",
			"className": "Magus",
			"classSource": "RannieryJesuinoTheMagus",
			"subclassShortName": "Armored Battlemage",
			"subclassSource": "RannieryJesuinoTheMagus",
			"level": 1,
			"header": 2,
			"entries": [
				"你的魔法师传统赋予你所列出的魔法师等级的法术。每个法术对你来说都算作一个魔法师法术，但不计入你所会的魔法师法术数量。",
				{
					"type": "table",
					"caption": "Armored Battlemage Spells",
					"colLabels": [
						"Magus Level",
						"Spell"
					],
					"colStyles": [
						"col-3 text-center",
						"col-9"
					],
					"rows": [
						[
							"3rd",
							"{@spell absorb elements|xge}, {@spell magnify gravity|egw}"
						],
						[
							"5th",
							"{@spell find steed}"
						],
						[
							"9th",
							"{@spell pulse wave|egw}"
						],
						[
							"13th",
							"{@spell fire shield}"
						],
						[
							"17th",
							"{@spell wall of force}"
						]
					]
				}
			]
		},
		{
			"name": "Armored Spellcasting",
			"source": "RannieryJesuinoTheMagus",
			"className": "Magus",
			"classSource": "RannieryJesuinoTheMagus",
			"subclassShortName": "Armored Battlemage",
			"subclassSource": "RannieryJesuinoTheMagus",
			"level": 1,
			"header": 2,
			"entries": [
				"1级时，你获得对所有盔甲和盾牌的熟练度。你的最大命中率增加1，并且每当你在这个等级中获得一个等级时再增加1。",
				"即使你的一只手或两只手拿着武器或盾牌，你也可以执行法术的体质成分并使用法术攻击。",
				"当使用你的元素武器功能时，在可能的伤害类型列表中加入武力伤害。"
			]
		},
		{
			"name": "Eldritch Protector",
			"source": "RannieryJesuinoTheMagus",
			"className": "Magus",
			"classSource": "RannieryJesuinoTheMagus",
			"subclassShortName": "Armored Battlemage",
			"subclassSource": "RannieryJesuinoTheMagus",
			"level": 6,
			"header": 2,
			"entries": [
				"6级时，在你的元素武器特性的作用下，每回合一次，当你用近战武器攻击击中一个生物时，你可以标记它。直到你下一回合开始，该目标在任何不针对你的攻击卷中都处于劣势，而当该目标击中除你之外你能看到的生物时，作为反应，你可以赋予该生物对攻击造成的伤害的抗性。"
			]
		},
		{
			"name": "Aegis",
			"source": "RannieryJesuinoTheMagus",
			"className": "Magus",
			"classSource": "RannieryJesuinoTheMagus",
			"subclassShortName": "Armored Battlemage",
			"subclassSource": "RannieryJesuinoTheMagus",
			"level": 10,
			"header": 2,
			"entries": [
				"10级时，在你的元素武器特性的作用下，作为你每个回合的额外行动，你可以选择以下伤害类型之一：重击、穿刺、砍击或你的元素武器中的一种伤害类型。下次你受到所选类型的伤害时，直到你下一回合开始，你对该类型的伤害有抵抗力。"
			]
		},
		{
			"name": "Arcane Presence",
			"source": "RannieryJesuinoTheMagus",
			"className": "Magus",
			"classSource": "RannieryJesuinoTheMagus",
			"subclassShortName": "Armored Battlemage",
			"subclassSource": "RannieryJesuinoTheMagus",
			"level": 14,
			"header": 2,
			"entries": [
				"在14级时，每当你使用一个魔法操纵，你就会获得与你在这个等级中的等级相等的临时命中率，取代你已经从这个特征中获得的临时命中率。",
				"此外，每当你能看到的10英尺范围内的生物对你造成伤害时，你可以用你的反应来阻止所有的伤害，而你则会受到伤害。这种对你的伤害不能以任何方式减少或防止。"
			]
		},
		{
			"name": "Blade Saint",
			"source": "RannieryJesuinoTheMagus",
			"className": "Magus",
			"classSource": "RannieryJesuinoTheMagus",
			"subclassShortName": "Blade Saint",
			"subclassSource": "RannieryJesuinoTheMagus",
			"level": 1,
			"header": 1,
			"entries": [
				"刀圣一生都在专注于他们的训练和冥想，对单一武器的使用进行狂热的完善，这通常是但不总是一把剑，通过它引导他的奥术力量，以令人眩晕和致命的舞蹈，甚至超越最伟大的世俗战士的能力。",
				{
					"type": "refSubclassFeature",
					"subclassFeature": "Magus Tradition Spells|Magus|RannieryJesuinoTheMagus|Blade Saint|RannieryJesuinoTheMagus|1"
				}
			]
		},
		{
			"name": "Magus Tradition Spells",
			"source": "RannieryJesuinoTheMagus",
			"className": "Magus",
			"classSource": "RannieryJesuinoTheMagus",
			"subclassShortName": "Blade Saint",
			"subclassSource": "RannieryJesuinoTheMagus",
			"level": 1,
			"header": 2,
			"entries": [
				"你的魔法师传统赋予你所列出的魔法师等级的法术。每个法术对你来说都算作一个魔法师法术，但不计入你所会的魔法师法术数量。",
				{
					"type": "table",
					"caption": "Blade Saint Spells",
					"colLabels": [
						"Magus Level",
						"Spell"
					],
					"colStyles": [
						"col-3 text-center",
						"col-9"
					],
					"rows": [
						[
							"3rd",
							"{@spell zephyr strike|xge}"
						],
						[
							"5th",
							"{@spell kinetic jaunt|scc}"
						],
						[
							"9th",
							"{@spell thunder step|xge}"
						],
						[
							"13th",
							"{@spell freedom of movement}"
						],
						[
							"17th",
							"{@spell steel wind strike|xge}"
						]
					]
				}
			]
		},
		{
			"name": "Chosen Weapon",
			"source": "RannieryJesuinoTheMagus",
			"className": "Magus",
			"classSource": "RannieryJesuinoTheMagus",
			"subclassShortName": "Blade Saint",
			"subclassSource": "RannieryJesuinoTheMagus",
			"level": 1,
			"header": 2,
			"entries": [
				"在1级的时候，一个仪式可以在你和一个你精通的近战之间建立一个神奇的联系。你在1小时内完成这个仪式，可以在短暂的休息中完成。在整个仪式过程中，该武器必须在你能触及的范围内，在仪式结束时，你将接触该武器并建立起纽带，使其成为你的天命之器。",
				"一旦你把武器绑定在自己身上，除非你失去能力，否则你不能被解除该武器的武装。如果它在同一个存在平面上，你可以在你的回合中作为额外动作召唤该武器，使其瞬间传送到你的手中。",
				"你只能在单手挥舞你的神选武器时使用你的元素武器功能，而不是其他。在元素武器的作用下，你会获得以下好处。",
				{
					"type": "list",
					"items": [
						"你的行走速度增加10英尺。",
						"你的武器变得有魔力，以克服阻力和免疫力。",
						"只要你不穿重甲，你的攻击卷就会获得+1的奖励，你的装甲等级也会获得+2的奖励。"
					]
				}
			]
		},
		{
			"name": "Canny Defense",
			"source": "RannieryJesuinoTheMagus",
			"className": "Magus",
			"classSource": "RannieryJesuinoTheMagus",
			"subclassShortName": "Blade Saint",
			"subclassSource": "RannieryJesuinoTheMagus",
			"level": 1,
			"header": 2,
			"entries": [
				"从1级开始，当你挥舞着你的绑定武器，没有穿戴盔甲，也没有挥舞盾牌时，你的攻击力等于13+你的灵巧修改器。"
			]
		},
		{
			"name": "Warp Strike",
			"source": "RannieryJesuinoTheMagus",
			"className": "Magus",
			"classSource": "RannieryJesuinoTheMagus",
			"subclassShortName": "Blade Saint",
			"subclassSource": "RannieryJesuinoTheMagus",
			"level": 6,
			"header": 2,
			"entries": [
				"在6级时，你的神选武器获得了投掷属性（30/120），并且不能被摧毁。当你选择的武器在你的30英尺范围内时，作为一个额外的动作，你可以花一次这个特征来传送到它，使它在之后立即回到你的手中。如果你在一个生物的5英尺范围内结束这个动作，你可以在同一个动作中对它施放一个咒语。",
				"你可以使用这个功能的次数等于1+你的智力修饰奖励。在你完成长时间的休息后，你会重新获得所有已消耗的使用次数。"
			]
		},
		{
			"name": "Arcane Grace",
			"source": "RannieryJesuinoTheMagus",
			"className": "Magus",
			"classSource": "RannieryJesuinoTheMagus",
			"subclassShortName": "Blade Saint",
			"subclassSource": "RannieryJesuinoTheMagus",
			"level": 10,
			"header": 2,
			"entries": [
				"10级时，在你的元素武器特性的作用下，作为你每个回合的额外行动，你可以采取躲避行动。在你被攻击或需要灵巧救赎的伤害效果锁定后，你的闪避结束。",
				"如果攻击不中或者你通过了灵巧救赎，作为反应，你可以移动到你速度的一半，而这个移动所引起的机会攻击是不利的。"
			]
		},
		{
			"name": "Arcane Waltz",
			"source": "RannieryJesuinoTheMagus",
			"className": "Magus",
			"classSource": "RannieryJesuinoTheMagus",
			"subclassShortName": "Blade Saint",
			"subclassSource": "RannieryJesuinoTheMagus",
			"level": 14,
			"header": 2,
			"entries": [
				"14级时，在你的元素武器特性的作用下，你获得以下好处。",
				{
					"type": "list",
					"items": [
						"当你受到一个允许你进行灵巧救赎的效果，只受到一半的伤害时，成功时你不会受到伤害，失败时则受到一半的伤害。",
						"当你使用你的法术偏转功能成功地偏转一个法术时，你可以将法术反射到施法者身上。当你这样做时，你可以立即在同一反应中以最低等级施放该法术，而不需要消耗一个法术槽，但你必须以原施法者为目标。"
					]
				}
			]
		},
		{
			"name": "Eldritch Shooter",
			"source": "RannieryJesuinoTheMagus",
			"className": "Magus",
			"classSource": "RannieryJesuinoTheMagus",
			"subclassShortName": "Eldritch Shooter",
			"subclassSource": "RannieryJesuinoTheMagus",
			"level": 1,
			"header": 1,
			"entries": [
				"恶魔射手向她的敌人倾泻魔法攻击。",
				{
					"type": "refSubclassFeature",
					"subclassFeature": "Magus Tradition Spells|Magus|RannieryJesuinoTheMagus|Eldritch Shooter|RannieryJesuinoTheMagus|1"
				}
			]
		},
		{
			"name": "Magus Tradition Spells",
			"source": "RannieryJesuinoTheMagus",
			"className": "Magus",
			"classSource": "RannieryJesuinoTheMagus",
			"subclassShortName": "Eldritch Shooter",
			"subclassSource": "RannieryJesuinoTheMagus",
			"level": 1,
			"header": 2,
			"entries": [
				"你的魔法师传统赋予你所列出的魔法师等级的法术。每个法术对你来说都算作一个魔法师法术，但不计入你所会的魔法师法术数量。",
				{
					"type": "table",
					"caption": "Eldritch Shooter Spells",
					"colLabels": [
						"Magus Level",
						"Spell"
					],
					"colStyles": [
						"col-3 text-center",
						"col-9"
					],
					"rows": [
						[
							"3rd",
							"{@spell hellish rebuke}"
						],
						[
							"5th",
							"{@spell see invisibility}"
						],
						[
							"9th",
							"{@spell conjure barrage}"
						],
						[
							"13th",
							"{@spell mordenkainen's faithful hound}"
						],
						[
							"17th",
							"{@spell conjure volley}"
						]
					]
				}
			]
		},
		{
			"name": "Ranged Caster",
			"source": "RannieryJesuinoTheMagus",
			"className": "Magus",
			"classSource": "RannieryJesuinoTheMagus",
			"subclassShortName": "Eldritch Shooter",
			"subclassSource": "RannieryJesuinoTheMagus",
			"level": 1,
			"header": 2,
			"entries": [
				"一级时，你获得对所有远程武术武器的熟练度，包括火器。",
				"每当法师特征要求你使用近战武器时，你必须改用你精通的双手远程武器。",
				"每当一个魔法动作要求你进行近战武器攻击时，你必须用远程武器攻击来代替。如果它要求你进行近战法术攻击，你必须用远程法术攻击来代替。",
				"在使用咒语攻击时，只要你挥舞着双手的远程武器，你就不需要空手。此外，如果你用需要远程法术攻击的咒语来使用法术打击，它不会变成近战武器攻击，其范围也不会改变。"
			]
		},
		{
			"name": "Elemental Ammo",
			"source": "RannieryJesuinoTheMagus",
			"className": "Magus",
			"classSource": "RannieryJesuinoTheMagus",
			"subclassShortName": "Eldritch Shooter",
			"subclassSource": "RannieryJesuinoTheMagus",
			"level": 6,
			"header": 2,
			"entries": [
				"在6级时，你获得了发射由元素能量构成的弹药的能力。当你在元素武器特性的作用下，每当你进行远程武器攻击时，你可以将你的武器伤害类型转换为与你为元素武器选择的类型相同，并且你的攻击无视半数和四分之三的掩护。 如果你这样做，你的攻击就不会使用任何弹药。",
				"此外，当施展任何需要法术攻击的咒语，并且与你当前的元素弹药具有相同的伤害类型时，你可以使用你的武器范围而不是咒语的正常范围。如果你这样做，该咒语的伤害会增加1个骰子。"
			]
		},
		{
			"name": "Elemental Affinity",
			"source": "RannieryJesuinoTheMagus",
			"className": "Magus",
			"classSource": "RannieryJesuinoTheMagus",
			"subclassShortName": "Eldritch Shooter",
			"subclassSource": "RannieryJesuinoTheMagus",
			"level": 10,
			"header": 2,
			"entries": [
				"10级时，在你的元素武器特性的作用下，作为你每个回合的额外行动，你可以将你的一次攻击注入魔法能量。如果该攻击命中，在你下一回合结束前对该目标进行的下一次攻击卷有优势。"
			]
		},
		{
			"name": "Ricochet Shot",
			"source": "RannieryJesuinoTheMagus",
			"className": "Magus",
			"classSource": "RannieryJesuinoTheMagus",
			"subclassShortName": "Eldritch Shooter",
			"subclassSource": "RannieryJesuinoTheMagus",
			"level": 14,
			"header": 2,
			"entries": [
				"在14级时，每当你使用元素弹药进行远程武器攻击时，你的攻击会忽略由于依赖视觉的效果而产生的劣势，就像你有盲视一样。每回合一次，如果你的一次攻击命中，作为奖励动作，你可以对第一个目标30英尺内你能看到的另一个目标生物在劣势下进行一次攻击卷轴，如果他们之间的直接路径没有被阻挡的话。"
			]
		}
	],
	"optionalfeature": [
		{
			"name": "Dark Pounce",
			"source": "RannieryJesuinoTheMagus",
			"prerequisite": [
				{
					"level": {
						"level": 3,
						"class": {
							"name": "Magus",
							"source": "RannieryJesuinoTheMagus"
						}
					}
				}
			],
			"page": 0,
			"featureType": [
				"MM:M"
			],
			"entries": [
				"作为执行这个魔法动作的一部分，你可以移动10英尺并立即传送到一个你能看到的直线上的位置。你可以通过这次传送覆盖一定数量的英尺，直到你的智力得分。如果这个传送会把你带入另一个生物的空间，那么你会出现在它周围5英尺内的一个无人空间。如果你在一个生物旁边结束这次移动，你可以对它施放一个咒语。",
				"11级时，跳跃所覆盖的距离增加到你智力值的2倍。在17级时，如果这个跳跃会带你进入另一个生物的空间，它必须尝试一个力量救赎，否则会被击倒（%0%）。"
			]
		},
		{
			"name": "Fade Strike",
			"source": "RannieryJesuinoTheMagus",
			"prerequisite": [
				{
					"level": {
						"level": 3,
						"class": {
							"name": "Magus",
							"source": "RannieryJesuinoTheMagus"
						}
					}
				}
			],
			"page": 0,
			"featureType": [
				"MM:M"
			],
			"entries": [
				"施放一个需要对范围内的目标生物进行攻击的咒语。一旦成功命中，目标将受到咒语的正常影响。无论你是否击中，你的影像都会变得模糊，直到你的下一个回合结束。在这段时间内，依赖视觉的生物在攻击你时有劣势。",
				"在11级时，你不是变得模糊不清，而是被视为受到（%0%）法术的影响，直到你的下一个回合结束。在第17级时，你会被视为受到（%1%）法术的影响，直到你的下一回合结束。"
			]
		},
		{
			"name": "Far Reach",
			"source": "RannieryJesuinoTheMagus",
			"prerequisite": [
				{
					"level": {
						"level": 3,
						"class": {
							"name": "Magus",
							"source": "RannieryJesuinoTheMagus"
						}
					}
				}
			],
			"page": 0,
			"featureType": [
				"MM:M"
			],
			"entries": [
				"许多章鱼状的触手从你的手中弹出，朝向15英尺内的一个目标。撞击后，它们试图拉近你和目标之间的距离。",
				"对目标进行一次近战法术攻击。如果攻击命中且目标是大型或较小的生物，你会将该生物拉近你10英尺。如果攻击命中且目标生物是巨大或更大，你可以将自己拉近10英尺。之后，你可以对目标施放一个咒语。",
				"11级时，攻击的范围，你能拉动其他生物（或你自己）的距离都增加了5英尺。17级时，它们又增加了5英尺。"
			]
		},
		{
			"name": "Illusory Feint",
			"source": "RannieryJesuinoTheMagus",
			"prerequisite": [
				{
					"level": {
						"level": 3,
						"class": {
							"name": "Magus",
							"source": "RannieryJesuinoTheMagus"
						},
						"subclass": {
							"name": "Blade Saint",
							"source": "RannieryJesuinoTheMagus",
							"visible": true
						}
					}
				}
			],
			"page": 0,
			"featureType": [
				"MM:M"
			],
			"entries": [
				"作为一个额外的行动，你可以选择10英尺内的一个生物作为你的目标。你在本回合对该生物的下一次攻击卷中具有优势。如果该攻击命中，你可以在其伤害上加上你的智力修正值。",
				"11级时，如果该攻击命中，你可以对它进行一次额外的近战武器攻击。在17级时，你可以施放一个咒语，而不是对它进行额外的近战武器攻击。"
			]
		},
		{
			"name": "Jaunt",
			"source": "RannieryJesuinoTheMagus",
			"prerequisite": [
				{
					"level": {
						"level": 3,
						"class": {
							"name": "Magus",
							"source": "RannieryJesuinoTheMagus"
						},
						"subclass": {
							"name": "Armored Battlemage",
							"source": "RannieryJesuinoTheMagus",
							"visible": true
						}
					}
				}
			],
			"page": 0,
			"featureType": [
				"MM:M"
			],
			"entries": [
				"作为使用这个魔法动作的一部分，你可以在一条直线上最多移动30英尺，由这个动作引起的机会攻击是不利的。移动后，你可以对5英尺内的目标生物进行近身法术攻击。一旦命中，该生物就会受到相当于{@dice 2d8}的雷电伤害，如果是大型或小型生物，你可以将其推开至15英尺。",
				"11级时，伤害增加（%0%）。在第17级时，它又增加了{@dice 1d8}。"
			]
		},
		{
			"name": "Lashing Bind",
			"source": "RannieryJesuinoTheMagus",
			"prerequisite": [
				{
					"level": {
						"level": 3,
						"class": {
							"name": "Magus",
							"source": "RannieryJesuinoTheMagus"
						}
					}
				}
			],
			"page": 0,
			"featureType": [
				"MM:M"
			],
			"entries": [
				"对15英尺内的生物进行近身法术攻击。一旦命中，你会造成{@dice 2d8}的斩击伤害，并且目标必须在灵巧救赎中成功，否则会变成{@condition restrained}，直到其下一回合结束。",
				"11级时，伤害增加（%0%）。在第17级时，它又增加了{@dice 1d8}。"
			]
		},
		{
			"name": "Wrought Wound",
			"source": "RannieryJesuinoTheMagus",
			"prerequisite": [
				{
					"level": {
						"level": 3,
						"class": {
							"name": "Magus",
							"source": "RannieryJesuinoTheMagus"
						},
						"subclass": {
							"name": "Eldritch Shooter",
							"source": "RannieryJesuinoTheMagus",
							"visible": true
						}
					}
				}
			],
			"page": 0,
			"featureType": [
				"MM:M"
			],
			"entries": [
				"对范围内的一个目标生物进行一次远程武器攻击。成功命中后，目标会受到攻击的正常效果，对该目标的下一次攻击卷轴具有优势，其速度减半，直到你下一回合结束。",
				"11级时，如果下一次攻击卷轴击中目标，也会造成额外的（%0%）坏死伤害。在第17级时，额外的伤害增加（%1%）。"
			]
		},
		{
			"name": "Arcane Barrier",
			"source": "RannieryJesuinoTheMagus",
			"prerequisite": [
				{
					"level": {
						"level": 11,
						"class": {
							"name": "Magus",
							"source": "RannieryJesuinoTheMagus"
						},
						"subclass": {
							"name": "Armored Battlemage",
							"source": "RannieryJesuinoTheMagus",
							"visible": true
						}
					}
				}
			],
			"page": 0,
			"featureType": [
				"MM:M"
			],
			"entries": [
				"当一个生物在你15英尺范围内被击中时，作为一种反应，你会在它周围创造一个保护屏障。该生物在1分钟内获得3d6的临时攻击点。如果伤害将这些命中率降低到0，屏障就会爆炸。在该生物5英尺范围内的每个敌人都必须成功地进行力量救赎，否则会受到{@dice 3d6}魔法力量的伤害，如果他们是大型或小型的，则会被推到5英尺以外。",
				"17级时，临时命中率和死亡伤害都会增加（%0%），并且敌人会被额外推到5英尺。"
			]
		},
		{
			"name": "Dissociative Strike",
			"source": "RannieryJesuinoTheMagus",
			"prerequisite": [
				{
					"level": {
						"level": 11,
						"class": {
							"name": "Magus",
							"source": "RannieryJesuinoTheMagus"
						}
					}
				}
			],
			"page": 0,
			"featureType": [
				"MM:M"
			],
			"entries": [
				"对一个目标生物进行近战武器攻击。一旦命中，你的攻击会产生一股神奇的力量。在被击中的目标后面60英尺长、5英尺宽的范围内的第一个生物必须在灵巧反射中成功，否则将受到3d8的力量伤害。",
				"在17级时，你可以针对目标后面的前两个生物，而不是一个。"
			]
		},
		{
			"name": "Ether Vault",
			"source": "RannieryJesuinoTheMagus",
			"prerequisite": [
				{
					"level": {
						"level": 11,
						"class": {
							"name": "Magus",
							"source": "RannieryJesuinoTheMagus"
						},
						"subclass": {
							"name": "Eldritch Shooter",
							"source": "RannieryJesuinoTheMagus",
							"visible": true
						}
					}
				}
			],
			"page": 0,
			"featureType": [
				"MM:M"
			],
			"entries": [
				"你可以以你的速度飞行，并施展一个需要对范围内的目标生物进行远程法术攻击的咒语。在这个移动过程中，你所引起的任何机会攻击都是在劣势下进行的，在移动之后，你可以安全地降落在你正下方5英尺内你所选择的一个无人空间。",
				"在17级时，你可以飞到你的速度的两倍，而不是。"
			]
		},
		{
			"name": "Spell Flux",
			"source": "RannieryJesuinoTheMagus",
			"prerequisite": [
				{
					"level": {
						"level": 11,
						"class": {
							"name": "Magus",
							"source": "RannieryJesuinoTheMagus"
						}
					}
				}
			],
			"page": 0,
			"featureType": [
				"MM:M"
			],
			"entries": [
				"作为反应，你可以在你的手周围投射出一股魔力，持续到你下一个回合结束。在魔法演习的持续时间内，针对你的远程攻击会以劣势进行。如果任何远程攻击在下一回合结束前没有击中你，这个效果就会结束，你可以对你周围10英尺内的生物造成攻击的伤害。",
				"在17级时，该效果只在两次远程攻击失败后结束，而不是一次。"
			]
		},
		{
			"name": "Psi Blade",
			"source": "RannieryJesuinoTheMagus",
			"prerequisite": [
				{
					"level": {
						"level": 11,
						"class": {
							"name": "Magus",
							"source": "RannieryJesuinoTheMagus"
						},
						"subclass": {
							"name": "Blade Saint",
							"source": "RannieryJesuinoTheMagus",
							"visible": true
						}
					}
				}
			],
			"page": 0,
			"featureType": [
				"MM:M"
			],
			"entries": [
				"你凝聚了一把海蓝色的蒸馏痛苦之刃，具有穿透盔甲和甲壳的独特属性。",
				"使用你的武器的范围进行两次近战法术攻击，并将你的目标AC视为10+他们的灵巧修改器。一旦命中，你将造成2D12的精神伤害。",
				"17级时，伤害增加1d12。"
			]
		},
		{
			"name": "Windward Blade",
			"source": "RannieryJesuinoTheMagus",
			"prerequisite": [
				{
					"level": {
						"level": 11,
						"class": {
							"name": "Magus",
							"source": "RannieryJesuinoTheMagus"
						}
					}
				}
			],
			"page": 0,
			"featureType": [
				"MM:M"
			],
			"entries": [
				"你将你的刀刃赋予空气元素界的品质，并进行凶狠的上升斩击。对一个目标生物进行近战武器攻击。成功命中后，目标会受到攻击的正常效果，被悬浮在5英尺的空中，并变得（%0%），直到你下一回合结束。",
				"在17级时，你可以在解决所有效果后对目标施放一个咒语。"
			]
		},
		{
			"name": "Arcane Advance",
			"source": "RannieryJesuinoTheMagus",
			"prerequisite": [
				{
					"level": {
						"level": 17,
						"class": {
							"name": "Magus",
							"source": "RannieryJesuinoTheMagus"
						}
					}
				}
			],
			"page": 0,
			"featureType": [
				"MM:M"
			],
			"entries": [
				"你以模糊的速度向前冲，以一连串的冲刺向你的敌人前进。你可以在一条直线上以你的速度移动，并在移动过程中对你周围5英尺内最多3个生物施放一个咒语。任何由这个动作引起的机会攻击都是在劣势下进行的。"
			]
		},
		{
			"name": "Chain Shot",
			"source": "RannieryJesuinoTheMagus",
			"prerequisite": [
				{
					"level": {
						"level": 17,
						"class": {
							"name": "Magus",
							"source": "RannieryJesuinoTheMagus"
						},
						"subclass": {
							"name": "Eldritch Shooter",
							"source": "RannieryJesuinoTheMagus",
							"visible": true
						}
					}
				}
			],
			"page": 0,
			"featureType": [
				"MM:M"
			],
			"entries": [
				"选择一个在你的远程武器范围内的目标生物。你最多可以选择4个其他目标，只要每个目标都在前一个目标的30英尺之内。对这些目标中的每一个进行一次远程武器攻击。这些攻击中的任何一个都可以与你的元素弹药功能一起使用。"
			]
		},
		{
			"name": "Ghostly Dirk",
			"source": "RannieryJesuinoTheMagus",
			"prerequisite": [
				{
					"level": {
						"level": 17,
						"class": {
							"name": "Magus",
							"source": "RannieryJesuinoTheMagus"
						},
						"subclass": {
							"name": "Blade Saint",
							"source": "RannieryJesuinoTheMagus",
							"visible": true
						}
					}
				}
			],
			"page": 0,
			"featureType": [
				"MM:M"
			],
			"entries": [
				"选择一个你能看到的、在你120英尺范围内的目标生物。你传送到它5英尺内的一个无人空间，然后施放一个需要对它进行攻击的咒语。一旦成功命中，目标就会受到咒语的正常影响，并变得（%0%），直到你下一个回合结束。"
			]
		},
		{
			"name": "Grasp of the Wind",
			"source": "RannieryJesuinoTheMagus",
			"prerequisite": [
				{
					"level": {
						"level": 17,
						"class": {
							"name": "Magus",
							"source": "RannieryJesuinoTheMagus"
						},
						"subclass": {
							"name": "Armored Battlemage",
							"source": "RannieryJesuinoTheMagus",
							"visible": true
						}
					}
				}
			],
			"page": 0,
			"featureType": [
				"MM:M"
			],
			"entries": [
				"你呼唤风来帮助你。你选择的20英尺范围内的每个生物都必须做一个力量救赎的动作。如果拯救失败，他们会被拉到离你最多15英尺的直线距离，并受到3d8的魔法打击伤害。"
			]
		},
		{
			"name": "Lance of Light",
			"source": "RannieryJesuinoTheMagus",
			"prerequisite": [
				{
					"level": {
						"level": 17,
						"class": {
							"name": "Magus",
							"source": "RannieryJesuinoTheMagus"
						}
					}
				}
			],
			"page": 0,
			"featureType": [
				"MM:M"
			],
			"entries": [
				"光线在你的手上凝聚，拉长成一把耀眼的长矛，然后你把它扔出去。对30英尺内你能看到的生物进行近身法术攻击。一旦命中，该生物会受到{@dice 4d6}辐射伤害，并且必须在宪法救赎中成功，否则会变成{@condition blinded}并在30英尺范围内发出亮光，直到下一回合结束。"
			]
		},
		{
			"name": "Projected Attack",
			"source": "RannieryJesuinoTheMagus",
			"prerequisite": [
				{
					"level": {
						"level": 17,
						"class": {
							"name": "Magus",
							"source": "RannieryJesuinoTheMagus"
						}
					}
				}
			],
			"page": 0,
			"featureType": [
				"MM:M"
			],
			"entries": [
				"对触手可及的生物进行一次近战武器攻击。成功命中后，目标会受到攻击的正常效果，并且在它周围15英尺内除你之外的每个生物都必须做一个灵巧的蓄力动作，否则会受到该攻击的伤害，被推到10英尺外并被击倒（%0%）。"
			]
		}
	],
	"subclass": [
		{
			"name": "Armored Battlemage",
			"source": "RannieryJesuinoTheMagus",
			"shortName": "Armored Battlemage",
			"additionalSpells": [
				{
					"prepared": {
						"3": [
							"absorb elements, magnify gravity"
						],
						"5": [
							"find steed"
						],
						"9": [
							"pulse wave"
						],
						"13": [
							"fire shield"
						],
						"17": [
							"wall of force"
						]
					}
				}
			],
			"subclassFeatures": [
				"Armored Battlemage|Magus|RannieryJesuinoTheMagus|Armored Battlemage|RannieryJesuinoTheMagus|1",
				"Armored Spellcasting|Magus|RannieryJesuinoTheMagus|Armored Battlemage|RannieryJesuinoTheMagus|1",
				"Eldritch Protector|Magus|RannieryJesuinoTheMagus|Armored Battlemage|RannieryJesuinoTheMagus|6",
				"Aegis|Magus|RannieryJesuinoTheMagus|Armored Battlemage|RannieryJesuinoTheMagus|10",
				"Arcane Presence|Magus|RannieryJesuinoTheMagus|Armored Battlemage|RannieryJesuinoTheMagus|14"
			],
			"className": "Magus",
			"classSource": "RannieryJesuinoTheMagus"
		},
		{
			"name": "Blade Saint",
			"source": "RannieryJesuinoTheMagus",
			"shortName": "Blade Saint",
			"additionalSpells": [
				{
					"prepared": {
						"3": [
							"zephyr strike|xge"
						],
						"5": [
							"kinetic jaunt|scc"
						],
						"9": [
							"thunder step|phb"
						],
						"13": [
							"freedom of movement|phb"
						],
						"17": [
							"steel wind strike|phb"
						]
					}
				}
			],
			"subclassFeatures": [
				"Blade Saint|Magus|RannieryJesuinoTheMagus|Blade Saint|RannieryJesuinoTheMagus|1",
				"Chosen Weapon|Magus|RannieryJesuinoTheMagus|Blade Saint|RannieryJesuinoTheMagus|1",
				"Canny Defense|Magus|RannieryJesuinoTheMagus|Blade Saint|RannieryJesuinoTheMagus|1",
				"Warp Strike|Magus|RannieryJesuinoTheMagus|Blade Saint|RannieryJesuinoTheMagus|6",
				"Arcane Grace|Magus|RannieryJesuinoTheMagus|Blade Saint|RannieryJesuinoTheMagus|10",
				"Arcane Waltz|Magus|RannieryJesuinoTheMagus|Blade Saint|RannieryJesuinoTheMagus|14"
			],
			"className": "Magus",
			"classSource": "RannieryJesuinoTheMagus"
		},
		{
			"name": "Eldritch Shooter",
			"source": "RannieryJesuinoTheMagus",
			"shortName": "Eldritch Shooter",
			"additionalSpells": [
				{
					"prepared": {
						"3": [
							"hellish rebuke"
						],
						"5": [
							"see invisibility"
						],
						"9": [
							"conjure barrage"
						],
						"13": [
							"mordenkainen's faithful hound"
						],
						"17": [
							"conjure volley"
						]
					}
				}
			],
			"subclassFeatures": [
				"Eldritch Shooter|Magus|RannieryJesuinoTheMagus|Eldritch Shooter|RannieryJesuinoTheMagus|1",
				"Ranged Caster|Magus|RannieryJesuinoTheMagus|Eldritch Shooter|RannieryJesuinoTheMagus|1",
				"Elemental Ammo|Magus|RannieryJesuinoTheMagus|Eldritch Shooter|RannieryJesuinoTheMagus|6",
				"Elemental Affinity|Magus|RannieryJesuinoTheMagus|Eldritch Shooter|RannieryJesuinoTheMagus|10",
				"Ricochet Shot|Magus|RannieryJesuinoTheMagus|Eldritch Shooter|RannieryJesuinoTheMagus|14"
			],
			"className": "Magus",
			"classSource": "RannieryJesuinoTheMagus"
		}
	]
}
