{
	"_meta": {
		"sources": [
			{
				"json": "redditUA",
				"abbreviation": "R/UA",
				"full": "Dirge",
				"authors": [
					"redditors"
				],
				"convertedBy": [
					"Modnar"
				],
				"version": "1.0",
				"url": "http://homebrewery.naturalcrit.com/share/rk-YbfhYqZ",
				"targetSchema": "1.0.0"
			}
		],
		"optionalFeatureTypes": {
			"EP": "Epistemological",
			"EX": "Existential",
			"MO": "Mereological"
		},
		"dateAdded": 1548505822,
		"dateLastModified": 1693671517,
		"_dateLastModifiedHash": "e0541bb50c"
	},
	"class": [
		{
			"name": "Dirge",
			"source": "redditUA",
			"hd": {
				"number": 1,
				"faces": 6
			},
			"proficiency": [
				"int",
				"wis"
			],
			"classTableGroups": [
				{
					"colLabels": [
						"{@filter Cantrips Known|spells|level=0|class=dirge}",
						"Spell Points",
						"Spell Level",
						"Mehs"
					],
					"rows": [
						[
							2,
							2,
							"1st",
							0
						],
						[
							2,
							3,
							"1st",
							1
						],
						[
							2,
							4,
							"1st",
							1
						],
						[
							3,
							3,
							"2nd",
							1
						],
						[
							3,
							3,
							"2nd",
							2
						],
						[
							3,
							4,
							"3rd",
							2
						],
						[
							3,
							4,
							"3rd",
							3
						],
						[
							3,
							4,
							"4th",
							3
						],
						[
							3,
							5,
							"4th",
							4
						],
						[
							4,
							5,
							"5th",
							4
						],
						[
							4,
							6,
							"5th",
							5
						],
						[
							4,
							6,
							"5th",
							5
						],
						[
							4,
							7,
							"5th",
							6
						],
						[
							4,
							7,
							"5th",
							6
						],
						[
							5,
							8,
							"5th",
							6
						],
						[
							5,
							8,
							"5th",
							7
						],
						[
							5,
							8,
							"5th",
							7
						],
						[
							5,
							9,
							"5th",
							7
						],
						[
							5,
							9,
							"5th",
							8
						],
						[
							6,
							18,
							"6th",
							8
						]
					]
				}
			],
			"startingProficiencies": {
				"weapons": [
					"{@item Staff|phb}",
					"{@item Dagger|phb}",
					"{@item Whip|phb}"
				],
				"tools": [
					"Poisoner's Kit",
					"Alchemist's Supplies"
				],
				"skills": [
					{
						"choose": {
							"from": [
								"history",
								"insight",
								"investigation",
								"deception",
								"religion"
							],
							"count": 3
						}
					}
				]
			},
			"startingEquipment": {
				"additionalFromBackground": true,
				"default": [
					"Leather Armor, a Threadbear Traveller's cloak",
					"(a) Explorer's Pack or (b) 3 Books Of Gothic Prose",
					"(a) a Dagger or (b) A Staff",
					"(a) A diplomat's pack or (b) An entertainer's pack"
				],
				"goldAlternative": "{@dice 5d4×10|5d4 × 10|Starting Gold}",
				"defaultData": [
					{
						"_": []
					},
					{
						"a": [],
						"b": []
					},
					{
						"a": [],
						"b": []
					},
					{
						"a": [],
						"b": []
					}
				]
			},
			"multiclassing": {
				"requirements": {
					"int": 13,
					"cha": 10
				},
				"proficienciesGained": {
					"armor": [
						"{@item shield|phb|shields}"
					],
					"weapons": [
						"simple",
						"martial"
					]
				}
			},
			"classFeatures": [
				"Polyglot|Dirge|redditUA|1",
				"Spellcasting|Dirge|redditUA|1",
				"Enervate|Dirge|redditUA|1",
				"Expertise/Master of None|Dirge|redditUA|1",
				"Familiar|Dirge|redditUA|2",
				"Emotionally Abusive|Dirge|redditUA|2",
				"Meh|Dirge|redditUA|2",
				"Tough Love|Dirge|redditUA|3",
				{
					"classFeature": "Divine Filler|Dirge|redditUA|3",
					"gainSubclassFeature": true
				},
				"Placebo|Dirge|redditUA|3",
				"Ability Score Improvement|Dirge|redditUA|4",
				"Disruptive Banter|Dirge|redditUA|5",
				"Enervate (d8)|Dirge|redditUA|5",
				{
					"classFeature": "Channel snort \"Divinity\"|Dirge|redditUA|6",
					"gainSubclassFeature": true
				},
				"Troll's Regeneration|Dirge|redditUA|6",
				"Orator|Dirge|redditUA|7",
				"Ability Score Improvement|Dirge|redditUA|8",
				"Enervate (d10)|Dirge|redditUA|9",
				"Expertise/Master of None (2)|Dirge|redditUA|10",
				{
					"classFeature": "Philosophical Feature|Dirge|redditUA|10",
					"gainSubclassFeature": true
				},
				"Ability Score Improvement|Dirge|redditUA|12",
				{
					"classFeature": "Philosophical Feature|Dirge|redditUA|14",
					"gainSubclassFeature": true
				},
				"Dark Thoughts|Dirge|redditUA|15",
				"Shared Delusion|Dirge|redditUA|15",
				"Enervate (d12)|Dirge|redditUA|15",
				"Ability Score Improvement|Dirge|redditUA|16",
				"Philosophy feature|Dirge|redditUA|17",
				"Channel snort \"Divinity\"|Dirge|redditUA|18",
				"Ability Score Improvement|Dirge|redditUA|19",
				"A cookie|Dirge|redditUA|20"
			],
			"subclassTitle": "Philosophy",
			"classSpells": [
				"Bane",
				"Command",
				"Blindness/Deafness",
				"Crown of Madness",
				"Counterspell",
				"Comprehend Languages",
				"Darkness",
				"Dispel Magic",
				"Fear",
				"Enthrall",
				"Feign Death",
				"Dissonant Whispers",
				"Hypnotic Pattern",
				"Ensnaring Strike",
				"Ray of Enfeeblement",
				"Major Image",
				"Entangle",
				"Shatter",
				"Slow",
				"Hex",
				"Silence",
				"Tongues",
				"Ray of Sickness",
				"Spike Growth",
				"Mage Armor",
				"Shield",
				"Silent Image",
				"Sleep",
				"Blight",
				"Awaken",
				"Disintegrate",
				"Confusion",
				"Animate Objects",
				"Greater Invisibility",
				"Cloudkill",
				"Eyebite",
				"Resistance",
				"Hellish Rebuke",
				"Heat Metal",
				"Dominate Person",
				"Forbiddance",
				"Phantasmal Killer",
				"Dream",
				"Mass Suggestion",
				"Polymorph",
				"Geas",
				"Programmed Illusion",
				"Hold Monster",
				"Truesight",
				"Legend Lore",
				"Mislead",
				"Modify Memory",
				"Seeming",
				"Vicious Mockery",
				"Toll the Dead",
				"Shocking Grasp",
				"Thaumaturgy",
				"Prestidigitation",
				"Poison Spray",
				"Minor Illusion",
				"Message",
				"Dancing Lights",
				"encode thoughts|ggr",
				"gust|xge",
				"headwind|bols",
				"ferment|bols",
				"encrypt|bols",
				"dissonance|bols",
				"detune|bols",
				"burden|bols",
				"sword burst|scag",
				"infestation|xge",
				"undersong|3e5sc",
				"buzzing bee|3e5sc",
				"kiss of torment|reddit_ua",
				"enervating ennui|reddit_ua",
				"killing jar|reddit_ua",
				"intensify sensation|reddit_ua",
				"tasha's piteous sobbing|reddit_ua",
				"dirge bolt†|reddit_ua",
				"decieving bolt†|reddit_ua",
				"diminish ability|reddit_ua",
				"bestow curse|reddit_ua",
				"umbral images|bols",
				"spiteful images|bols",
				"shadow blade|bols",
				"phantom accompaniment|bols",
				"muddy appearance|bols",
				"morph shadow|bols",
				"mental prison|bols",
				"menace|bols",
				"bewitch|bols",
				"confounding battlefield|bols",
				"enhance oration|bols",
				"illusory illusion|bols",
				"judicious concealment|bols",
				"cacophony|bols",
				"discordant chorus|bols",
				"resonant imbalance|bols",
				"cone of silence|bols",
				"undetectable charm|bols",
				"instant fluency|bols",
				"babel's curse|bols",
				"bad luck|bols",
				"bait|bols",
				"damage morale|bols",
				"dread scream|bols",
				"enemies abound|xge",
				"fugue|bols",
				"helpless grief|bols",
				"voice of memories|bols",
				"twitch|bols",
				"taunt|bols",
				"synaptic static|xge",
				"aura of lies|reddit_ua"
			],
			"fluff": [
				{
					"entries": [
						"吟游诗人（Troubor）、吟游诗人（Bard）、吟游诗人（Minstrel）、吟游诗人（Gleeman）和传说家（Loremaster）。所有这些名字都是在谈论那些冒险的精神，他们用音乐、诗歌和舞蹈带来欢乐和喜悦。他们分散和欺骗他们的听众，给无望的人带来希望，给那些在战斗中疲惫的灵魂带来喘息。",
						"但是，也有更黑暗的一面。",
						"反巴德》。哀歌》。尼尔希勒主义的化身。部分是吟游诗人，部分是术士，部分是牧师--尽管他们自己并不相信有神--或者至少他们不相信有任何理由让神与凡人世界互动，而且即使神有，他们的禁令也只会让事情复杂到凡人无法解开的程度，从而需要神进一步介入来解决他们已经造成的混乱，导致......",
						"嗯，你懂的。",
						"与术士不同的是，Dirges没有与低级境界的大费伊人结成联盟，当然也没有长老神之类的。但是和术士一样，这个等级有类似于召唤的能力，称为 \"Mehs\"，随着他们的等级而获得，所以很少有Dirges会真正出现类似的能力。",
						"虽然吟游诗人确实有特定的学院，但Dirges会固定在他们虚无主义哲学的特定方面。",
						"他们乐于迷惑信仰者，存在的裂缝，并打破大众对流行的占有率的讨论的面纱。",
						"简而言之...他们是 \"那个人\"（或女孩）。",
						"",
						"即。蛀虫。",
						"",
						"这些人是黑暗的预言家，Luckeaters，Mirthless，the Joyless ones，...黑暗的灵魂。",
						"",
						"笛手们背诵历史、统计资料，并将他们的同伴和对手的不安全感作为磨练他们能力的磨刀石。",
						"他们反驳了 \"棍棒和石头可以打断我的骨头，但语言永远不会伤害我 \"这句话。"
					],
					"name": "Dirge",
					"source": "redditUA",
					"type": "section"
				}
			],
			"cantripProgression": [
				2,
				2,
				2,
				3,
				3,
				3,
				3,
				3,
				3,
				4,
				4,
				4,
				4,
				4,
				5,
				5,
				5,
				5,
				5,
				6
			]
		}
	],
	"spell": [
		{
			"name": "Deceiving Bolt",
			"source": "redditUA",
			"page": 10,
			"level": 1,
			"school": "V",
			"time": [
				{
					"number": 1,
					"unit": "action"
				}
			],
			"range": {
				"type": "point",
				"distance": {
					"type": "feet",
					"amount": 120
				}
			},
			"components": {
				"v": true,
				"s": true
			},
			"duration": [
				{
					"type": "timed",
					"duration": {
						"type": "round",
						"amount": 1
					}
				}
			],
			"classes": {
				"fromClassList": [
					{
						"name": "Dirge",
						"source": "redditUA"
					}
				]
			},
			"entries": [
				"一道黑暗闪电射向范围内你选择的一个生物。对目标进行一次远程法术攻击。命中后，目标受到{@damage 4d6}的精神伤害，并且在你下一回合结束前，这个目标的下一次攻击卷和任何感知能力检查都处于劣势，因为目标的感官是混乱的思想的骚动。",
				"{@b Reversible}: {@spell Guiding Bolt|phb}"
			],
			"entriesHigherLevel": [
				{
					"type": "entries",
					"name": "At Higher Levels",
					"entries": [
						"当你使用二级以上的法术槽施放此法术时，每超过一级的法术槽等级，伤害就会增加（%0%）。"
					]
				}
			],
			"damageInflict": [
				"psychic"
			],
			"spellAttack": [
				"R"
			],
			"roll20Spell": [
				{
					"name": "Deceiving Bolt",
					"source": "redditUA",
					"data": {
						"Damage": "4d6",
						"Damage Type": "Psychic",
						"Higher Spell Slot Die": "d6",
						"Higher Spell Slot Dice": "1"
					}
				}
			]
		},
		{
			"name": "Diminish Ability",
			"level": 2,
			"school": "T",
			"time": [
				{
					"number": 1,
					"unit": "action"
				}
			],
			"range": {
				"type": "point",
				"distance": {
					"type": "touch"
				}
			},
			"components": {
				"v": true,
				"s": true,
				"m": "a little piece of feces"
			},
			"duration": [
				{
					"type": "timed",
					"duration": {
						"type": "hour",
						"amount": 1
					},
					"concentration": true
				}
			],
			"classes": {
				"fromClassList": [
					{
						"name": "Dirge",
						"source": "redditUA"
					}
				]
			},
			"source": "redditUA",
			"entries": [
				"你触碰一个生物并赋予它一个魔法强化。从以下效果中选择一个；目标获得该效果直到咒语结束。",
				{
					"type": "entries",
					"name": "Butterfly's Endurance",
					"entries": [
						"目标在体质检查中处于不利地位。它还会失去{@dice 2d4}最大命中率。"
					]
				},
				{
					"type": "entries",
					"name": "Infant's Strength",
					"entries": [
						"目标在力量检查中处于劣势，而且他或她的携带能力减半。"
					]
				},
				{
					"type": "entries",
					"name": "Bull's Grace",
					"entries": [
						"目标在灵巧检查上有劣势。坠落时受到双倍伤害。"
					]
				},
				{
					"type": "entries",
					"name": "Lepor's Splendor",
					"entries": [
						"目标在魅力检查中处于劣势。"
					]
				},
				{
					"type": "entries",
					"name": "Chicken's Cunning",
					"entries": [
						"目标在智力检查中处于劣势。"
					]
				},
				{
					"type": "entries",
					"name": "Donkey's Wisdom",
					"entries": [
						"目标在智慧检查上有劣势。"
					]
				},
				"{@b Reversible}: {@spell Enhance Ability|phb}"
			],
			"entriesHigherLevel": [
				{
					"type": "entries",
					"name": "At Higher Levels",
					"entries": [
						"当你使用3级或更高等级的法术槽施放此法术时，你可以针对2级以上的每一个法术槽等级的一个额外生物。"
					]
				}
			]
		},
		{
			"name": "Dirge Drain",
			"level": 1,
			"source": "redditUA",
			"school": "V",
			"time": [
				{
					"number": 1,
					"unit": "action"
				}
			],
			"range": {
				"type": "point",
				"distance": {
					"type": "feet",
					"amount": 60
				}
			},
			"components": {
				"v": true,
				"s": true,
				"m": "a red thread not less than 3 inches in length"
			},
			"duration": [
				{
					"type": "timed",
					"duration": {
						"type": "minute",
						"amount": 1
					},
					"concentration": true
				}
			],
			"classes": {
				"fromClassList": [
					{
						"name": "Dirge",
						"source": "redditUA"
					}
				]
			},
			"entries": [
				"一缕夜蓝色的烟雾向范围内的生物流去，形成无形的黑暗能量带，在你和目标之间循环。对该生物进行一次远程法术攻击。一旦命中，一个黑暗的夜蓝色能量脉冲就会撞向目标，造成{@damage 1d10}精神伤害，并且在持续时间内的每个回合，你都可以使用你的行动对目标自动造成{@damage 1d10}精神伤害。如果你使用你的行动去做其他事情，则该咒语结束。如果目标在法术的范围之外，或者完全被你覆盖，法术也会结束。"
			],
			"entriesHigherLevel": [
				{
					"type": "entries",
					"name": "At Higher Levels",
					"entries": [
						"当你使用2级以上的法术槽施放此法术时，每超过1级的法术槽等级，初始伤害增加（%0%）。"
					]
				}
			],
			"damageInflict": [
				"psychic"
			],
			"spellAttack": [
				"R"
			],
			"roll20Spell": [
				{
					"name": "Nerve Dance",
					"source": "redditUA",
					"data": {
						"Damage": "d10",
						"Damage Type": "Psychic",
						"Higher Spell Slot Die": "d10",
						"Higher Spell Slot Dice": "1"
					}
				}
			]
		},
		{
			"name": "Cursed Tablet",
			"level": 3,
			"school": "E",
			"time": [
				{
					"number": 10,
					"unit": "minute"
				}
			],
			"range": {
				"type": "special"
			},
			"components": {
				"v": true,
				"s": true,
				"m": "a lead tablet"
			},
			"duration": [
				{
					"type": "timed",
					"duration": {
						"type": "week",
						"amount": 1
					}
				}
			],
			"classes": {
				"fromClassList": [
					{
						"name": "Dirge",
						"source": "redditUA"
					}
				]
			},
			"source": "redditUA",
			"entries": [
				"你把受害者的名字刻在一块铅板上，召唤死者的灵魂，并把铅板放在一个有人的坟墓里。",
				"此后的每个午夜，你的受害者必须成功地进行一次智慧救赎。失败意味着目标会遭受自己死亡的可怕噩梦。当目标醒来时，它的疲惫程度将无法消除，直到目标得到一个不受干扰的夜晚的休息。该生物还将受到{@damage 1d4}精神伤害，达到最大马力。疲惫的程度是累积的。如果目标在蓄力动作上成功，他当晚就不会受到影响。",
				"如果你的目标连续三次蓄力成功，则诅咒被打破，咒语结束。如果发现并摧毁了同时散发出魔法和邪恶的诅咒石板，这也会打破诅咒，但它也会对目标造成{@dice 1d10}/每级目标的疲惫的精神伤害。因为诅咒是施加在石板上而不是直接施加在目标身上，所以如果对目标生物施放消除诅咒的咒语，不会结束诅咒，但如果对石板施放，则会结束。然而，移除诅咒将使目标在第二天晚上的救赎中获得优势。",
				"咒语也可以由更大的恢复力、治愈力或愿望来结束。"
			],
			"meta": {
				"ritual": true
			},
			"damageInflict": [
				"psychic"
			],
			"savingThrow": [
				"wisdom"
			],
			"entriesHigherLevel": [
				{
					"type": "entries",
					"name": "At Higher Levels",
					"entries": [
						"在更高的等级。当你使用四级或更高等级的法术槽施展此法术时，每超过三级的法术槽，法术会额外持续两天。"
					]
				}
			],
			"roll20Spell": [
				{
					"name": "Cursed Tablet",
					"source": "redditUA",
					"data": {
						"Save": "Wisdom",
						"Damage": "1d4",
						"Damage Type": "Psychic"
					}
				}
			],
			"miscTags": [
				"HL"
			]
		},
		{
			"name": "Tasha's Piteous Lamantation",
			"level": 1,
			"school": "E",
			"time": [
				{
					"number": 1,
					"unit": "action"
				}
			],
			"range": {
				"type": "point",
				"distance": {
					"type": "feet",
					"amount": 30
				}
			},
			"components": {
				"v": true,
				"s": true,
				"m": "A verse of Vogathan Poetry or Salt Water & a bit of Onion"
			},
			"duration": [
				{
					"type": "timed",
					"duration": {
						"type": "minute",
						"amount": 1
					},
					"concentration": true
				}
			],
			"classes": {
				"fromClassList": [
					{
						"name": "Dirge",
						"source": "redditUA"
					}
				]
			},
			"source": "redditUA",
			"entries": [
				"你选择的范围内的一个生物，你能看到的范围内的生物感知到一切是毁灭性的悲哀，并跌落到地板上抽泣，并哭泣。目标必须在智慧救赎中成功，否则就会跌倒（%0%），在持续时间内变得无力，无法站起来。智力值为4或更低的生物，或结构体不受影响。",
				"在它的每个回合结束时，以及它每次受到伤害时，目标可以再做一次智慧救赎动作。如果它是由伤害触发的或被给予帮助行动，目标在蓄力投掷上有优势。如果成功，咒语结束。",
				"{@b Reversible}: {@spell Tasha's Hideous Laughter|phb}"
			],
			"savingThrow": [
				"wisdom"
			],
			"conditionInflict": [
				"incapacitated",
				"prone"
			],
			"miscTags": [
				"ADV",
				"SGT"
			]
		},
		{
			"name": "Killing Jar",
			"level": 1,
			"school": "A",
			"time": [
				{
					"number": 1,
					"unit": "bonus"
				}
			],
			"range": {
				"type": "point",
				"distance": {
					"type": "feet",
					"amount": 30
				}
			},
			"components": {
				"v": true,
				"s": true,
				"m": "a vial a drop of honey and drop of poison or acid."
			},
			"duration": [
				{
					"type": "timed",
					"duration": {
						"type": "minute",
						"amount": 1
					}
				}
			],
			"classes": {
				"fromClassList": [
					{
						"name": "Dirge",
						"source": "redditUA"
					}
				]
			},
			"source": "redditUA",
			"entries": [
				"你诅咒范围内的一个生物免受攻击。直到咒语结束，30英尺范围内的所有生物如果试图以另一个生物为攻击目标，必须做一个智慧救赎动作。如果救赎失败，这些生物将以被诅咒的生物为目标，或者可以选择放弃他们的攻击和额外行动。这个法术并不保护被诅咒的生物周围的生物，即使效果区域包括攻击者/施法者或其盟友。",
				"如果被诅咒的生物为一个生物治疗或给予帮助动作，该生物不再被强迫攻击被诅咒的生物。",
				"{@b Reversible}: {@spell sanctuary|phb}"
			],
			"savingThrow": [
				"wisdom"
			],
			"miscTags": [
				"HL",
				"UBA"
			]
		},
		{
			"name": "Emnity/Regret",
			"level": 0,
			"school": "E",
			"time": [
				{
					"number": 1,
					"unit": "action"
				}
			],
			"range": {
				"type": "point",
				"distance": {
					"type": "feet",
					"amount": 30
				}
			},
			"components": {
				"s": true,
				"m": "a small amount of soured milk a bit of broken bridge."
			},
			"duration": [
				{
					"type": "special"
				}
			],
			"classes": {
				"fromClassList": [
					{
						"name": "Dirge",
						"source": "redditUA"
					}
				]
			},
			"source": "redditUA",
			"entries": [
				"该法术有两个阶段",
				{
					"type": "entries",
					"entries": [
						"{@b Phase one}:",
						{
							"type": "list",
							"items": [
								"持续时间（每个生物的生命值/等级1回合）",
								"目标对你（以及和你在一起的人）产生仇恨和敌意，并且在所有基于魅力的技能检查/救赎中都处于劣势。在掷出5点或更少的时候，该生物（如果容易产生暴力）将攻击你。另一个生物可能以其他方式寻求报复（由DM决定）。目标生物被允许掷出智慧或魅力救赎（他们的选择）来对抗攻击。如果他们失败了，攻击的敌意会继续。"
							]
						},
						"{@b Phase two}:",
						{
							"type": "list",
							"items": [
								"在第一阶段法术结束时，目标生物意识到它被赋予了对你和你的同伴的仇恨和敌意的感觉，但不知道来自哪里。该生物；如果是善的--可能会寻求弥补；如果是恶的--可能会寻求杀死你，可能会寻求与你结盟，或者只是审问党内刚刚发生的事情。"
							]
						}
					]
				},
				"{@b Reversible}: {@spell Friends|phb}"
			]
		},
		{
			"name": "Distraction",
			"level": 0,
			"school": "E",
			"time": [
				{
					"number": 1,
					"unit": "action"
				}
			],
			"range": {
				"type": "point",
				"distance": {
					"type": "feet",
					"amount": 15
				}
			},
			"components": {
				"s": true,
				"m": true
			},
			"duration": [
				{
					"type": "timed",
					"duration": {
						"type": "minute",
						"amount": 1
					}
				}
			],
			"classes": {
				"fromClassList": [
					{
						"name": "Dirge",
						"source": "redditUA"
					}
				]
			},
			"source": "redditUA",
			"entries": [
				"你能看到的一个生物必须进行智慧救赎，否则在其攻击行动中会失去1次攻击。由于太过专注于自己的想法或被闪亮的东西分心而无法注意到他们周围的任何运动、声音或气味。智力在3以下的生物或对被魅惑有免疫力的生物不受此法术影响。"
			],
			"entriesHigherLevel": [
				{
					"type": "entries",
					"name": "At Higher Levels",
					"entries": [
						"你能影响的人的数量在你达到5级时增加到3个，在你达到5级时增加到6个，在你达到17级时增加到12个。"
					]
				}
			],
			"savingThrow": [
				"wisdom"
			],
			"miscTags": [
				"SCL",
				"SGT"
			]
		},
		{
			"name": "Enervating Ennui",
			"level": 6,
			"school": "E",
			"time": [
				{
					"number": 1,
					"unit": "action"
				}
			],
			"range": {
				"type": "point",
				"distance": {
					"type": "feet",
					"amount": 30
				}
			},
			"components": {
				"v": true
			},
			"duration": [
				{
					"type": "timed",
					"duration": {
						"type": "minute",
						"amount": 1
					},
					"concentration": true
				}
			],
			"classes": {
				"fromClassList": [
					{
						"name": "Dirge",
						"source": "redditUA"
					}
				]
			},
			"source": "redditUA",
			"entries": [
				"选择一个你能看到的范围内的生物。目标会被迷惑住。不能被魅惑的生物对这个法术免疫。目标生物会失去所有的行动能力，并在灵巧救赎和攻击卷中处于劣势。当目标受此法术影响时，其他生物对它的攻击卷有优势。作为一项行动，该生物可以用智慧救赎来重新获得对自己的控制。拯救成功后，该咒语结束。"
			],
			"savingThrow": [
				"wisdom"
			],
			"miscTags": [
				"SGT"
			]
		},
		{
			"name": "Intensify Sensation",
			"level": 2,
			"school": "E",
			"time": [
				{
					"number": 1,
					"unit": "action"
				}
			],
			"range": {
				"type": "point",
				"distance": {
					"type": "touch"
				}
			},
			"components": {
				"v": true,
				"s": true
			},
			"duration": [
				{
					"type": "timed",
					"duration": {
						"type": "minute",
						"amount": 10
					},
					"concentration": true
				}
			],
			"classes": {
				"fromClassList": [
					{
						"name": "Dirge",
						"source": "redditUA"
					}
				]
			},
			"source": "redditUA",
			"entries": [
				"你触摸一个生物，如果他不愿意的话，必须做一个智慧救赎动作。该生物将感知到明显更强烈的感觉。身体和情感上的感觉都会有不可思议的力量，无论好坏。在此法术影响下，被击中的生物必须进行宪法救赎，否则就会失去能力，直到他们的下一次行动结束。",
				"旨在创造情感或身体感觉的法术的持续时间是正常情况下的两倍，并且生物对其进行不利的拯救。生物可以在每个回合开始时再次进行拯救。"
			],
			"savingThrow": [
				"wisdom"
			]
		},
		{
			"name": "Kiss of Torment",
			"level": 4,
			"school": "E",
			"time": [
				{
					"number": 1,
					"unit": "action"
				}
			],
			"range": {
				"type": "point",
				"distance": {
					"type": "touch"
				}
			},
			"components": {
				"v": true,
				"s": true
			},
			"duration": [
				{
					"type": "timed",
					"duration": {
						"type": "minute",
						"amount": 1
					}
				}
			],
			"classes": {
				"fromClassList": [
					{
						"name": "Dirge",
						"source": "redditUA"
					}
				]
			},
			"source": "redditUA",
			"entries": [
				"你必须触摸一个生物的裸体，要么是真的亲吻该生物，要么是用你的指尖拂过它。该生物可以做一个宪法救赎动作。如果成功，咒语结束。如果失败，该生物会受到{@damage 4d6}的精神伤害，并且非常痛苦，以至于在这段时间内无法行动。它可以在每个回合结束时进行一次新的蓄力，如果成功则结束该效果。然而，在该生物保持无行为能力的每一回合，它都会受到额外的（1%）精神伤害。"
			],
			"damageInflict": [
				"psychic"
			],
			"savingThrow": [
				"constitution"
			],
			"roll20Spell": [
				{
					"name": "Kiss of Torment",
					"source": "redditUA",
					"data": {
						"Save": "Constitution",
						"Damage": "4d6",
						"Damage Type": "Psychic",
						"Save Success": "none"
					}
				}
			]
		},
		{
			"name": "Major Curse",
			"level": 6,
			"school": "N",
			"time": [
				{
					"number": 1,
					"unit": "action"
				}
			],
			"range": {
				"type": "point",
				"distance": {
					"type": "touch"
				}
			},
			"components": {
				"v": true,
				"s": true
			},
			"duration": [
				{
					"type": "timed",
					"duration": {
						"type": "minute",
						"amount": 10
					},
					"concentration": true
				}
			],
			"classes": {
				"fromClassList": [
					{
						"name": "Dirge",
						"source": "redditUA"
					}
				]
			},
			"source": "redditUA",
			"entries": [
				"你接触一个生物，它必须在智慧救赎中成功，否则就会在咒语持续期间受到诅咒。当你施展这个法术时，从下列选项中选择诅咒的一个特征。",
				{
					"type": "list",
					"items": [
						"选择一个能力得分。该能力将减少10分（不低于3分）。",
						"该生物在所有攻击、伤害和蓄力方面都处于劣势。",
						"该生物在咒语的持续时间内会被麻痹。",
						"所有攻击和法术对目标造成额外的（%0%）坏死伤害。",
						"该生物开始慢慢死亡。在每次长时间的休息后，它都会受到你所选择的类型的{@damage 1d10}伤害，并且它的最大HP总量减少1点。只有在这个诅咒被解除后，最大生命值才会恢复到正常。",
						"{@b Allergy}: 每当该生物遇到一种特定的物质，它就会变得非常恶心。它必须进行宪法规定的救赎，否则会因呕吐和干呕而丧失能力（%1%）轮，并在10分钟内被（%2%）。",
						"{@b Incompetence}: 该生物失去对某项技能、工具或特定武器（即长剑）的熟练度。"
					]
				},
				"移除诅咒会结束所选择的效果。在DM的选择下，你可以选择一个替代的诅咒效果，但它不应该比上面描述的那些更强大。DM对诅咒的效果有最终决定权。"
			],
			"entriesHigherLevel": [
				{
					"type": "entries",
					"name": "At Higher Levels",
					"entries": [
						"如果你使用7级的法术槽施放此法术，持续时间最长为1小时。8级时，持续时间最长为24小时。如果你使用第9级的法术槽，该法术持续到它被驱散或诅咒被移除为止，比（%0%）。使用7级或更高等级的法术槽，不需要使用注意力。"
					]
				}
			],
			"savingThrow": [
				"dexterity"
			]
		},
		{
			"name": "Nerve Dance",
			"level": 4,
			"school": "A",
			"time": [
				{
					"number": 1,
					"unit": "action"
				}
			],
			"range": {
				"type": "point",
				"distance": {
					"type": "feet",
					"amount": 120
				}
			},
			"components": {
				"v": true,
				"s": true,
				"m": "a six-inch strand of red spider silk and a torch"
			},
			"duration": [
				{
					"type": "timed",
					"duration": {
						"type": "minute",
						"amount": 1
					},
					"concentration": true
				}
			],
			"classes": {
				"fromClassList": [
					{
						"name": "Dirge",
						"source": "redditUA"
					}
				]
			},
			"source": "redditUA",
			"entries": [
				"你伸出你的手，三个发光的红色流苏射出。每条流线都缠绕在你选择的范围内的一个目标上，使用你的法术攻击修正值来击中。",
				"一旦命中，他们就会缠绕住一个目标，抓住它（逃脱DC等于你的法术救赎DC），并且必须做一个智慧救赎。该生物受到（%0%）精神伤害，并且如果他们不能进行灵巧救赎，就会在法术持续时间内因难以置信的痛苦而丧失能力，如果救赎成功，目标就会受到一半的伤害，并且丧失能力，直到他们的下一回合结束。",
				"生物在其每个回合结束时进行拯救，以结束神奇的（%0%）状态。"
			],
			"entriesHigherLevel": [
				{
					"type": "entries",
					"name": "At Higher Levels",
					"entries": [
						"当你使用二级以上的法术槽施放此法术时，每超过一级的法术槽等级，伤害就会增加（%0%）。"
					]
				}
			],
			"damageInflict": [
				"psychic"
			],
			"savingThrow": [
				"dexterity"
			],
			"roll20Spell": [
				{
					"name": "Nerve Dance",
					"source": "redditUA",
					"data": {
						"Save": "Wisdom",
						"Damage": "6d6",
						"Damage Type": "Psychic",
						"Save Success": "Half damage",
						"Higher Spell Slot Die": "d6",
						"Higher Spell Slot Dice": "1"
					}
				}
			]
		},
		{
			"name": "Aura of Lies",
			"level": 2,
			"school": "E",
			"time": [
				{
					"number": 1,
					"unit": "action"
				}
			],
			"range": {
				"type": "point",
				"distance": {
					"type": "feet",
					"amount": 60
				}
			},
			"components": {
				"v": true,
				"s": true
			},
			"duration": [
				{
					"type": "timed",
					"duration": {
						"type": "minute",
						"amount": 10
					}
				}
			],
			"classes": {
				"fromClassList": [
					{
						"name": "Dirge",
						"source": "redditUA"
					}
				]
			},
			"source": "redditUA",
			"entries": [
				"你创造了一个神奇的光环，当你试图故意说谎话时，可以获得欺骗/劝说的优势。如果对一个不愿意/不知道的目标施放，直到咒语结束，该生物会做一个魅力救赎，如果成功，他们会做一个智力救赎，以意识到咒语的性质，否则就会相信他们处于一个真理区的影响之下。",
				"当带着谎言光环的生物进入真理区时，他们可以在真理区内故意撒谎，而真理区的施法者不会被神奇地惊动。此外，带着谎言光环的生物在真理之区内试图完全诚实，对该生物来说，听起来就像他们想说的话，但对听众来说，他们的陈述将与意图相反。",
				"(例如：我已经自豪地凯旋而归--会以我失败的方式出现。"
			],
			"savingThrow": [
				"charisma"
			]
		},
		{
			"name": "Rending",
			"level": 0,
			"school": "T",
			"time": [
				{
					"number": 1,
					"unit": "action"
				}
			],
			"range": {
				"type": "point",
				"distance": {
					"type": "touch"
				}
			},
			"components": {
				"v": true,
				"s": true,
				"m": "9 broken needles"
			},
			"duration": [
				{
					"type": "special"
				}
			],
			"classes": {
				"fromClassList": [
					{
						"name": "Dirge",
						"source": "redditUA"
					}
				]
			},
			"source": "redditUA",
			"entries": [
				"这个法术会在你所接触的物体上产生一个单一的断裂或撕裂--断裂的链环、断裂的钥匙、在斗篷上留下一个破损的裂痕、或者破裂的酒皮。断裂或撕裂在任何尺寸上都不超过1英尺。",
				{
					"type": "entries",
					"entries": [
						"每当对一个物品施放时，它就会。",
						{
							"type": "list",
							"items": [
								"{@b Structure}: 1级时造成1点武力伤害，5级时2点，11级时4点，17级时8点。",
								"{@b Weapon}（正常）：武器遭受永久的命中和伤害-1（并且不能再进行关键打击）。",
								"{@b Armor}（正常）：护甲永久减少1个AC。",
								"{@b +x Magic Weapon/Armor}: 移除魔法属性的绕过伤害抵抗，每次减少其有效奖励1。",
								"{@b Charged Magical item}: 使该物品减少1个电荷。",
								"{@b other Magic Items}：（不包括神器）该物品在一分钟内每次施法都会失去一个随机的特征或能力。"
							]
						}
					]
				},
				"一个{@spell dispel magic|phb}或{@spell Mending|phb}将逆转正在施放的Rending实例的一个伤害步骤。",
				{
					"type": "entries",
					"entries": [
						"一个项目在以下情况下被销毁。",
						{
							"type": "list",
							"items": [
								"{@b Structure}: 渲染为0HP",
								"{@b Weapon}（正常）：武器被降低到只能造成1点伤害。",
								"{@b Armor}(正常)：护甲的保护力降低到0ac。",
								"{@b Charged Magical item}: 当对其施放时，当该物品有0次充电。",
								"{@b +x Magic Weapon/Armor}：不能被摧毁，只是有效地被否定。"
							]
						}
					]
				}
			]
		}
	],
	"optionalfeature": [
		{
			"name": "Armor of  Satire",
			"entries": [
				"通过参与尖锐讽刺的言语流（集中），使你受到保护（就像对自己施放（%0%）而不消耗法术槽/点或材料成分一样）。(沉默，或需要消除该效果）。"
			],
			"source": "redditUA",
			"page": 12,
			"featureType": [
				"Meh"
			]
		},
		{
			"name": "Battering Will",
			"entries": [
				"当你使用魔法试图魅惑或惊吓一个生物时，你会忽略对这两个条件的优势，并且你把对这两个条件的豁免权视为优势。"
			],
			"source": "redditUA",
			"page": 12,
			"featureType": [
				"Meh"
			]
		},
		{
			"name": "Beguiling Influence",
			"entries": [
				"你获得欺骗和劝说技能的熟练度。"
			],
			"source": "redditUA",
			"page": 12,
			"featureType": [
				"Meh"
			]
		},
		{
			"name": "Psychic Stormfront",
			"prerequisite": [
				{
					"level": {
						"level": 10,
						"class": {
							"name": "Dirge"
						}
					}
				}
			],
			"entries": [
				"你可以在你对同一生物造成精神伤害的每一个连续回合，额外造成1点精神伤害。",
				"{@italic (ie if for 4 rounds you've relentlessly attacked it with Psychic damage you deal +4 damage if you strike it next round for more Psychic damage)}",
				"在你的周围，被击中的生物必须进行魅力救赎，否则就会受到惊吓（作为条件）。在每个回合开始时进行救赎，或直到1分钟过去。"
			],
			"source": "redditUA",
			"page": 12,
			"featureType": [
				"Meh"
			]
		},
		{
			"name": "Channel Expansion",
			"prerequisite": [
				{
					"level": {
						"level": 8,
						"class": {
							"name": "Dirge"
						}
					}
				}
			],
			"entries": [
				"在你的哲学之路，有3个通道选择。当你采取这个措施时，你可以选择其中的另一个。"
			],
			"source": "redditUA",
			"page": 12,
			"featureType": [
				"Meh"
			]
		},
		{
			"name": "Curse of Being Alive",
			"entries": [
				"长时间休息后，Dirge可以选择以下选项；当它的熟人在60英尺范围内时，处理任何掷出的骰子来决定命中率的数值都是有利的，或者任何掷出的骰子来决定恢复的命中率都是不利的。"
			],
			"source": "redditUA",
			"page": 12,
			"featureType": [
				"Meh"
			]
		},
		{
			"name": "Dreadful Word",
			"prerequisite": [
				{
					"level": {
						"level": 7,
						"class": {
							"name": "Dirge"
						}
					}
				}
			],
			"entries": [
				"你可以施放混乱，该法术总是被认为是准备好的，施放它需要消耗4个法术点（或一个四级法术槽）。",
				"在你完成长时间的休息之前，你不能再这样做。"
			],
			"source": "redditUA",
			"page": 12,
			"featureType": [
				"Meh"
			]
		},
		{
			"name": "Familiar Empowerment",
			"entries": [
				"这个课程只能学一次，是熟悉升级的前提条件。",
				{
					"type": "list",
					"items": [
						"{@bold Black Cat} - 不吉利的1天",
						"{@bold Bat} - 每次成功攻击后恢复1点健康值",
						"{@bold Crow} - 目标总是被认为有共同的语言（包括动物和植物），这并不意味着你能说或理解所有的语言。只是对于某些特征来说，共同语言的要求被搁置了）青蛙--青蛙可以尝试抓取15英尺范围内的大型生物。",
						"{@bold Goat} - 每天随机一个",
						"{@bold Lizard} - 隐身术+5",
						"{@bold Owl} - 获得+30的黑暗视觉",
						"{@bold Rat} - 可以对目标进行疾病治疗（传授中毒条件，对Dirge的DC进行CON救治）。",
						"{@bold Raven} - 获得8个智力，和表演技能",
						"{@bold Rock} - Dirge每级获得+1HP的力量",
						"{@bold Snake} - 获得说服力（如果你已经精通说服力，则获得说服力的专业知识）。"
					]
				}
			],
			"source": "redditUA",
			"page": 12,
			"featureType": [
				"Meh"
			]
		},
		{
			"name": "Familiar Upgrade",
			"entries": [
				"{@italic This requires the Familiar Empowerment Meh and may be taken multiple times.}",
				"你的家人现在拥有以下之一。",
				{
					"type": "list",
					"items": [
						"{@bold Advancement} - 你的法师的CR值提高了一步（CR 1/8移动到CR1/4，CR 1/4移动到CR 1/2，CR 1/2移动到CR 1，以此类推）。它的生命值和攻击力也会相应提高。",
						"{@bold Aggro} - 你的法师在采取攻击行动时，会进行两（2）次攻击。",
						"{@bold Awakened} - 你的法师现在有10智力和10智慧。它的个性也同样粗暴和磨人，但它现在可以在没有指导的情况下进行战斗。如果你将来再选择这个，它的智力和智慧的能力值会增加2。",
						"{@bold ___ of Ill Omen} - 你的熟悉人可以使用你的恩赐，你获得1次额外的使用权。",
						"{@bold Fortified} - 你的熟人使用最大的HP作为其模板。(之后每次使用此功能都会给予你的熟人2d6+5的额外HP）。",
						"{@bold Jinx} - 在它10英尺范围内的所有检查都处于不利地位。",
						"{@bold Magical} - 每当你施展以{@bold self}为目标的法术时，你可以在效果中包括或不包括你的熟人。只要你在你熟悉的人的60英尺范围内，你就可以用它来为需要这样做的法术做出触动。",
						"{@bold Slippery} - 你的法师可以作为额外行动进行闪避。",
						"{@bold Speedy} - 你的法师可以将冲刺作为一个额外的动作，并在这样做时获得+15的移动速度。",
						"{@bold Stealthy} - 你的熟人获得隐身术（如果它已经精通隐身术，则获得隐身术的专长）。",
						"{@bold Telepathy} - 只要你们在同一平面上，你就能与你的熟悉者进行心灵感应，并通过你熟悉者的感官进行感知。此外，在通过你熟悉的人的感官进行感知时，你也可以通过你熟悉的人用自己的声音说话，即使你熟悉的人通常不能说话。如果你的熟悉者智力低下，你会从与它的交流中获得（1%）或（2%）的感受。"
					]
				}
			],
			"source": "redditUA",
			"page": 12,
			"featureType": [
				"Meh"
			]
		},
		{
			"name": "Fumble",
			"entries": [
				"作为一个动作，吟唱者消耗一个未使用的HD，一个他们在60英尺范围内看到的生物，下一次该生物用非自然的武器攻击并没有击中，他们必须对吟唱者的DC做一个灵巧的拯救，否则就放弃。"
			],
			"source": "redditUA",
			"page": 12,
			"featureType": [
				"Meh"
			]
		},
		{
			"name": "Opportunistic Jinx",
			"entries": [
				"每当一个生物（包括盟友）在你的30英尺范围内掷出自然1，他们就会受到一点伤害，并获得一个扫把星指控。 你不能持有比你的Dirge等级更多的Jinx charge。你每持有一次冲锋，就可以。",
				"用你的攻击造成额外的一点伤害，最多持续1分钟。",
				"有一个额外的临时点。",
				"或者你可以用一次冲锋来换取救赎或能力检查的优势。",
				"充电持续到你短暂或长时间休息为止"
			],
			"source": "redditUA",
			"page": 12,
			"featureType": [
				"Meh"
			]
		},
		{
			"name": "Legendary Failure",
			"entries": [
				"作为一种反应，你可以有效地反击一个生物对一个传奇行动的使用。传奇行动的法术等级被视为该怪物CR等级的1/2。你必须花费至少5个法术点才能使用这个功能。"
			],
			"source": "redditUA",
			"page": 12,
			"featureType": [
				"Meh"
			]
		},
		{
			"name": "Mystic Whisperings",
			"entries": [
				"你可以从任何等级的法术列表中选择一个咒语。它的功能是为你提供一个Dirge法术。你可以多次选择这种召唤，最多是你的魅力修改器。"
			],
			"source": "redditUA",
			"page": 12,
			"featureType": [
				"Meh"
			]
		},
		{
			"name": "Psychic Attack",
			"entries": [
				"作为一个行动，你可以用言语攻击一个生物--在它的听觉范围内（最远120英尺）--进行攻击卷，用该生物的智慧或魅力（你选择）作为它的AC。成功后，你会造成1d6的精神伤害。第6次1d10；第14次2d6；第18次3d6。"
			],
			"source": "redditUA",
			"page": 12,
			"featureType": [
				"Meh"
			]
		},
		{
			"name": "Ruin",
			"prerequisite": [
				{
					"level": {
						"level": 14,
						"class": {
							"name": "Dirge"
						}
					}
				}
			],
			"entries": [
				"作为你回合中的一个动作，你可以选择一个你能看到的30英尺范围内的目标生物，如果它掷出20分，则算作1分，最多持续1分钟。你不能再这样做，直到你完成一个长时间的休息。",
				"这个功能需要保持注意力才能使用。"
			],
			"source": "redditUA",
			"page": 12,
			"featureType": [
				"Meh"
			]
		},
		{
			"name": "Speech",
			"prerequisite": [
				{
					"level": {
						"level": 12,
						"class": {
							"name": "Dirge"
						}
					}
				}
			],
			"entries": [
				"{@b Prerequisite}: 非乌合之众",
				"你对知识的追求使你能够掌握任何口语。当你完成一次长休时，你可以选择两种语言。你会获得说、读、写所选语言的能力，直到你完成下一次长时休息。"
			],
			"source": "redditUA",
			"page": 12,
			"featureType": [
				"Meh"
			]
		},
		{
			"name": "Third Sight",
			"prerequisite": [
				{
					"level": {
						"level": 15,
						"class": {
							"name": "Dirge"
						}
					}
				}
			],
			"entries": [
				"你可以看到任何变身者或被幻觉或转化魔法掩盖的生物的真实形态，当该生物在你30英尺范围内并在视线范围内。"
			],
			"source": "redditUA",
			"page": 12,
			"featureType": [
				"Meh"
			]
		},
		{
			"name": "Whisper of the Grave",
			"prerequisite": [
				{
					"level": {
						"level": 9,
						"class": {
							"name": "Dirge"
						}
					}
				}
			],
			"entries": [
				"你可以随心所欲地施展与死人对话，而不需要消耗一个法术槽。"
			],
			"source": "redditUA",
			"page": 12,
			"featureType": [
				"Meh"
			]
		}
	],
	"variantrule": [
		{
			"name": "Reversible Spell",
			"entries": [
				"一个带有可逆标签的咒语有两种形式，在准备时可以选择。虽然该咒语是一个咒语，但它至少会有两种（通常是截然相反的）效果，如果该咒语被选为当天的预备咒语，必须事先说明该咒语的版本（效果）。如果该法术被认为是一直准备好的，那么两个版本都可以被调用。这让人想起了第一版AD&D。在第一版中，你可以施展治愈术或致伤术。"
			],
			"source": "redditUA"
		}
	],
	"classFeature": [
		{
			"name": "Polyglot",
			"source": "redditUA",
			"className": "Dirge",
			"classSource": "redditUA",
			"level": 1,
			"entries": [
				"在角色创建过程中--当选择你的背景时，如果背景包括你已经拥有的技能，你不是选择另一个技能，而是学习一种额外的语言。",
				"你在1级之后每4级获得一种额外的语言（即5级、9级、13级、17级；）。"
			]
		},
		{
			"name": "Spellcasting",
			"source": "redditUA",
			"className": "Dirge",
			"classSource": "redditUA",
			"level": 1,
			"entries": [
				"You have learned to tangle and force the shape of the fabric of reality in discord to and in alignment to your wishes and as such spells are part of your repertoire. Its magic is something that you can use to co-opt and corrupt the efforts of others in situations. See {@book chapter 10|PHB|10} of the PHB for the general rules of spellcasting and below for the {@filter dirge spell list|spells|class=dirge|source=redditUA}.",
				{
					"type": "entries",
					"name": "Cantrips",
					"entries": [
						"You know two cantrips of your choice from the Dirdge spell list. You learn additional Dirge cantrips of your choice at higher levels, as shown in the Cantrips Known column of the {@filter dirge spell list|spells|class=dirge|source=redditUA}."
					]
				},
				{
					"type": "entries",
					"name": "Spell Points",
					"entries": [
						"上表告诉你有多少法术点数来施展你的法术。要施展其中一个法术，你必须在你想要施展的法术的每一级的法术槽中消耗一点。当你完成短时休息时，你会恢复所有消耗的法术槽的一半，而在长时休息时则会恢复所有的法术槽。"
					]
				},
				{
					"type": "entries",
					"name": "Spellcasting Ability",
					"entries": [
						"智力是你施展Dirge法术的能力。你的魔法来自于扭曲现实和强制模式的能力，它部分是神圣的，部分是你意志力的反常能力，使世界陷入更多的混乱。在为你施放的哀歌咒语设定蓄力DC时，以及在用哀歌咒语进行攻击时，请使用你的智力修改器。",
						{
							"type": "abilityDc",
							"name": "Spell",
							"attributes": [
								"int"
							]
						},
						{
							"type": "abilityAttackMod",
							"name": "Spell",
							"attributes": [
								"int"
							]
						}
					]
				},
				{
					"type": "entries",
					"name": "Ritual Casting",
					"entries": [
						"你可以把你知道的任何吟游诗人的法术作为一种仪式来施放，如果该法术有仪式标签的话。"
					]
				},
				{
					"type": "entries",
					"name": "Spellcasting Focus",
					"entries": [
						"你可以使用一个书籍焦点（在第5章中找到）作为你的哀伤咒语的施法焦点。"
					]
				},
				{
					"type": "entries",
					"name": "Learning Spells of 1st Level and Higher",
					"entries": [
						"Each time you gain a dirge level, you can add one dirge spells of your choice to your spellbook. Each of these spells must be of a level for which you have spell slots, as shown on the {@filter dirge spell list|spells|class=dirge|source=redditUA} table. On your adventures, you might find other spells that you can add to your spellbook (see \"Your Spellbook\")."
					]
				},
				{
					"type": "inset",
					"name": "Your Spellbook",
					"entries": [
						"随着你等级的提高，你添加到你的法术书中的法术反映了你自己进行的奥术研究，以及你对多元宇宙的性质的智力突破。你可能会在冒险过程中发现其他法术。例如，你可以在一个邪恶生物的图书馆里发现记录在卷轴上的咒语，或者在一个古老的图书馆里发现一个尘封的小册子。",
						"魔法书不包含咒语。",
						{
							"type": "entries",
							"entries": [
								{
									"type": "entries",
									"name": "Copying a Spell into the Book",
									"entries": [
										"当你发现一个在你的法术清单上的1级或更高的法术时，如果它的法术等级是你可以准备的，并且你能抽出时间来破译和复制它，你可以将它加入你的法术书。",
										"将一个咒语复制到你的魔法书中需要复制咒语的基本形式，然后破译写咒语的施法者使用的独特符号系统。你必须练习该咒语，直到你理解所需的声音或手势，然后用你自己的符号将其转录到你的法术书中。",
										"对于每一级的咒语，这个过程需要2小时，花费50戈比。这笔费用代表了你在试验该咒语以掌握它时所消耗的材料成分，以及你记录它所需的精细墨水。一旦你花费了这些时间和金钱，你就可以像其他法术一样准备这个法术。",
										"卷轴上的咒语可以被复制，就像法术书中的咒语可以被复制一样。当你从咒语卷轴上复制一个咒语时，你必须成功地进行智力（阿卡纳）检查，检查值等于10+咒语的等级。如果检定成功，该咒语就被成功复制了。无论检查是成功还是失败，法术卷轴都会被销毁。"
									]
								}
							]
						},
						{
							"type": "entries",
							"entries": [
								{
									"type": "entries",
									"name": "Replacing the Book",
									"entries": [
										"你可以从自己的法术书中复制一个法术到另一本法术书中--例如，如果你想为你的法术书做一个备份。这就像把一个新的咒语复制到你的法术书中一样，但是更快、更容易，因为你了解自己的符号，并且已经知道如何施法。你只需要花1个小时和10个金币来完成每一级的复制法术。",
										"如果你丢失了你的法术书，你可以用同样的程序将你准备的法术转录到一个新的法术书中。填写你的法术书的剩余部分需要你找到新的法术来做，和平常一样。出于这个原因，许多施法者将备份的法术书放在一个安全的地方。"
									]
								}
							]
						},
						{
							"type": "entries",
							"entries": [
								{
									"type": "entries",
									"name": "The Book's Appearance",
									"entries": [
										"你的书是由咒语、诗歌、音乐符号和污点组成的独特汇编，有自己的装饰性花纹和边注。它可能是你从你的主人那里收到的一本普通的、实用的皮革书，也可能是你在一个古老的图书馆里发现的一本装订精美的金边小册子，甚至可能是你在一次意外中丢失了你以前的法术书后搜罗到的一本散装笔记。"
									]
								}
							]
						}
					]
				}
			]
		},
		{
			"name": "Enervate",
			"source": "redditUA",
			"className": "Dirge",
			"classSource": "redditUA",
			"level": 1,
			"entries": [
				"你通过咬牙切齿的话语、责备和他们失败和最终死在亲人手中的统计概率来劝阻他人。",
				"要做到这一点，你要用一个反应来选择一个在你周围60英尺内的、能听到你说话的生物。该生物会掷出你的 \"保护 \"骰子，1级为1D6，并在它所做的一个能力检查、攻击卷或自救动作中 \"减去 \"所掷的数字。你可以选择在该生物进行滚动后，但在DM决定攻击卷或能力检查成功或失败前，或在该生物造成伤害前使用此功能。如果该生物听不到，或者不会说你的语言，则保存失败。对魅惑免疫的生物，或者是构造物，都是免疫的。",
				"你可以使用这个功能的次数与你的智力修饰值相等（最少一次）。当你完成一个长时间的休息时，你会重新获得任何已消耗的使用次数。",
				"当你在这个等级中达到一定的级别时，你的恩赐模子会发生变化；5级时（d8），10级时（d10），最后15级时（2d6）。"
			]
		},
		{
			"name": "Expertise/Master of None",
			"source": "redditUA",
			"className": "Dirge",
			"classSource": "redditUA",
			"level": 1,
			"entries": [
				"从你的技能中选择三个熟练度。在你对所选技能进行能力检查时，你的熟练度加成会翻倍。然而，在长时间的休息之后，你会暂时失去你所拥有的一项技能的熟练度加成，直到你下一次长时间的休息（随机决定）。",
				"你在所有你不精通的工具、套装和基于魅力的检查中获得你的熟练度加成的一半（或你的智力能力修正值--以较大者为准）。",
				"在10级的时候，你可以选择另外两个技能熟练度来获得这个好处。"
			]
		},
		{
			"name": "Familiar",
			"source": "redditUA",
			"className": "Dirge",
			"classSource": "redditUA",
			"level": 2,
			"entries": [
				"2级时你将获得一个熟悉的/动物伙伴。",
				"这不是一个{@italic magical}熟悉的东西，如果丢失/被杀，它不能被重新召唤。当Dirge和这个熟悉的人在一起时，每获得一个等级，它就会获得+2HP。 如果这个熟悉的人死了，不像游侠的动物伙伴或巫师/术士的家人，你不能在一个仪式性的长时间休息中重新召唤它。不，你必须再去找一个。如果你需要替换它，你必须购买/偷窃或哄骗它为你服务。一旦选择了生物的类型，它就是单独赋予你这些好处的一种类型。如果你有一只山羊，然后在它悲惨的（但预期的）死亡后，你不能换成一只猫。你就只能用山羊（或其他）。",
				"你熟悉的人获得的HP也是"
			]
		},
		{
			"name": "Emotionally Abusive",
			"source": "redditUA",
			"className": "Dirge",
			"classSource": "redditUA",
			"level": 2,
			"entries": [
				"你可以在你造成的任何精神伤害源上加上你的智力修饰。"
			]
		},
		{
			"name": "Meh",
			"source": "redditUA",
			"className": "Dirge",
			"classSource": "redditUA",
			"level": 2,
			"entries": [
				"Starting at 4th level, you unlock similar powers similar to Warlock's Invocations called {@filter Mehs|optionalfeatures|source=redditUA} these are abilities, powers, or enhancements .",
				"你还可以从术士的以下召唤中选择：{@optfeature Bewitching Whispers}, {@optfeature Chains of Carceri}, {@optfeature Dreadful Word}, {@optfeature Eyes of the Run Keeper}, {@optfeature Fiendish Vigor}, {@optfeature Mask of Many Faces}, {@optfeature Mire the Mind}, {@optfeature Misty Visions}, {@optfeature Witch Sight}。"
			]
		},
		{
			"name": "Tough Love",
			"source": "redditUA",
			"className": "Dirge",
			"classSource": "redditUA",
			"level": 3,
			"entries": [
				"在3级时，你可以使用一个额外的动作，用你的咬舌迫使60英尺内的一个目标生物加倍努力，做得更好。这不是什么好话，而且非常尖锐，但目标会收到一个保留模子或你的魅力修改器来增强攻击卷的命中率，用于伤害、拯救、能力和技能检查。",
				"目标在他们的最大生命值上受到一个精神伤害的保留模子，直到该模子被使用（之后伤害可以被正常治疗）。一旦被给予，接受者有1分钟的时间在他们做卷轴之前或之后使用这个骰子，但总是在DM决定攻击卷轴或能力是否成功之前。"
			]
		},
		{
			"name": "Divine Filler",
			"source": "redditUA",
			"className": "Dirge",
			"classSource": "redditUA",
			"level": 3,
			"entries": [
				"在第3级时，你真的无法从中获得任何好处。",
				"但这就是现实。然而，在你发展的这个看似随意的点上，你必须选择一条哲学的道路，并朝着这样的方向发展。你没有任何收获，但以后你必须坚持你今天的决定......",
				{
					"type": "list",
					"items": [
						"{@bold Epistemological} - 所有的知识都被接受为可能是不真实的或无法知道的。此外，道德被看作是主观的或虚假的。",
						"{@bold Existential} - 生命没有内在的意义或价值。关于宇宙，存在主义虚无主义认为，一个人甚至整个人类物种都是微不足道的，没有目的，而且在整个存在中不太可能改变。",
						"{@bold Mereologic} --是指具有适当部分的物体不存在（不仅空间中的物体，而且存在于时间中的物体也没有任何时间部分），只有没有部分的基本构件存在，因此，我们看到和体验到的充满有部分的物体的世界是人类错误表述的产物（即，如果我们能看清楚，我们就不会感知到有成分的物体）。"
					]
				}
			]
		},
		{
			"name": "Placebo",
			"source": "redditUA",
			"className": "Dirge",
			"classSource": "redditUA",
			"level": 3,
			"entries": [
				"在第三级时，你获得了使用安慰剂的能力，作为一个完整的回合。服用水或酒，或其他任何东西--你掷出一个性能检查（行动）。",
				"对一个生物施展安慰剂（奖励动作）时，该生物以你的表现卷为DC，进行智慧救赎，如果他们失败，他们会得到更好的效果（2d4个临时打击点），以及1个真实的hp。该生物和你必须能够相互理解才能做到这一点。",
				"你可以这样做，次数不限，可悲的是直到一个生物成功地对你的安慰剂进行救治。",
				"一旦一个生物救活了，这个生物就不能从你的安慰剂中获益，永远都不能，而且你在一天之后才可以使用另一个安慰剂。"
			]
		},
		{
			"name": "Ability Score Improvement",
			"source": "redditUA",
			"className": "Dirge",
			"classSource": "redditUA",
			"level": 4,
			"entries": [
				"当你达到四级时，你可以将你选择的一项能力得分提高2分，或者将你选择的两项能力得分提高1分。",
				"如果你的DM允许使用功法，你可以改用（%0%）。"
			]
		},
		{
			"name": "Disruptive Banter",
			"source": "redditUA",
			"className": "Dirge",
			"classSource": "redditUA",
			"level": 5,
			"entries": [
				"在5级时，你获得了使用你的恩赐来破坏一个单一的法术或影响心灵的效果的能力。作为一个行动，你可以启动一个持续时间为一分钟的（%0%）。在这段时间内，你和你周围30英尺范围内的任何盟友生物在对被惊吓或被迷惑的判断上有优势。而非友好的生物在这种情况下则处于劣势。",
				"一个生物必须与你有共同的语言，并且能够听到你的声音，才能受到影响。如果你失去能力或被沉默，或者你自愿结束表演，表演就会提前结束（不需要行动）。试图保持注意力集中的敌对生物必须对你的法术DC做一次拯救。如果他们的注意力被打破，他们会受到d6的精神伤害作为反击。"
			]
		},
		{
			"name": "Enervate (d8)",
			"source": "redditUA",
			"className": "Dirge",
			"classSource": "redditUA",
			"level": 5,
			"entries": [
				"你的自保模子变成了（d8）。"
			]
		},
		{
			"name": "Channel snort \"Divinity\"",
			"source": "redditUA",
			"className": "Dirge",
			"classSource": "redditUA",
			"level": 6,
			"entries": [
				"在6级时，你获得了在每次长休时从你对神性的本质和悖论的愤怒中直接引导所谓的（%0%）能量的能力，用这些能量来推动魔法效果。然后你必须完成一个长时间的休息才能再次使用你的通道神性。一些 \"神性通道 \"的效果需要蓄力攻击。",
				"当你使用这个等级的这种效果时，DC等于你的Dirge法术保存DC。",
				"从6级开始，你可以在两次休息之间使用你的通道神性，从18级开始，你可以在两次休息之间使用它三次。当你完成短时或长时休息时，你会重新获得你所消耗的使用次数。",
				{
					"type": "entries",
					"name": "Channel: Divinity",
					"entries": [
						"作为一种反应，你与30英尺内能听到并理解你的语言的生物说话，在其掷骰子时有不利因素。"
					]
				}
			]
		},
		{
			"name": "Troll's Regeneration",
			"source": "redditUA",
			"className": "Dirge",
			"classSource": "redditUA",
			"level": 6,
			"entries": [
				"从你达到6级开始，当你完成短时或长时的休息时，你会恢复所有已消耗的恩赐的使用。"
			]
		},
		{
			"name": "Orator",
			"source": "redditUA",
			"className": "Dirge",
			"classSource": "redditUA",
			"level": 7,
			"entries": [
				"在第7级时，你获得了每次休息时使用 \"舌头 \"的能力（和法术一样--但没有法术组件费用）。当你完成短时或长时的休息时，你会重新获得这个使用权。"
			]
		},
		{
			"name": "Ability Score Improvement",
			"source": "redditUA",
			"className": "Dirge",
			"classSource": "redditUA",
			"level": 8,
			"entries": [
				"当你达到8级时，你可以将你选择的一项能力得分提高2分，或者将你选择的两项能力得分提高1分。",
				"如果你的DM允许使用功法，你可以改用（%0%）。"
			]
		},
		{
			"name": "Enervate (d10)",
			"source": "redditUA",
			"className": "Dirge",
			"classSource": "redditUA",
			"level": 9,
			"entries": [
				"在第9级时，你的 \"保护 \"模子变成了（d10）。"
			]
		},
		{
			"name": "Expertise/Master of None (2)",
			"source": "redditUA",
			"className": "Dirge",
			"classSource": "redditUA",
			"level": 10,
			"entries": [
				"在10级时，你可以选择另外两个技能的熟练度，这些技能的熟练度加成翻倍，然而你现在每次长休都会随机失去对两个技能的熟练度。"
			]
		},
		{
			"name": "Philosophical Feature",
			"source": "redditUA",
			"className": "Dirge",
			"classSource": "redditUA",
			"level": 10,
			"entries": [
				"在10级时，你可以从你选择的哲学契约中获得一个子类特征。"
			]
		},
		{
			"name": "Ability Score Improvement",
			"source": "redditUA",
			"className": "Dirge",
			"classSource": "redditUA",
			"level": 12,
			"entries": [
				"当你达到12级时，你可以将你选择的一项能力得分提高2分，或者将你选择的两项能力得分提高1分。",
				"如果你的DM允许使用功法，你可以改用（%0%）。"
			]
		},
		{
			"name": "Philosophical Feature",
			"source": "redditUA",
			"className": "Dirge",
			"classSource": "redditUA",
			"level": 14,
			"entries": [
				"在14级时，你可以从你选择的哲学契约中获得一个子类特征。"
			]
		},
		{
			"name": "Dark Thoughts",
			"source": "redditUA",
			"className": "Dirge",
			"classSource": "redditUA",
			"level": 15,
			"entries": [
				"从10级开始，你的焦虑会磨练你的精神毅力。你对精神伤害有抵抗力，每当有生物对你造成精神伤害时，作为一种反应，该生物会受到一半的伤害。试图洞察你的行为处于劣势；你能使敌人的心灵影响魔法对其产生作用，并且你对被魅惑有免疫力。当另一个生物试图魅惑你时，你可以用你的反应来试图将魅惑转回给那个生物，此外，那个生物必须对你的法术救赎DC进行智慧救赎成功，否则会被你吓到1分钟。"
			]
		},
		{
			"name": "Shared Delusion",
			"source": "redditUA",
			"className": "Dirge",
			"classSource": "redditUA",
			"level": 15,
			"entries": [
				"从14级开始，你可以让一个生物进入一个虚幻的境界。作为一个行动，选择一个你能看到的、在你60英尺范围内的生物。它必须对你的法术救赎DC做一个智慧救赎。如果救赎失败，它将被你迷惑或惊吓（你在他们的救赎前做出选择），持续1分钟或直到你的注意力被打破（就像你在集中精力施法一样）。如果该生物受到任何伤害，这个效果会提前结束。在这个幻觉结束之前，该生物认为它迷失在一个黑暗的散居版的现实中，其外观由你选择。该生物只能看到和听到它自己、你和这个幻觉--这个经验（如果是惊吓性的）在效果结束时每回合造成d8的精神伤害，他们会对你感到惊吓。如果效果是迷人的，他们会获得一种信念，即他们被治愈并完全恢复，就像长时间休息一样--他们不是，他们会认为自己在施法，使用他们不能使用的能力。",
				"{@i You must finish a long rest before you can use this feature again.}"
			]
		},
		{
			"name": "Enervate (d12)",
			"source": "redditUA",
			"className": "Dirge",
			"classSource": "redditUA",
			"level": 15,
			"entries": [
				"在第15级时，你的 \"保护 \"模子变成了（1d12）。"
			]
		},
		{
			"name": "Ability Score Improvement",
			"source": "redditUA",
			"className": "Dirge",
			"classSource": "redditUA",
			"level": 16,
			"entries": [
				"当你达到16级时，你可以将你选择的一项能力得分提高2分，或者将你选择的两项能力得分提高1分。",
				"如果你的DM允许使用功法，你可以改用（%0%）。"
			]
		},
		{
			"name": "Philosophy feature",
			"source": "redditUA",
			"className": "Dirge",
			"classSource": "redditUA",
			"level": 17,
			"entries": [
				"在17级时，你获得一个由你的武学原型赋予的功能。"
			]
		},
		{
			"name": "Channel snort \"Divinity\"",
			"source": "redditUA",
			"className": "Dirge",
			"classSource": "redditUA",
			"level": 18,
			"entries": [
				"在第18级时，你可以在每个长时间的休息中引导3次。"
			]
		},
		{
			"name": "Ability Score Improvement",
			"source": "redditUA",
			"className": "Dirge",
			"classSource": "redditUA",
			"level": 19,
			"entries": [
				"当你达到19级时，你可以将你选择的一项能力得分提高2分，或者将你选择的两项能力得分提高1分。",
				"如果你的DM允许使用功法，你可以改用（%0%）。"
			]
		},
		{
			"name": "A cookie",
			"source": "redditUA",
			"className": "Dirge",
			"classSource": "redditUA",
			"level": 20,
			"entries": [
				"在20级时，你会得到...",
				".... a Cookie。",
				"",
				"祝贺你。",
				"(是的，就是这样。沐浴在虚无主义中)"
			]
		}
	],
	"subclassFeature": [
		{
			"name": "Delayed Gratification",
			"source": "redditUA",
			"className": "Dirge",
			"classSource": "redditUA",
			"subclassShortName": "Epistemology",
			"subclassSource": "redditUA",
			"level": 3,
			"entries": [
				"你什么都没有得到。这就是事情的发展--你必须做出选择，看看你的选择会带来什么。"
			]
		},
		{
			"name": "Divine Filler",
			"source": "redditUA",
			"className": "Dirge",
			"classSource": "redditUA",
			"subclassShortName": "Epistemology",
			"subclassSource": "redditUA",
			"level": 6,
			"entries": [
				"选择以下一项。",
				{
					"type": "inset",
					"name": "Channel Futility: Janusian Blessing",
					"entries": [
						"你在60英尺内看到的目标生物，他们作为一个行动，同时为他们的下一次滚动尝试掷出一个20和一个1，将这些滚动的结果放在一起。",
						"例如，他们成功地撬开了锁，但也打破了他们的盗贼工具，或者对一个生物进行了攻击，但当他们俯卧在它面前时，他们的武器就掉了。"
					]
				},
				{
					"type": "inset",
					"name": "Channel Futility: Mediocrity",
					"entries": [
						"{@i Requires Concentration}",
						"你的努力最终只能抵消你的失败。当你引导 \"徒劳 \"时，每当50英尺内的任何生物（包括你自己）进行攻击、蓄力或能力检查时，除非结果是自然的 \"1 \"或 \"20\"，否则他们的卷轴会被认为是 \"8\"+任何奖励（任何拥有专业知识的生物在执行 \"中庸 \"时，其专业知识会被抑制。） 平庸状态最多持续10分钟，或者直到注意力丧失（特别注意：Dirge的注意力检查不受平庸状态的影响）。"
					]
				},
				{
					"type": "inset",
					"name": "Channel Futility: Bitter Frustration",
					"entries": [
						"{@i Requires Concentration}",
						"事情就是不按常理出牌，这是可以预见的，这意味着他们按常理出牌......这意味着......",
						"... sigh...",
						"当你引导 \"徒劳 \"时，你会以自己为中心创造一个半径为30英尺的气泡。在受影响区域内的所有卷轴（命中、救赎、技能和能力检查）都处于劣势，并进一步受到相当于你智力修正值的负面奖励。如果生物的努力失败，他们会受到1点精神伤害。该效果的持续时间为集中，（同样处于劣势）或直到10分钟过去。"
					]
				},
				"在每一个次级dirge级别，你可以用你当前的通道能力换取一个不同的能力。"
			]
		},
		{
			"name": "Didn't Even Try",
			"source": "redditUA",
			"className": "Dirge",
			"classSource": "redditUA",
			"subclassShortName": "Epistemology",
			"subclassSource": "redditUA",
			"level": 10,
			"entries": [
				"从10级开始，你获得阻碍行动。你可以在15英尺内选择一个目标，该目标在下一次能力检查或攻击行动中处于劣势。"
			]
		},
		{
			"name": "Divine Filler",
			"source": "redditUA",
			"className": "Dirge",
			"classSource": "redditUA",
			"subclassShortName": "Epistemology",
			"subclassSource": "redditUA",
			"level": 10,
			"entries": [
				"选择以下一项。",
				{
					"type": "inset",
					"name": "Channel Futility: Janusian Blessing",
					"entries": [
						"你在60英尺内看到的目标生物，他们作为一个行动，同时为他们的下一次滚动尝试掷出一个20和一个1，将这些滚动的结果放在一起。",
						"例如，他们成功地撬开了锁，但也打破了他们的盗贼工具，或者对一个生物进行了攻击，但当他们俯卧在它面前时，他们的武器就掉了。"
					]
				},
				{
					"type": "inset",
					"name": "Channel Futility: Mediocrity",
					"entries": [
						"{@i Requires Concentration}",
						"你的努力最终只能抵消你的失败。当你引导 \"徒劳 \"时，每当50英尺内的任何生物（包括你自己）进行攻击、蓄力或能力检查时，除非结果是自然的 \"1 \"或 \"20\"，否则他们的卷轴会被认为是 \"8\"+任何奖励（任何拥有专业知识的生物在执行 \"中庸 \"时，其专业知识会被抑制。） 平庸状态最多持续10分钟，或者直到注意力丧失（特别注意：Dirge的注意力检查不受平庸状态的影响）。"
					]
				},
				{
					"type": "inset",
					"name": "Channel Futility: Bitter Frustration",
					"entries": [
						"{@i Requires Concentration}",
						"事情就是不按常理出牌，这是可以预见的，这意味着他们按常理出牌......这意味着......",
						"... sigh...",
						"当你引导 \"徒劳 \"时，你会以自己为中心创造一个半径为30英尺的气泡。在受影响区域内的所有卷轴（命中、救赎、技能和能力检查）都处于劣势，并进一步受到相当于你智力修正值的负面奖励。如果生物的努力失败，他们会受到1点精神伤害。该效果的持续时间为集中，（同样处于劣势）或直到10分钟过去。"
					]
				},
				"在每一个次级dirge级别，你可以用你当前的通道能力换取一个不同的能力。"
			]
		},
		{
			"name": "Pointless Persuit",
			"source": "redditUA",
			"className": "Dirge",
			"classSource": "redditUA",
			"subclassShortName": "Epistemology",
			"subclassSource": "redditUA",
			"level": 14,
			"entries": [
				"从14级开始，你向一个生物灌输确信它目前的道路是没有结果的并放弃努力。作为一个行动，选择一个你能看到的、在你20英尺范围内的生物。它必须用智慧救赎来对抗你的法术救赎DC。如果拯救失败，它就会被你有效地迷住。无论DM认为它当前的目标/行动是什么，它都会放弃。(即战斗中的生物可能会停止并离开战斗；吃东西的人也会停止）。这个效果最多持续1小时。如果再有新的理由来参与同一行动，该生物可以重新参与。在战斗的例子中，如果在它试图离开战斗时有另一个生物攻击它，它就可以再次进行拯救。拯救后的生物在一天内不能再成为这个能力的对象。",
				"{@i You must finish a short or long rest before you can use this feature again.}"
			]
		},
		{
			"name": "Delayed Gratification",
			"source": "redditUA",
			"className": "Dirge",
			"classSource": "redditUA",
			"subclassShortName": "Existential",
			"subclassSource": "redditUA",
			"level": 3,
			"entries": [
				"你什么都没有得到。这就是事情的发展--你必须做出选择，看看你的选择会带来什么。"
			]
		},
		{
			"name": "Divine Filler",
			"source": "redditUA",
			"className": "Dirge",
			"classSource": "redditUA",
			"subclassShortName": "Existential",
			"subclassSource": "redditUA",
			"level": 6,
			"entries": [
				"选择以下一项。",
				{
					"type": "inset",
					"name": "Channel Apathy: Undead",
					"entries": [
						"你明白了吧。活着很糟糕，而成为亡灵并不是一种进步。当你引导你的冷漠时，所有在30英尺范围内能听到或看到你的不死生物必须做一个智慧救赎动作。如果该生物的蓄力动作失败，它将在1分钟内保持冷漠，或者直到它受到你的伤害。一个麻木不仁的生物会脱离并以一半的速度移动到它休息的地方。它将无视任何没有试图攻击它的生物（视同隐形）。",
						"{@i For example, they managed to pick the lock, but also break their thieve's tools ruining the lock, or makes the attack against a creature, but drops their weapon as they fall prone before it.}"
					]
				},
				{
					"type": "inset",
					"name": "Channel Apathy: Death",
					"entries": [
						"来世，如果存在的话，很可能是永恒的痛苦。在你面前的这个小丑只会让那些悲惨的灵魂更加痛苦。你的宠物不值得这个A-Hole在来世发牢骚，你应该为你看着死去的那只宠物感到高兴。",
						"你引导你的力量使一个在一分钟前已经死亡的生物复活，并有1HP的能量。他们和你都对治疗有抵抗力，持续1天，并且你在未来对该生物的所有社交检查中都处于劣势。"
					]
				},
				{
					"type": "inset",
					"name": "Channel Apathy: Ignore",
					"entries": [
						"{@i Requires Concentration}",
						"当你引导 \"冷漠 \"时，你会有效地成为隐形人，时间长达1小时。 与法术不同的是，这是一种魔法，智力在5以上的生物会被神奇地劝说，不想看到、听到或与你互动。 如果可能的话，他们希望忽略你。此外，你创造了一个以你为中心、半径为30英尺的气泡。在受影响区域内的所有感知或洞察力卷轴都处于不利地位。",
						"你可以说话并有限度地采取行动--你对一个生物的任何攻击都会使该生物脱离魔法的效果。 如果你的互动违反了他们的道德或职业准则，所有其他人都必须进行智力拯救。 一个守卫者有可能知道你在偷东西，他将得到一次救赎。一个想要或需要通过你站在前面的门的人，会触发一个拯救检查。也许从一个贵族或饥饿的农民的盘子里吃东西会促使他们选择不忽视你，从而触发一个拯救。",
						"摆脱了咒语的人必须对咒语的DC进行说服检查，以使该地区的所有人都注意到这一点，或者可以尝试将注意力集中在一个人身上，作为一种行动，迫使该人尝试不再忽视Dirge。(促使其进行救赎)。",
						"一旦生物成功拯救，他们就会看到你（Dirge），并且在一天内不能被另一个忽略通道所影响，并且在未来所有试图强迫他们忽略的尝试中获得优势。"
					]
				},
				"在每一个次级dirge级别，你可以用你当前的通道能力换取一个不同的能力。"
			]
		},
		{
			"name": "Yeah... Whatever",
			"source": "redditUA",
			"className": "Dirge",
			"classSource": "redditUA",
			"subclassShortName": "Existential",
			"subclassSource": "redditUA",
			"level": 10,
			"entries": [
				"从10级开始，当对一个造成精神伤害或施加魅惑、惊吓或条件的能力进行蓄力时。你可以选择在尚未施加魅惑或惊吓条件效果的情况下，服用一级的疲惫来自动成功。"
			]
		},
		{
			"name": "Life?... meh.",
			"source": "redditUA",
			"className": "Dirge",
			"classSource": "redditUA",
			"subclassShortName": "Existential",
			"subclassSource": "redditUA",
			"level": 14,
			"entries": [
				"冠军的原型专注于发展原始的身体力量，使之达到致命的完美。那些以这一原型为榜样的人将严格的训练与卓越的体能结合起来，以造成破坏性的打击。",
				{
					"type": "entries",
					"name": "Improved Critical",
					"entries": [
						"从你在3级时选择这个原型开始，你的武器攻击在掷出19或20的时候可以获得关键打击。"
					]
				}
			]
		},
		{
			"name": "Delayed Gratification",
			"source": "redditUA",
			"className": "Dirge",
			"classSource": "redditUA",
			"subclassShortName": "Mereology",
			"subclassSource": "redditUA",
			"level": 3,
			"entries": [
				"你什么都没有得到。事情就是这样--你必须做出选择，看看你的选择会带来什么。以后再说。"
			]
		},
		{
			"name": "Divine Filler",
			"source": "redditUA",
			"className": "Dirge",
			"classSource": "redditUA",
			"subclassShortName": "Mereology",
			"subclassSource": "redditUA",
			"level": 6,
			"entries": [
				"选择以下一项。",
				{
					"type": "inset",
					"name": "Channel Dysfunction: Pauli Effect",
					"entries": [
						"东西坏了，不工作了，在你周围更是如此。当你引导时，你周围30英尺内的所有其他生物都会立即失去对其魔法物品的感应。"
					]
				},
				{
					"type": "inset",
					"name": "Channel Dysfunction: Juxtaposition",
					"entries": [
						"事情从来都没有意义，但他们也不应该，显然我们不是为了{@i a reason}而来，我们只是在这里，无论在哪里。作为奖励动作或反应，你可以引导这个力量，对100英尺内你能看到或知道其绝对位置（非常熟悉）的生物或物体进行一个范围内的命中卷，你和该目标会改变位置。如果该生物是有敌意的，它就会得到一个灵巧救赎以避免被转移，相反，你会出现在它的广场上，拥挤着它。"
					]
				},
				{
					"type": "inset",
					"name": "Channel Dysfunction: Leech",
					"entries": [
						"{@i Requires Concentration}",
						"你不仅吸走了活动的乐趣，也吸走了房间里的运气。当你使用这个技能时，你会创造一个半径为20英尺的光环。半径内除你之外的所有生物的能力、技能和主动性检查均为-d4。伤害量也会减少1。效果持续1分钟或直到注意力被打破。"
					]
				},
				"在每一个次级dirge级别，你可以用你当前的通道能力换取一个不同的能力。",
				"泡利效应是一个术语，指的是在奥地利理论物理学家沃尔夫冈-泡利在场的情况下，技术设备出现明显的神秘的、传闻中的故障。这个术语是在他的名字下创造出来的，因为有许多涉及设备的演示只有在他在场时才出现技术问题。"
			]
		},
		{
			"name": "Entrophic Ward",
			"source": "redditUA",
			"className": "Dirge",
			"classSource": "redditUA",
			"subclassShortName": "Mereology",
			"subclassSource": "redditUA",
			"level": 10,
			"entries": [
				"从10级开始，你学会了用魔法抵御攻击，并将敌人失败的一击转化为自己的好运，当一个生物对你进行攻击卷时，你可以用你的反应对该卷施加劣势。如果攻击没有击中你，在你的文本回合结束前，你对该生物的下一次攻击卷有优势。在一个针对你的关键性失败时，你会重新获得一次保留的使用权。",
				"{@i You may use this feature (Int Modifier) times every short or long rest.}"
			]
		},
		{
			"name": "Solipsism",
			"source": "redditUA",
			"className": "Dirge",
			"classSource": "redditUA",
			"subclassShortName": "Mereology",
			"subclassSource": "redditUA",
			"level": 14,
			"entries": [
				"从14级开始，作为一项行动，你可以创造一种超自然的力量。Dirge和被他告知他的意图的人必须以Dirge的魅力值为DC，进行智慧拯救。在成功的情况下，所有成功的人都会体验到Solipsism是真实的。与真正的幻觉不同，这个咒语所创造的影像不仅仅是复制现实。对于那些相信它的人来说，形成的影像是真实的。幻象具有其形式和功能所允许的所有正常属性。因此，一座横跨鸿沟的孤独桥可以由哀歌和那些相信的人穿过。所有其他人会看到牧师显然是走到了虚无上。一个孤独主义的屏障可以阻挡龙的呼吸武器。不受独断论影响的生物（龙）将能够穿过物体，就像不存在一样（因为对他们来说，它不存在）。",
				"孤独主义只能创造对Dirge来说是外部的幻觉。因此，Dirge不能创造一个幻觉，说他是一个巨人的大小，没有受伤，或者长出了翅膀。",
				{
					"type": "entries",
					"name": "Improved Critical",
					"entries": [
						"从你在3级时选择这个原型开始，你的武器攻击在掷出19或20的时候可以获得关键打击。"
					]
				}
			]
		}
	],
	"subclass": [
		{
			"name": "Epistemological (Futility)",
			"subclassFeatures": [
				"Delayed Gratification|Dirge|redditUA|Epistemology|redditUA|3",
				"Divine Filler|Dirge|redditUA|Epistemology|redditUA|6",
				"Didn't Even Try|Dirge|redditUA|Epistemology|redditUA|10",
				"Divine Filler|Dirge|redditUA|Epistemology|redditUA|10",
				"Pointless Persuit|Dirge|redditUA|Epistemology|redditUA|14"
			],
			"source": "redditUA",
			"shortName": "Epistemology",
			"className": "Dirge",
			"classSource": "redditUA"
		},
		{
			"name": "Existential (Apathy)",
			"subclassFeatures": [
				"Delayed Gratification|Dirge|redditUA|Existential|redditUA|3",
				"Divine Filler|Dirge|redditUA|Existential|redditUA|6",
				"Yeah... Whatever|Dirge|redditUA|Existential|redditUA|10",
				"Life?... meh.|Dirge|redditUA|Existential|redditUA|14"
			],
			"source": "redditUA",
			"shortName": "Existential",
			"className": "Dirge",
			"classSource": "redditUA"
		},
		{
			"name": "Mereological (Dysfunction)",
			"subclassFeatures": [
				"Delayed Gratification|Dirge|redditUA|Mereology|redditUA|3",
				"Divine Filler|Dirge|redditUA|Mereology|redditUA|6",
				"Entrophic Ward|Dirge|redditUA|Mereology|redditUA|10",
				"Solipsism|Dirge|redditUA|Mereology|redditUA|14"
			],
			"source": "redditUA",
			"shortName": "Mereology",
			"className": "Dirge",
			"classSource": "redditUA"
		}
	]
}
