{
	"_meta": {
		"sources": [
			{
				"json": "Atavist",
				"abbreviation": "Ata",
				"full": "The Atavist",
				"authors": [
					"SwordMeow"
				],
				"convertedBy": [
					"Lxran#2292"
				],
				"version": "6",
				"color": "d70d18",
				"url": "https://drive.google.com/file/d/1NWkyKuXbOwlHFa07DqrXUE1xV2J5u_9-/view",
				"targetSchema": "1.2"
			}
		],
		"dependencies": {
			"spell": [
				"CotDDPRaS"
			]
		},
		"dateAdded": 1613543381,
		"dateLastModified": 1693671517,
		"_dateLastModifiedHash": "2621b58898"
	},
	"class": [
		{
			"name": "Atavist",
			"source": "Atavist",
			"classFeatures": [
				"Rend Ichor|Atavist|Atavist|1",
				"Unstopping Heart|Atavist|Atavist|1",
				"Spellcasting|Atavist|Atavist|2",
				"Hardened Viscera|Atavist|Atavist|2",
				{
					"classFeature": "Atavistic Aspect|Atavist|Atavist|3",
					"gainSubclassFeature": true
				},
				"Ability Score Improvement|Atavist|Atavist|4",
				"Avenging Attack|Atavist|Atavist|5",
				{
					"classFeature": "Atavistic Aspect Feature|Atavist|Atavist|6",
					"gainSubclassFeature": true
				},
				"Humansbane (HP 10)|Atavist|Atavist|6",
				"Greater Viscera|Atavist|Atavist|7",
				"Rend Dice (2d6)|Atavist|Atavist|7",
				"Ability Score Improvement|Atavist|Atavist|8",
				{
					"classFeature": "Atavistic Aspect Feature|Atavist|Atavist|10",
					"gainSubclassFeature": true
				},
				"Humansbane (HP 15)|Atavist|Atavist|10",
				"Avenging Attack Improvement|Atavist|Atavist|11",
				"Ability Score Improvement|Atavist|Atavist|12",
				"Sanguine Sacrament (5th Level)|Atavist|Atavist|14",
				"Humansbane (HP 20)|Atavist|Atavist|14",
				"Rend Dice (3d6)|Atavist|Atavist|14",
				"Greater Viscera Improvement|Atavist|Atavist|15",
				"Ability Score Improvement|Atavist|Atavist|16",
				"Sanguine Sacrament (6th Level)|Atavist|Atavist|17",
				{
					"classFeature": "Atavistic Aspect Feature|Atavist|Atavist|18",
					"gainSubclassFeature": true
				},
				"Humansbane (HP 25)|Atavist|Atavist|18",
				"Ability Score Improvement|Atavist|Atavist|19",
				"Nigh Immortality|Atavist|Atavist|20",
				"Sanguine Sacrament (7th Level)|Atavist|Atavist|20",
				"Rend Dice (4d6)|Atavist|Atavist|20"
			],
			"hd": {
				"number": 1,
				"faces": 6
			},
			"proficiency": [
				"str",
				"con"
			],
			"startingProficiencies": {
				"armor": [
					"light",
					"medium",
					"{@item shield|phb|shields}"
				],
				"weapons": [
					"simple",
					"martial"
				],
				"skills": [
					{
						"choose": {
							"from": [
								"acrobatics",
								"arcana",
								"athletics",
								"insight",
								"intimidation",
								"investigation",
								"survival"
							],
							"count": 2
						}
					}
				]
			},
			"startingEquipment": {
				"default": [
					"(a) {@item scale mail|PHB} or (b) {@item leather armor|PHB}",
					"(a) two {@item spear|phb|spears} or (b) any {@filter martial weapon|items|source=phb|category=basic|type=martial weapon}",
					"(a) a {@item greataxe|PHB} or (b) a {@item battleaxe|PHB} and a {@item shield|PHB}",
					"(a) an {@item explorer's pack|phb} or (b) a {@item priest's pack|PHB}"
				],
				"defaultData": [
					{
						"a": [
							"scale mail|PHB"
						],
						"b": [
							"leather armor|PHB"
						]
					},
					{
						"a": [
							{
								"item": "spear|PHB",
								"quantity": 2
							}
						],
						"b": [
							{
								"equipmentType": "weaponMartial"
							}
						]
					},
					{
						"a": [
							"greataxe|PHB"
						],
						"b": [
							"battleaxe|PHB",
							"shield|PHB"
						]
					},
					{
						"a": [
							"explorer's pack|PHB"
						],
						"b": [
							"priest's pack|PHB"
						]
					}
				],
				"additionalFromBackground": true,
				"goldAlternative": "{@dice 4d4 × 10|4d4 × 10|Starting Gold}"
			},
			"multiclassing": {
				"requirements": {
					"str": 13,
					"con": 13
				},
				"proficienciesGained": {
					"armor": [
						"light",
						"medium",
						"{@item shield|phb|shields}"
					],
					"weapons": [
						"simple",
						"martial"
					]
				}
			},
			"casterProgression": "1/2",
			"preparedSpells": "<$level$> / 2 + <$con_mod$>",
			"spellcastingAbility": "con",
			"classTableGroups": [
				{
					"title": "Spell Slots per Spell Level",
					"colLabels": [
						"{@filter 1st|spells|level=1|class=Atavist (Atavist)}",
						"{@filter 2nd|spells|level=2|class=Atavist (Atavist)}",
						"{@filter 3rd|spells|level=3|class=Atavist (Atavist)}",
						"{@filter 4th|spells|level=4|class=Atavist (Atavist)}",
						"{@filter 5th|spells|level=5|class=Atavist (Atavist)}"
					],
					"rows": [
						[
							0,
							0,
							0,
							0,
							0
						],
						[
							2,
							0,
							0,
							0,
							0
						],
						[
							3,
							0,
							0,
							0,
							0
						],
						[
							3,
							0,
							0,
							0,
							0
						],
						[
							4,
							2,
							0,
							0,
							0
						],
						[
							4,
							2,
							0,
							0,
							0
						],
						[
							4,
							3,
							0,
							0,
							0
						],
						[
							4,
							3,
							0,
							0,
							0
						],
						[
							4,
							3,
							2,
							0,
							0
						],
						[
							4,
							3,
							2,
							0,
							0
						],
						[
							4,
							3,
							3,
							0,
							0
						],
						[
							4,
							3,
							3,
							0,
							0
						],
						[
							4,
							3,
							3,
							1,
							0
						],
						[
							4,
							3,
							3,
							1,
							0
						],
						[
							4,
							3,
							3,
							2,
							0
						],
						[
							4,
							3,
							3,
							2,
							0
						],
						[
							4,
							3,
							3,
							3,
							1
						],
						[
							4,
							3,
							3,
							3,
							1
						],
						[
							4,
							3,
							3,
							3,
							2
						],
						[
							4,
							3,
							3,
							3,
							2
						]
					]
				}
			],
			"classSpells": [
				"cause fear|xge",
				"courageous rebuttal|atavist",
				"Detect Magic",
				"Detect Poison and Disease",
				"Expeditious Retreat",
				"False Life",
				"heart sunder|atavist",
				"Heroism",
				"Inflict Wounds",
				"Jump",
				"lesser bloodsight|atavist",
				"Longstrider",
				"Ray of Sickness",
				"withering necrosis|atavist",
				"Alter Self",
				"Blindness/Deafness",
				"cruorbat call|atavist",
				"Darkvision",
				"Enlarge/Reduce",
				"Hold Person",
				"Lesser Restoration",
				"Locate Animals or Plants",
				"needle and thread|atavist",
				"polyphemus' might|atavist",
				"Protection from Poison",
				"Spider Climb",
				"Warding Bond",
				"coalesce humours|atavist",
				"Protection from Energy",
				"life transferance|xge",
				"redwood expansion|atavist",
				"Water Breathing",
				"Water Walk",
				"aura of decay|atavist",
				"Blight",
				"Death Ward",
				"Freedom of Movement",
				"Locate Creature",
				"Stoneskin",
				"quicken atavism|atavist",
				"Contagion",
				"enervation|xge",
				"exoscleroma|atavist",
				"exsanguinate|atavist",
				"Greater Restoration",
				"Reincarnate",
				"steel wind strike|xge",
				"bones of the earth|xge",
				"Flesh to Stone",
				"haemorrhaging rupture|atavist",
				"Harm",
				"Wind Walk",
				"eternal blood|atavist",
				"greater withering|atavist",
				"marrowmelt|atavist",
				"Regenerate"
			],
			"fluff": [
				{
					"type": "section",
					"name": "Atavist",
					"source": "Atavist",
					"page": 1,
					"entries": [
						"一个身穿铠甲的前线人类遭受了一次又一次的打击，而当她开始衰弱时，她变得更加野蛮--打击力度更大，打击速度更快，死亡速度更慢。一只受伤的狗是致命的，但一个受伤的阿塔瓦人是一个血腥的噩梦。在半路上，她小心翼翼地打伤了自己的手臂，但敌人在承受所有的痛苦时倒在了地上。另一个敌人靠近，但发现她只比以前更强。",
						"一个兽人在每一次打击中都倾注了更多的心血，在加强打击的神奇努力中伤害了自己，但他知道这还不够。他静下心来，让外来的力量接管他的思想，因为他的身体爆发出反常的肉条，完全覆盖了他，长出了洞和毛发--眼睛变黑了，真正的恐怖在爬行。如果他的标记不在仅仅看到憎恶的时候动摇，他很快就会在战斗中倒下。",
						"火球绕过迷宫的各个角落，巫师的污秽之火在大厅里追逐他的将死之人，但他的手臂被牺牲掉的轻微残缺给了他需要的力量，使他躲避出火流。",
						"无论他们的成长经历、种族、文化，甚至是时间段，阿塔夫主义者都因其在武器游戏中利用自身活力的能力而团结起来。也许曾经有过血统，但现在已经没有了。",
						{
							"type": "entries",
							"name": "Old, Vengeful, and Scattered",
							"page": 1,
							"entries": [
								"在铁器之前，在刀剑之前，在有组织的城市之前，有一个太极拳师--使用他们唯一可用的工具：他们的身体和他们的魔法。他们串联起来，利用这两个方面来保护、征服、猎杀怪物，或达到任何其他目的。",
								"这些人建立在失败之上。他们把自己受伤时的反射性攻击的战斗训练运用到生活中：那些错怪了太虚者的人应该知道他们会受到十倍的反击。有些太虚者甚至喜欢被攻击、被伤害或被背叛，并以此为借口进行反击。",
								"Atavists可以来自世界上的任何地方：部落、王国、皇室或贫民窟；然而，那些倾向于使用占卜术和其他坏死的、受生命力影响的力量的民族，似乎有更高的机会让孩子拥有Atavistic力量。"
							]
						},
						{
							"type": "entries",
							"name": "The Origin of Hemomancy",
							"page": 1,
							"entries": [
								"榨取和夺取你的魔法是一个经过研究和开发的领域，首先来自阿塔夫。他们开始了血魔法。但是，是什么开始了altavists？atavists在你的设定中是如何开始的--或者说是一段早已丢失的历史？它甚至很重要吗？它已经开始了多次，或者它可以被重新启动或以各种方式灌输给潜在的使用者？或者，每一个太虚者都在同一个家谱中，越来越远；它可能会导致超越人类的生物，也许来自一些相反的生命的结合；或者来自一个早已离开这个宇宙的生物。",
								"在一般意义上，使用自己身体的权力已经存在了好几个世纪。Atavism是围绕着这一想法进行捆绑和扭曲的。对那些生来就有这种天赋的人来说，这并不比为别人训练乐器更困难--这种倾向是天生的。然而，许多无神论者并不只是生来就有--通过一个强大的血族战士的亲身经历，一个孩子可以在身体上得到形成和塑造，使他或她有更大的机会发展无神论的力量。至于你是如何获得这种天赋的，就看你自己了。"
							]
						},
						{
							"type": "entries",
							"name": "Powers Without Direction",
							"page": 2,
							"entries": [
								"龙与地下城中的许多等级都有明确的指示和意愿，说明成员会做什么--魔法师研究魔法，圣骑士从事正义事业，牧师服务他们的神。但是，许多阿塔瓦人没有这样的方向。如果你的角色是通过血缘仪式被灌输了这些力量，问题是，为什么？",
								"对于那些天生就有能力的人来说，也存在同样的问题。你是神灵或其他强大存在的一些切身的、有很多网状结构的计划的一部分，还是只是偶然？",
								"如果你不知道答案，就像世界上许多人不知道他们生活的目的一样，你就决定它。也许你不在乎，你专注于你想要的东西，以及你如何在未来得到它，而不是纠缠于过去。"
							]
						},
						{
							"type": "entries",
							"name": "Infamous Heroes, Oft Villains",
							"page": 2,
							"entries": [
								"在大多数文化中，太上老君使用（或滥用）的魔法通常充其量是有问题的，而且当仔细检查时，往往可以发现是一种通常不被认可、不被支持、普遍被看不起的类型。这就造成了对无神论者的偏见。他们在故事中更多地被当作恶棍，而往往不是英雄；至少，在世界的大多数地方。一个无神论者更难被钦佩，更容易被反派化。",
								"如果你隐藏了你的能力，或者把它们放在一个不寻常的原因上，这对你的角色的信心有什么影响？无论你从哪里来，\"我生来如此 \"作为辩护词是否站得住脚？"
							]
						},
						{
							"type": "entries",
							"name": "Creating an Atavist",
							"page": 2,
							"entries": [
								"在创造你的阿塔维斯特时要考虑的最重要的问题是他们的力量对他们的影响--以及这些影响和力量被你周围的人如何对待。你是否因为恐惧的无知而失去了几组朋友？你的家人是否拥抱并接受了你，还是对你的超能力视而不见，希望他们--或者你--消失？",
								"Atavists以其僵硬的健康、身体素质和周身邪恶魔法的能力而闻名。某些圣人和其他学者很想研究你，或者那些具有相同动机和较少道德的人可能对你构成危险；也许他们已经这样做了。你是否希望你能隐藏或消除你的力量？或者你想打败你所应用的刻板印象，成为一个英雄？",
								"在你的旅程开始后，作为一个异教徒，它可能会发生在一个新的道路上。你是一个希望被攻击的残酷的战士--一个厌倦了的、永不倒下的士兵？你是一个充满希望和坚强的战士，但却倒在了心灵的折磨中；陌生生命的影响，是一种被诅咒的祝福？或者你是一个无情的杀手，致命和武器化，不会为得到他们想要的东西而停下来？也许你把自己许配给一个强大的魔鬼，或者被一个强大的魔鬼许配，他尊重你的血魔法，并为你伸出一只火热的力量之手。你甚至可能从冥想和自我反省中获得更多的力量，认为你花在自己身上的时间越多，你就越有能力。",
								{
									"type": "entries",
									"name": "Quick Builds",
									"page": 2,
									"entries": [
										"按照这些建议，你可以很快地做出一个太极拳手。首先，宪法应该是你最高的能力得分，其次是力量或灵巧（取决于你想要什么样的武术角色）。第二，选择（%0%）的背景。"
									]
								}
							]
						}
					]
				}
			],
			"subclassTitle": "Atavistic Aspect"
		}
	],
	"classFeature": [
		{
			"name": "Rend Ichor",
			"source": "Atavist",
			"className": "Atavist",
			"classSource": "Atavist",
			"page": 3,
			"level": 1,
			"entries": [
				"你可以利用你的原始健康来传递死亡。你有一个 \"毁灭 \"的骰子，它为某些等级的特征提供能量，并且是一个（%0%）。当你释放时，你掷出这个骰子并失去与结果相等的命中率，这个命中率不能以任何方式减少。除非效果说明，否则你不能为某项功能释放超过一次。",
				"当一个特征说你可以对一个卷轴进行撕扯时，它的意思是你可以撕扯自己并将撕扯模子的结果加入卷轴中。在用近战武器攻击时，你可以在任何伤害卷中加入自己，作为{@spell Attack}行动的一部分，用于法术攻击，用于反应，或用于奖励行动。你可以在每一回合内进行任何数量的撕扯。",
				"在7级时，你可以对力量、灵巧和体质的救赎进行撕扯，并且你可以为你的撕扯骰子掷出（%0%）。在14级时，你可以掷出{@dice 3d6}，在20级时可以掷出{@dice 4d6}。",
				{
					"type": "inset",
					"name": "Atavist Variants",
					"entries": [
						"有几个源于标准版本的变体：无痛变体和有痛变体，它们使游戏更容易或更难。如果你的管理员允许（或裁定），可以使用下面的变体之一。",
						{
							"type": "entries",
							"name": "Painless",
							"page": 3,
							"entries": [
								"你的命中率是{@dice d8}，而不是{@dice d6}。你的伤害骰子开始是{@dice d4}，然后是{@dice 2d4}、{@dice 3d4}和{@dice 4d4}。"
							]
						},
						{
							"type": "entries",
							"name": "Painful",
							"page": 3,
							"entries": [
								"你的命中率是{@dice d4}，而不是{@dice d6}。你的伤害骰子开始是{@dice d4}，然后是{@dice 2d8}、{@dice 3d8}和{@dice 4d8}。"
							]
						}
					]
				}
			]
		},
		{
			"name": "Unstopping Heart",
			"source": "Atavist",
			"className": "Atavist",
			"classSource": "Atavist",
			"page": 3,
			"level": 1,
			"entries": [
				"每回合一次，当撕裂自己会使你的命中率降至0时，你反而会降至1。此外，你精通死亡救赎，如果你做的死亡救赎的结果是18或更高，你会重新获得1点生命值。"
			]
		},
		{
			"name": "Spellcasting",
			"source": "Atavist",
			"className": "Atavist",
			"classSource": "Atavist",
			"page": 4,
			"level": 2,
			"entries": [
				"到了第二级，你的身体本质--无论是通过你的家族、某个神圣的（或不神圣的）存在的祝福，甚至是通过纯粹的机会，在你体内产生了一种强化的、活生生的巫术，可以挥洒出魔法的力量。咒语的一般规则见{@book chapter 10|PHB|10}，本文件末尾见{@filter atavist spell list|spells|class=Atavist (Atavist)}。",
				{
					"type": "entries",
					"name": "Preparing and Casting Spells",
					"page": 4,
					"entries": [
						"Atavist表显示了你有多少个法术槽来施展你的法术。要施展你的一个1级或更高等级的阿塔维斯特法术，你必须消耗一个与该法术等级相同或更高的法术槽。当你完成一个长时间的休息时，你会重新获得所有消耗的法术槽。",
						"你准备好可供你施展的太上老君的法术清单，从太上老君的法术清单中选择。当你这样做的时候，选择与你的体质修饰值+你的太虚者等级的一半相等的数量的太虚者法术，向下取整（最少一个法术）。这些法术的等级必须是你有法术槽的。",
						"例如，如果你是一个5级的无神论者，你有四个1级和两个2级的法术槽。在体质为14的情况下，你准备的法术清单可以包括四个1级或2级的法术，以任何方式组合。如果你准备了1级法术（%0%），你可以用1级或2级法术槽来施放它。施放该法术并不会从你的准备法术列表中移除。",
						"你可以在完成长时间的休息后改变你准备的法术清单。准备一个新的异端法术清单需要花费时间来调整你的生命力：对于你清单上的每个法术等级，至少需要1分钟。"
					]
				},
				{
					"type": "entries",
					"name": "Spellcasting Ability",
					"page": 4,
					"entries": [
						"体质是你的阿塔维斯特法术的施法能力，因为你的魔法的力量依赖于你自己的血液。每当法术提到你的法术能力时，你就会使用你的体质。此外，在设定你所施展的异教徒法术的蓄力DC时，以及在使用异教徒法术进行攻击时，你都会使用你的体质修改器。",
						{
							"type": "abilityDc",
							"name": "Spell",
							"attributes": [
								"con"
							]
						},
						{
							"type": "abilityAttackMod",
							"name": "Spell",
							"attributes": [
								"con"
							]
						}
					]
				},
				{
					"type": "entries",
					"name": "Ritual Casting",
					"page": 4,
					"entries": [
						"你可以以仪式的方式施放一个阿塔维斯特法术，如果该法术有仪式标签并且你已经准备好该法术。"
					]
				},
				{
					"type": "entries",
					"name": "Self Focus",
					"page": 4,
					"entries": [
						"当你施展需要材料成分的法术时，你会忽略该成分，除非它有价值，比如{@spell greater restoration}法术的钻石粉价值100gp，在这种情况下成分是需要的。"
					]
				}
			]
		},
		{
			"name": "Hardened Viscera",
			"source": "Atavist",
			"className": "Atavist",
			"classSource": "Atavist",
			"page": 4,
			"level": 2,
			"entries": [
				"2级时，你的身体会呈现出最强悍的人和最坚定的人群的身体特征和方面。你获得以下好处。",
				{
					"type": "list",
					"items": [
						"当你没有穿重甲时，你可以减少你受到的任何伤害2。",
						"你的最大命中率不能被降低。"
					]
				}
			]
		},
		{
			"name": "Atavistic Aspect",
			"source": "Atavist",
			"className": "Atavist",
			"classSource": "Atavist",
			"page": 4,
			"level": 3,
			"entries": [
				"在3级时选择一个方面，它描述并模仿你身体的魔力。它们在等级描述的末尾有详细说明。当你在3级时选择它，并在6级、10级和18级时再次选择它时，你的选择会赋予你特性。",
				{
					"type": "entries",
					"name": "Aspect Spells",
					"page": 4,
					"entries": [
						"每个方面都有一个相关的法术列表。当你能施放其等级的法术时，你就能获得这些法术的使用权，如表所示。一旦你获得一个方面的法术，你就会一直准备好它。方面法术不计入你每天可以准备的法术数量。",
						"如果你获得了一个没有出现在阿塔维斯特法术列表中的方面法术，那么这个法术对你来说仍然是阿塔维斯特法术。"
					]
				}
			]
		},
		{
			"name": "Ability Score Improvement",
			"source": "Atavist",
			"className": "Atavist",
			"classSource": "Atavist",
			"page": 4,
			"level": 4,
			"entries": [
				"当你达到四级时，你可以将你选择的一项能力得分提高2分，或者将你选择的两项能力得分提高1分。",
				"如果你的DM允许使用特技，你可以改用{@5etools feat|feats.html}。"
			]
		},
		{
			"name": "Avenging Attack",
			"source": "Atavist",
			"className": "Atavist",
			"classSource": "Atavist",
			"page": 4,
			"level": 5,
			"entries": [
				"从5级开始，当一次攻击击中你，你的救赎失败，或者你的能力检查失败，需要攻击或行动时，你可以对范围内的任何生物进行一次武器攻击作为反应。",
				"11级时，你可以进行两次武器攻击作为该反应的一部分。"
			]
		},
		{
			"name": "Atavistic Aspect Feature",
			"source": "Atavist",
			"className": "Atavist",
			"classSource": "Atavist",
			"page": 4,
			"level": 6,
			"entries": [
				"在6级时，你获得一个由你的Atavistic Aspect赋予的特性。"
			]
		},
		{
			"name": "Humansbane (HP 10)",
			"source": "Atavist",
			"className": "Atavist",
			"classSource": "Atavist",
			"page": 4,
			"level": 6,
			"entries": [
				"从6级开始，你会散发出身体上的威力，并能以单次打击将较小的人形生物拆散。每当你用攻击击中一个人形生物并对其造成伤害时，如果伤害将他们的命中率降低到10或更低，该生物就会被立即杀死。",
				"在10级的时候，如果人形生物剩下15点或更少的命中率，它就会被立即杀死。14级时，增加到20，18级时增加到25。"
			]
		},
		{
			"name": "Greater Viscera",
			"source": "Atavist",
			"className": "Atavist",
			"classSource": "Atavist",
			"page": 4,
			"level": 7,
			"entries": [
				"在第7级时，你的身体已经具备了基岩和高效的特性。你获得以下好处。",
				{
					"type": "list",
					"items": [
						"当你不穿重甲时，你可以减少你受到的任何伤害4，15级时可以减少6。",
						"当你受到除你以外的生物的伤害时，你的下一次补刀不会在下一分钟内失去你的命中率。"
					]
				}
			]
		},
		{
			"name": "Rend Dice (2d6)",
			"source": "Atavist",
			"className": "Atavist",
			"classSource": "Atavist",
			"page": 4,
			"level": 7,
			"entries": [
				"7级时，你的Rend Dice变成（%0%）。",
				"{@note This feature was added by the converter in order to stay faithful to the class features table.}"
			]
		},
		{
			"name": "Ability Score Improvement",
			"source": "Atavist",
			"className": "Atavist",
			"classSource": "Atavist",
			"page": 4,
			"level": 8,
			"entries": [
				"当你达到8级时，你可以将你选择的一项能力得分提高2分，或者将你选择的两项能力得分提高1分。",
				"如果你的DM允许使用特技，你可以改用{@5etools feat|feats.html}。"
			]
		},
		{
			"name": "Atavistic Aspect Feature",
			"source": "Atavist",
			"className": "Atavist",
			"classSource": "Atavist",
			"page": 4,
			"level": 10,
			"entries": [
				"在10级时，你获得一个由你的Atavistic Aspect赋予的功能。"
			]
		},
		{
			"name": "Humansbane (HP 15)",
			"source": "Atavist",
			"className": "Atavist",
			"classSource": "Atavist",
			"page": 4,
			"level": 10,
			"entries": [
				"在10级的时候，你的Humansbane特性增强了。每当你用攻击击中一个人形生物并对其造成伤害时，如果伤害将他们的命中率降低到15或更低，而不是10，该生物会被立即杀死。",
				"{@note This feature was added by the converter in order to stay faithful to the class features table.}"
			]
		},
		{
			"name": "Avenging Attack Improvement",
			"source": "Atavist",
			"className": "Atavist",
			"classSource": "Atavist",
			"page": 4,
			"level": 11,
			"entries": [
				"11级时，当你使用你的复仇攻击功能时，你可以进行两次武器攻击作为你反应的一部分，而不是一次。",
				"{@note This feature was added by the converter in order to stay faithful to the class features table.}"
			]
		},
		{
			"name": "Ability Score Improvement",
			"source": "Atavist",
			"className": "Atavist",
			"classSource": "Atavist",
			"page": 4,
			"level": 12,
			"entries": [
				"当你达到12级时，你可以将你选择的一项能力得分提高2分，或者将你选择的两项能力得分提高1分。",
				"如果你的DM允许使用特技，你可以改用{@5etools feat|feats.html}。"
			]
		},
		{
			"name": "Sanguine Sacrament (5th Level)",
			"source": "Atavist",
			"className": "Atavist",
			"classSource": "Atavist",
			"page": 4,
			"level": 14,
			"entries": [
				"从14级开始，你开始解开魔法与身体交织的神圣秘密，这被称为圣礼。选择一个（%0%）作为这个圣物。",
				"你可以在不消耗法术槽的情况下，施放一次这个圣典法术或相同法术等级的方面法术。你必须完成一次长时间的休息才能再次施展。",
				"在更高的等级，你会获得更多你所选择的可以用这种方式施放的阿塔维斯特法术：17级时有一个6级法术，20级时有一个7级法术。当你完成长时间的休息时，你会重新获得你的 \"神圣圣礼 \"的所有使用权。"
			]
		},
		{
			"name": "Humansbane (HP 20)",
			"source": "Atavist",
			"className": "Atavist",
			"classSource": "Atavist",
			"page": 4,
			"level": 14,
			"entries": [
				"在14级时，你的Humansbane特性增强了。每当你用攻击击中一个人形生物并对其造成伤害时，如果伤害将他们的命中率降低到20或更低，而不是15，该生物就会被立即杀死。",
				"{@note This feature was added by the converter in order to stay faithful to the class features table.}"
			]
		},
		{
			"name": "Rend Dice (3d6)",
			"source": "Atavist",
			"className": "Atavist",
			"classSource": "Atavist",
			"page": 4,
			"level": 14,
			"entries": [
				"14级时，你的Rend Dice变成{@dice 3d6}。",
				"{@note This feature was added by the converter in order to stay faithful to the class features table.}"
			]
		},
		{
			"name": "Greater Viscera Improvement",
			"source": "Atavist",
			"className": "Atavist",
			"classSource": "Atavist",
			"page": 4,
			"level": 15,
			"entries": [
				"15级时，当你没有穿重甲时，你可以将你受到的任何伤害减少6，而不是4。",
				"{@note This feature was added by the converter in order to stay faithful to the class features table.}"
			]
		},
		{
			"name": "Ability Score Improvement",
			"source": "Atavist",
			"className": "Atavist",
			"classSource": "Atavist",
			"page": 4,
			"level": 16,
			"entries": [
				"当你达到16级时，你可以将你选择的一个能力得分提高2分，或者将你选择的两个能力得分提高1分。",
				"如果你的DM允许使用特技，你可以改用{@5etools feat|feats.html}。"
			]
		},
		{
			"name": "Sanguine Sacrament (6th Level)",
			"source": "Atavist",
			"className": "Atavist",
			"classSource": "Atavist",
			"page": 4,
			"level": 17,
			"entries": [
				"从17级开始，你开始解开魔法与身体交织的神圣秘密，这被称为圣礼。选择一个（%0%）作为这个圣物。",
				"你可以在不消耗法术槽的情况下，施放一次这个圣典法术或相同法术等级的方面法术。你必须完成一次长时间的休息才能再次施展。",
				"{@note This feature was added by the converter in order to stay faithful to the class features table.}"
			]
		},
		{
			"name": "Atavistic Aspect Feature",
			"source": "Atavist",
			"className": "Atavist",
			"classSource": "Atavist",
			"page": 4,
			"level": 18,
			"entries": [
				"18级时，你获得一个由你的Atavistic Aspect赋予的特性。"
			]
		},
		{
			"name": "Humansbane (HP 25)",
			"source": "Atavist",
			"className": "Atavist",
			"classSource": "Atavist",
			"page": 4,
			"level": 18,
			"entries": [
				"在18级时，你的Humansbane特性增强了。每当你用攻击击中一个人形生物并对其造成伤害时，如果伤害将他们的命中率降低到25或更低，而不是20，该生物会被立即杀死。",
				"{@note This feature was added by the converter in order to stay faithful to the class features table.}"
			]
		},
		{
			"name": "Ability Score Improvement",
			"source": "Atavist",
			"className": "Atavist",
			"classSource": "Atavist",
			"page": 4,
			"level": 19,
			"entries": [
				"当你达到19级时，你可以将你选择的一项能力得分提高2分，或者将你选择的两项能力得分提高1分。",
				"如果你的DM允许使用特技，你可以改用{@5etools feat|feats.html}。"
			]
		},
		{
			"name": "Nigh Immortality",
			"source": "Atavist",
			"className": "Atavist",
			"classSource": "Atavist",
			"page": 5,
			"level": 20,
			"entries": [
				"在20级时，你几乎是不可能被杀死的。你的身体不会衰老，如果你死了，而你的身体至少有一个部分存在--比如一个指甲或一只眼睛--你的身体可以在24小时内从那个部分重新生长出来。在这段时间结束时，你会以1个命中率恢复生命。如果你因为{@spell disintegrate}咒语或类似的效果而被杀死，你的身体就没有剩余的健康部位可以恢复。如果你的身体被完全烧穿或以其他方式被影响一个区域的强大法术和能力（如龙息武器或（%1%））毁坏，只要受到的伤害不超过你的最大命中率的一半，你仍然可以从身体内部的部分重新生长。最后，如果你已经死亡或尚未完全再生，任何试图将你的身体提升为亡灵的魔法都会成功，但你会立即获得控制权。"
			]
		},
		{
			"name": "Sanguine Sacrament (7th Level)",
			"source": "Atavist",
			"className": "Atavist",
			"classSource": "Atavist",
			"page": 4,
			"level": 20,
			"entries": [
				"从20级开始，你开始解开魔法与身体交织的神圣秘密，这被称为圣礼。选择一个（%0%）作为这个圣物。",
				"你可以在不消耗法术槽的情况下，施放一次这个圣典法术或相同法术等级的方面法术。你必须完成一次长时间的休息才能再次施展。",
				"{@note This feature was added by the converter in order to stay faithful to the class features table.}"
			]
		},
		{
			"name": "Rend Dice (4d6)",
			"source": "Atavist",
			"className": "Atavist",
			"classSource": "Atavist",
			"page": 4,
			"level": 20,
			"entries": [
				"20级时，你的Rend Dice变成{@dice 4d6}。",
				"{@note This feature was added by the converter in order to stay faithful to the class features table.}"
			]
		}
	],
	"subclassFeature": [
		{
			"name": "Bloodied Aspect",
			"source": "Atavist",
			"className": "Atavist",
			"classSource": "Atavist",
			"subclassSource": "Atavist",
			"subclassShortName": "Bloodied",
			"page": 5,
			"level": 3,
			"entries": [
				"你这种颜色的异教徒是以受伤的体质为生的人，从接近死亡中获得肾上腺素和力量。这些太监倾向于极端的受虐狂，有时只有当他们能感觉到伤口、瘀伤和血液从他们的身体中惊人地泵出时，他们才会真正感到高兴。",
				{
					"type": "table",
					"caption": "Bloodied Aspect Spells",
					"colLabels": [
						"Spell Level",
						"Spells"
					],
					"colStyles": [
						"col-3 text-center",
						"col-9"
					],
					"rows": [
						[
							"1st",
							"{@spell lesser bloodsight|Atavist}"
						],
						[
							"2nd",
							"{@spell needle and thread|Atavist}"
						],
						[
							"3rd",
							"{@spell redwood expansion|Atavist}"
						],
						[
							"4th",
							"{@spell death ward}"
						],
						[
							"5th",
							"{@spell exsanguinate|Atavist}"
						],
						[
							"6th",
							"{@spell haemorrhaging rupture|Atavist}"
						]
					]
				},
				{
					"type": "refSubclassFeature",
					"subclassFeature": "Wounded Nature|Atavist|Atavist|Bloodied|Atavist|3|Atavist"
				}
			]
		},
		{
			"name": "Wounded Nature",
			"source": "Atavist",
			"className": "Atavist",
			"classSource": "Atavist",
			"subclassSource": "Atavist",
			"subclassShortName": "Bloodied",
			"page": 5,
			"level": 3,
			"header": 1,
			"entries": [
				"从3级开始，当你选择这个方面时，你作为一个带血的方面的战士会获得两个好处，这些好处会随着你的变弱而加强，你天生的反应能力会被取代。从以下特征中选择一个，只要你的命中率低于你的最大命中率，这些特征就一直有效。",
				{
					"type": "options",
					"count": 2,
					"entries": [
						{
							"type": "entries",
							"name": "Alacrity",
							"page": 5,
							"entries": [
								"你在敌人的范围内盘旋，在敌人之间穿行，就像弹指一挥间一样轻松。你可以采取脱离行动作为一个额外的行动。"
							]
						},
						{
							"type": "entries",
							"name": "Beating Reflexes",
							"page": 5,
							"entries": [
								"你的敏捷性和体积是无与伦比的。你可以对力量和灵巧的能力检查进行补偿。"
							]
						},
						{
							"type": "entries",
							"name": "Control",
							"page": 5,
							"entries": [
								"你精细地操纵你的血液。当你撕裂时，你可以每回合重掷撕裂骰子一次，并选择其中一个结果。"
							]
						}
					]
				},
				"此外，从以下特征中选择一个。当你的命中率低于你最大命中率的一半时（四舍五入），你所选择的功能就会为你激活，只要你在该阈值之下，就一直处于激活状态。",
				{
					"type": "options",
					"count": 1,
					"entries": [
						{
							"type": "entries",
							"name": "Serrated Strike",
							"page": 5,
							"entries": [
								"你的刀刃在溢出的血液中涂抹并变得锋利。当你在伤害模子或伤害模子上掷出最大数字时，你可以在结果上增加一个额外的（%0%）。如果你在额外的{@dice 1d8}上掷出8，你可以在结果上增加一个额外的{@dice 1d8}，以此类推。"
							]
						},
						{
							"type": "entries",
							"name": "Thickening Humors",
							"page": 5,
							"entries": [
								"你的法术是超负荷的，因为你的骨头在太初教的重压下开裂和断裂。你可以把你的体质修饰值加到你使用任何阿塔维斯特法术的伤害上。"
							]
						},
						{
							"type": "entries",
							"name": "Unceasing Flow",
							"page": 5,
							"entries": [
								"你的血液像水一样流动。当你撕裂自己并将结果加到武器伤害卷上时，结果是双倍的--你既承受又应用双倍的撕裂结果。"
							]
						}
					]
				}
			]
		},
		{
			"name": "Maiming Aura",
			"source": "Atavist",
			"className": "Atavist",
			"classSource": "Atavist",
			"subclassSource": "Atavist",
			"subclassShortName": "Bloodied",
			"page": 5,
			"level": 6,
			"header": 2,
			"entries": [
				"在6级时，当你和你周围10英尺内的友好生物低于你最大命中率的一半时，在他们的武器伤害卷中加入你的宪法修改系数。",
				"18级时，这个光环的范围增加到30英尺。"
			]
		},
		{
			"name": "Deathbound Vitality",
			"source": "Atavist",
			"className": "Atavist",
			"classSource": "Atavist",
			"subclassSource": "Atavist",
			"subclassShortName": "Bloodied",
			"page": 5,
			"level": 10,
			"header": 2,
			"entries": [
				"在10级时，如果你的命中率低于你最大命中率的一半（四舍五入），你每回合在一次武器攻击卷上有优势。"
			]
		},
		{
			"name": "Rage, Rage Against the Dying",
			"source": "Atavist",
			"className": "Atavist",
			"classSource": "Atavist",
			"subclassSource": "Atavist",
			"subclassShortName": "Bloodied",
			"page": 5,
			"level": 18,
			"header": 2,
			"entries": [
				"从18级开始，当你的命中率降至0或被杀时，你可以降至1的命中率。如果你这样做了，你会进入对抗死亡的狂暴状态，持续1分钟。当你处于对死亡的愤怒中时，你的攻击卷、蓄力投掷和能力检查会将9或更低的D20卷视为10，你不能被攻击击中，除非是关键命中，而且当你受到允许你进行蓄力投掷以承受一半伤害的效果时，如果你的蓄力投掷成功，你反而不会受到伤害。当你对死亡的愤怒结束时，你会获得四级疲惫。"
			]
		},
		{
			"name": "Murderous Aspect",
			"source": "Atavist",
			"className": "Atavist",
			"classSource": "Atavist",
			"subclassSource": "Atavist",
			"subclassShortName": "Murderous",
			"page": 6,
			"level": 3,
			"entries": [
				"凶残的异教徒是在狩猎中磨练出来的：他们利用自己的力量来消耗和摧毁他人。他们从战略上攻击生物的弱点，大步流星地将其击倒。他们这样做的动机比他们所杀的怪物和人更多：金钱、名声、利他主义、上瘾、勒索、神圣、亵渎、疯狂、复仇、寻求刺激、政治利益，或任何其他不可捉摸的动机；也许有些人没有或需要一个理由。",
				{
					"type": "table",
					"caption": "Murderous Aspect Spells",
					"colLabels": [
						"Spell Level",
						"Spells"
					],
					"colStyles": [
						"col-3 text-center",
						"col-9"
					],
					"rows": [
						[
							"1st",
							"{@spell withering necrosis|Atavist}"
						],
						[
							"2nd",
							"{@spell pass without trace}"
						],
						[
							"3rd",
							"{@spell counterspell}"
						],
						[
							"4th",
							"{@spell locate creature}"
						],
						[
							"5th",
							"{@spell steel wind strike|XGE}"
						],
						[
							"6th",
							"{@spell true seeing}"
						]
					]
				},
				{
					"type": "refSubclassFeature",
					"subclassFeature": "Fighting Style|Atavist|Atavist|Murderous|Atavist|3|Atavist"
				},
				{
					"type": "refSubclassFeature",
					"subclassFeature": "Lethal Strike|Atavist|Atavist|Murderous|Atavist|3|Atavist"
				}
			]
		},
		{
			"name": "Fighting Style",
			"source": "Atavist",
			"className": "Atavist",
			"classSource": "Atavist",
			"subclassSource": "Atavist",
			"subclassShortName": "Murderous",
			"page": 6,
			"level": 3,
			"header": 1,
			"entries": [
				"在3级时，你可以选择下面的一种战斗风格。你不能多次选择相同的战斗方式，即使你后来可以再次选择。",
				{
					"type": "options",
					"count": 1,
					"entries": [
						{
							"type": "refOptionalfeature",
							"optionalfeature": "Dueling"
						},
						{
							"type": "entries",
							"name": "Throwing",
							"page": 6,
							"entries": [
								"你在使用投掷武器进行远程攻击时获得+2的奖励。每当你用投掷武器进行远程攻击时，你可以立即拔出另一件武器作为攻击的一部分。"
							]
						},
						{
							"type": "refOptionalfeature",
							"optionalfeature": "Two-Weapon Fighting"
						}
					]
				},
				{
					"type": "inset",
					"name": "Variant: Fighting Maneuvers",
					"entries": [
						"有了这个变体，你可以用这个变体取代战斗风格的特征。从3级开始，你将原始的力量训练成一种战斗形式。从以下格斗术中选择两个，对于这些格斗术你不能再选择相同的。",
						{
							"type": "entries",
							"name": "Parry",
							"page": 6,
							"entries": [
								"如果你在你的回合中采取{@action Attack}行动，并以单一近战武器和无盾牌进行攻击，你可以使用你的额外行动来准备一个招架动作。在你的下一回合开始前，你有一个相当于你的力量或灵巧修饰值（由你选择）的额外AC值来对抗对你进行的第一次近战攻击。"
							]
						},
						{
							"type": "entries",
							"name": "Power Attack",
							"page": 6,
							"entries": [
								"当你在你的回合中采取{@action Attack}行动并对具有优势的生物进行重装近战武器攻击时，你可以选择放弃优势并进行强力打击。如果你击中了，你会造成与你的熟练度加成相等的额外伤害。"
							]
						},
						{
							"type": "entries",
							"name": "Pushing Attack",
							"page": 6,
							"entries": [
								"当你在挥舞盾牌时用近战武器攻击击中一个生物，你可以尝试将目标赶回去。如果目标是大型或小型的，你可以将目标推到离你最远的5英尺。"
							]
						},
						{
							"type": "entries",
							"name": "Twin Strike",
							"page": 6,
							"entries": [
								"当你在你的回合中采取{@action Attack}行动，并且两只手都有不同的轻型近战武器，你可以使用你的奖励行动，用两把武器进行双击。对两件武器范围内的生物进行一次攻击。如果两把武器都有精巧的属性，你可以选择用你的灵巧修正值代替你的力量修正值来进行这次攻击。你不会将你的能力修饰值加到两件武器的伤害上。"
							]
						}
					]
				}
			]
		},
		{
			"name": "Lethal Strike",
			"source": "Atavist",
			"className": "Atavist",
			"classSource": "Atavist",
			"subclassSource": "Atavist",
			"subclassShortName": "Murderous",
			"page": 6,
			"level": 3,
			"header": 1,
			"entries": [
				"同样在3级时，你可以用杀手的本能将一个生物撕碎，准确地知道该攻击哪里。每回合一次，如果你在攻击卷上有优势，你可以对你击中的一个生物造成额外的（%0%）伤害。",
				"如果在目标的5英尺范围内没有其他对你有敌意的生物，或者在目标的5英尺范围内有除你之外的对你有敌意的生物，你在攻击卷上不需要优势。你获得的伤害量随着你达到更高的等级而增加：6级时变成{@dice 2d6}，10级时变成{@dice 3d6}，18级变成{@dice 4d6}。"
			]
		},
		{
			"name": "Skirmisher",
			"source": "Atavist",
			"className": "Atavist",
			"classSource": "Atavist",
			"subclassSource": "Atavist",
			"subclassShortName": "Murderous",
			"page": 6,
			"level": 6,
			"header": 2,
			"entries": [
				"从6级开始，你在追踪和躲避敌人方面变得非常有效。你获得对{@skill Stealth}和{@skill Survival}技能的熟练度，对于你选择的其中一个技能，你在用该技能进行的任何能力检查中获得双倍的熟练度奖励。最后，你可以采取{@action Dash}、{@action Hide}和{@action Search}的行动作为奖励行动。"
			]
		},
		{
			"name": "Cruorbent Accuracy",
			"source": "Atavist",
			"className": "Atavist",
			"classSource": "Atavist",
			"subclassSource": "Atavist",
			"subclassShortName": "Murderous",
			"page": 6,
			"level": 10,
			"header": 2,
			"entries": [
				"在10级的时候，你可以在攻击卷中撕裂自己。你可以使用这个功能的次数等于你的宪法修改器，并且在你完成长时间的休息后恢复所有消耗的使用。",
				"此外，当你对一个攻击卷做出反应时，你可以使用你的致命一击功能，即使你不符合先决条件。"
			]
		},
		{
			"name": "Life for Life, Blood for Blood",
			"source": "Atavist",
			"className": "Atavist",
			"classSource": "Atavist",
			"subclassSource": "Atavist",
			"subclassShortName": "Murderous",
			"page": 6,
			"level": 18,
			"header": 2,
			"entries": [
				"从18级开始，你可以在一场厚颜无耻的力量较量中与一个生命体的健康相抗衡。当你在一个生物身上获得关键一击时，你可以以血换血。剩余命中率较低的生物会下降到0命中率，而命中率较高的生物则会失去同等数量的命中率。",
				"一旦你使用这个功能，你就不能再使用它，直到你完成长时间的休息。"
			]
		},
		{
			"name": "Demonic Aspect",
			"source": "Atavist",
			"className": "Atavist",
			"classSource": "Atavist",
			"subclassSource": "Atavist",
			"subclassShortName": "Demonic",
			"page": 7,
			"level": 3,
			"entries": [
				"在某些文化中，操纵一个人的血液施展魔法可以被看作是地狱力量的影响，直截了当地被担心是由恶魔造成的。他们可能是错的，或者偶尔也可能是非常正确的。不管是恶魔的灵魂碎片唤醒了你体内的血魔法，还是你订立了权力契约，一个古老的恶魔血神占据了你家谱中被遗忘的一脉，或者你被一个无神的灵魂所诅咒，你都有恶魔的一面。",
				{
					"type": "table",
					"caption": "Demonic Aspect Spells",
					"colLabels": [
						"Spell Level",
						"Spells"
					],
					"colStyles": [
						"col-3 text-center",
						"col-9"
					],
					"rows": [
						[
							"1st",
							"{@spell chaos bolt|XGE}"
						],
						[
							"2nd",
							"{@spell darkness}"
						],
						[
							"3rd",
							"{@spell summon lesser demons|XGE}"
						],
						[
							"4th",
							"{@spell summon greater demon|XGE}"
						],
						[
							"5th",
							"{@spell immolation|XGE}"
						],
						[
							"6th",
							"{@spell eyebite}"
						]
					]
				},
				{
					"type": "refSubclassFeature",
					"subclassFeature": "Fiendish Constitution|Atavist|Atavist|Demonic|Atavist|3|Atavist"
				},
				{
					"type": "refSubclassFeature",
					"subclassFeature": "Demon's Pyre|Atavist|Atavist|Demonic|Atavist|3|Atavist"
				}
			]
		},
		{
			"name": "Fiendish Constitution",
			"source": "Atavist",
			"className": "Atavist",
			"classSource": "Atavist",
			"subclassSource": "Atavist",
			"subclassShortName": "Demonic",
			"page": 7,
			"level": 3,
			"header": 1,
			"entries": [
				"在3级时，你的身体会具有恶魔的特征。对于任何检测恶魔或与恶魔互动的特征，你都会注册为恶魔。此外，你不能被（%0%），并且对毒药伤害有抵抗力。最后，你可以说、读、写深渊语。",
				"如果你愿意，你的身体可以开始反映你内心的这些变化。硫磺石的气味可以轻盈地围绕着你，你的头发可以变厚变红，你的眼睛可能变黑。"
			]
		},
		{
			"name": "Demon's Pyre",
			"source": "Atavist",
			"className": "Atavist",
			"classSource": "Atavist",
			"subclassSource": "Atavist",
			"subclassShortName": "Demonic",
			"page": 7,
			"level": 3,
			"header": 1,
			"entries": [
				"在3级时，你可以作为一个额外动作进入或离开一个恶魔的火堆，赋予你更大的恶魔力量。如果你这样做，你的眼睛会变成你选择的颜色和虹膜形状。当你在火堆中时，你不能被{@condition frightened}，当你进入火堆时以及在你每个回合开始时，除你之外的每个生物都会受到{@dice 1d4}的火焰伤害。这在6级时增加到{@dice 2d4}，10级时增加到{@dice 3d4}，18级时增加到{@dice 4d4}。",
				"恶魔的火堆最多持续1分钟。你可以使用这个功能的次数相当于你体质修饰的一半（四舍五入），并且在你完成短期或长期休息时恢复所有消耗的使用。"
			]
		},
		{
			"name": "Hellfire of the Abyss",
			"source": "Atavist",
			"className": "Atavist",
			"classSource": "Atavist",
			"subclassSource": "Atavist",
			"subclassShortName": "Demonic",
			"page": 7,
			"level": 6,
			"header": 2,
			"entries": [
				"在6级时，当你在恶魔的火堆中进行撕裂时，你可以将所造成的武器伤害改为火伤害。此外，你造成的任何火系伤害都无视抗性，而且你对火系伤害有抗性。"
			]
		},
		{
			"name": "Archdemon's Pyre",
			"source": "Atavist",
			"className": "Atavist",
			"classSource": "Atavist",
			"subclassSource": "Atavist",
			"subclassShortName": "Demonic",
			"page": 7,
			"level": 10,
			"header": 2,
			"entries": [
				"在10级时，当一个或多个生物受到你的恶魔火堆的火力伤害时，你可以消耗一个法术槽来对它们造成额外的火力伤害。一级法术槽的额外伤害是{@dice 2d4}，加上高于一级的每一个法术等级的{@dice 1d4}，最大为{@dice 5d4}。天人或魔人生物会受到额外的（%3%）伤害。"
			]
		},
		{
			"name": "Avatar of a Demon Prince",
			"source": "Atavist",
			"className": "Atavist",
			"classSource": "Atavist",
			"subclassSource": "Atavist",
			"subclassShortName": "Demonic",
			"page": 7,
			"level": 18,
			"header": 2,
			"entries": [
				"18级时，当你进入一个恶魔的火葬场时，你也可以进入一个恶魔王子的化身。如果你这样做，在火葬场的持续时间内，你会获得以下好处。",
				{
					"type": "list",
					"items": [
						"你会变成一个有翅膀的大型魔物，飞行速度为60英尺。",
						"你对法术和其他魔法效果的救赎有优势。",
						"你可以创造一条地狱之火的鞭子作为一个额外的动作，或者当你进入一个恶魔的火堆时。该鞭子会造成火焰伤害，有一个{@dice d12}的伤害模子，如果它离开你的手或你的火堆结束时就会消失。"
					]
				},
				"一旦你进入一个头像，你就不能再这样做，直到你完成一个长时间的休息。"
			]
		},
		{
			"name": "Heavenly Aspect",
			"source": "Atavist",
			"className": "Atavist",
			"classSource": "Atavist",
			"subclassSource": "Atavist",
			"subclassShortName": "Heavenly",
			"page": 8,
			"level": 3,
			"entries": [
				"Atavism的古老力量对外部世界的影响没有免疫力，偶尔，无论是偶然还是设计，两者以一种独特的方式结合。天上的阿塔夫就是这样的例子，他们被上层世界的善良本质所触动。受到天体力量的感染，这些自我肯定的人拥有独特的能力，可以利用他们的健康来帮助他人，引导他们的盟友的打击，并带领他们取得光荣的胜利。",
				{
					"type": "table",
					"caption": "Heavenly Aspect Spells",
					"colLabels": [
						"Spell Level",
						"Spells"
					],
					"colStyles": [
						"col-3 text-center",
						"col-9"
					],
					"rows": [
						[
							"1st",
							"{@spell bless}"
						],
						[
							"2nd",
							"{@spell lesser restoration}"
						],
						[
							"3rd",
							"{@spell revivify}"
						],
						[
							"4th",
							"{@spell guardian of faith}"
						],
						[
							"5th",
							"{@spell commune}"
						],
						[
							"6th",
							"{@spell blade barrier}"
						]
					]
				},
				{
					"type": "refSubclassFeature",
					"subclassFeature": "Heavenly Presence|Atavist|Atavist|Heavenly|Atavist|3|Atavist"
				},
				{
					"type": "refSubclassFeature",
					"subclassFeature": "Angelic Guidance|Atavist|Atavist|Heavenly|Atavist|3|Atavist"
				}
			]
		},
		{
			"name": "Heavenly Presence",
			"source": "Atavist",
			"className": "Atavist",
			"classSource": "Atavist",
			"subclassSource": "Atavist",
			"subclassShortName": "Heavenly",
			"page": 8,
			"level": 3,
			"header": 1,
			"entries": [
				"从3级开始，当你选择这个方面时，你可以用你的血赋予你的语言以天籁之音，并抵制平面影响。你可以对魅力检查和蓄力攻击进行反击。"
			]
		},
		{
			"name": "Angelic Guidance",
			"source": "Atavist",
			"className": "Atavist",
			"classSource": "Atavist",
			"subclassSource": "Atavist",
			"subclassShortName": "Heavenly",
			"page": 8,
			"level": 3,
			"header": 1,
			"entries": [
				"同样在第三级，你可以利用你的生命力来增强你的盟友，给他们注入神圣的力量和天意。每回合一次，当你能看到的30英尺范围内的盟友进行伤害卷、能力检查或魅力储蓄投掷时，你可以将自己卷入该卷。你可以选择在盟友做完卷子之后，但在DM确定卷子是成功还是失败之前，或者在盟友造成伤害之前使用这个功能。"
			]
		},
		{
			"name": "Shared Burden",
			"source": "Atavist",
			"className": "Atavist",
			"classSource": "Atavist",
			"subclassSource": "Atavist",
			"subclassShortName": "Heavenly",
			"page": 8,
			"level": 6,
			"header": 2,
			"entries": [
				"在6级的时候，你的盟友可以承担撕裂的压力，减少它对你身体的伤害，而你可以反过来保护他们免受伤害--但要付出代价。每当你使用你的 \"天使指引 \"功能时，你为之撕裂的盟友可以选择代替你来承受撕裂的伤害。此外，每当你能看到的30英尺范围内的盟友受到伤害时，你可以使用你的反应和撕裂来减少所受伤害的数量。"
			]
		},
		{
			"name": "Celestial Ascendance",
			"source": "Atavist",
			"className": "Atavist",
			"classSource": "Atavist",
			"subclassSource": "Atavist",
			"subclassShortName": "Heavenly",
			"page": 8,
			"level": 10,
			"header": 2,
			"entries": [
				"10级时，你拥有了天使的某些方面，即上层世界的神圣居民。每回合一次，当你用近战或投掷武器击中一个生物时，你可以造成额外的（%0%）辐射伤害，并且你可以随意施展（%1%），而不需要消耗一个法术槽。"
			]
		},
		{
			"name": "Sound the Horns of Meriton",
			"source": "Atavist",
			"className": "Atavist",
			"classSource": "Atavist",
			"subclassSource": "Atavist",
			"subclassShortName": "Heavenly",
			"page": 8,
			"level": 18,
			"header": 2,
			"entries": [
				"在18级时，你可以牺牲巨大的生命力来发出神圣的召唤，召唤一个天体的冠军到你身边。作为一个行动，你可以通过掷出与你等级相当的{@dice d6}的数量来撕裂自己，使一个正义大君出现在你周围10英尺内无人的空间。正义大君的统计数据与{@creature Deva|MM}(MM 16)相同，但缺乏治疗之触的动作，并挥舞着一把长剑。正义大君对你和你的同伴都很友好，并会为你战斗，根据你的倡议行动并听从你的口头命令。正义大君会停留10分钟，或者直到你的行为触犯了它，或者让它不高兴，这时它就会返回上层世界。",
				"一旦你使用了这个功能，你就不能再使用它，直到你完成一个长时间的休息。"
			]
		},
		{
			"name": "Cruorwrought Aspect",
			"source": "Atavist",
			"className": "Atavist",
			"classSource": "Atavist",
			"subclassSource": "Atavist",
			"subclassShortName": "Cruorwrought",
			"page": 9,
			"level": 3,
			"entries": [
				"Atavists以远远超出其他生物正常能力的方式使用他们的身体。某些Atavists追随他们的血液，获得对血液的物理控制--在他们的身体内外以及在其他人的身体中塑造和挥舞血液。",
				{
					"type": "table",
					"caption": "Cruorwrought Aspect Spells",
					"colLabels": [
						"Spell Level",
						"Spells"
					],
					"colStyles": [
						"col-3 text-center",
						"col-9"
					],
					"rows": [
						[
							"1st",
							"{@spell heart sunder|Atavist}"
						],
						[
							"2nd",
							"{@spell hold person}"
						],
						[
							"3rd",
							"{@spell life transferance|XGE}"
						],
						[
							"4th",
							"{@spell polymorph}"
						],
						[
							"5th",
							"{@spell dominate person}"
						],
						[
							"6th",
							"{@spell haemorrhaging rupture|Atavist}"
						]
					]
				},
				{
					"type": "refSubclassFeature",
					"subclassFeature": "Weapon of Blood|Atavist|Atavist|Cruorwrought|Atavist|3|Atavist"
				},
				{
					"type": "refSubclassFeature",
					"subclassFeature": "Create or Destroy Blood|Atavist|Atavist|Cruorwrought|Atavist|3|Atavist"
				}
			]
		},
		{
			"name": "Weapon of Blood",
			"source": "Atavist",
			"className": "Atavist",
			"classSource": "Atavist",
			"subclassSource": "Atavist",
			"subclassShortName": "Cruorwrought",
			"page": 9,
			"level": 3,
			"header": 1,
			"entries": [
				"从3级开始，当你选择这个原型时，你可以创造一个血之武器来挥舞。当你采取{@action Attack}行动时，你可以在你的任何一只手上创造一个血之武器。你可以创造一个你精通的近战武器，或者将你目前持有的武器涂上血色。一旦命中，目标失去的命中率等于武器的伤害骰子+你的撕裂骰子+你的力量或灵巧修正值。",
				"用武器击打两次后或武器离开你的手时，武器的血会落入一个池子。"
			]
		},
		{
			"name": "Create or Destroy Blood",
			"source": "Atavist",
			"className": "Atavist",
			"classSource": "Atavist",
			"subclassSource": "Atavist",
			"subclassShortName": "Cruorwrought",
			"page": 9,
			"level": 3,
			"header": 1,
			"entries": [
				"同样在3级时，你可以创造或破坏血液作为一个额外动作。创造时，你可以在你周围30英尺的空间内制造最多10加仑的血。或者，血会像雨一样落在范围内30英尺的球体上。毁灭时，你在你能看到的空间内，在你周围30英尺的范围内毁灭最多10加仑的血。一旦你摧毁了血液，在需要再次摧毁它之前，你只能创造一次血液。此外，你可以在范围内吸干一具小型或大型尸体的血。如果你吸干了一具尸体的血，在接下来的一分钟内，你可以在不损失任何命中率的情况下第一次创造出一件血的武器。"
			]
		},
		{
			"name": "Hearteater",
			"source": "Atavist",
			"className": "Atavist",
			"classSource": "Atavist",
			"subclassSource": "Atavist",
			"subclassShortName": "Cruorwrought",
			"page": 9,
			"level": 6,
			"header": 2,
			"entries": [
				"从6级开始，当你用血腥武器杀死一个生物时，你可以掷出它的一个命中率+它的体质修正值，获得与结果相等的命中率。",
				"你可以使用这个功能两次，当你完成短期或长期的休息时，可以重新获得所有消耗的使用权。"
			]
		},
		{
			"name": "Rebuttal of Body",
			"source": "Atavist",
			"className": "Atavist",
			"classSource": "Atavist",
			"subclassSource": "Atavist",
			"subclassShortName": "Cruorwrought",
			"page": 9,
			"level": 10,
			"header": 2,
			"entries": [
				"在10级的时候，你可以反驳许多对你身体的攻击。当你受到一个允许你进行宪法救赎以承受一半伤害的效果时，如果你救赎成功，你将不会受到任何伤害，如果你失败，则只有一半伤害。"
			]
		},
		{
			"name": "Call Godslayer",
			"source": "Atavist",
			"className": "Atavist",
			"classSource": "Atavist",
			"subclassSource": "Atavist",
			"subclassShortName": "Cruorwrought",
			"page": 9,
			"level": 18,
			"header": 2,
			"entries": [
				"从18级开始，你能够创造一种血色武器，与多元宇宙中最强大的武器相媲美。通过创造血之武器，你可以创造一个血之神器来代替。你以{@dice 20d6}的价格，而不是以正常的数量进行改造。它看起来像你希望的那样。用血之神器击打三次后，它就会散架。",
				"一旦你使用这个功能，你就不能再使用它，直到你完成长时间的休息。"
			]
		},
		{
			"name": "Anomalous Aspect",
			"source": "Atavist",
			"className": "Atavist",
			"classSource": "Atavist",
			"subclassSource": "Atavist",
			"subclassShortName": "Anomalous",
			"page": 10,
			"level": 3,
			"entries": [
				"你是一个反常的人：一个长生不老的憎恶。血魔法暗示着一个更深层的、更古老的、外来的部分，已经成为你的一部分。很可能，你强壮的肉体是长生生物力量梦寐以求的宿主，将意识与你强大的容器配对。由于它的影响，你获得了奇怪的品质，并能瞬间释放你体内的异常现象。你也可以拾起奇怪的怪癖。你可以在下面的表格中滚动或选择。",
				{
					"type": "table",
					"caption": "Anomalous Quirk",
					"colLabels": [
						"{@dice d6}",
						"Quirk"
					],
					"colStyles": [
						"col-3 text-center",
						"col-9"
					],
					"rows": [
						[
							1,
							"当你醒来，做白日梦，或失去注意力时，你会听到周围许多声音发出的难以辨别的方言。"
						],
						[
							2,
							"星星偶尔看起来好像不在正确的位置上。也许还没有。"
						],
						[
							3,
							"你谈论现在的神明，好像他们是孩子一样。"
						],
						[
							4,
							"你对人形的大脑有兴趣。"
						],
						[
							5,
							"偶尔，当你在谈话中时，超现实的、长生不老的话语从你口中涌出。"
						],
						[
							6,
							"你把自己称为 \"我们 \"和 \"我们\"，而不是 \"我 \"和 \"我\"。"
						]
					]
				},
				{
					"type": "table",
					"caption": "Anomalous Aspect Spells",
					"colLabels": [
						"Spell Level",
						"Spells"
					],
					"colStyles": [
						"col-3 text-center",
						"col-9"
					],
					"rows": [
						[
							"1st",
							"{@spell dissonant whispers}"
						],
						[
							"2nd",
							"{@spell detect thoughts}"
						],
						[
							"3rd",
							"{@spell clairvoyance}"
						],
						[
							"4th",
							"{@spell confusion}"
						],
						[
							"5th",
							"{@spell contact other plane}"
						],
						[
							"6th",
							"{@spell disintegrate}"
						]
					]
				},
				{
					"type": "refSubclassFeature",
					"subclassFeature": "Release the Anomaly|Atavist|Atavist|Anomalous|Atavist|3|Atavist"
				},
				{
					"type": "refSubclassFeature",
					"subclassFeature": "Awakened Mind|Atavist|Atavist|Anomalous|Atavist|3|Atavist"
				}
			]
		},
		{
			"name": "Release the Anomaly",
			"source": "Atavist",
			"className": "Atavist",
			"classSource": "Atavist",
			"subclassSource": "Atavist",
			"subclassShortName": "Anomalous",
			"page": 10,
			"level": 3,
			"header": 1,
			"entries": [
				"从你在3级时选择这个方面开始，你可以释放你体内的超自然影响。作为一个行动，你可以揭示出异常现象。触手从你的身体中喷涌而出，你的眼睛显示出无限的虚空，旧神的力量充满了你。异常点会在1分钟内保持暴露。当异常点被揭示时，你会获得以下好处。",
				{
					"type": "list",
					"items": [
						"你获得两个从你身体里长出的触手，10级时获得四个。作为一个额外的动作，你可以尝试在你15英尺范围内抓取与你的触手数量相等的生物。你可以通过使用两根触手抓取比你原来大一个体型的生物，而使用四根触手抓取比你大两个体型的生物。",
						"作为一个动作，你可以用你的触手挤压生物（%0%）。一个{@condition grappled}的生物必须做一个力量救赎动作（针对你的法术救赎DC），否则会受到{@dice 3d6}的打击伤害。你可以对挤压触手的伤害进行撕扯，影响所有被触手挤压的生物（%3%）。",
						"你立即获得临时命中率，并在你每个回合开始时再次获得与你智力修饰值相等的临时命中率。"
					]
				},
				"你拥有的使用次数等于你的智力修饰值，当你完成长时间的休息时，你会重新获得所有已消耗的使用。"
			]
		},
		{
			"name": "Awakened Mind",
			"source": "Atavist",
			"className": "Atavist",
			"classSource": "Atavist",
			"subclassSource": "Atavist",
			"subclassShortName": "Anomalous",
			"page": 10,
			"level": 3,
			"header": 1,
			"entries": [
				"同样在第三级，你可以与你周围30英尺内你能看到的任何生物进行心灵感应。你不需要与该生物共享一种语言，它就可以理解你的心灵感应，但该生物必须能够理解至少一种语言。该生物本身并不获得心灵感应，也不能做出相应的反应。"
			]
		},
		{
			"name": "Grasp of the Stars",
			"source": "Atavist",
			"className": "Atavist",
			"classSource": "Atavist",
			"subclassSource": "Atavist",
			"subclassShortName": "Anomalous",
			"page": 10,
			"level": 6,
			"header": 2,
			"entries": [
				"在6级的时候，你的触手的伤害在克服抵抗力和免疫力的时候算作魔法。此外，你可以将被你的触手抓住的任何数量的生物作为一个动作，向水平方向抛出与你的速度相等的距离。一个生物必须做一个灵巧的蓄力动作，否则就会落地（%0%）并受到（%1%）的击打伤害，你可以将其补到所有被抛出的生物的伤害中。如果你要把它扔到另一个生物身上，它也必须做一个灵巧的救命动作，否则会受到同样的伤害。"
			]
		},
		{
			"name": "Greater Anomaly",
			"source": "Atavist",
			"className": "Atavist",
			"classSource": "Atavist",
			"subclassSource": "Atavist",
			"subclassShortName": "Anomalous",
			"page": 10,
			"level": 10,
			"header": 2,
			"entries": [
				"从10级开始，你可以用你的触手抓取距离你30英尺的生物，你可以通过你的触手移动生物（%0%），每回合最多30英尺，不包括在你移动时拖着它们。"
			]
		},
		{
			"name": "To The Old Ones",
			"source": "Atavist",
			"className": "Atavist",
			"classSource": "Atavist",
			"subclassSource": "Atavist",
			"subclassShortName": "Anomalous",
			"page": 10,
			"level": 18,
			"header": 2,
			"entries": [
				"从18级开始，你可以吞噬一个在你至少一个触手旁死亡的生物的灵魂。如果你这样做，在当前的异常状态持续期间，你会获得一个额外的触手，你可以把你的脸变成那个生物的脸，或者作为一个动作回到你以前的脸，而且你知道那个生物生前知道的一切。"
			]
		}
	],
	"spell": [
		{
			"name": "Courageous Rebuttal",
			"level": 1,
			"school": "A",
			"time": [
				{
					"number": 1,
					"unit": "reaction",
					"condition": "which you take when a creature makes a melee attack against you"
				}
			],
			"range": {
				"type": "point",
				"distance": {
					"type": "feet",
					"amount": 10
				}
			},
			"duration": [
				{
					"type": "instant"
				}
			],
			"classes": {
				"fromClassList": [
					{
						"name": "Atavist",
						"source": "Atavist"
					}
				]
			},
			"entries": [
				"作为用于施放此法术的反应的一部分，你使用武器对攻击你的生物进行近战武器攻击，在他们的攻击结果被决定后。如果你击中了，目标会受到武器的正常伤害，而你会获得所受伤害的一半的临时命中率，持续时间最长为1分钟。"
			],
			"source": "Atavist",
			"page": 11,
			"components": {
				"s": true,
				"m": "a weapon"
			},
			"miscTags": [
				"THP"
			]
		},
		{
			"name": "Heart Sunder",
			"level": 1,
			"school": "N",
			"time": [
				{
					"number": 1,
					"unit": "bonus"
				}
			],
			"range": {
				"type": "point",
				"distance": {
					"type": "touch"
				}
			},
			"duration": [
				{
					"type": "instant"
				}
			],
			"classes": {
				"fromClassList": [
					{
						"name": "Atavist",
						"source": "Atavist"
					}
				]
			},
			"entries": [
				"你使你持有的近战武器渴求血液，打开一个生物的弱点。你在本回合用该武器进行的第一次攻击会在攻击卷上增加（%0%）。一旦命中，目标将受到攻击的正常效果，并且对目标进行的下一次武器伤害卷会自动最大化。"
			],
			"source": "Atavist",
			"page": 11,
			"components": {
				"s": true
			}
		},
		{
			"name": "Lesser Bloodsight",
			"level": 1,
			"school": "D",
			"time": [
				{
					"number": 1,
					"unit": "action"
				}
			],
			"range": {
				"type": "point",
				"distance": {
					"type": "feet",
					"amount": 30
				}
			},
			"duration": [
				{
					"type": "timed",
					"duration": {
						"type": "minute",
						"amount": 1,
						"upTo": true
					},
					"concentration": true
				}
			],
			"classes": {
				"fromClassList": [
					{
						"name": "Atavist",
						"source": "Atavist"
					}
				]
			},
			"entries": [
				"你的眼睛呈现出深红色的色调。在持续时间内，你可以看到法术范围内附近生物的生命力。当一个生物处于完全健康状态时，他们看起来非常正常，但当他们变得更加受伤时，一个红色的光环开始环绕他们。",
				"你可以注意到当一个生物的当前命中率低于他们的最大命中率时，以及他们最大命中率的一半。当一个生物低于它们的最大值时，它们会发出红色的光芒，并且可以在3英寸厚或更小的材料后面看到。一旦一个生物低于其最大值的一半，你甚至可以透过墙壁看到它们。"
			],
			"source": "Atavist",
			"page": 11,
			"components": {
				"s": true
			},
			"meta": {
				"ritual": true
			}
		},
		{
			"name": "Withering Necrosis",
			"level": 1,
			"school": "N",
			"time": [
				{
					"number": 1,
					"unit": "action"
				}
			],
			"range": {
				"type": "point",
				"distance": {
					"type": "touch"
				}
			},
			"duration": [
				{
					"type": "timed",
					"duration": {
						"type": "round",
						"amount": 1,
						"upTo": true
					}
				}
			],
			"classes": {
				"fromClassList": [
					{
						"name": "Atavist",
						"source": "Atavist"
					}
				]
			},
			"entries": [
				"你伸出你的手，试图大幅降低你抓住的生物的健康状况。对目标进行一次近战法术攻击。一旦命中，目标在下一回合开始时受到{@damage 5d6}坏死的伤害。"
			],
			"source": "Atavist",
			"page": 11,
			"components": {
				"s": true
			},
			"entriesHigherLevel": [
				{
					"type": "entries",
					"name": "At Higher Levels",
					"entries": [
						"当你使用二阶以上的法术槽施放此法术时，目标每超过一阶的法术槽就会受到额外的（%0%）伤害。"
					]
				}
			],
			"spellAttack": [
				"M"
			],
			"damageInflict": [
				"necrotic"
			]
		},
		{
			"name": "Cruorbat Call",
			"level": 2,
			"school": "C",
			"time": [
				{
					"number": 1,
					"unit": "minute"
				}
			],
			"range": {
				"type": "point",
				"distance": {
					"type": "feet",
					"amount": 10
				}
			},
			"duration": [
				{
					"type": "instant"
				}
			],
			"classes": {
				"fromClassList": [
					{
						"name": "Atavist",
						"source": "Atavist"
					}
				]
			},
			"entries": [
				"这个咒语创造了一个不死的熟人。从吸血鬼的叮咬中有机地创造出来的cruorbats，可以通过镜像形式的半身术短时间内被召唤出来。当你施展这个法术时，在范围内选择一具大型或小型蝙蝠的尸体。目标会变成一个（%0%），但只有适合其尸体的大小（统计数据可以在（%1%）的第33页找到）。",
				"在你的每个回合中，如果你制造的{@creature cruorbat|DAPC}在你60英尺范围内，你可以口头命令它。你决定它在下一回合将采取什么行动，以及在哪里移动，或者你可以发出一个一般性的命令，比如说守卫一个特定的房间或走廊。",
				"如果你不发出任何命令，（%0%）只对敌对的生物进行自我防御。一旦下达命令，{@creature cruorbat|DAPC}就会继续遵循它，直到完成任务。",
				"该生物在你的控制下持续24小时，之后它不再服从你给它的任何命令。要想再保持对该生物的控制24小时，你必须在当前的24小时结束前再次对该（%0%）施放此法术。这次使用这个法术，可以重新确认你对你用这个法术激发的（1%）的控制，而不是激发一个新的。"
			],
			"source": "Atavist",
			"page": 12,
			"components": {
				"v": true,
				"s": true,
				"m": "some fruit"
			},
			"miscTags": [
				"SMN"
			]
		},
		{
			"name": "Needle and Thread",
			"level": 2,
			"page": 12,
			"school": "V",
			"time": [
				{
					"number": 1,
					"unit": "action"
				}
			],
			"range": {
				"type": "point",
				"distance": {
					"type": "feet",
					"amount": 150
				}
			},
			"duration": [
				{
					"type": "instant"
				}
			],
			"classes": {
				"fromClassList": [
					{
						"name": "Atavist",
						"source": "Atavist"
					}
				]
			},
			"entries": [
				"在范围内选择一个有血的目标，他必须做一个宪法规定的蓄力动作。如果失败，它将受到{@damage 3d8}的穿刺伤害，并且它的血液会从它的身体上爆炸成三根尖锐的针，射向你所选择的生物或物体，针数越多越好，每个目标必须在原始目标的30英尺内。第二个目标必须做同样的救赎，如果失败，每根针会受到{@damage 1d8}的穿刺伤害，如果成功则不会受到任何伤害。如果第一个目标的蓄力成功，第一个目标只受到一半的穿刺伤害。"
			],
			"source": "Atavist",
			"components": {
				"s": true,
				"m": "a needle and thread"
			},
			"entriesHigherLevel": [
				{
					"type": "entries",
					"name": "At Higher Levels",
					"entries": [
						"当你使用3级以上的法术槽施放此法术时，第一个目标会受到{@damage 1d8}的额外伤害，并且每超过2级的法术槽就会多释放一根针。"
					]
				}
			],
			"damageInflict": [
				"piercing"
			],
			"savingThrow": [
				"constitution"
			]
		},
		{
			"name": "Polyphemus' Might",
			"level": 2,
			"school": "E",
			"time": [
				{
					"number": 1,
					"unit": "bonus"
				}
			],
			"range": {
				"type": "point",
				"distance": {
					"type": "feet",
					"amount": 30
				}
			},
			"duration": [
				{
					"type": "timed",
					"duration": {
						"type": "minute",
						"amount": 1,
						"upTo": true
					},
					"concentration": true
				}
			],
			"classes": {
				"fromClassList": [
					{
						"name": "Atavist",
						"source": "Atavist"
					}
				]
			},
			"entries": [
				"你在范围内给你选择的一个生物注入巨人之力的阴影。目标获得与你等级相当的临时命中率，当这些命中率持续时，他们在对{@condition charmed}或{@condition frightened}的救赎上有优势，并在近身攻击中掷出两次伤害骰子，选择较高的结果。"
			],
			"source": "Atavist",
			"page": 12,
			"components": {
				"s": true,
				"m": "a giant eye"
			}
		},
		{
			"name": "Coalesce Humors",
			"level": 3,
			"school": "C",
			"time": [
				{
					"number": 1,
					"unit": "minute"
				}
			],
			"range": {
				"type": "point",
				"distance": {
					"type": "feet",
					"amount": 90
				}
			},
			"duration": [
				{
					"type": "timed",
					"duration": {
						"type": "hour",
						"amount": 8
					},
					"concentration": true
				}
			],
			"classes": {
				"fromClassList": [
					{
						"name": "Atavist",
						"source": "Atavist"
					}
				]
			},
			"entries": [
				"在范围内选择一具带血的尸体或大量的血。你提取血液，使其活过来，从而在法术持续期间成为你控制下的（%0%）。",
				"凝聚的生物对你和你的同伴是友好的。它根据你的倡议行事，并有自己的行动。它服从你对它发出的任何口头命令。如果你没有发出任何命令，血色渗出物会防御敌对的生物，但除此之外没有任何行动。",
				"如果你的注意力被打破，血族并不会消失。相反，你会失去对血色敖包的控制，它变得对所有非敖包的生物有敌意，并可能进行攻击。不受控制的血色渗出物不能被你解除，在你凝聚它的8小时后它会消失。",
				"如果它的命中率降到0，它就会失去生命，并溅成一滩血，可以再一次为这个法术凝聚起来。统计资料可以在（%0%）的第44页找到。"
			],
			"source": "Atavist",
			"page": 12,
			"components": {
				"v": true,
				"s": true
			},
			"miscTags": [
				"SMN"
			]
		},
		{
			"name": "Redwood Expansion",
			"level": 3,
			"school": "T",
			"time": [
				{
					"number": 1,
					"unit": "action"
				}
			],
			"range": {
				"type": "point",
				"distance": {
					"type": "feet",
					"amount": 30
				}
			},
			"duration": [
				{
					"type": "timed",
					"duration": {
						"type": "minute",
						"amount": 1
					},
					"concentration": true
				}
			],
			"classes": {
				"fromClassList": [
					{
						"name": "Atavist",
						"source": "Atavist"
					}
				]
			},
			"entries": [
				"在持续时间内，你会使你选择的一个生物经历一次筋肉、骨骼、肌肉、器官的自发扩张；他们的整个身体。如果目标不愿意，它可以做一个 \"宪法测验\"，如果成功，就不会受到影响。该生物所穿戴和携带的所有东西都会随着它的尺寸改变。受影响的生物掉落的任何物品都会立即恢复到正常大小。",
				"目标的大小在所有维度上都翻了两番，其重量也乘以32。这种增长使它的尺寸增加了两个类别--例如从中型到巨型。如果没有足够的空间让目标体型翻倍，该生物就会在可用的空间内达到最大可能的体型。在法术结束之前，目标在力量检查和力量投掷方面也有优势，并且可以重掷一次骰子。目标的武器也会增长，以配合其新的尺寸。当这些武器被放大时，目标用它们进行的攻击会增加你的法术修改值作为额外伤害。"
			],
			"source": "Atavist",
			"page": 12,
			"components": {
				"s": true
			},
			"savingThrow": [
				"constitution"
			],
			"miscTags": [
				"ADV"
			]
		},
		{
			"name": "Aura of Decay",
			"level": 4,
			"school": "N",
			"time": [
				{
					"number": 1,
					"unit": "action"
				}
			],
			"range": {
				"type": "radius",
				"distance": {
					"type": "feet",
					"amount": 30
				}
			},
			"duration": [
				{
					"type": "timed",
					"duration": {
						"type": "minute",
						"amount": 10
					},
					"concentration": true
				}
			],
			"classes": {
				"fromClassList": [
					{
						"name": "Atavist",
						"source": "Atavist"
					}
				]
			},
			"entries": [
				"一个病态的光环从你的范围内散发出来。直到咒语结束，光环会以你为中心随你移动。每个首次进入该区域的敌对生物或在该区域内开始其回合的敌对生物，在进行死亡救赎时有劣势，并且必须进行宪法救赎，否则会受到{@damage 5d6}坏死的伤害。"
			],
			"source": "Atavist",
			"page": 13,
			"components": {
				"s": true
			},
			"damageInflict": [
				"necrotic"
			],
			"savingThrow": [
				"constitution"
			],
			"entriesHigherLevel": [
				{
					"type": "entries",
					"name": "At Higher Levels",
					"entries": [
						"当你使用五级以上的法术槽施展此法术时，每超过四级的法术槽，法术的半径就会增加15英尺。"
					]
				}
			]
		},
		{
			"name": "Exoscleroma",
			"level": 5,
			"school": "N",
			"time": [
				{
					"number": 1,
					"unit": "action"
				}
			],
			"range": {
				"type": "point",
				"distance": {
					"type": "touch"
				}
			},
			"duration": [
				{
					"type": "instant"
				}
			],
			"classes": {
				"fromClassList": [
					{
						"name": "Atavist",
						"source": "Atavist"
					}
				]
			},
			"entries": [
				"你触摸一个生物，该生物必须做一个宪法规定的拯救动作。一旦失败，他们就会被诅咒，他们的骨头会慢慢开始溶解并在皮肤下重新生长。这个咒语对那些对毒药伤害或（%0%）状况免疫的生物没有效果。在他们完成第一次长期休息后，他们会变成（%1%）。第二次之后，{@condition deafened}；第三次之后，{@condition restrained}；第四次，{@condition incapacitated}；第五次，{@condition paralyzed}；第六次，{@condition petrified}。",
				"一个生物要被治愈，必须被一个治疗法术或任何与他们所处的日进度相同级别或更高的恢复法术所治愈。一旦受法术影响的{@condition petrified}生物过了三天，只有9级的魔法才能治愈他们。"
			],
			"source": "Atavist",
			"page": 13,
			"components": {
				"s": true
			},
			"miscTags": [
				"PRM"
			]
		},
		{
			"name": "Exsanguinate",
			"level": 5,
			"school": "N",
			"time": [
				{
					"number": 1,
					"unit": "action"
				}
			],
			"range": {
				"type": "point",
				"distance": {
					"type": "feet",
					"amount": 120
				}
			},
			"duration": [
				{
					"type": "timed",
					"duration": {
						"type": "round",
						"amount": 1,
						"upTo": true
					}
				}
			],
			"classes": {
				"fromClassList": [
					{
						"name": "Atavist",
						"source": "Atavist"
					}
				]
			},
			"entries": [
				"在范围内选择一个有血的生物。他们必须做一个宪法救赎的动作。如果失败，他们一半的血会穿过他们的皮肤落到地面上，在他们周围10英尺范围内的困难地形上形成一个水坑，他们会受到{@damage 10d10}的坏死伤害，并且他们会变成{@condition incapacitated}，直到他们下一个回合结束。"
			],
			"source": "Atavist",
			"page": 14,
			"components": {
				"s": true
			},
			"damageInflict": [
				"necrotic"
			],
			"savingThrow": [
				"constitution"
			]
		},
		{
			"name": "Haemorrhaging Rupture",
			"level": 6,
			"school": "E",
			"time": [
				{
					"number": 1,
					"unit": "action"
				}
			],
			"range": {
				"type": "point",
				"distance": {
					"type": "feet",
					"amount": 60
				}
			},
			"duration": [
				{
					"type": "timed",
					"duration": {
						"type": "minute",
						"amount": 1
					}
				}
			],
			"classes": {
				"fromClassList": [
					{
						"name": "Atavist",
						"source": "Atavist"
					}
				]
			},
			"entries": [
				"你瞬间撕裂范围内你选择的一个生物的血管，该生物必须做出宪法规定的蓄力动作。如果失败，在持续时间内，他们每移动5英尺，最多60英尺，就会因为失血而损失{@dice 2d12}的命中率，如果成功则损失一半，因为他们的血液会通过皮肤涌出体外，就像杯子里的水溢出一样。即使他们是在违背自己意愿的情况下被移动，他们也会受到这种伤害。在其每个回合结束时，目标可以再做一次宪法救赎。对于任何成功，咒语都会结束。"
			],
			"source": "Atavist",
			"page": 14,
			"components": {
				"s": true
			},
			"savingThrow": [
				"constitution"
			]
		},
		{
			"name": "Eternal Blood",
			"level": 7,
			"school": "A",
			"time": [
				{
					"number": 1,
					"unit": "minute"
				}
			],
			"range": {
				"type": "point",
				"distance": {
					"type": "touch"
				}
			},
			"duration": [
				{
					"type": "timed",
					"duration": {
						"type": "hour",
						"amount": 8
					}
				}
			],
			"classes": {
				"fromClassList": [
					{
						"name": "Atavist",
						"source": "Atavist"
					}
				]
			},
			"entries": [
				"你触碰一个生物并赋予它对死亡的短暂支配权。如果一个生物在此法术的作用下死亡，他们会在1分钟后从他们的遗体中复活，如果没有遗体，则从他们的死亡地点复活。"
			],
			"source": "Atavist",
			"page": 14,
			"components": {
				"s": true
			}
		},
		{
			"name": "Greater Withering",
			"level": 7,
			"school": "N",
			"time": [
				{
					"number": 1,
					"unit": "action"
				}
			],
			"range": {
				"type": "point",
				"distance": {
					"type": "touch"
				}
			},
			"duration": [
				{
					"type": "instant"
				}
			],
			"classes": {
				"fromClassList": [
					{
						"name": "Atavist",
						"source": "Atavist"
					}
				]
			},
			"entries": [
				"你所接触的生物必须做一个体质救赎动作，否则就会受到一个活生生的大枯萎诅咒的折磨。如果救赎失败，他们会立即和在每次长时间休息结束时，从他们的力量和体质得分中损失1分。如果这两项得分低于4分，他们就不能移动，如果这两项得分低于1分，他们就会死亡。",
				"这个诅咒只能由七级以上的法术解除，比如七级的（%0%）或（%1%）。"
			],
			"source": "Atavist",
			"page": 14,
			"components": {
				"s": true
			},
			"miscTags": [
				"PRM"
			]
		},
		{
			"name": "Marrowmelt",
			"level": 7,
			"school": "T",
			"time": [
				{
					"number": 1,
					"unit": "action"
				}
			],
			"range": {
				"type": "point",
				"distance": {
					"type": "feet",
					"amount": 90
				}
			},
			"duration": [
				{
					"type": "instant"
				}
			],
			"classes": {
				"fromClassList": [
					{
						"name": "Atavist",
						"source": "Atavist"
					}
				]
			},
			"entries": [
				"你打了个响指，试图使范围内有脊椎的生物的脊椎断成两半，然后融化成骨髓。被选择的目标必须做一个宪法规定的蓄力动作。如果失败，他们会被永久地（%0%）。",
				"这种麻痹只能由9级的（%0%）法术治愈。"
			],
			"source": "Atavist",
			"page": 14,
			"components": {
				"s": true
			},
			"savingThrow": [
				"constitution"
			],
			"miscTags": [
				"PRM"
			]
		}
	],
	"subclass": [
		{
			"name": "Bloodied Aspect",
			"source": "Atavist",
			"shortName": "Bloodied",
			"page": 5,
			"subclassSpells": [
				"lesser bloodsight|atavist",
				"needle and thread|atavist",
				"redwood expansion|atavist",
				"death ward",
				"exsanguinate|atavist",
				"haemorrhaging rupture|atavist"
			],
			"subclassFeatures": [
				"Bloodied Aspect|Atavist|Atavist|Bloodied|Atavist|3",
				"Maiming Aura|Atavist|Atavist|Bloodied|Atavist|6",
				"Deathbound Vitality|Atavist|Atavist|Bloodied|Atavist|10",
				"Rage, Rage Against the Dying|Atavist|Atavist|Bloodied|Atavist|18"
			],
			"className": "Atavist",
			"classSource": "Atavist"
		},
		{
			"name": "Murderous Aspect",
			"source": "Atavist",
			"shortName": "Murderous",
			"page": 6,
			"subclassSpells": [
				"withering necrosis|atavist",
				"pass without trace",
				"counterspell",
				"locate creature",
				"steel wind strike|xge",
				"true seeing"
			],
			"subclassFeatures": [
				"Murderous Aspect|Atavist|Atavist|Murderous|Atavist|3",
				"Skirmisher|Atavist|Atavist|Murderous|Atavist|6",
				"Cruorbent Accuracy|Atavist|Atavist|Murderous|Atavist|10",
				"Life for Life, Blood for Blood|Atavist|Atavist|Murderous|Atavist|18"
			],
			"className": "Atavist",
			"classSource": "Atavist"
		},
		{
			"name": "Demonic Aspect",
			"source": "Atavist",
			"shortName": "Demonic",
			"page": 7,
			"subclassSpells": [
				"chaos bolt|xge",
				"darkness",
				"summon lesser demons|xge",
				"summon greater demon|xge",
				"immolation|xge",
				"Eyebite"
			],
			"subclassFeatures": [
				"Demonic Aspect|Atavist|Atavist|Demonic|Atavist|3",
				"Hellfire of the Abyss|Atavist|Atavist|Demonic|Atavist|6",
				"Archdemon's Pyre|Atavist|Atavist|Demonic|Atavist|10",
				"Avatar of a Demon Prince|Atavist|Atavist|Demonic|Atavist|18"
			],
			"className": "Atavist",
			"classSource": "Atavist"
		},
		{
			"name": "Heavenly Aspect",
			"source": "Atavist",
			"shortName": "Heavenly",
			"page": 8,
			"subclassSpells": [
				"bless",
				"lesser restoration",
				"revivify",
				"guardian of faith",
				"commune",
				"blade barrier"
			],
			"subclassFeatures": [
				"Heavenly Aspect|Atavist|Atavist|Heavenly|Atavist|3",
				"Shared Burden|Atavist|Atavist|Heavenly|Atavist|6",
				"Celestial Ascendance|Atavist|Atavist|Heavenly|Atavist|10",
				"Sound the Horns of Meriton|Atavist|Atavist|Heavenly|Atavist|18"
			],
			"className": "Atavist",
			"classSource": "Atavist"
		},
		{
			"name": "Cruorwrought Aspect",
			"source": "Atavist",
			"shortName": "Cruorwrought",
			"page": 9,
			"subclassSpells": [
				"heart sunder|atavist",
				"hold person",
				"life transferance|xge",
				"polymorph",
				"dominate person",
				"haemorrhaging rupture|atavist"
			],
			"subclassFeatures": [
				"Cruorwrought Aspect|Atavist|Atavist|Cruorwrought|Atavist|3",
				"Hearteater|Atavist|Atavist|Cruorwrought|Atavist|6",
				"Rebuttal of Body|Atavist|Atavist|Cruorwrought|Atavist|10",
				"Call Godslayer|Atavist|Atavist|Cruorwrought|Atavist|18"
			],
			"className": "Atavist",
			"classSource": "Atavist"
		},
		{
			"name": "Anomalous Aspect",
			"source": "Atavist",
			"shortName": "Anomalous",
			"page": 8,
			"subclassSpells": [
				"dissonant whispers",
				"detect thoughts",
				"clairvoyance",
				"confusion",
				"contact other plane",
				"disintegrate"
			],
			"subclassFeatures": [
				"Anomalous Aspect|Atavist|Atavist|Anomalous|Atavist|3",
				"Grasp of the Stars|Atavist|Atavist|Anomalous|Atavist|6",
				"Greater Anomaly|Atavist|Atavist|Anomalous|Atavist|10",
				"To The Old Ones|Atavist|Atavist|Anomalous|Atavist|18"
			],
			"className": "Atavist",
			"classSource": "Atavist"
		}
	]
}
