{
	"_meta": {
		"sources": [
			{
				"json": "NMD",
				"abbreviation": "NMD",
				"full": "The Nomad: A Class for Planar Travelers",
				"authors": [
					"Vincent Girgenti (u/SubjectiveSloth)"
				],
				"convertedBy": [
					"Lyra [he/him]"
				],
				"version": "2.1",
				"color": "d0b5ef",
				"url": "https://www.gmbinder.com/share/-LBS9acGhZ4KbKb5m8hj",
				"dateReleased": "2018-09-05"
			}
		],
		"optionalFeatureTypes": {
			"NMD:WA": "Nomad: Weapon Art",
			"NMD:EA": "Nomad: Elemental Affinity",
			"NMD:PC": "Nomad: Planar Collision"
		},
		"status": "ready",
		"dateAdded": 1661773477,
		"dateLastModified": 1705266948,
		"_dateLastModifiedHash": "de180ecf94"
	},
	"class": [
		{
			"name": "Nomad",
			"source": "NMD",
			"hd": {
				"number": 1,
				"faces": 8
			},
			"proficiency": [
				"str",
				"wis"
			],
			"startingProficiencies": {
				"armor": [
					"light",
					"medium"
				],
				"weapons": [
					"simple",
					"martial"
				],
				"tools": [
					"{@item Cartographer's Tools|PHB}"
				],
				"skills": [
					{
						"choose": {
							"count": 2,
							"from": [
								"acrobatics",
								"arcana",
								"history",
								"nature",
								"perception",
								"survival"
							]
						}
					}
				]
			},
			"startingEquipment": {
				"default": [
					"(a) {@item scale mail|phb} or (b) {@item leather armor|phb}",
					"(a) a {@item rapier|phb} or (b) {@item longsword|PHB}",
					"(a) 2 {@item dagger|PHB|daggers} or (b) {@filter any simple or martial weapon|items|source=|type=!futuristic;martial weapon;!modern;!renaissance;simple weapon;!treasure|rarity=none}",
					"(a) an {@item explorer's pack|phb} or (b) {@item dungeoneer's pack|phb}"
				],
				"additionalFromBackground": true,
				"defaultData": [
					{
						"a": [
							"scale mail|phb"
						],
						"b": [
							"leather armor|phb"
						]
					},
					{
						"a": [
							"rapier|phb"
						],
						"b": [
							"longsword|phb"
						]
					},
					{
						"a": [
							"dagger|phb",
							"dagger|phb"
						],
						"b": [
							{
								"equipmentType": "weapon"
							}
						]
					},
					{
						"a": [
							"explorer's pack|phb"
						],
						"b": [
							"dungeoneer's pack|phb"
						]
					}
				]
			},
			"classFeatures": [
				"Far Strike|Nomad|NMD|1|NMD",
				"Traveller's Sense|Nomad|NMD|1|NMD",
				"Portal Arts|Nomad|NMD|2|NMD",
				"Weapon Art|Nomad|NMD|2|NMD",
				{
					"classFeature": "Planar Link|Nomad|NMD|3",
					"gainSubclassFeature": true
				},
				"Ability Score Improvement|Nomad|NMD|4|NMD",
				"Extra Attack|Nomad|NMD|5|NMD",
				"Portal Art: Blink Strike|Nomad|NMD|6|NMD",
				{
					"classFeature": "Planar Link feature|Nomad|NMD|7",
					"gainSubclassFeature": true
				},
				"Ability Score Improvement|Nomad|NMD|8|NMD",
				"Planar Travel|Nomad|NMD|9|NMD",
				{
					"classFeature": "Planar Link feature|Nomad|NMD|10",
					"gainSubclassFeature": true
				},
				"Split Strike|Nomad|NMD|11|NMD",
				"Far Strike Improvement|Nomad|NMD|11|NMD",
				"Ability Score Improvement|Nomad|NMD|12|NMD",
				"Portal Art: Falling Dodge|Nomad|NMD|13|NMD",
				{
					"classFeature": "Planar Link feature|Nomad|NMD|14",
					"gainSubclassFeature": true
				},
				"Planar Rejuvenation|Nomad|NMD|15|NMD",
				"Ability Score Improvement|Nomad|NMD|16|NMD",
				"Nomadic Jaunt|Nomad|NMD|17|NMD",
				"Far Strike Improvement|Nomad|NMD|18|NMD",
				"Ability Score Improvement|Nomad|NMD|19|NMD",
				"Interplanar Gateway|Nomad|NMD|20|NMD"
			],
			"subclassTitle": "Planar Link",
			"fluff": [
				{
					"type": "section",
					"source": "NMD",
					"name": "Nomad",
					"page": 1,
					"entries": [
						"一个年轻女孩从火焰中跃出，她闪亮的银发在火光下与她赭色的皮肤形成鲜明对比。她把匕首迅速扔向面前的邪教徒，但匕首刚离开她的手就在一束光中消失了。敌人向她走来，然后发出一声凄厉的呻吟，倒在了地上。一把小匕首从他的背部中央伸出来。",
						"一个精灵老人站在一个极高的悬崖峭壁上，他干裂的眼镜低垂在他枯萎的鼻子上。他凝视着远方，那是一片明亮而美丽的荒野，由青翠的山脉和山谷组成，并有两个巨大的石头浮岛作为点缀。他自嘲地笑了笑，只是微微一笑，然后他的视线就被一道闪光所阻挡，在他面前出现了一个旋转着的颜色盘。",
						"游牧民族是平面旅行者、猎人、追踪者、流浪者和探险家。他们是穿越星球的专家，他们的漫游欲永远不会满足，他们的旅程是无止境的。",
						{
							"type": "entries",
							"name": "An Unending Journey",
							"page": 1,
							"entries": [
								"游牧民族的生活是一个发现和冒险的过程，追逐一个被称为 \"旅程 \"的概念。这是大多数游牧民族的最终目标，是体验生存的每一个方面的目标。游牧者在旅行中追求沿途发生的所有事情，吸收和享受所有的生活经验。",
								"有些人选择组织和参加大型聚会，一起穿越平面，寻找人际关系的经验。其他人则享受个人旅程的孤独，选择独自探索宇宙的无限可能性。",
								"游牧民族一般很难在一个地方安顿太久，即使他们的岁月已经接近尾声。在他们去世之前结束旅程，对大多数人来说根本不可能，这就是游牧人的雄心壮志。"
							]
						},
						{
							"type": "entries",
							"name": "A Peculiar Attraction",
							"page": 1,
							"entries": [
								"那些旅行的人发现自己被一个或另一个星球的某些方面所吸引。随着时间和距离的推移，这种吸引力，或者说联系，越来越强，吸引着游牧者的思想回到他们可能不理解的原因。这种联系吸引着一个人灵魂深处的某些方面，并将其与平面捆绑在一起，在旅行者的脑海中固定了平面和它们的异世界力量的永久表现。",
								"研究这些星球的人理论上认为，一种类似于地球构造变化的力量发生在这些星球之间，产生了强大的魔法。这种魔法具有类似于大智慧的东西，可以 \"看到 \"它所影响的生物。从这些理论中，一些游牧民族产生了一种崇拜，他们认为自己是大轮回本身这一超自然存在的小赞助者，尽管不是所有人都相信这个故事。",
								"游牧民族形成的联系可能是他们期望或立即感受到的有形选择，也可能是一个人只短暂经过的飞机在他们的头脑中留下了微妙的印象。"
							]
						},
						{
							"type": "entries",
							"name": "Creating a Nomad",
							"page": 2,
							"entries": [
								"在创造你的游牧民族角色时，考虑是什么让他们一开始就开始了 \"旅程\"，以及他们为什么继续追求。你的父亲或母亲在他们的旅行中是否带着你？你是否听说过一些关于远方飞机的奇幻故事？还是你只是对材料的平凡琐碎感到厌烦？",
								"你在旅途中都做了些什么？是否有一个危险的冲刺，穿过潘德蒙和九层地狱？在拜托邦的平静漫步让你重新思考你的动机？甚至有可能是在外星最著名的酒馆中的旋风式狂欢？",
								"你的平面链接对你有什么影响？也许你发现自己与一个可怕的邪恶位面有联系，尽管你是个隐居的年轻人，它引出了你曾经遗忘的黑暗思想？或者你真的与你的平面联系在一起，并经常与自己争论是否要留在那里，只是把它抛在脑后？",
								"平面和游牧民族的巨大多样性意味着他们可以陷入任何排列组合或平面联系，尽管大多数见过善、恶、法律和混乱等极端情况的人更愿意保持中立。"
							]
						},
						{
							"type": "entries",
							"name": "Quick Build",
							"page": 2,
							"entries": [
								"遵循这些建议，你可以迅速成为一名游牧民。首先，力量或灵巧应该是你的最高能力得分，其次是智慧。第二，选择（%0%）的背景。"
							]
						}
					]
				}
			]
		}
	],
	"subclass": [
		{
			"name": "The Astral Plane",
			"shortName": "Astral",
			"source": "NMD",
			"className": "Nomad",
			"classSource": "NMD",
			"page": 7,
			"subclassFeatures": [
				"The Astral Plane|Nomad|NMD|Astral|NMD|3|NMD",
				"Distant Grip|Nomad|NMD|Astral|NMD|7|NMD",
				"Portal Art: Redirection Shield|Nomad|NMD|Astral|NMD|10|NMD",
				"Master of Portals|Nomad|NMD|Astral|NMD|14|NMD"
			]
		},
		{
			"name": "The Elemental Planes",
			"shortName": "Elemental",
			"source": "NMD",
			"className": "Nomad",
			"classSource": "NMD",
			"page": 5,
			"subclassFeatures": [
				"The Elemental Planes|Nomad|NMD|Elemental|NMD|3|NMD",
				"Elemental Affinity|Nomad|NMD|Elemental|NMD|7|NMD",
				"Portal Art: Elemental Allies|Nomad|NMD|Elemental|NMD|10|NMD",
				"Planar Collision|Nomad|NMD|Elemental|NMD|14|NMD"
			]
		},
		{
			"name": "The Far Realm",
			"shortName": "Far Realm",
			"source": "NMD",
			"className": "Nomad",
			"classSource": "NMD",
			"page": 6,
			"subclassFeatures": [
				"The Far Realm|Nomad|NMD|Far Realm|NMD|3|NMD",
				"Portal Art: Madness of The Infinite Void|Nomad|NMD|Far Realm|NMD|7|NMD",
				"Insatiable Hunger|Nomad|NMD|Far Realm|NMD|10|NMD",
				"Eldritch Truth|Nomad|NMD|Far Realm|NMD|14|NMD"
			]
		}
	],
	"classFeature": [
		{
			"name": "Far Strike",
			"source": "NMD",
			"page": 2,
			"className": "Nomad",
			"classSource": "NMD",
			"level": 1,
			"entries": [
				"作为一个游牧民族，你是一个小型传送门的大师，并且可以使用它们来增强你的战斗能力。在1级的时候，当你在你的回合中使用缺乏伸手属性的近战武器进行{@action Attack}行动时，你的武器的伸手范围会变成10英尺，直到你的回合结束，因为你会变出一个短距离的传送门，你的武器在挥动中会通过这个传送门。以这种方式进行的攻击不会忽略掩体，并且要求目标是可见的。这个技巧要求你的一只手可以自由地创造门户。",
				"你的远距离攻击范围在你达到11级时增加到20英尺，在你达到18级时增加到30英尺。"
			]
		},
		{
			"name": "Traveller's Sense",
			"source": "NMD",
			"page": 2,
			"className": "Nomad",
			"classSource": "NMD",
			"level": 1,
			"entries": [
				"不管是哪种飞机，你都是一个经验丰富的旅行者。在1级时，你会获得以下好处。",
				{
					"type": "list",
					"page": 2,
					"items": [
						"你总是知道哪条路是北方",
						"即使你在旅行中从事另一项活动（如觅食、导航或追踪），你仍然对危险保持警惕。",
						"你可以准确地判断自己和你能看到的任何其他点之间的距离，而不需要地图或刻度。",
						"在旅行时，你有（%0%）的体质救赎能力来抵抗（%1%）。"
					]
				}
			]
		},
		{
			"name": "Portal Arts",
			"source": "NMD",
			"page": 3,
			"className": "Nomad",
			"classSource": "NMD",
			"level": 2,
			"entries": [
				"在第2级时，你学会以深思熟虑和独特的方式利用你的传送门。你从一个简单的传送门艺术开始。随着你等级的提高，你将获得更多的传送门艺术选项。",
				"当你使用你的传送门艺术时，你可以选择你创造的效果。你对这些艺术的使用次数等于你的智慧修正值。当你完成一个{@quickref resting|PHB|2|0|short or long rest}时，所有消耗的使用次数都会恢复。",
				"你的传送门艺术取决于你的智慧，以及你对这些效果所来自的星球的了解。",
				"有些传送门艺术需要一个蓄力动作。当你使用这个等级的这种效果时，DC的计算方法如下。",
				{
					"type": "abilityDc",
					"name": "Portal Art",
					"attributes": [
						"wis"
					]
				},
				{
					"type": "entries",
					"name": "Portal Art: Portal",
					"page": 3,
					"entries": [
						"作为你回合中的一个行动，你消耗你的传送门艺术的一个使用权来创造链接的传送门，这些传送门保持开放长达1分钟，直到4个生物或物体通过它们，或者直到你选择关闭它们作为一个奖励行动。在你能看到的地面上选择两个无人的空间，一个在你周围5英尺内，另一个在你周围30英尺内。每个点上都会打开一个传送门。这些传送门是发光的、长方形的、盘旋在离地面几英寸的地方并与之垂直的球体。充满每个传送门的雾气是不透明的，通过它可以阻挡视线。",
						"任何中等或较小的生物或物体进入传送门占据的空间，都会从另一个传送门出来，就像两者是同一个空间一样。例如，如果一支箭从东边进入传送门，它将从西边出来，就像它穿过任何其他空的空间一样。被迫进入传送门空间的生物可以做一个灵巧的蓄力动作来抵制通过它，如果蓄力成功，就会出现在与传送门相邻的最近的无人空间。",
						"第二个传送门的范围在11级时增加到60英尺，17级时增加到120英尺。"
					]
				}
			]
		},
		{
			"name": "Weapon Art",
			"source": "NMD",
			"page": 3,
			"className": "Nomad",
			"classSource": "NMD",
			"level": 2,
			"entries": [
				"在2级的时候，你已经用一种特定风格的武器进行了大量的训练和旅行，围绕它的使用发展了你的技能。从以下选项中选择一个。",
				{
					"type": "options",
					"count": 1,
					"style": "list-hang-notitle",
					"entries": [
						{
							"type": "refOptionalfeature",
							"optionalfeature": "Wormhole Sniping|NMD"
						},
						{
							"type": "refOptionalfeature",
							"optionalfeature": "Planar Piercing|NMD"
						},
						{
							"type": "refOptionalfeature",
							"optionalfeature": "Two-Hand Warping|NMD"
						},
						{
							"type": "refOptionalfeature",
							"optionalfeature": "Port Retrieving|NMD"
						}
					]
				}
			]
		},
		{
			"name": "Planar Link",
			"source": "NMD",
			"page": 3,
			"className": "Nomad",
			"classSource": "NMD",
			"level": 3,
			"entries": [
				"游牧民族是旅行者，他们经常在生活中穿越各种形式的平面和半平面。不过，和物质的旅行者一样，他们的内心总是与某个位面保持着某种联系。在第三层，你已经在旅行中成熟到足以建立起一种神奇的个人联系。在多元宇宙中显然有许多平面和区域。在这个等级描述的结尾处介绍的一些常见的平面链接是（%0%）、（%1%）和（%2%）。",
				"你的 \"平面链接 \"在3级时授予你特性，并在7级、10级和14级时再次授予你特性。"
			]
		},
		{
			"name": "Ability Score Improvement",
			"source": "NMD",
			"page": 3,
			"className": "Nomad",
			"classSource": "NMD",
			"level": 4,
			"entries": [
				"当你达到4级时，以及在8级、12级、16级和19级时，你可以将你选择的一项能力得分提高2分，或者将你选择的两项能力得分提高1分。",
				"如果你的DM允许使用特技，你可以改用{@5etools feat|feats.html}。"
			]
		},
		{
			"name": "Extra Attack",
			"source": "NMD",
			"page": 3,
			"className": "Nomad",
			"classSource": "NMD",
			"level": 5,
			"entries": [
				"从5级开始，每当你在你的回合中采取{@action Attack}行动时，你可以攻击两次，而不是一次。"
			]
		},
		{
			"name": "Portal Art: Blink Strike",
			"source": "NMD",
			"page": 3,
			"className": "Nomad",
			"classSource": "NMD",
			"level": 6,
			"entries": [
				"在6级时，你的反射能力得到发展，允许你跳过你创造的传送门（%0%）。当你用近战攻击击中一个生物时，你可以消耗一次你的传送门术，跳过你的武器周围创造的传送门，出现在目标5英尺内的一个无人空间。如果是用远程武器攻击，你可以选择在攻击后向任何方向移动到你的（%2%）范围。"
			]
		},
		{
			"name": "Planar Link feature",
			"source": "NMD",
			"page": 3,
			"className": "Nomad",
			"classSource": "NMD",
			"level": 7,
			"entries": [
				"在第七级时，你获得一个由你的平面链接赋予你的功能。"
			]
		},
		{
			"name": "Ability Score Improvement",
			"source": "NMD",
			"page": 3,
			"className": "Nomad",
			"classSource": "NMD",
			"level": 8,
			"entries": [
				"当你达到8级时，你可以将你选择的一项能力得分提高2分，或者将你选择的两项能力得分提高1分。",
				"如果你的DM允许使用特技，你可以改用{@5etools feat|feats.html}。"
			]
		},
		{
			"name": "Planar Travel",
			"source": "NMD",
			"page": 3,
			"className": "Nomad",
			"classSource": "NMD",
			"level": 9,
			"entries": [
				"在9级时，你不再需要寻找星际传送门。作为你回合中的一个行动，你建立一个星际链接。你打开一个传送门到一个你曾经去过的平面上的一个位置，并记住在你周围5英尺内的一个无人空间。传送门的目的地必须是在你目前不在的平面上，而且通过传送门可以看到它。",
				"入口足够大，中型或小型生物可以轻易通过。被迫进入传送门的生物可以做一个灵巧的蓄力动作来避免通过。如果拯救成功，该生物会出现在传送门附近的一个无人空间。否则，他们就会被送进传送门并到达目的地。传送门在1分钟内保持开放，或者直到你在你的回合中以额外行动关闭它。",
				"一旦你使用这个功能，你就不能再使用它，直到你完成一个（%0%）。"
			]
		},
		{
			"name": "Planar Link feature",
			"source": "NMD",
			"page": 3,
			"className": "Nomad",
			"classSource": "NMD",
			"level": 10,
			"entries": [
				"在10级时，你获得一个由你的平面链接赋予你的功能。"
			]
		},
		{
			"name": "Far Strike Improvement",
			"source": "NMD",
			"page": 2,
			"className": "Nomad",
			"classSource": "NMD",
			"level": 11,
			"entries": [
				"当你达到11级时，你的（%0%）范围增加到20英尺。"
			]
		},
		{
			"name": "Split Strike",
			"source": "NMD",
			"page": 4,
			"className": "Nomad",
			"classSource": "NMD",
			"level": 11,
			"entries": [
				"到11级时，你已经学会了创造具有多个出口的特殊传送门。在你的回合中，你可以在采取{@action Attack}行动时，用你的{@classFeature Far Strike|Nomad|NMD|1|NMD}攻击中的一个目标攻击第二个生物。攻击的两个目标都使用相同的、单一的攻击卷。"
			]
		},
		{
			"name": "Ability Score Improvement",
			"source": "NMD",
			"page": 3,
			"className": "Nomad",
			"classSource": "NMD",
			"level": 12,
			"entries": [
				"当你达到12级时，你可以将你选择的一项能力得分提高2分，或者将你选择的两项能力得分提高1分。",
				"如果你的DM允许使用特技，你可以改用{@5etools feat|feats.html}。"
			]
		},
		{
			"name": "Portal Art: Falling Dodge",
			"source": "NMD",
			"page": 4,
			"className": "Nomad",
			"classSource": "NMD",
			"level": 13,
			"entries": [
				"当你达到13级时，你学会了通过你脚下的一个快速传送门来逃离危险。作为反应，当你被攻击或效果锁定，并允许你做一个灵巧的救赎动作时，你可以消耗你的传送门术的一次使用，传送到一个你能看到的15英尺内的无人空间。如果你传送到该效果的范围之外，你就不再是该效果的目标。"
			]
		},
		{
			"name": "Planar Link feature",
			"source": "NMD",
			"page": 3,
			"className": "Nomad",
			"classSource": "NMD",
			"level": 14,
			"entries": [
				"在14级时，你获得一个由你的平面链接赋予你的功能。"
			]
		},
		{
			"name": "Planar Rejuvenation",
			"source": "NMD",
			"page": 3,
			"className": "Nomad",
			"classSource": "NMD",
			"level": 15,
			"entries": [
				"到15级时，只要有危险出现，你的平面力量的极限就会被延长。当你掷出主动权而你的传送门术没有剩余的使用次数时，你会重新获得一次使用。"
			]
		},
		{
			"name": "Ability Score Improvement",
			"source": "NMD",
			"page": 3,
			"className": "Nomad",
			"classSource": "NMD",
			"level": 16,
			"entries": [
				"当你达到16级时，你可以将你选择的一项能力得分提高2分，或者将你选择的两项能力得分提高1分。",
				"如果你的DM允许使用特技，你可以改用{@5etools feat|feats.html}。"
			]
		},
		{
			"name": "Nomadic Jaunt",
			"source": "NMD",
			"page": 4,
			"className": "Nomad",
			"classSource": "NMD",
			"level": 17,
			"entries": [
				"到了第17级，你几乎不需要走路了。在你的回合中，你可以消耗你一半的步行速度，以便传送同样的距离，出现在你能看到的无人的空间。"
			]
		},
		{
			"name": "Far Strike Improvement",
			"source": "NMD",
			"page": 2,
			"className": "Nomad",
			"classSource": "NMD",
			"level": 18,
			"entries": [
				"当你达到18级时，你的（%0%）范围增加到30英尺。"
			]
		},
		{
			"name": "Ability Score Improvement",
			"source": "NMD",
			"page": 3,
			"className": "Nomad",
			"classSource": "NMD",
			"level": 19,
			"entries": [
				"当你达到19级时，你可以将你选择的一项能力得分提高2分，或者将你选择的两项能力得分提高1分。",
				"如果你的DM允许使用特技，你可以改用{@5etools feat|feats.html}。"
			]
		},
		{
			"name": "Interplanar Gateway",
			"source": "NMD",
			"page": 4,
			"className": "Nomad",
			"classSource": "NMD",
			"level": 20,
			"entries": [
				"在20级时，你创造传送门的技能变得无与伦比，允许你创造足够稳定的传送门以经受时间的考验。通过4个小时的工作和400金币的材料，你可以创造一个足够大的永久性平面门，供中型或小型生物使用，如果是大型或小型生物，则需要双倍的时间和费用。你必须创造两个门才能在它们之间旅行。",
				"由该功能创造的门是由木头、金属或其他材料制成的圆形框架，用于容纳一个门，并在创造者不在时保持其稳定。如果框架以任何方式变得不完整，例如被烧毁、压碎或翻倒，传送门就会立即关闭。",
				"你在同一时间最多可以维护6个网关。每个通道只能与另一个通道相连，形成一个双向的传送门。任何能够适应传送门的生物在接触到它时都会穿越它。一个门户的传送门可以通过1分钟的仪式来停用，允许它们与另一个门户相连，或者干脆关闭一段时间。",
				"在使用网关时要谨慎。如果被不受欢迎的宇宙客人发现，他们可能会危及整个星球。"
			]
		}
	],
	"subclassFeature": [
		{
			"name": "The Astral Plane",
			"source": "NMD",
			"page": 7,
			"className": "Nomad",
			"classSource": "NMD",
			"subclassShortName": "Astral",
			"subclassSource": "NMD",
			"level": 3,
			"header": 1,
			"entries": [
				"星界以其巨大的力量拥抱着整个多元宇宙，保持着平衡，并允许在不同的星球之间旅行。所有的传送门都必须通过星界，而与星界有关的游牧者是最善于旅行的人。这些游牧民族利用他们对星界的了解，建立起他们的传送门铸造能力，超越了其他任何人。",
				{
					"type": "refSubclassFeature",
					"subclassFeature": "Portal Art: Shift|Nomad|NMD|Astral|NMD|3|NMD"
				},
				{
					"type": "refSubclassFeature",
					"subclassFeature": "Surprising Strike|Nomad|NMD|Astral|NMD|3|NMD"
				}
			]
		},
		{
			"name": "Portal Art: Shift",
			"source": "NMD",
			"page": 7,
			"className": "Nomad",
			"classSource": "NMD",
			"subclassShortName": "Astral",
			"subclassSource": "NMD",
			"level": 3,
			"header": 2,
			"entries": [
				"在3级时，当你选择这个链接时，你已经磨练了你的传送门形成的能力，能够快速地移动生物，而且几乎没有任何警告。作为你回合的额外行动，你可以强迫30英尺内你能看到的大型或小型生物做一个灵巧的救赎动作。如果救赎失败，该生物会被传送到你30英尺范围内你选择的一个无人空间。如果生物想被传送，它可以选择不做这个蓄力动作。这个传送的目的地不需要是在地面上。",
				"或者，你可以使用这个能力将盟友传送到这个传送门艺术最大距离的一半，作为该盟友生物的回合的反应。",
				"这个传送门艺术的最大范围在11级时增加到60英尺，当你达到17级时增加到90英尺。"
			]
		},
		{
			"name": "Surprising Strike",
			"source": "NMD",
			"page": 7,
			"className": "Nomad",
			"classSource": "NMD",
			"subclassShortName": "Astral",
			"subclassSource": "NMD",
			"level": 3,
			"header": 2,
			"entries": [
				"三级时，当你选择这个环节时，你已经开发了你用来攻击的传送门，允许它们意外地出现。作为一个额外的行动，你可以使你在本回合的下一次（%0%）攻击从你的敌人的盲点开始攻击。如果这个攻击的目标在另一个对它有敌意的生物的近战范围内，那么这个攻击有（%1%）。"
			]
		},
		{
			"name": "Distant Grip",
			"source": "NMD",
			"page": 7,
			"className": "Nomad",
			"classSource": "NMD",
			"subclassShortName": "Astral",
			"subclassSource": "NMD",
			"level": 7,
			"header": 1,
			"entries": [
				"你的传送门的稳定性足够强，可以承受其中的挣扎。当你达到第七级时，你可以尝试从远处对（%0%）的生物进行。",
				"作为你转身时的一个动作，你可以在你（%0%）的范围内创造一个特别稳定的传送门，并将你的手臂穿过它，试图（%1%）另一端的目标，就像你与它相邻一样。如果你成功地（%2%）了目标，你可以继续保持一分钟，或者直到你移动到目标的5英尺以内。你在任何时候都只能以这种方式拥有一个生物（%3%）。",
				"如果目标被迫向任何方向移动超过5英尺，目标就不再是（%0%）。"
			]
		},
		{
			"name": "Portal Art: Redirection Shield",
			"source": "NMD",
			"page": 7,
			"className": "Nomad",
			"classSource": "NMD",
			"subclassShortName": "Astral",
			"subclassSource": "NMD",
			"level": 10,
			"header": 1,
			"entries": [
				"10级时，你开发出一种独特的方法，利用敌人的攻击来对付他们。",
				"作为一个额外的动作，你消耗一次传送门艺术来创造一个传送门，在你附近盘旋并跟随你的行动。这个传送门可以持续1分钟之久。",
				"当你被一次不成功的近战武器攻击所瞄准时，你可以用你的反应将攻击转到这个入口。选择你周围30英尺内的一个生物，包括你的攻击者。该生物必须做一个灵巧的蓄力动作，蓄力失败则被攻击击中。"
			]
		},
		{
			"name": "Master of Portals",
			"source": "NMD",
			"page": 7,
			"className": "Nomad",
			"classSource": "NMD",
			"subclassShortName": "Astral",
			"subclassSource": "NMD",
			"level": 14,
			"header": 1,
			"entries": [
				"当你达到14级时，你可以维持比其他游牧民族多得多的传送门。你的传送门术的使用次数等于你的智慧修正值+2。"
			]
		},
		{
			"name": "The Elemental Planes",
			"source": "NMD",
			"page": 5,
			"className": "Nomad",
			"classSource": "NMD",
			"subclassShortName": "Elemental",
			"subclassSource": "NMD",
			"level": 3,
			"header": 1,
			"entries": [
				"你已经与一个或多个元素位面相联系，这是多元宇宙中元素力量的四个来源。也许它们简单纯粹的形式呼唤着你内心对简单的渴望，也许你火热的精神或流动的世界观在这些星球中找到了自己的家。无论如何，你已经积累了关于这些位面和它们最强大的位置的丰富知识，并且可以通过你的传送门来利用它们。",
				{
					"type": "refSubclassFeature",
					"subclassFeature": "Portal Art: Elemental Strikes|Nomad|NMD|Elemental|NMD|3|NMD"
				},
				{
					"type": "refSubclassFeature",
					"subclassFeature": "Touch of The Elements|Nomad|NMD|Elemental|NMD|3|NMD"
				}
			]
		},
		{
			"name": "Portal Art: Elemental Strikes",
			"source": "NMD",
			"page": 5,
			"className": "Nomad",
			"classSource": "NMD",
			"subclassShortName": "Elemental",
			"subclassSource": "NMD",
			"level": 3,
			"header": 2,
			"entries": [
				"在3级的时候，当你选择这个链接时，你开始使用你的传送门来带来元素界的力量。当你用{@classFeature Far Strike|Nomad|NMD|1|NMD}的攻击击中一个生物时，你可以消耗一次你的传送门术，在你的武器或导弹到达目标之前将其送入一个元素界。这次攻击会造成额外的{@damage 3d6}冷、火、闪电或毒伤害。",
				"这种伤害在11级时增加到{@damage 3d8}，在17级时增加到{@damage 3d10}。"
			]
		},
		{
			"name": "Touch of The Elements",
			"source": "NMD",
			"page": 5,
			"className": "Nomad",
			"classSource": "NMD",
			"subclassShortName": "Elemental",
			"subclassSource": "NMD",
			"level": 3,
			"header": 2,
			"entries": [
				"在3级时，当你选择这个链接时，你学会将元素力量滑入你的战斗能力。当你在你的回合中用{@classFeature Far Strike|Nomad|NMD|1|NMD}攻击击中一个生物时，你可以用你的额外行动通过传送门引导元素力量，使攻击造成额外的毒、火、冷或闪电伤害（你选择），其数值相当于你的智慧修正值。"
			]
		},
		{
			"name": "Elemental Affinity",
			"source": "NMD",
			"page": 5,
			"className": "Nomad",
			"classSource": "NMD",
			"subclassShortName": "Elemental",
			"subclassSource": "NMD",
			"level": 7,
			"header": 1,
			"entries": [
				"你在元素位面的时间使你的身体能够适应它们的恶劣环境。在第7级时，你选择一个你已经适应的平面，并获得其特征。",
				{
					"type": "options",
					"count": 1,
					"style": "list-hang-notitle",
					"entries": [
						{
							"type": "refOptionalfeature",
							"optionalfeature": "EA: Air|NMD"
						},
						{
							"type": "refOptionalfeature",
							"optionalfeature": "EA: Earth|NMD"
						},
						{
							"type": "refOptionalfeature",
							"optionalfeature": "EA: Fire|NMD"
						},
						{
							"type": "refOptionalfeature",
							"optionalfeature": "EA: Water|NMD"
						}
					]
				}
			]
		},
		{
			"name": "Portal Art: Elemental Allies",
			"source": "NMD",
			"page": 5,
			"className": "Nomad",
			"classSource": "NMD",
			"subclassShortName": "Elemental",
			"subclassSource": "NMD",
			"level": 10,
			"header": 1,
			"entries": [
				"当你达到10级时，你已经在元素界获得了足够的默契，可以请求{@filter mephits|bestiary|source=|miscellaneous=|search=mephit}，代表元素配对组合的小恶魔般的元素的帮助。在你的回合中，你可以使用你的传送门术，将最多两个（%1%）的元素召唤到你周围15英尺内的无人空间。你只能以这种方式召唤两个（%2%）。",
				"{@filter mephits|bestiary|source=|miscellaneous=|search=mephit}对你的同伴无动于衷，但把你看作是要服从的人。为他们掷出主动权，作为一个团体，有自己的回合。他们理解并服从你向他们发出的任何口头命令（不需要你采取行动）。如果你不向它们发出任何命令，它们就会保护自己不受敌对生物的伤害，但除此之外不采取任何行动。DM拥有（%1%）。",
				"{@filter mephits|bestiary|source=|miscellaneous=|search=mephit}在返回元素界之前最多保留1小时，你可以在你的回合中以行动方式解除一个或两个。"
			]
		},
		{
			"name": "Planar Collision",
			"source": "NMD",
			"page": 5,
			"className": "Nomad",
			"classSource": "NMD",
			"subclassShortName": "Elemental",
			"subclassSource": "NMD",
			"level": 14,
			"header": 1,
			"entries": [
				"到了14级，你的平面操纵能力达到了新的高度，使你能够召唤出与你结盟的元素强者的巨大表现。你可以在你的回合中以行动方式创造以下效果之一。抵抗这些效果的极限值等于你的传送门艺术的极限值。一旦你使用了这些能力，你就不能再使用这个功能，直到你完成一个（%0%）。",
				{
					"type": "options",
					"count": 1,
					"style": "list-hang-notitle",
					"entries": [
						{
							"type": "refOptionalfeature",
							"optionalfeature": "PC: Air|NMD"
						},
						{
							"type": "refOptionalfeature",
							"optionalfeature": "PC: Earth|NMD"
						},
						{
							"type": "refOptionalfeature",
							"optionalfeature": "PC: Fire|NMD"
						},
						{
							"type": "refOptionalfeature",
							"optionalfeature": "PC: Water|NMD"
						}
					]
				}
			]
		},
		{
			"name": "The Far Realm",
			"source": "NMD",
			"page": 6,
			"className": "Nomad",
			"classSource": "NMD",
			"subclassShortName": "Far Realm",
			"subclassSource": "NMD",
			"level": 3,
			"header": 1,
			"entries": [
				"星界之外的黑暗地带是一个连游牧民族都很少冒险的地方。无数不可知的恐怖潜伏在远界中，凡人不应该发现这些东西。空气像液态的铁一样浓稠，而且有永恒的味道。时间呈 \"之 \"字形流动，颜色都是错的。你曾在外面冒险，看到那些让神明相形见绌的人，以及让那些人相形见绌的人。无尽的黑色领域的广袤吸引着你的思想回到它可怕的深处，无论好坏，它都选择了你。",
				{
					"type": "refSubclassFeature",
					"subclassFeature": "Portal Art: Black Hole|Nomad|NMD|Far Realm|NMD|3|NMD"
				},
				{
					"type": "refSubclassFeature",
					"subclassFeature": "Deep Lash|Nomad|NMD|Far Realm|NMD|3|NMD"
				}
			]
		},
		{
			"name": "Deep Lash",
			"source": "NMD",
			"page": 6,
			"className": "Nomad",
			"classSource": "NMD",
			"subclassShortName": "Far Realm",
			"subclassSource": "NMD",
			"level": 3,
			"header": 2,
			"entries": [
				"在3级时，当你选择这个链接时，你对居住在远界的深邃而可怕的东西有一些了解。当你在你的回合中用{@classFeature Far Strike|Nomad|NMD|1|NMD}攻击击中一个中型或小型生物时，你可以使用你的额外行动从你的传送门中召唤出一个病态的、漆黑的附属物，试图移动你的目标。该生物必须对你的传送门艺术救赎DC做一个力量救赎。如果救赎失败，目标会被拉向任何方向，最多 5 英尺。"
			]
		},
		{
			"name": "Portal Art: Black Hole",
			"source": "NMD",
			"page": 6,
			"className": "Nomad",
			"classSource": "NMD",
			"subclassShortName": "Far Realm",
			"subclassSource": "NMD",
			"level": 3,
			"header": 2,
			"entries": [
				"远界本身就是一种无尽的饥渴。在3级时，当你选择这个链接时，你可以用这种饥饿感来协助你战斗。作为你回合中的一个行动，你消耗一次你的传送门术，在你周围60英尺内你能看到的无人空间中打开一个坚固的球形传送门。除你之外的所有大型或小型生物，如果在传送门的20英尺范围内开始他们的回合，必须成功地进行力量救赎，否则就会被拉向传送门，最多10英尺。在传送门5英尺范围内开始他们的回合的生物，如果他们的力量救赎失败，他们的速度会减半，直到他们当前回合结束。",
				"传送门在这个空间里最多停留1分钟，并且可以作为一个额外的动作被解除。你在任何时候都只能有一个黑洞活动。"
			]
		},
		{
			"name": "Portal Art: Madness of The Infinite Void",
			"source": "NMD",
			"page": 6,
			"className": "Nomad",
			"classSource": "NMD",
			"subclassShortName": "Far Realm",
			"subclassSource": "NMD",
			"level": 7,
			"header": 1,
			"entries": [
				"在第七级时，你重新发现了来自远界的一些特别可怕的景象的记忆。作为你回合中的一个行动，你消耗你的传送门术的一次使用，在你面前打开一个狭窄的传送门，面向你的一面是不透明的。在向外的一面，你展示了远界的一些难以理解的恐怖景象，这些景象可以让任何凡人发疯。",
				"在你面前60英尺范围内的敌对生物，如果能看到这个传送门，必须做一个智慧救赎动作。拯救失败时，生物会受到{@damage 4d6}的精神伤害，并在1分钟内成为你的{@condition frightened}，或者在拯救成功时，受到一半的伤害，但不会被{@condition frightened}。{@condition Frightened}的生物可以在他们每个回合结束时重复他们的救赎动作，成功时结束效果。"
			]
		},
		{
			"name": "Insatiable Hunger",
			"source": "NMD",
			"page": 6,
			"className": "Nomad",
			"classSource": "NMD",
			"subclassShortName": "Far Realm",
			"subclassSource": "NMD",
			"level": 10,
			"header": 1,
			"entries": [
				"在10级的时候，你在远方世界了解到一个更可怕的地方，作为你传送门艺术的来源。当你在你的回合中使用{@subclassFeature Portal Art: Black Hole|Nomad|NMD|Far Realm|NMD|3|NMD|Black Hole Portal Art}作为行动时，阴暗的、像触手一样的附属物从它那里伸出来，带着一些长生的灵性向附近的生物蠕动。",
				"在传送门5英尺范围内开始他们的回合的生物，如果他们的力量投掷失败，就会被触手所控制。在{@condition restrained}生物的每个回合开始时，触手的冰冷抓握使该生物受到相当于你熟练度加成的寒冷伤害。在受到这个伤害后，该生物可以重复它的救赎，在成功后结束这个效果。"
			]
		},
		{
			"name": "Eldritch Truth",
			"source": "NMD",
			"page": 6,
			"className": "Nomad",
			"classSource": "NMD",
			"subclassShortName": "Far Realm",
			"subclassSource": "NMD",
			"level": 14,
			"header": 1,
			"entries": [
				"远界的长生地拥有各种形式的知识，与许多事物有关。你记得某些东西，就好像它们还在你面前，而另一些则根本不记得，就好像它们被封存在你意识的远方。当你达到14级时，你可以尝试把这些知识召唤到你的头脑中。",
				"你可以进行一个4小时的仪式，试图回忆起来自远界的细节。在这个仪式结束时，掷出{@dice d20}。在掷出3或更低的分数时，你会受到{@damage 3d10}的精神伤害，因为你的头脑中充斥着难以解读的超自然知识。在掷出3到16的分数时，仪式结束，什么也没学到。在掷出16或更高的分数时，你会回忆起你在头脑中提出的两个问题的答案。这些问题可以与多元宇宙的本质、神灵、高等力量以及凡人与这些概念或生命的主要互动有关。",
				"例如，你可以了解到一个大恶魔和一个杰出的凡人之间存在的交易，物质界的一个重要门户的下落，或者一个半神如何获得其力量的本质。",
				"然而，你对《远界》知识的经验并不是无限的。你的问题的答案可能是未知的，甚至是不可知的，这取决于其主题。",
				"一旦你进行了这个仪式，你就不能再尝试了，直到你完成了一个（%0%）的仪式。"
			]
		}
	],
	"optionalfeature": [
		{
			"name": "EA: Air",
			"source": "NMD",
			"page": 5,
			"featureType": [
				"NMD:EA"
			],
			"prerequisite": [
				{
					"level": {
						"class": {
							"name": "Nomad",
							"source": "NMD"
						},
						"subclass": {
							"name": "Elemental",
							"source": "NMD",
							"visible": true
						},
						"level": 7
					}
				}
			],
			"resist": [
				"lightning"
			],
			"entries": [
				"你获得对雷电伤害的抵抗力。你也获得了在微风中轻盈流动的能力。当你坠落时，你可以选择以每回合60英尺的减速速度坠落（不需要行动）。当你以这个速度降落时，你不会受到坠落的伤害，并且可以用脚落地。"
			]
		},
		{
			"name": "EA: Earth",
			"source": "NMD",
			"page": 5,
			"featureType": [
				"NMD:EA"
			],
			"prerequisite": [
				{
					"level": {
						"class": {
							"name": "Nomad",
							"source": "NMD"
						},
						"subclass": {
							"name": "Elemental",
							"source": "NMD",
							"visible": true
						},
						"level": 7
					}
				}
			],
			"resist": [
				"poison"
			],
			"entries": [
				"你获得对毒药伤害的抵抗力。此外，获得30英尺的攀爬速度，在由锯齿状或不稳定的泥土造成的非魔法困难地形中移动，不需要额外的移动费用。"
			],
			"foundryEffects": [
				{
					"changes": [
						{
							"key": "data.attributes.movement.climb",
							"mode": "UPGRADE",
							"value": "30"
						}
					]
				}
			]
		},
		{
			"name": "EA: Fire",
			"source": "NMD",
			"page": 5,
			"featureType": [
				"NMD:EA"
			],
			"prerequisite": [
				{
					"level": {
						"class": {
							"name": "Nomad",
							"source": "NMD"
						},
						"subclass": {
							"name": "Elemental",
							"source": "NMD",
							"visible": true
						},
						"level": 7
					}
				}
			],
			"resist": [
				"fire"
			],
			"entries": [
				"你获得对火灾伤害的抵抗力。此外，当你受到火伤害时，作为一种反应，你可以尝试完全甩掉它。你可以消耗命中率骰子并掷出它们，以减少所掷出的剩余火害。"
			]
		},
		{
			"name": "EA: Water",
			"source": "NMD",
			"page": 5,
			"featureType": [
				"NMD:EA"
			],
			"prerequisite": [
				{
					"level": {
						"class": {
							"name": "Nomad",
							"source": "NMD"
						},
						"subclass": {
							"name": "Elemental",
							"source": "NMD",
							"visible": true
						},
						"level": 7
					}
				}
			],
			"resist": [
				"cold"
			],
			"entries": [
				"你获得对寒冷伤害的抵抗力。此外，获得30英尺的游泳速度，你可以在水下憋气长达20分钟。"
			],
			"foundryEffects": [
				{
					"changes": [
						{
							"key": "data.attributes.movement.swim",
							"mode": "UPGRADE",
							"value": "30"
						}
					]
				}
			]
		},
		{
			"name": "PC: Air",
			"source": "NMD",
			"page": 5,
			"featureType": [
				"NMD:PC"
			],
			"prerequisite": [
				{
					"level": {
						"class": {
							"name": "Nomad",
							"source": "NMD"
						},
						"subclass": {
							"name": "Elemental",
							"source": "NMD",
							"visible": true
						},
						"level": 14
					}
				}
			],
			"entries": [
				"一个巨大的入口在你的正前方打开，通过它可以听到强大的风和雷鸣般的轰鸣声。一道超自然的巨大闪电在你的正前方裂开一条15英尺宽的线，最远可达600英尺。在这条线上的生物必须做一个灵巧的蓄力动作，如果蓄力失败，会受到{@damage 4d8}的闪电伤害，并在下一回合结束前变成{@condition stunned}，如果蓄力成功，则会受到一半的伤害，并不会变成{@condition stunned}。这个能力会产生一个震耳欲聋的裂缝，在1000英尺以外都能听到。"
			]
		},
		{
			"name": "PC: Earth",
			"source": "NMD",
			"page": 5,
			"featureType": [
				"NMD:PC"
			],
			"prerequisite": [
				{
					"level": {
						"class": {
							"name": "Nomad",
							"source": "NMD"
						},
						"subclass": {
							"name": "Elemental",
							"source": "NMD",
							"visible": true
						},
						"level": 14
					}
				}
			],
			"entries": [
				"你从一个同样大的传送门中召唤出一块巨大的、锯齿状的巨石，将它发射到你周围90英尺范围内你能看到的地方。以该点为中心的20英尺范围内的生物必须做一个灵巧的蓄力动作，蓄力失败会受到{@damage 8d10}重击伤害，蓄力成功会受到一半的重击。"
			]
		},
		{
			"name": "PC: Fire",
			"source": "NMD",
			"page": 5,
			"featureType": [
				"NMD:PC"
			],
			"prerequisite": [
				{
					"level": {
						"class": {
							"name": "Nomad",
							"source": "NMD"
						},
						"subclass": {
							"name": "Elemental",
							"source": "NMD",
							"visible": true
						},
						"level": 14
					}
				}
			],
			"entries": [
				"你在头顶上打开了一个巨大的传送门，通过它，火元素界的燃烧天空清晰可见。六颗流星从传送门出来。每颗流星的目标是你所选择的、在你60英尺范围内的一个生物，该生物必须为每颗流星的目标做一个灵巧的蓄力动作，蓄力失败会受到{@damage 4d6}的火焰伤害，成功则受到一半的伤害。你可以指挥流星击中一个或多个生物。"
			]
		},
		{
			"name": "PC: Water",
			"source": "NMD",
			"page": 5,
			"featureType": [
				"NMD:PC"
			],
			"prerequisite": [
				{
					"level": {
						"class": {
							"name": "Nomad",
							"source": "NMD"
						},
						"subclass": {
							"name": "Elemental",
							"source": "NMD",
							"visible": true
						},
						"level": 14
					}
				}
			],
			"entries": [
				"五根大冰柱从你选择的五个可见位置的传送门中升起，距离你60英尺以内。这些柱子高达15英尺，底部的直径为10英尺。当这些柱子被创造出来时，在它们的路径上的生物必须成功地进行灵巧救赎，如果救赎失败，会受到{@damage 3d8}的寒冷伤害，如果救赎成功，则会受到一半的伤害，然后再转移到与柱子相邻的最近的无人空间。每根柱子都有50点命中率，AC为10。你可以在你的回合中作为额外行动摧毁最多5根柱子。这些柱子会一直存在，直到它们被摧毁。"
			]
		},
		{
			"name": "Planar Piercing",
			"source": "NMD",
			"page": 3,
			"featureType": [
				"NMD:WA"
			],
			"prerequisite": [
				{
					"level": {
						"class": {
							"name": "Nomad",
							"source": "NMD",
							"visible": true
						},
						"level": 2
					}
				}
			],
			"entries": [
				"当你单手挥舞近战武器而没有其他武器时，你可以用空闲的手来稳定你的门户，更仔细地瞄准你的攻击。你在单手挥舞近战武器且无其他武器的情况下，在伤害卷上获得+2的加成，即（%0%）。"
			]
		},
		{
			"name": "Port Retrieving",
			"source": "NMD",
			"page": 3,
			"featureType": [
				"NMD:WA"
			],
			"prerequisite": [
				{
					"level": {
						"class": {
							"name": "Nomad",
							"source": "NMD",
							"visible": true
						},
						"level": 2
					}
				}
			],
			"entries": [
				"你已经训练自己在准确投掷武器的同时利用传送门，使投掷的武器可以进行（%0%）的攻击。你投掷武器的攻击范围会增加你的（%1%）范围。此外，当你进行一次不成功的投掷武器攻击时，你的武器会通过第二个传送门立即回到你的手中。"
			]
		},
		{
			"name": "Two-Hand Warping",
			"source": "NMD",
			"page": 3,
			"featureType": [
				"NMD:WA"
			],
			"prerequisite": [
				{
					"level": {
						"class": {
							"name": "Nomad",
							"source": "NMD",
							"visible": true
						},
						"level": 2
					}
				}
			],
			"entries": [
				"你已经开发出一种用双手握住武器创造传送门的技术。在使用你的（%0%）能力时，你可以挥舞具有双手属性的武器。"
			]
		},
		{
			"name": "Wormhole Sniping",
			"source": "NMD",
			"page": 3,
			"featureType": [
				"NMD:WA"
			],
			"prerequisite": [
				{
					"level": {
						"class": {
							"name": "Nomad",
							"source": "NMD",
							"visible": true
						},
						"level": 2
					}
				}
			],
			"entries": [
				"你已经学会利用你的传送门与{@filter bows and crossbows|items|source=|type=|category=|base item=hand crossbow__phb;heavy crossbow__phb;light crossbow__phb;longbow__phb;shortbow__phb}快速移动的弹丸，使你可以用它们进行{@classFeature Far Strike|Nomad|NMD|1|NMD}的攻击。只要目标在武器的正常范围内，用远程武器进行的远距离攻击会忽略（%2%）。这并不改变武器的射程。"
			]
		}
	],
	"table": [
		{
			"name": "Per Rest Abilities",
			"source": "NMD",
			"page": 9,
			"colLabels": [
				"Ability",
				"Rest Basis"
			],
			"colStyles": [
				"col-6",
				"col-6"
			],
			"rows": [
				[
					"门户艺术",
					"WIS/矮子"
				],
				[
					"平面旅游",
					"1/短小"
				],
				[
					"元素。平面碰撞",
					"1/长"
				],
				[
					"远方的境界。长生不老的真谛",
					"1/长"
				],
				[
					"星际。不适用",
					"\u2014"
				]
			],
			"outro": [
				"{@b Maximum abilities to keep track of: 3}"
			]
		},
		{
			"name": "Portal Arts by Level",
			"source": "NMD",
			"page": 9,
			"colLabels": [
				"Level",
				"# of Arts",
				"Portal Arts"
			],
			"colStyles": [
				"col-2 text-center",
				"col-2 text-center",
				"col-8"
			],
			"rows": [
				[
					"1",
					"0",
					"\u2014"
				],
				[
					"2",
					"1",
					"门户网站"
				],
				[
					"3",
					"2",
					"门户网站，链接PA#1"
				],
				[
					"6",
					"3",
					"传送门, 链接PA#1, 眨眼攻击"
				],
				[
					"10",
					"4",
					"传送门，链接PA#1，眨眼打击，链接PA#2"
				],
				[
					"13",
					"5",
					"传送门，链接PA#1，闪烁打击，链接PA#2，下降闪避"
				],
				[
					"20",
					"5",
					"传送门，链接PA#1，闪烁打击，链接PA#2，下降闪避"
				]
			],
			"outro": [
				"{@b Maximum Portal Arts Options: 5}"
			]
		}
	],
	"book": [
		{
			"name": "The Nomad: A Class for Planar Travelers",
			"id": "NMD",
			"source": "NMD",
			"group": "homebrew",
			"cover": {
				"type": "external",
				"url": "https://raw.githubusercontent.com/TheGiddyLimit/homebrew/master/_img/NMD/Cover.webp"
			},
			"published": "2018-09-05",
			"author": "Vincent Girgenti (u/SubjectiveSloth)",
			"contents": [
				{
					"name": "Cover Page"
				},
				{
					"name": "Nomad"
				},
				{
					"name": "Planar Links",
					"headers": [
						"The Elemental Planes",
						"The Far Realm",
						"The Astral Plane"
					]
				},
				{
					"name": "Design Considerations"
				},
				{
					"name": "Credits"
				}
			]
		}
	],
	"bookData": [
		{
			"id": "NMD",
			"source": "NMD",
			"data": [
				{
					"type": "section",
					"name": "Cover Page",
					"page": "cover",
					"entries": [
						{
							"type": "image",
							"href": {
								"type": "external",
								"url": "https://raw.githubusercontent.com/TheGiddyLimit/homebrew/master/_img/NMD/Cover-Full.webp"
							},
							"width": 736,
							"height": 951
						}
					]
				},
				{
					"type": "section",
					"name": "Nomad",
					"page": 1,
					"entries": [
						{
							"type": "gallery",
							"images": [
								{
									"type": "image",
									"href": {
										"type": "external",
										"url": "https://raw.githubusercontent.com/TheGiddyLimit/homebrew/master/_img/NMD/Nomad.webp"
									},
									"width": 713,
									"height": 2000
								},
								{
									"type": "image",
									"href": {
										"type": "external",
										"url": "https://raw.githubusercontent.com/TheGiddyLimit/homebrew/master/_img/NMD/Planes1.webp"
									},
									"width": 1536,
									"height": 2048
								}
							]
						},
						"一个年轻女孩从火焰中跃出，她闪亮的银发在火光下与她赭色的皮肤形成鲜明对比。她把匕首迅速扔向面前的邪教徒，但匕首刚离开她的手就在一束光中消失了。敌人向她走来，然后发出一声凄厉的呻吟，倒在了地上。一把小匕首从他的背部中央伸出来。",
						"一个精灵老人站在一个极高的悬崖峭壁上，他干裂的眼镜低垂在他枯萎的鼻子上。他凝视着远方，那是一片明亮而美丽的荒野，由青翠的山脉和山谷组成，并有两个巨大的石头浮岛作为点缀。他自嘲地笑了笑，只是微微一笑，然后他的视线就被一道闪光所阻挡，在他面前出现了一个旋转着的颜色盘。",
						"游牧民族是平面旅行者、猎人、追踪者、流浪者和探险家。他们是穿越星球的专家，他们的漫游欲永远不会满足，他们的旅程是无止境的。",
						{
							"type": "entries",
							"name": "An Unending Journey",
							"page": 1,
							"entries": [
								"游牧民族的生活是一个发现和冒险的过程，追逐一个被称为 \"旅程 \"的概念。这是大多数游牧民族的最终目标，是体验生存的每一个方面的目标。游牧者在旅行中追求沿途发生的所有事情，吸收和享受所有的生活经验。",
								"有些人选择组织和参加大型聚会，一起穿越平面，寻找人际关系的经验。其他人则享受个人旅程的孤独，选择独自探索宇宙的无限可能性。",
								"游牧民族一般很难在一个地方安顿太久，即使他们的岁月已经接近尾声。在他们去世之前结束旅程，对大多数人来说根本不可能，这就是游牧人的雄心壮志。"
							]
						},
						{
							"type": "entries",
							"name": "A Peculiar Attraction",
							"page": 1,
							"entries": [
								"那些旅行的人发现自己被一个或另一个星球的某些方面所吸引。随着时间和距离的推移，这种吸引力，或者说联系，越来越强，吸引着游牧者的思想回到他们可能不理解的原因。这种联系吸引着一个人灵魂深处的某些方面，并将其与平面捆绑在一起，在旅行者的脑海中固定了平面和它们的异世界力量的永久表现。",
								"研究这些星球的人理论上认为，一种类似于地球构造变化的力量发生在这些星球之间，产生了强大的魔法。这种魔法具有类似于大智慧的东西，可以 \"看到 \"它所影响的生物。从这些理论中，一些游牧民族产生了一种崇拜，他们认为自己是大轮回本身这一超自然存在的小赞助者，尽管不是所有人都相信这个故事。",
								"游牧民族形成的联系可能是他们期望或立即感受到的有形选择，也可能是一个人只短暂经过的飞机在他们的头脑中留下了微妙的印象。"
							]
						},
						{
							"type": "entries",
							"name": "Creating a Nomad",
							"page": 2,
							"entries": [
								"在创造你的游牧民族角色时，考虑是什么让他们一开始就开始了 \"旅程\"，以及他们为什么继续追求。你的父亲或母亲在他们的旅行中是否带着你？你是否听说过一些关于远方飞机的奇幻故事？还是你只是对材料的平凡琐碎感到厌烦？",
								"你在旅途中都做了些什么？是否有一个危险的冲刺，穿过潘德蒙和九层地狱？在拜托邦的平静漫步让你重新思考你的动机？甚至有可能是在外星最著名的酒馆中的旋风式狂欢？",
								"你的平面链接对你有什么影响？也许你发现自己与一个可怕的邪恶位面有联系，尽管你是个隐居的年轻人，它引出了你曾经遗忘的黑暗思想？或者你真的与你的平面联系在一起，并经常与自己争论是否要留在那里，只是把它抛在脑后？",
								"平面和游牧民族的巨大多样性意味着他们可以陷入任何排列组合或平面联系，尽管大多数见过善、恶、法律和混乱等极端情况的人更愿意保持中立。"
							]
						},
						{
							"type": "entries",
							"name": "Quick Build",
							"page": 2,
							"entries": [
								"遵循这些建议，你可以迅速成为一名游牧民。首先，力量或灵巧应该是你的最高能力得分，其次是智慧。第二，选择（%0%）的背景。"
							]
						},
						{
							"type": "statblock",
							"tag": "class",
							"source": "NMD",
							"name": "Nomad",
							"page": 2
						},
						{
							"type": "gallery",
							"images": [
								{
									"type": "image",
									"href": {
										"type": "external",
										"url": "https://raw.githubusercontent.com/TheGiddyLimit/homebrew/master/_img/NMD/Planes2.webp"
									},
									"width": 2048,
									"height": 1152
								},
								{
									"type": "image",
									"href": {
										"type": "external",
										"url": "https://raw.githubusercontent.com/TheGiddyLimit/homebrew/master/_img/NMD/Planes3.webp"
									},
									"width": 1536,
									"height": 2048
								}
							]
						}
					]
				},
				{
					"type": "section",
					"name": "Planar Links",
					"page": 5,
					"entries": [
						"尽管他们可能是分散的，但即使是游牧民族也会通过他们的倾向分享某些感性。游牧民族试图尽可能多地观察和体验多元宇宙，但大多数人都会同意，他们与某个地方有着特殊的联系。多元宇宙有办法使这种联系具体化，特别是对那些经常旅行的人来说。",
						{
							"type": "entries",
							"name": "The Elemental Planes",
							"page": 5,
							"entries": [
								{
									"type": "statblock",
									"prop": "subclass",
									"source": "NMD",
									"name": "Elemental",
									"page": 5,
									"className": "Nomad",
									"classSource": "NMD"
								}
							]
						},
						{
							"type": "entries",
							"name": "The Far Realm",
							"page": 6,
							"entries": [
								{
									"type": "statblock",
									"prop": "subclass",
									"source": "NMD",
									"name": "Far Realm",
									"page": 6,
									"className": "Nomad",
									"classSource": "NMD"
								},
								{
									"type": "gallery",
									"images": [
										{
											"type": "image",
											"href": {
												"type": "external",
												"url": "https://raw.githubusercontent.com/TheGiddyLimit/homebrew/master/_img/NMD/Eye.webp"
											},
											"width": 776,
											"height": 748
										},
										{
											"type": "image",
											"href": {
												"type": "external",
												"url": "https://raw.githubusercontent.com/TheGiddyLimit/homebrew/master/_img/NMD/Planes4.webp"
											},
											"width": 1583,
											"height": 2048
										}
									]
								}
							]
						},
						{
							"type": "entries",
							"name": "The Astral Plane",
							"page": 7,
							"entries": [
								{
									"type": "statblock",
									"prop": "subclass",
									"source": "NMD",
									"name": "Astral",
									"page": 7,
									"className": "Nomad",
									"classSource": "NMD"
								},
								{
									"type": "image",
									"href": {
										"type": "external",
										"url": "https://raw.githubusercontent.com/TheGiddyLimit/homebrew/master/_img/NMD/Planes5.webp"
									},
									"width": 5800,
									"height": 3752
								}
							]
						}
					]
				},
				{
					"type": "section",
					"name": "Design Considerations",
					"page": 9,
					"entries": [
						{
							"type": "statblock",
							"tag": "table",
							"name": "Per Rest Abilities",
							"source": "NMD",
							"page": 9
						},
						{
							"type": "statblock",
							"tag": "table",
							"name": "Portal Arts by Level",
							"source": "NMD",
							"page": 9
						}
					]
				},
				{
					"type": "section",
					"name": "Credits",
					"page": 8,
					"entries": [
						{
							"type": "list",
							"style": "list-no-bullets",
							"columns": 2,
							"page": 8,
							"items": [
								{
									"type": "inset",
									"page": 8,
									"name": "Nomad v2.4",
									"entries": [
										{
											"type": "quote",
											"entries": [
												"这个版本的Nomad仍然是一个正在进行的工作，但处于可玩状态。",
												{
													"type": "section",
													"entries": [
														{
															"type": "entries",
															"name": "Art",
															"page": 8,
															"entries": [
																"{@i All uncredited art is from DMsGuild Free Creators Resources and Arcana Games Stock Art Packs.}"
															]
														}
													]
												},
												{
													"type": "section",
													"entries": [
														{
															"type": "entries",
															"name": "Background",
															"page": 8,
															"entries": [
																"这是我很久以来第一次尝试写一个完整的班级，希望它能有好的结果！\"。我最近有机会在实际游戏中尝试了两个有趣的自制类：{@link The Companion|https://homebrewery.naturalcrit.com/share/HkbtsQUJGW}（由/u/shadowsocks）和{@link The Noble|https://drive.google.com/file/d/0B_fO9drMhlUealJLdFBXTHp2OG8/view}（由/u/impersonater）。两者读起来都非常有趣，但在开始使用角色表时，就发现它们过于复杂和不方便。我有了改进它们的想法，这让我进入了造类的思维，并给了我需要的冲动，最终回到了我的这个旧想法上工作。(作为说明，随着时间的推移，\"同伴 \"类有了巨大的改进，最新的版本比我试过的版本好得多）。",
																"这个等级目前的想法是基于我目前正在进行的一个较大的自制作品，但我以前也想过这种跳楼的流浪者，它似乎很适合。不过，这个等级的名称和独特性是很困难的，因为当然任何冒险者都可以在不同的星球之间跳跃，而没有人有像这样的能力。这导致了他们的传说和 \"旅程 \"的概念以及星球链接的发展，这有助于确立这些角色与地平线游侠等角色相比在意义上的不同。",
																"这个名字给我带来了麻烦，因为虽然它可以被称为 \"行者\"，但这个名字被过度使用了，而且会引起人们对《魔法：集会》中行者概念的不必要的比较。这导致了在我想到UA神秘人和他们基于传送门的子类--游牧者之前，衍生出了 \"Planeseeker \"和 \"Planar Wanderer \"的名字。",
																"这个等级的机械特性在某些方面与/u/Layhnet的{@link The Warden|https://drive.google.com/file/d/1_RIYUWCXLYp-tLkT5MjwOd7fN71r7r-h/view}相似（一个非常好的等级）：一个主要是武术的等级，有一些魔法能力，是术士（一个有一些武术能力的魔法等级）的某种逆向。",
																"我发布的最后一个版本终于得到了大量的可靠反馈。这门课被（理所当然地）撕掉了很多缺点，我已经把很多建设性的批评意见记在心里。我现在自豪地介绍游牧人2.0版"
															]
														}
													]
												}
											],
											"by": "u/SubjectiveSloth",
											"skipMarks": true,
											"skipItalics": true
										}
									]
								},
								{
									"type": "inset",
									"page": 8,
									"entries": [
										{
											"type": "list",
											"name": "My Other Works:",
											"page": 8,
											"items": [
												"{@link Bloodrager and Whirlwind Barbarian Paths|https://www.gmbinder.com/share/-L0gLiKABy1A9Ci7tfp4}",
												"{@link Spell Rarity System|https://www.gmbinder.com/share/-LAP8sDFAOprgtq5_ICk}",
												"{@link Tiefling Subraces for the Lords of the Nine|http://homebrewery.naturalcrit.com/share/BJH53Lvshb}",
												"{@link Siren and Rusalka monsters|https://www.gmbinder.com/share/-LA-M19_X-6NaXcLKKci}",
												"{@link Thediem, Master of Everything|http://homebrewery.naturalcrit.com/share/H1-wLakS5-}",
												"{@link The Mechanist subclass for the UA Arteficer|https://www.gmbinder.com/share/-L3co1FkjA8nFXXJNiZa}",
												"{@link For Honor subclasses for 5e|http://homebrewery.naturalcrit.com/share/H1-ehImhlW}",
												"{@link Naeris, The Mythic Dragon Monster|https://www.gmbinder.com/share/-LAP6KcNLa1PqOHjiiLi}",
												"{@link Tieflings Reimagined|https://www.gmbinder.com/share/-L17WD8-J5K0KBQIyX3B}",
												"{@link Trapper Rogue|https://www.gmbinder.com/share/-L2Y2LrVsBADYHqt78e9}",
												"{@link Fey-Touched Sorcerer|https://www.gmbinder.com/share/-L0gMLI1UetfjZ1t633U}",
												"{@link Inner Self Monk|https://www.gmbinder.com/share/-L2xX6g8AsJ2Me3RXYGS/-L2x_AtLtWdn2slR0LHE}",
												"{@link Elemental Barbarian|https://www.gmbinder.com/share/-L4nA6uzZLq-Ff_NiSJg}",
												"{@link Bard College of Doors|https://www.gmbinder.com/share/-L51sQeMktzTnuwVBSeg}",
												"{@link Nomad Class|https://www.gmbinder.com/share/-LBS9acGhZ4KbKb5m8hj}",
												"{@link Fringe Seeker Rogue|https://www.gmbinder.com/share/-L8xS54A7hjWe3_XoURB}",
												"{@link Way of Balance Monk|https://www.gmbinder.com/share/-L9h443fXFsJUalDPGQm}",
												"{@link Non-Human Aasimar Variants|https://www.gmbinder.com/share/-LAdaQQ-zP8MPXAmMVGf}",
												"{@link Bard College of Flavor|https://www.gmbinder.com/share/-LB8zy5tUjFPSCtLdc3i}",
												"{@link Ranger Warp Sniper|https://www.gmbinder.com/share/-LGmSzAOCNiAOKAfKVao}"
											]
										},
										{
											"type": "list",
											"name": "Support me on DM's Guild:",
											"page": 8,
											"items": [
												"{@link Tieflings Reimagined|http://www.dmsguild.com/product/240756/ReImagined-Tiefling-Race}",
												"{@link Fey-Touched Sorcerer|http://www.dmsguild.com/product/240772/Sorcerous-Origin-FeyTouched}",
												"{@link The Nomad Class|http://www.dmsguild.com/product/242632/The-Nomad-A-Class-for-Planar-Travelers}"
											]
										}
									]
								},
								{
									"type": "inset",
									"page": 8,
									"name": "Recent Significant Changes",
									"entries": [
										{
											"type": "list",
											"page": 8,
											"items": [
												"{@b Falling Dodge}现在是一个门户艺术，而不是一个1/短板。",
												"{@b Interplanar Gateway} 改变了措辞，并增加了关于销毁由该功能创建的网关的内容。",
												"所有子类都被赋予了一个额外的第三级能力，以帮助定义他们在门户艺术系统之外的游戏性。",
												"{@b Elemental Knowledge}替换为{@b Elemental Affinity}。",
												"{@b Weapon Arts}获得了更新的名称，以及一个投掷武器的艺术，{@b Port Retrieving}",
												"重新排版以适应机械和措辞的变化"
											]
										}
									]
								}
							]
						},
						"{@note DUNGEONS & DRAGONS, D&D, Wizards of the Coast, Forgotten Realms, Ravenloft, the dragon ampersand, and all other Wizards of the Coast product names, and their respective logos are trademarks of Wizards of the Coast in the USA and other countries.}",
						"{@note This work contains material that is copyright Wizards of the Coast and/or other authors. Such material is used with permission under the Community Content Agreement for Dungeon Masters Guild.}",
						"{@note All other original material in this work is copyright 2018 by Vincent Girgenti and published under the Community Content Agreement for Dungeon Masters Guild.}"
					]
				}
			]
		}
	]
}
