{
	"_meta": {
		"sources": [
			{
				"json": "WRTR",
				"abbreviation": "WRTR",
				"full": "The Rouge",
				"authors": [
					"William Rotor"
				],
				"convertedBy": [
					"Lxran#2292"
				],
				"version": "2020-10-05",
				"color": "a61137",
				"url": "https://www.dmsguild.com/product/299579/The-Rouge",
				"targetSchema": "1.2"
			}
		],
		"dateAdded": 1626093519,
		"dateLastModified": 1626129619,
		"optionalFeatureTypes": {
			"R:FFO": "Rouge; Favoured Face Options"
		},
		"_dateLastModifiedHash": "5f5d5e9b9b"
	},
	"class": [
		{
			"name": "Rouge",
			"source": "WRTR",
			"page": 1,
			"hd": {
				"number": 1,
				"faces": 6
			},
			"proficiency": [
				"wis",
				"cha"
			],
			"spellcastingAbility": "cha",
			"casterProgression": "full",
			"preparedSpells": "<$level$> + <$cha_mod$>",
			"cantripProgression": [
				3,
				3,
				3,
				4,
				4,
				4,
				4,
				4,
				4,
				5,
				5,
				5,
				5,
				5,
				5,
				5,
				5,
				5,
				5,
				5
			],
			"startingProficiencies": {
				"weapons": [
					"{@item dagger|phb|daggers}",
					"{@item dart|phb|darts}",
					"{@item sling|phb|slings}",
					"{@item quarterstaff|phb|quarterstaffs}",
					"{@item light crossbow|phb|light crossbows}"
				],
				"tools": [
					"{@item disguise kit|phb}",
					"{@item painter's supplies|phb}"
				],
				"skills": [
					{
						"choose": {
							"from": [
								"acrobatics",
								"arcana",
								"deception",
								"history",
								"insight",
								"intimidation",
								"perception",
								"performance",
								"persuasion",
								"religion",
								"sleight of hand",
								"stealth"
							],
							"count": 4
						}
					}
				]
			},
			"startingEquipment": {
				"additionalFromBackground": true,
				"default": [
					"(a) 2 {@item dagger|phb|daggers} or (b) {@item quarterstaff|phb}",
					"(a) a {@item light crossbow|phb} and {@item crossbow bolts (20)|phb|20 bolts} or (b) any {@filter simple weapon|items|source=phb|category=basic|type=simple weapon}",
					"(a) an {@item entertainer's pack|phb} (b) a {@item diplomat's pack|phb}, or (c) an {@item explorer's pack|phb}",
					"a {@item disguise kit|phb}, a set of {@item painter's supplies|phb}, and a make-up kit"
				],
				"defaultData": [
					{
						"a": [
							{
								"item": "dagger|phb",
								"quantity": 2
							}
						],
						"b": [
							"quarterstaff|phb"
						]
					},
					{
						"a": [
							"light crossbow|phb",
							"crossbow bolts (20)|phb"
						],
						"b": [
							{
								"equipmentType": "weaponSimple"
							}
						]
					},
					{
						"a": [
							"entertainer's pack|phb"
						],
						"b": [
							"diplomat's pack|phb"
						],
						"c": [
							"explorer's pack|phb"
						]
					},
					{
						"_": [
							"disguise kit|phb",
							"painter's supplies|phb",
							{
								"special": "make-up kit"
							}
						]
					}
				]
			},
			"multiclassing": {
				"requirements": {
					"cha": 13
				},
				"proficienciesGained": {
					"tools": [
						"{@item disguise kit|phb}",
						"{@item painter's supplies|phb}"
					],
					"skills": [
						{
							"choose": {
								"from": [
									"acrobatics",
									"arcana",
									"deception",
									"history",
									"insight",
									"intimidation",
									"perception",
									"performance",
									"persuasion",
									"religion",
									"sleight of hand",
									"stealth"
								],
								"count": 1
							}
						}
					]
				}
			},
			"classTableGroups": [
				{
					"colLabels": [
						"{@filter Cantrips Known|spells|class=Rouge (WRTR)}"
					],
					"rows": [
						[
							3
						],
						[
							3
						],
						[
							3
						],
						[
							4
						],
						[
							4
						],
						[
							4
						],
						[
							4
						],
						[
							4
						],
						[
							4
						],
						[
							5
						],
						[
							5
						],
						[
							5
						],
						[
							5
						],
						[
							5
						],
						[
							5
						],
						[
							5
						],
						[
							5
						],
						[
							5
						],
						[
							5
						],
						[
							5
						]
					]
				},
				{
					"title": "Spell Slots per Spell Level",
					"colLabels": [
						"{@filter 1st|spells|level=1|class=Rouge (WRTR)}",
						"{@filter 2nd|spells|level=2|class=Rouge (WRTR)}",
						"{@filter 3rd|spells|level=3|class=Rouge (WRTR)}",
						"{@filter 4th|spells|level=4|class=Rouge (WRTR)}",
						"{@filter 5th|spells|level=5|class=Rouge (WRTR)}",
						"{@filter 6th|spells|level=6|class=Rouge (WRTR)}",
						"{@filter 7th|spells|level=7|class=Rouge (WRTR)}",
						"{@filter 8th|spells|level=8|class=Rouge (WRTR)}",
						"{@filter 9th|spells|level=9|class=Rouge (WRTR)}"
					],
					"rows": [
						[
							2,
							0,
							0,
							0,
							0,
							0,
							0,
							0,
							0
						],
						[
							3,
							0,
							0,
							0,
							0,
							0,
							0,
							0,
							0
						],
						[
							4,
							2,
							0,
							0,
							0,
							0,
							0,
							0,
							0
						],
						[
							4,
							3,
							0,
							0,
							0,
							0,
							0,
							0,
							0
						],
						[
							4,
							3,
							2,
							0,
							0,
							0,
							0,
							0,
							0
						],
						[
							4,
							3,
							3,
							0,
							0,
							0,
							0,
							0,
							0
						],
						[
							4,
							3,
							3,
							1,
							0,
							0,
							0,
							0,
							0
						],
						[
							4,
							3,
							3,
							2,
							0,
							0,
							0,
							0,
							0
						],
						[
							4,
							3,
							3,
							3,
							1,
							0,
							0,
							0,
							0
						],
						[
							4,
							3,
							3,
							3,
							2,
							0,
							0,
							0,
							0
						],
						[
							4,
							3,
							3,
							3,
							2,
							1,
							0,
							0,
							0
						],
						[
							4,
							3,
							3,
							3,
							2,
							1,
							0,
							0,
							0
						],
						[
							4,
							3,
							3,
							3,
							2,
							1,
							1,
							0,
							0
						],
						[
							4,
							3,
							3,
							3,
							2,
							1,
							1,
							0,
							0
						],
						[
							4,
							3,
							3,
							3,
							2,
							1,
							1,
							1,
							0
						],
						[
							4,
							3,
							3,
							3,
							2,
							1,
							1,
							1,
							0
						],
						[
							4,
							3,
							3,
							3,
							2,
							1,
							1,
							1,
							1
						],
						[
							4,
							3,
							3,
							3,
							3,
							1,
							1,
							1,
							1
						],
						[
							4,
							3,
							3,
							3,
							3,
							2,
							1,
							1,
							1
						],
						[
							4,
							3,
							3,
							3,
							3,
							2,
							2,
							1,
							1
						]
					]
				}
			],
			"classFeatures": [
				"Make-Up Savant|Rouge|WRTR|1",
				"Spellcasting|Rouge|WRTR|1",
				{
					"classFeature": "Rouge Specialisation|Rouge|WRTR|2",
					"gainSubclassFeature": true
				},
				{
					"classFeature": "Favoured Face|Rouge|WRTR|3",
					"gainSubclassFeature": true
				},
				"Mirror Mirror|Rouge|WRTR|3",
				"Ability Score Improvement|Rouge|WRTR|4",
				"Inked Magic (1st)|Rouge|WRTR|5",
				{
					"classFeature": "Rouge Specialisation feature|Rouge|WRTR|6"
				},
				"Ability Score Improvement|Rouge|WRTR|8",
				"Inked Magic (2nd)|Rouge|WRTR|9",
				"Someone Else's Face|Rouge|WRTR|10",
				"Ability Score Improvement|Rouge|WRTR|12",
				{
					"classFeature": "Rouge Specialisation feature|Rouge|WRTR|13",
					"gainSubclassFeature": true
				},
				"Comedy and Drama|Rouge|WRTR|14",
				"Inked Magic (3rd)|Rouge|WRTR|15",
				"Ability Score Improvement|Rouge|WRTR|16",
				"Face of Habit|Rouge|WRTR|18",
				"Ability Score Improvement|Rouge|WRTR|19",
				{
					"classFeature": "Rouge Specialisation feature|Rouge|WRTR|20",
					"gainSubclassFeature": true
				}
			],
			"subclassTitle": "Rouge Specialisation",
			"fluff": [
				{
					"type": "section",
					"name": "Rouge",
					"source": "WRTR",
					"page": 8,
					"entries": [
						{
							"type": "section",
							"name": "Make-Up and Magic",
							"page": 8,
							"entries": [
								"使用你的化妆包作为施法焦点的施法方式可能与游戏中通常的施法方式不同。以下是这方面的澄清和例子。",
								{
									"type": "entries",
									"entries": [
										{
											"type": "entries",
											"entries": [
												{
													"type": "entries",
													"name": "The spell is cast on yourself",
													"page": 8,
													"entries": [
														"你把化妆品涂在自己的脸上。例如，对于{@spell disguise self}，你在自己的脸上画出一个伪装的模样，这时魔法效果就会接手，完成伪装。"
													]
												},
												{
													"type": "entries",
													"name": "The spell is cast on an ally and has a range of touch",
													"page": 8,
													"entries": [
														"你给你的盟友上妆。例如，{@spell cure wounds}可能涉及在伤口上涂抹新鲜的愈合皮肤。"
													]
												},
												{
													"type": "entries",
													"name": "The spell is cast on an ally and has a range further than touch",
													"page": 8,
													"entries": [
														"你给自己化妆，魔法会扩散到附近的盟友。例如，你在{@spell feather fall}的范围内画上翼状眼影，当魔法生效时，它会影响到你选择的盟友，就像在其他情况下一样。即使你不是法术的目标之一，你也会给自己上妆。"
													]
												},
												{
													"type": "entries",
													"name": "The spell is cast on an enemy and has a range of touch",
													"page": 8,
													"entries": [
														"当你接触你的敌人时，你会在他们身上涂抹一层松散的化妆品。例如，{@spell bestow curse}可能需要你在手掌上画一个被诅咒的符号，然后把湿的颜料拍到他们盔甲的平面上。"
													]
												},
												{
													"type": "entries",
													"name": "The spell is cast on an enemy and has a range further than touch",
													"page": 8,
													"entries": [
														"你在自己的脸上化妆，而敌人在一旁惊恐地看着。例如，你画一个可怕的怪物面孔来施放恐惧。有些法术并不要求敌人看到你，在这种情况下，化妆只是赋予你施法的力量。"
													]
												},
												{
													"type": "entries",
													"name": "The spell requires you to make a ranged attack roll",
													"page": 8,
													"entries": [
														"你把化妆品涂在自己的脸上，然后在魔法生效时进行攻击卷。例如，你将自己的脸涂成天使般的白色，持续时间为（%0%），使你充满英雄般的能量，当你指向你的目标时就会释放出来。"
													]
												},
												{
													"type": "entries",
													"name": "The spell has no specific target",
													"page": 8,
													"entries": [
														"你把化妆品涂在自己的脸上，魔法从那里发散到世界。例如，作为{@spell silent image}的一部分所化的妆容可能会从你的脸上滑落，重新变成咒语所创造的幻象，或者，在施展{@spell prestidigitation}时，你化妆所需的手势，如弹动你的手腕或捏住你的鼻子，可以在世界中复制成蜡烛的喷发或气味的消失。"
													]
												},
												{
													"type": "entries",
													"name": "When in doubt",
													"page": 8,
													"entries": [
														"你把化妆品涂在自己的脸上，像平常一样施法。"
													]
												}
											]
										}
									]
								}
							]
						},
						{
							"type": "section",
							"name": "Final Words",
							"page": 98,
							"entries": [
								"如果你想将胭脂虫类纳入你的游戏，同时保持其原始意图，有几个关键的考虑因素需要考虑。",
								{
									"type": "list",
									"items": [
										"你可以根据自己的意愿选择将妆容融入你的法术的方式，你的应用越有创意，就越好。",
										"你可以在短时间或长时间的休息中进行化妆。",
										"如果有必要，你可以用同一只手来化妆和执行身体部分，除非你的医生另有决定。",
										"虽然你完全有能力为他人化妆（而且你的许多法术都涉及这样做），但你喜欢的面部效果只适用于你。只有你能从你的脸部受益。",
										"作为法术或阶级特征的一部分，涂抹新的妆容并不会移除你所喜爱的脸。只有画一张新的喜爱的脸或明确地卸下你的妆容才会取消这些能力。",
										"像{@spell vampiric touch}这样的法术和你的毒藤宠脸选项为你提供了可靠的（如果低的话）伤害来源，但期望与巫师结对{@spell disintegrate}是对胭脂类的意图的误解，它的目的是成为一个社交/实用的控制器。当你在其他方面表现出色时，依靠你的队友提供伤害是可以的。",
										"你的许多类别特征只有在你化妆的时候才能发挥作用。你的管理员可能会规定在某些情况下，比如长时间休息、洗澡或被一个{@creature water weird}的人拖累时，要卸掉你的妆。不要与你的DM争论；只要抓住下一个机会，花一分钟时间重新涂抹。如果你觉得你的管理员太过严厉，可以用你的性格来解释，你被认为总是有这些选择，而卸妆就像拿走一个战士的武器和盔甲。这并不是说不能这样做，而是说过度的做法有可能违背游戏的精神。",
										"最重要的是，就像吟游诗人和魔法师一样，你的进攻能力最好是用来对付NPC（并得到你的DM的充分合作）。始终遵守你桌子上的社会契约，从有血有肉的玩家的角度考虑你的朋友，而不是角色。例如，如果有人对你在他的角色上施放（%0%）感到不舒服，正确的做法是停下来，重新建立界限。当整张桌子都有乐趣时，你就是在赢得游戏，而不仅仅是你。"
									]
								}
							]
						}
					]
				}
			],
			"classSpells": [
				"blade ward",
				"booming blade|tce",
				"friends",
				"guidance",
				"mending",
				"prestidigitation",
				"resistance",
				"thaumaturgy",
				"vicious mockery",
				"absorb elements|xge",
				"armor of agathys",
				"charm person",
				"comprehend languages",
				"cure wounds",
				"detect poison and disease",
				"detect magic",
				"disguise self",
				"expeditious retreat",
				"false life",
				"feather fall",
				"jump",
				"longstrider",
				"mage armor",
				"protection from evil and good",
				"sanctuary",
				"alter self",
				"barkskin",
				"blur",
				"darkvision",
				"detect thoughts",
				"dragon's breath|xge",
				"enhance ability",
				"enlarge/reduce",
				"enthrall",
				"gentle repose",
				"invisibility",
				"mirror image",
				"pass without trace",
				"see invisibility",
				"fear",
				"feign death",
				"haste",
				"meld into stone",
				"nondetection",
				"protection from energy",
				"remove curse",
				"revivify",
				"tongues",
				"vampiric touch",
				"water breathing",
				"compulsion",
				"confusion",
				"death ward",
				"divination",
				"freedom of movement",
				"greater invisibility",
				"polymorph",
				"awaken",
				"creation",
				"dream",
				"modify memory",
				"passwall",
				"contingency",
				"harm",
				"heal",
				"sunbeam",
				"true seeing",
				"etherealness",
				"plane shift",
				"regenerate",
				"symbol",
				"clone",
				"glibness",
				"mind blank",
				"telepathy",
				"astral projection",
				"foresight",
				"invulnerability",
				"shapechange",
				"time stop"
			]
		}
	],
	"classFeature": [
		{
			"name": "Make-Up Savant",
			"source": "WRTR",
			"className": "Rouge",
			"classSource": "WRTR",
			"page": 3,
			"level": 1,
			"entries": [
				"从1级开始，对于任何涉及使用你的（%0%）、你的（%1%）或你的化妆包的能力检查，你的熟练度加成会加倍。"
			]
		},
		{
			"name": "Spellcasting",
			"source": "WRTR",
			"className": "Rouge",
			"classSource": "WRTR",
			"page": 3,
			"level": 1,
			"entries": [
				"你通过化妆来引导魔法的能力是世界上不常见的力量来源，它可以复制来自奥术和神学研究的效果。当你施展法术时，法术的体质和物质成分被替换为对你或你的目标进行化妆的行为。关于施法的一般规则，请参见（%0%）。",
				{
					"type": "entries",
					"name": "Cantrips",
					"page": 3,
					"entries": [
						"一级时，你会从（%0%）中选择三个咒语。在更高等级时，你会学习更多你选择的胭脂虫咒语，如胭脂虫表的已知咒语栏所示。"
					]
				},
				{
					"type": "entries",
					"name": "Preparing and Casting Spells",
					"page": 3,
					"entries": [
						"胭脂表显示了你有多少个法术槽来施展你的一级及以上的法术。要施展其中一个法术，你必须消耗一个该法术等级或更高的法术槽。当你完成长时间的休息时，你会重新获得所有消耗的法术槽。",
						"你准备好可供你施展的胭脂法术清单，从（%0%）中选择。当你这样做时，选择与你的魅力修改器+你的胭脂水粉等级相等数量的胭脂水粉法术（最少一个法术）。这些法术的等级必须是你有法术槽的。",
						"例如，如果你是一个三级的胭脂虫，你有四个一级和两个二级的法术槽。在魅力值为16的情况下，你准备的法术清单可以包括6个1级或2级的法术，以任何方式组合。如果你准备了1级法术（%0%），你可以用1级或2级法术槽来施放它。施放该法术并不会从你的准备好的法术列表中移除它。",
						"你可以在完成长时间的休息后改变你准备的法术清单。准备一份新的胭脂水粉法术清单需要花时间将你的化妆包安排成正确的配置：清单上的每个法术等级至少需要1分钟。"
					]
				},
				{
					"type": "entries",
					"name": "Spellcasting Ability",
					"page": 3,
					"entries": [
						"魅力是你施展胭脂水粉法术的能力。你的法术的力量来自于你对化妆用品的技术能力。每当胭脂水粉的咒语提到你的法术能力时，你就会使用你的魅力。此外，在为你施展的胭脂水粉法术设定蓄力DC时，以及在用胭脂水粉法术进行攻击时，你都会使用你的魅力修改器。",
						{
							"type": "abilityDc",
							"name": "Spell",
							"attributes": [
								"cha"
							]
						},
						{
							"type": "abilityAttackMod",
							"name": "Spell",
							"attributes": [
								"cha"
							]
						}
					]
				},
				{
					"type": "entries",
					"name": "Spellcasting Focus",
					"page": 3,
					"entries": [
						"你用你的化妆包作为你的胭脂水粉法术的施法焦点，它也可以代替体质成分。没有化妆包，你不能施展1级以上的法术，但你仍然可以施展咒语。",
						"当你施放一个具有金币成本的材料成分的法术时，你可以用你的化妆来替换该法术的成分，但你需要专门的、昂贵的化妆来这样做。你所需要的专业化妆的费用与材料组件的费用相同。"
					]
				}
			]
		},
		{
			"name": "Rouge Specialisation",
			"source": "WRTR",
			"className": "Rouge",
			"classSource": "WRTR",
			"page": 3,
			"level": 2,
			"entries": [
				"在第2级时，选择一种胭脂虫的专长。小丑，特效大师，时尚达人，哥特，或漂亮脸蛋。每个专业都是你化妆技能的一个不同的应用模式。",
				{
					"type": "entries",
					"name": "Specialisation Spells",
					"page": 3,
					"entries": [
						"每个胭脂匠的专长都有一个法术列表--它的专长法术--当你可以施展描述中所列的法术等级时，你就会获得这些法术。一旦你获得了一个专长法术，你就会一直准备好它，而且它不计入你每天可以准备的法术数量。",
						"如果你有一个专门的法术没有出现在胭脂水粉法术列表中，那么这个法术对你来说还是一个胭脂水粉法术。"
					]
				}
			]
		},
		{
			"name": "Favoured Face",
			"source": "WRTR",
			"className": "Rouge",
			"classSource": "WRTR",
			"page": 3,
			"level": 3,
			"entries": [
				"从3级开始，你可以从以下列表中选择一个喜欢的脸。这些效果只在你的妆容停留在脸上的时候适用，而且这些效果不被认为是魔法效果（例如，它们不能被驱散）。使用一面镜子，你可以通过不间断地花10分钟时间涂抹新的化妆品来改变你喜欢的脸。",
				"你的 \"胭脂 \"专长给了你一个额外的受宠面孔选择。",
				{
					"type": "options",
					"entries": [
						{
							"type": "refOptionalfeature",
							"optionalfeature": "Blushing Bride|WRTR"
						},
						{
							"type": "refOptionalfeature",
							"optionalfeature": "Eyes of Horus|WRTR"
						},
						{
							"type": "refOptionalfeature",
							"optionalfeature": "Empty Doll|WRTR"
						},
						{
							"type": "refOptionalfeature",
							"optionalfeature": "Venomous Ivy|WRTR"
						},
						{
							"type": "refOptionalfeature",
							"optionalfeature": "Shadowy Stalker|WRTR"
						}
					]
				}
			]
		},
		{
			"name": "Mirror Mirror",
			"source": "WRTR",
			"className": "Rouge",
			"classSource": "WRTR",
			"page": 4,
			"level": 3,
			"entries": [
				"同样在3级，你获得了用任何物质制造镜子的能力。选择一块1英尺乘1英尺的松散材料，在你能看到的范围内，是石头、沙子或其他矿物物质。你制造一个直径不超过1英尺的圆镜。这面镜子可以包括一个把手。生物或魔法物品不受这个能力的影响。"
			]
		},
		{
			"name": "Ability Score Improvement",
			"source": "WRTR",
			"className": "Rouge",
			"classSource": "WRTR",
			"page": 4,
			"level": 4,
			"entries": [
				"当你达到四级时，你可以将你选择的一项能力得分提高2分，或者将你选择的两项能力得分提高1分。",
				"如果你的DM允许使用特技，你可以改用{@5etools feat|feats.html}。"
			]
		},
		{
			"name": "Inked Magic (1st)",
			"source": "WRTR",
			"className": "Rouge",
			"classSource": "WRTR",
			"page": 4,
			"level": 5,
			"entries": [
				"从5级开始，你可以用10分钟的时间用你的化妆工具在你的皮肤上画一个符文来补充你的魔法来源。你可以把这个符文作为一个额外动作涂抹掉，重新获得一个一级法术槽。一旦你用这个功能补充了一个法术槽，你就不能在身上重新涂抹符文，直到你完成一个短期或长期休息。"
			]
		},
		{
			"name": "Rouge Specialisation feature",
			"source": "WRTR",
			"className": "Rouge",
			"classSource": "WRTR",
			"page": 4,
			"level": 6,
			"entries": [
				"在6级时，你获得了一个由你的红色专业所赋予的功能。"
			]
		},
		{
			"name": "Ability Score Improvement",
			"source": "WRTR",
			"className": "Rouge",
			"classSource": "WRTR",
			"page": 4,
			"level": 8,
			"entries": [
				"当你达到8级时，你可以将你选择的一项能力得分提高2分，或者将你选择的两项能力得分提高1分。",
				"如果你的DM允许使用特技，你可以改用{@5etools feat|feats.html}。"
			]
		},
		{
			"name": "Inked Magic (2nd)",
			"source": "WRTR",
			"className": "Rouge",
			"classSource": "WRTR",
			"page": 4,
			"level": 9,
			"entries": [
				"9级时，你获得了在皮肤上绘制第二个符文的知识。这第二个符文的功能与第一个相同，但可以用来补充一个一级或二级的法术槽。"
			]
		},
		{
			"name": "Someone Else's Face",
			"source": "WRTR",
			"className": "Rouge",
			"classSource": "WRTR",
			"page": 4,
			"level": 10,
			"entries": [
				"从10级开始，你的化妆能力变得不可思议。在研究一张人脸至少10分钟后，你可以再花10分钟将那张脸完美地复制到自己身上。除了改变你的脸之外，你的魔法还能改变你的声音，使之与之匹配，还能使你变矮或变高，最多达到1英尺。这些效果一直持续到卸妆为止。",
				"一个可疑的生物可以用智慧（（%0%））检查你的能力，用你的法术救赎DC来确定你是个冒牌货。如果该生物与此人有密切的关系，则在这个检查中具有优势。"
			]
		},
		{
			"name": "Ability Score Improvement",
			"source": "WRTR",
			"className": "Rouge",
			"classSource": "WRTR",
			"page": 4,
			"level": 12,
			"entries": [
				"当你达到12级时，你可以将你选择的一项能力得分提高2分，或者将你选择的两项能力得分提高1分。",
				"如果你的DM允许使用特技，你可以改用{@5etools feat|feats.html}。"
			]
		},
		{
			"name": "Rouge Specialisation feature",
			"source": "WRTR",
			"className": "Rouge",
			"classSource": "WRTR",
			"page": 4,
			"level": 13,
			"entries": [
				"在13级时，你获得了一个由你的红色专业所赋予的功能。"
			]
		},
		{
			"name": "Comedy and Drama",
			"source": "WRTR",
			"className": "Rouge",
			"classSource": "WRTR",
			"page": 4,
			"level": 14,
			"entries": [
				"从14级开始，当你受到咒语或其他魔法效果的影响时，你可以采取一个行动来重新涂抹你的脸，在这个过程中改变你的表情。如果你这样做了，你为结束咒语或效果所做的下一次蓄力就会有优势。这并不能结束任何依赖化妆的效果。它还可以将你的情绪从乐观变为悲观，反之亦然。"
			]
		},
		{
			"name": "Inked Magic (3rd)",
			"source": "WRTR",
			"className": "Rouge",
			"classSource": "WRTR",
			"page": 4,
			"level": 15,
			"entries": [
				"15级时，你获得了在皮肤上绘制第三个符文的知识。这第三个符文的功能与第一个和第二个相同，但可以用来补充一个一级、二级或三级的法术槽。"
			]
		},
		{
			"name": "Ability Score Improvement",
			"source": "WRTR",
			"className": "Rouge",
			"classSource": "WRTR",
			"page": 4,
			"level": 16,
			"entries": [
				"当你达到16级时，你可以将你选择的一项能力得分提高2分，或者将你选择的两项能力得分提高1分。",
				"如果你的DM允许使用特技，你可以改用{@5etools feat|feats.html}。"
			]
		},
		{
			"name": "Face of Habit",
			"source": "WRTR",
			"className": "Rouge",
			"classSource": "WRTR",
			"page": 4,
			"level": 18,
			"entries": [
				"在18级的时候，你已经非常善于画你的脸，以至于你的大部分魔法能力都是在无意识的情况下产生的。你不需要花费法术槽来施展你的专业法术列表中的一级法术。要想施展更高层次的法术，你必须花费相应的法术槽。例如，一个小丑可以随意施放（%0%），也可以花一个2级法术槽来施放更高等级的（%1%）。"
			]
		},
		{
			"name": "Ability Score Improvement",
			"source": "WRTR",
			"className": "Rouge",
			"classSource": "WRTR",
			"page": 4,
			"level": 19,
			"entries": [
				"当你达到19级时，你可以将你选择的一项能力得分提高2分，或者将你选择的两项能力得分提高1分。",
				"如果你的DM允许使用特技，你可以改用{@5etools feat|feats.html}。"
			]
		},
		{
			"name": "Rouge Specialisation feature",
			"source": "WRTR",
			"className": "Rouge",
			"classSource": "WRTR",
			"page": 4,
			"level": 20,
			"entries": [
				"在20级时，你获得了一个由你的红色专业所赋予的功能。"
			]
		}
	],
	"subclass": [
		{
			"name": "The Clown",
			"source": "WRTR",
			"className": "Rouge",
			"classSource": "WRTR",
			"shortName": "The Clown",
			"page": 4,
			"subclassSpells": [
				"friends",
				"vicious mockery",
				"color spray",
				"tasha's hideous laughter",
				"crown of madness",
				"magic mouth",
				"fear",
				"feign death",
				"confusion",
				"freedom of movement",
				"cloudkill",
				"dream"
			],
			"additionalSpells": [
				{
					"prepared": {
						"2": [
							"color spray",
							"tasha's hideous laughter"
						],
						"3": [
							"crown of madness",
							"magic mouth"
						],
						"5": [
							"fear",
							"feign death"
						],
						"7": [
							"confusion",
							"freedom of movement"
						],
						"9": [
							"cloudkill",
							"dream"
						]
					},
					"innate": {
						"2": [
							"friends#c",
							"vicious mockery#c"
						]
					}
				}
			],
			"subclassFeatures": [
				"The Clown|Rouge|WRTR|The Clown|WRTR|2",
				"Favoured Face Option: The Whole Circus|Rouge|WRTR|The Clown|WRTR|3",
				"Fearful Magic|Rouge|WRTR|The Clown|WRTR|6",
				"Just Clowning Around|Rouge|WRTR|The Clown|WRTR|13",
				"Pop-Up Carnival|Rouge|WRTR|The Clown|WRTR|20"
			]
		},
		{
			"name": "Effects Master",
			"source": "WRTR",
			"className": "Rouge",
			"classSource": "WRTR",
			"page": 5,
			"shortName": "Effects Master",
			"subclassSpells": [
				"minor illusion",
				"thuamaturgy",
				"color spray",
				"silent image",
				"mirror image",
				"phantasmal force",
				"hypnotic pattern",
				"major image",
				"hallucinatory terrain",
				"phantasmal killer",
				"modify memory",
				"seeming"
			],
			"additionalSpells": [
				{
					"prepared": {
						"2": [
							"color spray",
							"silent image"
						],
						"3": [
							"mirror image",
							"phantasmal force"
						],
						"5": [
							"hypnotic pattern",
							"major image"
						],
						"7": [
							"hallucinatory terrain",
							"phantasmal killer"
						],
						"9": [
							"modify memory",
							"seeming"
						]
					},
					"innate": {
						"2": [
							"minor illusion#c",
							"thaumaturgy#c"
						]
					}
				}
			],
			"subclassFeatures": [
				"Effects Master|Rouge|WRTR|Effects Master|WRTR|2",
				"Favoured Face Option: Special Effect|Rouge|WRTR|Effects Master|WRTR|3",
				"Fearful Magic|Rouge|WRTR|Effects Master|WRTR|6",
				"Mysterious Illusions|Rouge|WRTR|Effects Master|WRTR|13",
				"You Won't Believe Your Eyes|Rouge|WRTR|Effects Master|WRTR|20"
			]
		},
		{
			"name": "Fashionista",
			"source": "WRTR",
			"className": "Rouge",
			"classSource": "WRTR",
			"page": 5,
			"shortName": "Fashionista",
			"subclassSpells": [
				"dancing lights",
				"thaumaturgy",
				"faerie fire",
				"guiding bolt",
				"enthrall",
				"pyrotechnics|xge",
				"daylight",
				"hypnotic pattern",
				"dominate beast",
				"hallucinatory terrain",
				"dawn|xge",
				"wall of light|xge"
			],
			"additionalSpells": [
				{
					"prepared": {
						"2": [
							"faerie fire",
							"guiding bolt"
						],
						"3": [
							"enthrall",
							"pyrotechnics|xge"
						],
						"5": [
							"daylight",
							"hypnotic pattern"
						],
						"7": [
							"dominate beast",
							"hallucinatory terrain"
						],
						"9": [
							"dawn|XGE",
							"wall of light|xge"
						]
					},
					"innate": {
						"2": [
							"dancing lights#c",
							"thaumaturgy#c"
						]
					}
				}
			],
			"subclassFeatures": [
				"Fashionista|Rouge|WRTR|Fashionista|WRTR|2",
				"Favoured Face Option: Gliding Model|Rouge|WRTR|Fashionista|WRTR|3",
				"Charming Magic|Rouge|WRTR|Fashionista|WRTR|6",
				"Belle of the Ball|Rouge|WRTR|Fashionista|WRTR|13",
				"Belle of the Ball Improvement|Rouge|WRTR|Fashionista|WRTR|20"
			]
		},
		{
			"name": "Goth",
			"source": "WRTR",
			"className": "Rouge",
			"classSource": "WRTR",
			"page": 6,
			"shortName": "Goth",
			"subclassSpells": [
				"chill touch",
				"spare the dying",
				"protection from evil and good",
				"sleep",
				"darkness",
				"gentle repose",
				"bestow curse",
				"speak with dead",
				"banishment",
				"dispel evil and good",
				"dream"
			],
			"additionalSpells": [
				{
					"prepared": {
						"2": [
							"protection from evil and good",
							"sleep"
						],
						"3": [
							"darkness",
							"gentle repose"
						],
						"5": [
							"bestow curse",
							"speak with dead"
						],
						"7": [
							"banishment",
							"death ward"
						],
						"9": [
							"dispel evil and good",
							"dream"
						]
					},
					"innate": {
						"2": [
							"chill touch#c",
							"spare the dying#c"
						]
					}
				}
			],
			"subclassFeatures": [
				"Goth|Rouge|WRTR|Goth|WRTR|2",
				"Favoured Face Option: The Veil of Death|Rouge|WRTR|Goth|WRTR|3",
				"Fearful Magic|Rouge|WRTR|Goth|WRTR|6",
				"Nightmare Weaver|Rouge|WRTR|Goth|WRTR|13",
				"Deepest, Darkest Fears|Rouge|WRTR|Goth|WRTR|20"
			]
		},
		{
			"name": "Pretty Face",
			"source": "WRTR",
			"className": "Rouge",
			"classSource": "WRTR",
			"page": 6,
			"shortName": "Pretty Face",
			"subclassSpells": [
				"friends",
				"guidance",
				"charm person",
				"command",
				"enthrall",
				"suggestion",
				"counterspell",
				"hypnotic pattern",
				"charm monster",
				"compulsion",
				"geas",
				"modify memory"
			],
			"additionalSpells": [
				{
					"prepared": {
						"2": [
							"charm person",
							"enthrall"
						],
						"3": [
							"enthrall",
							"suggestion"
						],
						"5": [
							"counterspell",
							"bestow curse"
						],
						"7": [
							"charm monster",
							"compulsion"
						],
						"9": [
							"geas",
							"modify memory"
						]
					},
					"innate": {
						"2": [
							"friends#c",
							"guidance#c"
						]
					}
				}
			],
			"subclassFeatures": [
				"Pretty Face|Rouge|WRTR|Pretty Face|WRTR|2",
				"Favoured Face Option: White as Snow|Rouge|WRTR|Pretty Face|WRTR|3",
				"Charming Magic|Rouge|WRTR|Pretty Face|WRTR|6",
				"Boundless Charm|Rouge|WRTR|Pretty Face|WRTR|13",
				"It's What's Outside That Counts|Rouge|WRTR|Pretty Face|WRTR|13",
				"Irresistible|Rouge|WRTR|Pretty Face|WRTR|20"
			]
		}
	],
	"subclassFeature": [
		{
			"name": "The Clown",
			"source": "WRTR",
			"className": "Rouge",
			"classSource": "WRTR",
			"subclassShortName": "The Clown",
			"subclassSource": "WRTR",
			"level": 2,
			"entries": [
				"小丑是一个艺人，但同样他们也是一个恐怖的形象，他们借鉴了死者的幽灵般的苍白，毒甲虫的鲜红嘴唇，臃肿的尸体的凹陷的眼睛，带刺的毛发，以及一个没有主人的木偶的痞子动作。",
				{
					"type": "table",
					"caption": "Clown Spells",
					"colLabels": [
						"Spell Level",
						"Spells"
					],
					"colStyles": [
						"col-3 text-center",
						"col-9"
					],
					"rows": [
						[
							"1st",
							"{@spell color spray}, {@spell Tasha's hideous Laughter}"
						],
						[
							"2nd",
							"{@spell crown of madness}, {@spell magic mouth}"
						],
						[
							"3rd",
							"{@spell fear}, {@spell feign death}"
						],
						[
							"4th",
							"{@spell confusion}, {@spell freedom of movement}"
						],
						[
							"5th",
							"{@spell cloudkill}, {@spell dream}"
						]
					]
				},
				{
					"type": "refSubclassFeature",
					"subclassFeature": "Clown Make-Up|Rouge|WRTR|The Clown|WRTR|2|WRTR"
				},
				{
					"type": "refSubclassFeature",
					"subclassFeature": "Tumbling Fool|Rouge|WRTR|The Clown|WRTR|2|WRTR"
				}
			]
		},
		{
			"name": "Clown Make-Up",
			"source": "WRTR",
			"className": "Rouge",
			"classSource": "WRTR",
			"subclassShortName": "The Clown",
			"subclassSource": "WRTR",
			"level": 2,
			"header": 1,
			"entries": [
				"在2级学习此专长后，当你穿上化妆时，你知道（%0%）和（%1%）。这并不计入你所知道的咒语数量。"
			]
		},
		{
			"name": "Tumbling Fool",
			"source": "WRTR",
			"className": "Rouge",
			"classSource": "WRTR",
			"subclassShortName": "The Clown",
			"subclassSource": "WRTR",
			"level": 2,
			"header": 1,
			"entries": [
				"从你在2级学习这个专业时开始，如果你还没有精通（%0%），你就会变得精通。",
				"在你化妆的时候，当你受到摔倒的伤害时，如果伤害小于你的胭脂水粉等级x5，你可以选择无视。此外，当你化妆时，你可以采取{@action Disengage}的行动作为奖励行动。"
			]
		},
		{
			"name": "Favoured Face Option: The Whole Circus",
			"source": "WRTR",
			"className": "Rouge",
			"classSource": "WRTR",
			"subclassShortName": "The Clown",
			"subclassSource": "WRTR",
			"level": 3,
			"header": 2,
			"entries": [
				"在第三级时，这个选项对你来说是可用的。",
				"当一个生物用近战攻击击中你时，你那空洞的眼神和虚假的微笑让他们深感不安。作为反应，你迫使该生物对你的法术救赎DC进行智慧救赎，在救赎失败的情况下，成为你的（%0%），直到你下一回合结束。拯救成功的生物会在24小时内对这个效果免疫。"
			]
		},
		{
			"name": "Fearful Magic",
			"source": "WRTR",
			"className": "Rouge",
			"classSource": "WRTR",
			"subclassShortName": "The Clown",
			"subclassSource": "WRTR",
			"level": 6,
			"header": 2,
			"entries": [
				"从6级开始，当一个生物对你1级或以上的法术的救赎失败时，如果你选择，该生物在法术的持续时间内也是你的（%0%）。"
			]
		},
		{
			"name": "Just Clowning Around",
			"source": "WRTR",
			"className": "Rouge",
			"classSource": "WRTR",
			"subclassShortName": "The Clown",
			"subclassSource": "WRTR",
			"level": 13,
			"header": 2,
			"entries": [
				"从13级开始，你在战斗中使用（%0%）的能力显著提高。你可以在法术的伤害上加上你的魅力修饰，救治成功的生物会受到一半的伤害而不是没有。"
			]
		},
		{
			"name": "Pop-Up Carnival",
			"source": "WRTR",
			"className": "Rouge",
			"classSource": "WRTR",
			"subclassShortName": "The Clown",
			"subclassSource": "WRTR",
			"level": 20,
			"header": 2,
			"entries": [
				"从20级开始，你有能力将一个生物困在一个幻觉狂欢的噩梦中。当一个生物对你的恶毒嘲弄的救赎失败时，你可以使用这个特性使该生物立即陷入你扭曲的狂欢。这个特性对能看穿幻觉的生物没有影响，例如那些有（%0%）的生物。",
				"受影响的生物会被击晕，也会对周围的环境失明和失聪。效果持续到你的下一回合结束，这时幻觉停止，而该生物从其可怕的经历中回过神来时，会受到{@dice 10d10}精神伤害。",
				"一旦你使用了这个功能，你就不能再使用它，直到你完成一个短期或长期的休息。"
			]
		},
		{
			"name": "Effects Master",
			"source": "WRTR",
			"className": "Rouge",
			"classSource": "WRTR",
			"subclassShortName": "Effects Master",
			"subclassSource": "WRTR",
			"level": 2,
			"entries": [
				"效果大师擅长创造特殊效果和幻觉。他们的化妆延伸到他们面前的世界，从他们的皮肤上跃出，形成奇怪而迷人的创作。",
				{
					"type": "table",
					"caption": "Effects Master Spells",
					"colLabels": [
						"Spell Level",
						"Spells"
					],
					"colStyles": [
						"col-3 text-center",
						"col-9"
					],
					"rows": [
						[
							"1st",
							"{@spell color spray}, {@spell silent image}"
						],
						[
							"2nd",
							"{@spell mirror image}, {@spell phantasmal force}"
						],
						[
							"3rd",
							"{@spell hypnotic pattern}, {@spell major image}"
						],
						[
							"4th",
							"{@spell hallucinatory terrain}, {@spell phantasmal killer}"
						],
						[
							"5th",
							"{@spell modify memory}, {@spell seeming}"
						]
					]
				},
				{
					"type": "refSubclassFeature",
					"subclassFeature": "Effects Make-Up|Rouge|WRTR|Effects Master|WRTR|2|WRTR"
				},
				{
					"type": "refSubclassFeature",
					"subclassFeature": "Illusory Visage|Rouge|WRTR|Effects Master|WRTR|2|WRTR"
				}
			]
		},
		{
			"name": "Effects Make-Up",
			"source": "WRTR",
			"className": "Rouge",
			"classSource": "WRTR",
			"subclassShortName": "Effects Master",
			"subclassSource": "WRTR",
			"level": 2,
			"header": 1,
			"entries": [
				"在2级学习此专长后，当你带着你的妆容时，你知道（%0%）和（%1%）。这并不计入你所知道的咒语数量。"
			]
		},
		{
			"name": "Illusory Visage",
			"source": "WRTR",
			"className": "Rouge",
			"classSource": "WRTR",
			"subclassShortName": "Effects Master",
			"subclassSource": "WRTR",
			"level": 2,
			"header": 1,
			"entries": [
				"从你在2级的时候开始，当你化妆的时候，生物不会对你的脸形成记忆，除非它们对被免疫（%0%）。生物可以通过其他方式记住你，比如通过你的衣服、你的身材、你的行为、你的装备或你的声音，但你的脸在他们的记忆中会显示为模糊的污点。你可以选择特定的生物来忽略这个效果。"
			]
		},
		{
			"name": "Favoured Face Option: Special Effect",
			"source": "WRTR",
			"className": "Rouge",
			"classSource": "WRTR",
			"subclassShortName": "Effects Master",
			"subclassSource": "WRTR",
			"level": 3,
			"header": 2,
			"entries": [
				"在第三级时，这个选项对你来说是可用的。",
				"你脸上的妆容是由形状和颜色组成的变幻莫测的瘴气。作为一个动作，你可以重新塑造你的妆容，以形成你记忆或想象中的场景，在你的妆容的限制下创造一个粗略的视觉近似。"
			]
		},
		{
			"name": "Fearful Magic",
			"source": "WRTR",
			"className": "Rouge",
			"classSource": "WRTR",
			"subclassShortName": "Effects Master",
			"subclassSource": "WRTR",
			"level": 6,
			"header": 2,
			"entries": [
				"从6级开始，当一个生物对你1级或以上的法术的救赎失败时，如果你选择，该生物在法术的持续时间内也是你的（%0%）。"
			]
		},
		{
			"name": "Mysterious Illusions",
			"source": "WRTR",
			"className": "Rouge",
			"classSource": "WRTR",
			"subclassShortName": "Effects Master",
			"subclassSource": "WRTR",
			"level": 13,
			"header": 2,
			"entries": [
				"从13级开始，你通过（%0%）和（%1%）创造的幻象对大小没有限制。"
			]
		},
		{
			"name": "You Won't Believe Your Eyes",
			"source": "WRTR",
			"className": "Rouge",
			"classSource": "WRTR",
			"subclassShortName": "Effects Master",
			"subclassSource": "WRTR",
			"level": 20,
			"header": 2,
			"entries": [
				"从20级开始，当一个生物对你的一个1级或以上的法术救治失败时，除了法术的效果外，你可以强迫该生物因其经验而变得疯狂。这种疯狂持续时间为（%0%）分钟。一旦一个生物被这个效果所迷惑，它在24小时内就不能再以同样的方式迷惑。在《地下城管理员指南》中的{@table Short-Term Madness|DMG}表格上滚动，以确定目标的疯狂程度。"
			]
		},
		{
			"name": "Fashionista",
			"source": "WRTR",
			"className": "Rouge",
			"classSource": "WRTR",
			"subclassShortName": "Fashionista",
			"subclassSource": "WRTR",
			"level": 2,
			"entries": [
				"时尚达人始终是注意力的中心，他们在聚光灯下慵懒地生活着，用他们的魔力照亮房间，沐浴在自己的光辉之中。",
				{
					"type": "table",
					"caption": "Fashionista Spells",
					"colLabels": [
						"Spell Level",
						"Spells"
					],
					"colStyles": [
						"col-3 text-center",
						"col-9"
					],
					"rows": [
						[
							"1st",
							"{@spell faerie fire}, {@spell guiding bolt}"
						],
						[
							"2nd",
							"{@spell enthrall}, {@spell pyrotechnics|XGE}"
						],
						[
							"3rd",
							"{@spell daylight}, {@spell hypnotic pattern}"
						],
						[
							"4th",
							"{@spell dominate beast}, {@spell hallucinatory terrain}"
						],
						[
							"5th",
							"{@spell dawn|XGE}, {@spell wall of light|XGE}"
						]
					]
				},
				{
					"type": "refSubclassFeature",
					"subclassFeature": "Fashionista Make-Up|Rouge|WRTR|Fashionista|WRTR|2|WRTR"
				},
				{
					"type": "refSubclassFeature",
					"subclassFeature": "Fashion Statement|Rouge|WRTR|Fashionista|WRTR|2|WRTR"
				}
			]
		},
		{
			"name": "Fashionista Make-Up",
			"source": "WRTR",
			"className": "Rouge",
			"classSource": "WRTR",
			"subclassShortName": "Fashionista",
			"subclassSource": "WRTR",
			"level": 2,
			"header": 1,
			"entries": [
				"在2级学习此专长后，当你穿上化妆时，你知道（%0%）和（%1%）。这并不计入你所知道的咒语数量。"
			]
		},
		{
			"name": "Fashion Statement",
			"source": "WRTR",
			"className": "Rouge",
			"classSource": "WRTR",
			"subclassShortName": "Fashionista",
			"subclassSource": "WRTR",
			"level": 2,
			"header": 1,
			"entries": [
				"从你在2级的时候开始，当你化妆的时候，你可以发出光芒，在10英尺内发出亮光，在10英尺外发出暗光。在强光下的生物对你的近战攻击卷轴有劣势，除非它能通过它的其他感官看到你。你可以通过涂抹或重新涂抹你的部分化妆品来解除或重新激活这个效果，作为一个动作。"
			]
		},
		{
			"name": "Favoured Face Option: Gliding Model",
			"source": "WRTR",
			"className": "Rouge",
			"classSource": "WRTR",
			"subclassShortName": "Fashionista",
			"subclassSource": "WRTR",
			"level": 3,
			"header": 2,
			"entries": [
				"在第三级时，这个选项对你来说是可用的。",
				"你在能力检查和避免被击倒的自救动作上有优势（%0%），并且你可以忽略困难地形的影响。"
			]
		},
		{
			"name": "Charming Magic",
			"source": "WRTR",
			"className": "Rouge",
			"classSource": "WRTR",
			"subclassShortName": "Fashionista",
			"subclassSource": "WRTR",
			"level": 6,
			"header": 2,
			"entries": [
				"从6级开始，当一个生物对你1级或以上的法术的救赎失败时，如果你选择，该生物也会在法术的持续时间内被你（%0%）。"
			]
		},
		{
			"name": "Belle of the Ball",
			"source": "WRTR",
			"className": "Rouge",
			"classSource": "WRTR",
			"subclassShortName": "Fashionista",
			"subclassSource": "WRTR",
			"level": 13,
			"header": 2,
			"entries": [
				"从13级开始，作为一个行动，你可以选择一个你能看到的在你位置60英尺内的生物。目标必须对你的法术救赎DC进行智慧救赎成功，否则会被你变成（%0%）。当{@condition charmed}时，该生物不能用它的正常视力感知你以外的生物。在它的每个回合结束时，目标可以重新进行蓄力，如果成功则提前结束效果。",
				"一旦效果结束或目标对该特征的任何救赎成功，目标在24小时内对该特征免疫，并且你必须在再次使用该特征前完成一个短或长的休息。"
			]
		},
		{
			"name": "Belle of the Ball Improvement",
			"source": "WRTR",
			"className": "Rouge",
			"classSource": "WRTR",
			"subclassShortName": "Fashionista",
			"subclassSource": "WRTR",
			"level": 20,
			"header": 2,
			"entries": [
				"在20级时，当你第一次选择目标时，你还可以选择在原目标30英尺内你能看到的另外两个生物受到影响。当一个生物被你用这个特性影响到（%0%）时，你可以在随后的回合中使用你的行动来针对其他的生物，对生物的总数量没有限制（%1%）。所有的效果在最初使用该功能一分钟后结束，如果它们还没有结束的话。"
			]
		},
		{
			"name": "Goth",
			"source": "WRTR",
			"className": "Rouge",
			"classSource": "WRTR",
			"subclassShortName": "Goth",
			"subclassSource": "WRTR",
			"level": 2,
			"entries": [
				"哥特人控制了他们的噩梦，并利用它们来对抗世界的真正恐怖。最坏的情况不在我们体内。我们的内心有一种力量，可以确保没有一个无辜的人再躺在恐惧中醒来。",
				{
					"type": "table",
					"caption": "Goth Spells",
					"colLabels": [
						"Spell Level",
						"Spells"
					],
					"colStyles": [
						"col-3 text-center",
						"col-9"
					],
					"rows": [
						[
							"1st",
							"{@spell protection from evil and good}, {@spell sleep}"
						],
						[
							"2nd",
							"{@spell darkness}, {@spell gentle repose}"
						],
						[
							"3rd",
							"{@spell bestow curse}, {@spell speak with dead}"
						],
						[
							"4th",
							"{@spell banishment}, {@spell death ward}"
						],
						[
							"5th",
							"{@spell dispel evil and good}, {@spell dream}"
						]
					]
				},
				{
					"type": "refSubclassFeature",
					"subclassFeature": "Goth Make-Up|Rouge|WRTR|Goth|WRTR|2|WRTR"
				},
				{
					"type": "refSubclassFeature",
					"subclassFeature": "Blanket of Darkness|Rouge|WRTR|Goth|WRTR|2|WRTR"
				}
			]
		},
		{
			"name": "Goth Make-Up",
			"source": "WRTR",
			"className": "Rouge",
			"classSource": "WRTR",
			"subclassShortName": "Goth",
			"subclassSource": "WRTR",
			"level": 2,
			"header": 1,
			"entries": [
				"在2级学习此专长后，当你穿上化妆时，你知道（%0%）和（%1%）。这并不计入你所知道的咒语数量。"
			]
		},
		{
			"name": "Blanket of Darkness",
			"source": "WRTR",
			"className": "Rouge",
			"classSource": "WRTR",
			"subclassShortName": "Goth",
			"subclassSource": "WRTR",
			"level": 2,
			"header": 1,
			"entries": [
				"从2级开始，当你化妆的时候，你可以使用你的行动来融合到一个昏暗的光线或黑暗的区域，变得（%0%），直到你下一个回合结束，或者直到你做出攻击卷或强迫生物做出拯救动作。当你是{@condition invisible}时，你的速度是0，但你可以使用你的额外行动将你传送到30英尺外你能看到的昏暗光线或黑暗的空地上。"
			]
		},
		{
			"name": "Favoured Face Option: The Veil of Death",
			"source": "WRTR",
			"className": "Rouge",
			"classSource": "WRTR",
			"subclassShortName": "Goth",
			"subclassSource": "WRTR",
			"level": 3,
			"header": 2,
			"entries": [
				"在第三级时，这个选项对你来说是可用的。",
				"当你不动的时候，你和尸体是没有区别的。一个生物可以用智慧（（%0%））对你的法术救赎DC进行检查，以确定你是活着的。"
			]
		},
		{
			"name": "Fearful Magic",
			"source": "WRTR",
			"className": "Rouge",
			"classSource": "WRTR",
			"subclassShortName": "Goth",
			"subclassSource": "WRTR",
			"level": 6,
			"header": 2,
			"entries": [
				"从6级开始，当一个生物对你1级或以上的法术的救赎失败时，如果你选择，该生物在法术的持续时间内也是你的（%0%）。"
			]
		},
		{
			"name": "Nightmare Weaver",
			"source": "WRTR",
			"className": "Rouge",
			"classSource": "WRTR",
			"subclassShortName": "Goth",
			"subclassSource": "WRTR",
			"level": 13,
			"header": 2,
			"entries": [
				"从13级开始，你可以在施法后重新获得一个5级或更低的法术槽（%0%）。一旦你这样做了，你就不能再这样做了，直到你完成一个长时间的休息。",
				"此外，被你施展过（%0%）的生物特别容易受到你的影响。在接下来的24小时内，在对你的{@spell dream}救赎失败后，一个生物对来自你的法术和其他魔法效果的智慧救赎有劣势。"
			]
		},
		{
			"name": "Deepest, Darkest Fears",
			"source": "WRTR",
			"className": "Rouge",
			"classSource": "WRTR",
			"subclassShortName": "Goth",
			"subclassSource": "WRTR",
			"level": 20,
			"header": 2,
			"entries": [
				"在20级时，你可以召唤出黑暗中的生物，在一个清醒的噩梦中压倒你的敌人。作为一个行动，你选择一个你能看到的30英尺内的生物。目标必须对你的法术救赎DC进行智慧救赎，否则就会被与它最深的恐惧有关的幽灵怪兽所包围。目标在1分钟内会有（%0%）。",
				"幽灵怪兽可以有任何形状。一些建议包括如下。",
				{
					"type": "list",
					"items": [
						"蛇缠绕在目标的腿上。",
						"蜘蛛用网将目标包裹起来。",
						"小恶魔盘旋在目标周围，用带刺的长矛戳来戳去，拉扯它的头发，从奥术契约中读出目标所做的所有坏事。",
						"目标人物已故家庭成员的幽灵般的幻影围绕着他们，批评他们没有达到预期。",
						"一个严峻的死亡幽灵用它的斗篷占有性地包裹着目标。时间到了。"
					]
				}
			]
		},
		{
			"name": "Pretty Face",
			"source": "WRTR",
			"className": "Rouge",
			"classSource": "WRTR",
			"subclassShortName": "Pretty Face",
			"subclassSource": "WRTR",
			"level": 2,
			"entries": [
				"大多数人都希望自己不仅仅是一张漂亮的脸蛋，但这些专家知道，他们不一定要这样。他们的化妆技巧确保他们比任何人都更有诱惑力和危险性，通过纯粹的吸引力吸引受害者，然后再利用他们并将他们抛弃。",
				{
					"type": "table",
					"caption": "Pretty Face Spells",
					"colLabels": [
						"Spell Level",
						"Spells"
					],
					"colStyles": [
						"col-3 text-center",
						"col-9"
					],
					"rows": [
						[
							"1st",
							"{@spell charm person}, {@spell command}"
						],
						[
							"2nd",
							"{@spell enthrall}, {@spell suggestion}"
						],
						[
							"3rd",
							"{@spell counterspell}, {@spell hypnotic pattern}"
						],
						[
							"4th",
							"{@spell charm monster}, {@spell compulsion}"
						],
						[
							"5th",
							"{@spell geas}, {@spell modify memory}"
						]
					]
				},
				{
					"type": "refSubclassFeature",
					"subclassFeature": "Pretty Make-Up|Rouge|WRTR|Pretty Face|WRTR|2|WRTR"
				},
				{
					"type": "refSubclassFeature",
					"subclassFeature": "Just Can't Resist|Rouge|WRTR|Pretty Face|WRTR|2|WRTR"
				}
			]
		},
		{
			"name": "Pretty Make-Up",
			"source": "WRTR",
			"className": "Rouge",
			"classSource": "WRTR",
			"subclassShortName": "Pretty Face",
			"subclassSource": "WRTR",
			"level": 2,
			"header": 1,
			"entries": [
				"在2级学习此专长后，当你穿上化妆时，你知道（%0%）和（%1%）。这并不计入你所知道的咒语数量。"
			]
		},
		{
			"name": "Just Can't Resist",
			"source": "WRTR",
			"className": "Rouge",
			"classSource": "WRTR",
			"subclassShortName": "Pretty Face",
			"subclassSource": "WRTR",
			"level": 2,
			"header": 1,
			"entries": [
				"在2级时，如果你还没有熟练掌握（%0%），你将成为精通（%0%）。在社交场合，你对魅力（%%）的检查具有优势。"
			]
		},
		{
			"name": "Favoured Face Option: White as Snow",
			"source": "WRTR",
			"className": "Rouge",
			"classSource": "WRTR",
			"subclassShortName": "Pretty Face",
			"subclassSource": "WRTR",
			"level": 3,
			"header": 2,
			"entries": [
				"在第三级时，这个选项对你来说是可用的。",
				"你可以通过声音和手势与小鸟、松鼠和鱼等小动物交流简单的想法。"
			]
		},
		{
			"name": "Charming Magic",
			"source": "WRTR",
			"className": "Rouge",
			"classSource": "WRTR",
			"subclassShortName": "Pretty Face",
			"subclassSource": "WRTR",
			"level": 6,
			"header": 2,
			"entries": [
				"从6级开始，当一个生物对你1级或以上的法术的救赎失败时，如果你选择，该生物也会在法术的持续时间内被你（%0%）。"
			]
		},
		{
			"name": "Boundless Charm",
			"source": "WRTR",
			"className": "Rouge",
			"classSource": "WRTR",
			"subclassShortName": "Pretty Face",
			"subclassSource": "WRTR",
			"level": 13,
			"header": 2,
			"entries": [
				"从13级开始，当魅力（（%0%））检查的结果小于15时，你的结果会变成15。"
			]
		},
		{
			"name": "It's What's Outside That Counts",
			"source": "WRTR",
			"className": "Rouge",
			"classSource": "WRTR",
			"subclassShortName": "Pretty Face",
			"subclassSource": "WRTR",
			"level": 13,
			"header": 2,
			"entries": [
				"同样在13级的时候，你可以花1小时给你能看到的盟友生物进行化妆。一旦化妆完成，当目标穿上这个妆容时，它就会分享你的无边魅力特征。8小时后化妆会自动消失。"
			]
		},
		{
			"name": "Irresistible",
			"source": "WRTR",
			"className": "Rouge",
			"classSource": "WRTR",
			"subclassShortName": "Pretty Face",
			"subclassSource": "WRTR",
			"level": 20,
			"header": 2,
			"entries": [
				"从20级开始，敌人对你1级或更高等级的附魔法术的救赎有劣势。"
			]
		}
	],
	"optionalfeature": [
		{
			"name": "Blushing Bride",
			"source": "WRTR",
			"page": 3,
			"entries": [
				"你在与人形生物调情的魅力检查中具有优势。"
			],
			"featureType": [
				"R:FFO"
			]
		},
		{
			"name": "Eyes of Horus",
			"source": "WRTR",
			"page": 3,
			"entries": [
				"你在依靠视力的智慧（（%0%））检查中具有优势。",
				{
					"type": "inset",
					"entries": [
						"注意：你的被动（%0%）得分也会因为这个宠爱的面孔选项而增加5分。"
					]
				}
			],
			"featureType": [
				"R:FFO"
			]
		},
		{
			"name": "Empty Doll",
			"source": "WRTR",
			"page": 3,
			"entries": [
				"其他生物对洞察你的思想或行为的智慧({@skill Insight})检查有劣势。"
			],
			"featureType": [
				"R:FFO"
			]
		},
		{
			"name": "Venomous Ivy",
			"source": "WRTR",
			"page": 3,
			"entries": [
				"当你用你的行动亲吻一个人形生物的嘴唇时，他们会受到{@dice 2d8}的中毒伤害。这个伤害在你的胭脂水粉5级时增加到（1%），在胭脂水粉11级时增加到（2%），在胭脂水粉17级时增加到（3%）。知道你想吻它的生物可以对你的法术救赎DC做一个灵巧的救赎，以避免被吻。"
			],
			"featureType": [
				"R:FFO"
			]
		},
		{
			"name": "Shadowy Stalker",
			"source": "WRTR",
			"page": 4,
			"entries": [
				"你可以在昏暗或黑暗中采取{@action Hide}的行动作为奖励行动。"
			],
			"featureType": [
				"R:FFO"
			]
		},
		{
			"name": "The Whole Circus",
			"source": "WRTR",
			"page": 4,
			"prerequisite": [
				{
					"level": {
						"level": 3,
						"class": {
							"name": "Rouge",
							"source": "WRTR"
						},
						"subclass": {
							"name": "The Clown",
							"source": "WRTR",
							"visible": true
						}
					}
				}
			],
			"entries": [
				"当一个生物用近战攻击击中你时，你那空洞的眼神和虚假的微笑让他们深感不安。作为反应，你迫使该生物对你的法术救赎DC进行智慧救赎，在救赎失败的情况下，成为你的（%0%），直到你下一回合结束。救赎成功的生物在24小时内对该效果免疫。一旦你使用了这个特性，你就不能再使用它，直到你完成一个短期或长期休息。"
			],
			"featureType": [
				"R:FFO"
			]
		},
		{
			"name": "Special Effect",
			"source": "WRTR",
			"page": 5,
			"prerequisite": [
				{
					"level": {
						"level": 3,
						"class": {
							"name": "Rouge",
							"source": "WRTR"
						},
						"subclass": {
							"name": "Effects Master",
							"source": "WRTR",
							"visible": true
						}
					}
				}
			],
			"entries": [
				"你脸上的妆容是由形状和颜色组成的变幻莫测的瘴气。作为一个动作，你可以重新塑造你的妆容，以形成你记忆或想象中的场景，在你的妆容的限制下创造出一个近似的视觉。"
			],
			"featureType": [
				"R:FFO"
			]
		},
		{
			"name": "Gliding Model",
			"source": "WRTR",
			"page": 5,
			"prerequisite": [
				{
					"level": {
						"level": 3,
						"class": {
							"name": "Rouge",
							"source": "WRTR"
						},
						"subclass": {
							"name": "Fashionista",
							"source": "WRTR",
							"visible": true
						}
					}
				}
			],
			"entries": [
				"你在能力检查和避免被击倒的自救动作上有优势（%0%），并且你可以忽略困难地形的影响。"
			],
			"featureType": [
				"R:FFO"
			]
		},
		{
			"name": "The Veil of Death",
			"source": "WRTR",
			"page": 6,
			"prerequisite": [
				{
					"level": {
						"level": 3,
						"class": {
							"name": "Rouge",
							"source": "WRTR"
						},
						"subclass": {
							"name": "Goth",
							"source": "WRTR",
							"visible": true
						}
					}
				}
			],
			"entries": [
				"当你不动的时候，你和尸体是没有区别的。一个生物可以用智慧（（%0%））对你的法术救赎DC进行检查，以确定你是活着的。"
			],
			"featureType": [
				"R:FFO"
			]
		},
		{
			"name": "White as Snow",
			"source": "WRTR",
			"page": 7,
			"prerequisite": [
				{
					"level": {
						"level": 3,
						"class": {
							"name": "Rouge",
							"source": "WRTR"
						},
						"subclass": {
							"name": "Pretty Face",
							"source": "WRTR",
							"visible": true
						}
					}
				}
			],
			"entries": [
				"你可以通过声音和手势与小鸟、松鼠和鱼等小动物交流简单的想法。"
			],
			"featureType": [
				"R:FFO"
			]
		}
	]
}
