{
	"_meta": {
		"sources": [
			{
				"json": "DM14",
				"abbreviation": "DM14",
				"full": "Deep Magic 14: Elemental Magic",
				"authors": [
					"Dan Dillon",
					"Kobold Press"
				],
				"convertedBy": [
					"Eberron94"
				],
				"version": "1.0",
				"color": "760f0b",
				"url": "https://www.dmsguild.com/product/226988/Deep-Magic-Elemental-Magic-for-5th-Edition",
				"targetSchema": "1.0.0"
			}
		],
		"dateAdded": 1547946726,
		"dateLastModified": 1707000424,
		"_dateLastModifiedHash": "f222b61008"
	},
	"feat": [
		{
			"name": "Negotiator",
			"source": "DM14",
			"page": 5,
			"entries": [
				"你已经磨练了交易和还价的诀窍，也许是通过与习惯于在谈判中占上风的生物交头接耳。你获得以下好处。",
				{
					"type": "list",
					"items": [
						"当一个比你大两个或以上体型的生物用近战武器攻击你时，你可以用你的反应使自己看起来很可怜，没有威胁性。该生物必须将其攻击转向不同的目标；如果在攻击者的范围内没有其他目标，它仍然可以攻击你。直到你下一个回合结束，你对该生物的下一次近战或远程攻击都是以优势进行的。在再次使用这个能力之前，你必须完成一次短暂或长时间的休息。",
						"当你购买商品或服务时，你可以尝试用反对的魅力（Persuasion）检查与卖家的智慧（Insight）相比。如果你赢了，你就能在交易中获得10%的折扣。一旦你对某个人使用了这个功能，你在一周内就不能再对他使用了。",
						"当你在停机期间支付生活费用时，这些费用就会减半。"
					]
				}
			],
			"ability": [
				{
					"cha": 1
				}
			]
		},
		{
			"name": "Survivor",
			"source": "DM14",
			"page": 5,
			"entries": [
				"你精通在恶劣的环境中生存，甚至在别人肯定会灭亡的地方茁壮成长。你获得以下好处。",
				{
					"type": "list",
					"items": [
						"你只需要像你这样体型的生物通常需要的一半的食物和水。",
						"你可以无限期地承受极端的温度，而且你会自动通过对极端的热和冷的蓄力，天数等于你的体质或智慧修正值，以较低者为准。在这段时间之后，你必须像平常一样进行蓄力，直到你在一个舒适的温度中度过24小时。"
					]
				}
			],
			"ability": [
				{
					"choose": {
						"from": [
							"con",
							"wis"
						],
						"amount": 1
					}
				}
			]
		}
	],
	"subclass": [
		{
			"name": "Elementalist",
			"shortName": "Elementalist",
			"source": "DM14",
			"page": 9,
			"subclassFeatures": [
				"Elementalist|Wizard||Elementalist|DM14|2",
				"Substitue Elements|Wizard||Elementalist|DM14|6",
				"Elemental Mastery|Wizard||Elementalist|DM14|6",
				"Absorb Elements|Wizard||Elementalist|DM14|10",
				"Elemental Mastery|Wizard||Elementalist|DM14|10",
				"Irresistible Strike|Wizard||Elementalist|DM14|14",
				"Elemental Mastery|Wizard||Elementalist|DM14|14"
			],
			"className": "Wizard",
			"classSource": "PHB"
		}
	],
	"optionalfeature": [
		{
			"name": "Elemental Adaptation",
			"featureType": [
				"EM"
			],
			"source": "DM14",
			"page": 9,
			"prerequisite": [
				{
					"level": {
						"level": 14,
						"class": {
							"name": "Elementalist Wizard"
						}
					}
				}
			],
			"entries": [
				"如果你还没有平面转移，你可以把它添加到你的法术书中，而且你可以在不消耗法术槽的情况下用这个精通施展一次。",
				"当你使用这个技能施展平面转移时，你只能前往与你的元素焦点相关的元素位面或物质位面。当你在那个元素位面时，你可以在那里生存，不惧怕恶劣的自然环境。你不会受到该位面正常条件下的伤害，你可以正常呼吸，并且你可以使用你的速度以适合该位面的方式移动（在空中飞行，在地上钻洞，在水中游泳）。当你完成长时间的休息后，你会重新获得使用这个技能施展飞机转移的能力。"
			]
		},
		{
			"name": "Elemental Binding",
			"featureType": [
				"EM"
			],
			"source": "DM14",
			"page": 9,
			"prerequisite": [
				{
					"level": {
						"level": 10,
						"class": {
							"name": "Elementalist Wizard"
						}
					}
				}
			],
			"entries": [
				"如果你还没有平面束缚，你可以把它加入你的法术书中，而且你可以用这个技能施放一次，而不需要消耗一个法术槽。当你以这种方式施法时，你必须以一个与你的元素焦点有关的元素生物为目标。如果该元素生物的蓄力失败，它将获得与你的巫师等级相当的临时命中率。当你完成一个长时间的休息后，你会重新获得用这个法术施展平面束缚的能力。"
			]
		},
		{
			"name": "Elemental Bulwark",
			"featureType": [
				"EM"
			],
			"source": "DM14",
			"page": 9,
			"prerequisite": [
				{
					"level": {
						"level": 6,
						"class": {
							"name": "Elementalist Wizard"
						}
					}
				}
			],
			"entries": [
				"你获得对与你的元素焦点相关的伤害类型的抵抗力，并且你在为保持对与你的元素焦点产生共鸣的法术的注意力而进行的宪法救赎中具有优势。"
			]
		},
		{
			"name": "Elemental Command",
			"featureType": [
				"EM"
			],
			"source": "DM14",
			"page": 9,
			"entries": [
				"作为一个行动，你可以瞄准一个你能看到的30英尺内的元素生物。只要你像集中精力施法一样保持注意力，该元素必须在智慧救赎中成功，否则就会被魅惑长达一个小时。如果你或你的同伴伤害了被魅惑的元素，或者对它采取了有害的行动，那么魅惑状态会立即结束。如果一个生物救赎成功，或者这个能力对它来说结束了，那么它在24小时内就不会被你迷惑了。"
			]
		},
		{
			"name": "Elemental Erosion",
			"featureType": [
				"EM"
			],
			"source": "DM14",
			"page": 10,
			"prerequisite": [
				{
					"level": {
						"level": 10,
						"class": {
							"name": "Elementalist Wizard"
						}
					}
				}
			],
			"entries": [
				"当你用一级或更高的法术伤害一个目标，并造成与你的元素焦点相关的伤害类型后，该目标会变得容易受到该伤害类型的伤害，直到你下一回合结束。你可以使用这个能力两次。当你完成短时或长时休息时，你会重新获得所有已消耗的使用次数。"
			]
		},
		{
			"name": "Ignite",
			"featureType": [
				"EM"
			],
			"source": "DM14",
			"page": 10,
			"entries": [
				"当你用一级或以上的法术对目标造成火力伤害时，你可以使用一个额外行动使目标着火。除非生物采取行动浇灭火焰，否则在其下一回合开始时，目标会受到该法术原先所受伤害的一半，并且火焰会熄灭。如果你用该法术伤害了一个以上的目标，请选择一个目标来着火。"
			]
		},
		{
			"name": "Intensified Element",
			"featureType": [
				"EM"
			],
			"source": "DM14",
			"page": 10,
			"entries": [
				"当你用法术对目标造成与你的元素焦点相关的伤害类型时，你会忽略目标对该伤害类型的任何抵抗。"
			]
		},
		{
			"name": "Overwhelming Onslaught",
			"featureType": [
				"EM"
			],
			"source": "DM14",
			"page": 10,
			"prerequisite": [
				{
					"level": {
						"level": 14,
						"class": {
							"name": "Elementalist Wizard"
						}
					}
				}
			],
			"entries": [
				"当你用一级或以上的法术伤害一个目标，并造成与你的元素焦点相关的伤害类型时，你可以在它周围编织一个挥之不去的元素能量的光环。在它的回合开始时，该生物必须做一个宪法救赎动作。如果救赎失败，它就会受到该法术所造成的%0%的伤害，并被击晕，直到下一回合开始，或者是一半的伤害，成功后效果结束。",
				"你可以使用这个能力两次。当你完成短期或长期休息时，你会恢复所有已消耗的使用。"
			]
		},
		{
			"name": "Stony Refuge",
			"featureType": [
				"EM"
			],
			"source": "DM14",
			"page": 10,
			"entries": [
				"当你施展一级或更高等级的法术时，你可以使用一个额外行动在你和你选择的一个生物之间创造一块石板。直到你的下一回合结束，石板对所选生物提供一半的掩护。"
			]
		},
		{
			"name": "Sweeping Swell",
			"featureType": [
				"EM"
			],
			"source": "DM14",
			"page": 10,
			"entries": [
				"当你施展一级或更高等级的法术时，你可以使用一个额外的行动来创造一个横扫的水浪，以推动你在20英尺范围内可以看到的目标。该生物必须在力量救赎中成功，否则就会被推到你选择的方向上5英尺，并被打倒在地。"
			]
		},
		{
			"name": "Wind Blast",
			"featureType": [
				"EM"
			],
			"source": "DM14",
			"page": 10,
			"entries": [
				"当你施展一级或更高等级的法术时，你可以使用一个额外行动来创造一条长20英尺、宽5英尺的风线。风线中的每个生物都必须做一个力量救赎动作，否则会受到{@dice 1d6}的砍伤，并被推到离你10英尺远的风线方向上。"
			]
		}
	],
	"spell": [
		{
			"name": "Acid Rain",
			"level": 5,
			"school": "C",
			"source": "DM14",
			"page": 10,
			"time": [
				{
					"number": 1,
					"unit": "action"
				}
			],
			"range": {
				"type": "point",
				"distance": {
					"type": "feet",
					"amount": 150
				}
			},
			"components": {
				"v": true,
				"s": true,
				"m": "a drop of acid"
			},
			"duration": [
				{
					"type": "timed",
					"duration": {
						"type": "minute",
						"amount": 1,
						"upTo": true
					},
					"concentration": true
				}
			],
			"classes": {
				"fromClassList": [
					{
						"name": "Sorcerer",
						"source": "PHB"
					},
					{
						"name": "Warlock",
						"source": "PHB"
					},
					{
						"name": "Wizard",
						"source": "PHB"
					}
				]
			},
			"entries": [
				"你发动了一场酸液漩涡风暴，以你能看到的一个点为中心，形成一个20英尺宽、30英尺高的圆柱体。该区域被大雨严重遮蔽。第一次进入该区域的生物必须做一个灵巧的蓄力动作。如果救赎失败，该生物会受到{@damage 6d6}酸的伤害，如果救赎成功，则受到一半的伤害。当生物离开该区域时，它在下一回合开始时受到{@damage 3d6}的酸性伤害。"
			],
			"entriesHigherLevel": [
				{
					"type": "entries",
					"name": "At Higher Levels",
					"entries": [
						"当你使用七级以上的法术槽施放此法术时，初始伤害增加{@dice 2d6}，每超过五级的两个法术槽等级，二次伤害增加{@dice 1d6}。"
					]
				}
			],
			"savingThrow": [
				"dexterity"
			],
			"damageInflict": [
				"acid"
			],
			"miscTags": [
				"SGT"
			]
		},
		{
			"name": "Blizzard",
			"level": 7,
			"school": "C",
			"source": "DM14",
			"page": 11,
			"time": [
				{
					"number": 1,
					"unit": "action"
				}
			],
			"range": {
				"type": "point",
				"distance": {
					"type": "feet",
					"amount": 100
				}
			},
			"components": {
				"v": true,
				"s": true
			},
			"duration": [
				{
					"type": "timed",
					"duration": {
						"type": "minute",
						"amount": 1,
						"upTo": true
					},
					"concentration": true
				}
			],
			"classes": {
				"fromClassList": [
					{
						"name": "Sorcerer",
						"source": "PHB"
					},
					{
						"name": "Warlock",
						"source": "PHB"
					},
					{
						"name": "Wizard",
						"source": "PHB"
					}
				]
			},
			"entries": [
				"在一个40英尺宽、40英尺高的圆柱体中，出现了厚厚的雪和冰晶的呼啸风暴。该区域被漩涡状的雪严重遮蔽。当风暴出现时，该区域的每个生物都必须做一个 \"宪法救赎\"。拯救失败时，生物会受到{@damage 8d8}的寒冷伤害，拯救成功则会受到一半的伤害。当生物第一次进入该区域或结束其回合时，也必须做这个救赎。",
				"从这个咒语中受到寒冷伤害的生物，在其下一回合开始之前，为保持注意力而进行的宪法规定的投掷有劣势。"
			],
			"savingThrow": [
				"constitution"
			],
			"damageInflict": [
				"cold"
			]
		},
		{
			"name": "Caustic Torrent",
			"level": 8,
			"school": "C",
			"source": "DM14",
			"page": 11,
			"time": [
				{
					"number": 1,
					"unit": "action"
				}
			],
			"range": {
				"type": "line",
				"distance": {
					"type": "feet",
					"amount": 60
				}
			},
			"components": {
				"v": true,
				"s": true,
				"m": "a chip of bone pitted by acid"
			},
			"duration": [
				{
					"type": "instant"
				}
			],
			"classes": {
				"fromClassList": [
					{
						"name": "Sorcerer",
						"source": "PHB"
					},
					{
						"name": "Warlock",
						"source": "PHB"
					},
					{
						"name": "Wizard",
						"source": "PHB"
					}
				]
			},
			"entries": [
				"一股旋转的酸液从你身上向你选择的方向喷出。酸液会填满一条长60英尺、宽5英尺的线。该区域内的每个生物都必须做一个灵巧的蓄力动作。拯救失败时，生物会受到{@damage 14d6}的酸液伤害，拯救成功时，会受到一半的伤害。被此法术降低到0点的生物会被杀死，其身体会被液化。这条线会释放有毒的烟雾，在这条线5英尺范围内除你之外的每个生物都会中毒，持续1分钟。中毒的生物可以在它的回合结束时进行一次宪法救赎，如果成功，则结束对它的影响。"
			],
			"savingThrow": [
				"dexterity",
				"constitution"
			],
			"conditionInflict": [
				"poisoned"
			],
			"damageInflict": [
				"acid"
			]
		},
		{
			"name": "Drown",
			"level": 6,
			"school": "C",
			"source": "DM14",
			"page": 11,
			"time": [
				{
					"number": 1,
					"unit": "action"
				}
			],
			"range": {
				"type": "point",
				"distance": {
					"type": "feet",
					"amount": 30
				}
			},
			"components": {
				"v": true,
				"s": true,
				"m": "water from the lungs of a drowned creature"
			},
			"duration": [
				{
					"type": "timed",
					"duration": {
						"type": "minute",
						"amount": 1,
						"upTo": true
					},
					"concentration": true
				}
			],
			"classes": {
				"fromClassList": [
					{
						"name": "Sorcerer",
						"source": "PHB"
					},
					{
						"name": "Warlock",
						"source": "PHB"
					},
					{
						"name": "Wizard",
						"source": "PHB"
					}
				]
			},
			"entries": [
				"水围绕着你能看到的范围内的生物旋转起来，迫使自己进入生物的嘴和鼻子。该生物必须做一个力量救赎的动作。如果救赎失败，它就会因为水进入其肺部而眩晕，直到下一回合开始。拯救成功时，该生物不受影响。",
				"受影响的生物不能说话并开始窒息。作为一项行动，该生物可以通过重复蓄力来尝试将水从其肺部咳出。如果成功，咒语结束。可以呼吸水的生物不受此法术影响。"
			],
			"savingThrow": [
				"strength"
			],
			"conditionInflict": [
				"stunned"
			],
			"miscTags": [
				"SGT"
			]
		},
		{
			"name": "Earthskimmer",
			"level": 4,
			"school": "T",
			"source": "DM14",
			"page": 11,
			"time": [
				{
					"number": 1,
					"unit": "action"
				}
			],
			"range": {
				"type": "point",
				"distance": {
					"type": "self"
				}
			},
			"components": {
				"v": true,
				"s": true,
				"m": "a piece of shale or slate"
			},
			"duration": [
				{
					"type": "timed",
					"duration": {
						"type": "minute",
						"amount": 1,
						"upTo": true
					},
					"concentration": true
				}
			],
			"classes": {
				"fromClassList": [
					{
						"name": "Sorcerer",
						"source": "PHB"
					},
					{
						"name": "Warlock",
						"source": "PHB"
					},
					{
						"name": "Wizard",
						"source": "PHB"
					}
				]
			},
			"entries": [
				"你使泥土和石头在你的脚下升起，将你抬高至5英尺。在持续时间内，你可以用你的动作使石板以60英尺的速度沿着地面或其他坚固的表面滑行。这个动作无视困难的地形。如果你被推到或违背你的意愿被传送到其他地方，石板会和你一起移动。",
				"当你采取冲刺行动时，直到你的回合结束，你可以进入一个比你大一号的生物的空间，而该生物必须做一个力量储蓄动作。蓄力失败时，生物会受到{@damage 4d6}重击伤害，并被击倒在地；蓄力成功时，会受到一半的伤害，但不会被击倒在地。"
			],
			"savingThrow": [
				"strength"
			],
			"conditionInflict": [
				"prone"
			],
			"damageInflict": [
				"bludgeoning"
			]
		},
		{
			"name": "Entomb",
			"level": 6,
			"school": "T",
			"source": "DM14",
			"page": 12,
			"time": [
				{
					"number": 1,
					"unit": "action"
				}
			],
			"range": {
				"type": "point",
				"distance": {
					"type": "feet",
					"amount": 90
				}
			},
			"components": {
				"v": true,
				"s": true,
				"m": "a chip of granite"
			},
			"duration": [
				{
					"type": "timed",
					"duration": {
						"type": "hour",
						"amount": 8
					}
				}
			],
			"classes": {
				"fromClassList": [
					{
						"name": "Sorcerer",
						"source": "PHB"
					},
					{
						"name": "Warlock",
						"source": "PHB"
					},
					{
						"name": "Wizard",
						"source": "PHB"
					}
				]
			},
			"entries": [
				"你使石板从地面或其他石头表面迸发出来，在范围内形成一个10英尺的立方体。当立方体形成时，里面的生物必须在一个灵巧的救赎中成功，否则就会被困于石墓中。坟墓是密闭的，有足够的空气供一个中型或小型生物呼吸8小时。将时间平均分配给被困在里面的生物数量。一个大型生物可算作四个中型生物。如果空气耗尽时，生物仍然被困在里面，它就会开始窒息。",
				"墓穴有18点攻击力和50点命中率。它对火、冷、闪电、重击和砍击伤害有抵抗力，对毒药和精神伤害免疫，对雷霆伤害脆弱。当命中率降至0时，古墓会碎裂成无害的粉末。"
			],
			"savingThrow": [
				"dexterity"
			]
		},
		{
			"name": "Flame Wave",
			"level": 4,
			"school": "V",
			"source": "DM14",
			"page": 12,
			"time": [
				{
					"number": 1,
					"unit": "action"
				}
			],
			"range": {
				"type": "cone",
				"distance": {
					"type": "feet",
					"amount": 40
				}
			},
			"components": {
				"v": true,
				"s": true,
				"m": "a drop of tar, pitch, or oil"
			},
			"duration": [
				{
					"type": "instant"
				}
			],
			"classes": {
				"fromClassList": [
					{
						"name": "Sorcerer",
						"source": "PHB"
					},
					{
						"name": "Warlock",
						"source": "PHB"
					},
					{
						"name": "Wizard",
						"source": "PHB"
					}
				]
			},
			"entries": [
				"一股冲天的火光从你身上翻滚而出，填满了一个40英尺的圆锥体。该区域内的每个生物都必须做一个灵巧的蓄力动作。拯救失败时，生物会受到{@damage 6d8}的火力伤害，并被推到离你20英尺远的地方，或者在拯救成功时受到一半的伤害而不被推到。"
			],
			"entriesHigherLevel": [
				{
					"type": "entries",
					"name": "At Higher Levels",
					"entries": [
						"当你使用五级以上的法术槽施放此法术时，每超过四级的法术槽等级，伤害会增加（%0%）。"
					]
				}
			],
			"savingThrow": [
				"dexterity"
			],
			"miscTags": [
				"FMV"
			]
		},
		{
			"name": "Frostbite",
			"level": 5,
			"school": "V",
			"source": "DM14",
			"page": 12,
			"time": [
				{
					"number": 1,
					"unit": "action"
				}
			],
			"range": {
				"type": "point",
				"distance": {
					"type": "feet",
					"amount": 90
				}
			},
			"components": {
				"v": true,
				"s": true,
				"m": "a strip of dried flesh that has been frozen at least once"
			},
			"duration": [
				{
					"type": "timed",
					"duration": {
						"type": "minute",
						"amount": 1,
						"upTo": true
					},
					"concentration": true
				}
			],
			"classes": {
				"fromClassList": [
					{
						"name": "Sorcerer",
						"source": "PHB"
					},
					{
						"name": "Warlock",
						"source": "PHB"
					},
					{
						"name": "Wizard",
						"source": "PHB"
					}
				]
			},
			"entries": [
				"你使刺骨的寒冷在你能看到的生物周围形成。该生物必须在宪法救赎中成功，否则会受到{@damage 4d8}的寒冷伤害，速度降低到一半，并在攻击卷和能力检查中受到不利影响。对寒冷伤害免疫的生物不受此法术的影响。",
				"在持续时间内，目标必须在其回合开始时重复蓄力投掷。如果目标通过了三次针对该法术的蓄力投掷，则该法术结束。如果没有目标受到影响，则法术立即结束。"
			],
			"entriesHigherLevel": [
				{
					"type": "entries",
					"name": "At Higher Levels",
					"entries": [
						"当你使用6级或以上的法术槽施放此法术时，你可以针对5级以上的每一个法术槽等级的两个额外生物。"
					]
				}
			],
			"savingThrow": [
				"constitution"
			],
			"damageInflict": [
				"cold"
			],
			"miscTags": [
				"SGT"
			]
		},
		{
			"name": "Frozen Razors",
			"level": 3,
			"school": "V",
			"source": "DM14",
			"page": 12,
			"time": [
				{
					"number": 1,
					"unit": "action"
				}
			],
			"range": {
				"type": "point",
				"distance": {
					"type": "feet",
					"amount": 90
				}
			},
			"components": {
				"v": true,
				"s": true,
				"m": "water from melted icicle"
			},
			"duration": [
				{
					"type": "timed",
					"duration": {
						"type": "minute",
						"amount": 1,
						"upTo": true
					},
					"concentration": true
				}
			],
			"classes": {
				"fromClassList": [
					{
						"name": "Sorcerer",
						"source": "PHB"
					},
					{
						"name": "Warlock",
						"source": "PHB"
					},
					{
						"name": "Wizard",
						"source": "PHB"
					}
				]
			},
			"entries": [
				"锋利的冰刃从地面或其他表面喷涌而出，形成一个20英尺的立方体，以你能看到的范围内的一个点为中心。在持续时间内，该区域为轻度遮蔽和困难地形。在该区域内移动超过5英尺的生物，或进入该区域，必须做一个灵巧的救赎动作。如果救赎失败，该生物会受到{@damage 2d6}切割伤害和{@damage 3d6}寒冷伤害，如果救赎成功，会受到一半的伤害。从这个法术中受到寒冷伤害的生物会降低到一半的速度，直到下一回合开始。"
			],
			"entriesHigherLevel": [
				{
					"type": "entries",
					"name": "At Higher Levels",
					"entries": [
						"当你使用四级以上的法术槽施展此法术时，每超过三级的法术槽等级，伤害就会增加（%0%）。"
					]
				}
			],
			"savingThrow": [
				"dexterity"
			],
			"damageInflict": [
				"cold"
			],
			"miscTags": [
				"SGT"
			]
		},
		{
			"name": "Pummelstone",
			"level": 0,
			"school": "C",
			"source": "DM14",
			"page": 12,
			"time": [
				{
					"number": 1,
					"unit": "action"
				}
			],
			"range": {
				"type": "point",
				"distance": {
					"type": "feet",
					"amount": 60
				}
			},
			"components": {
				"v": true,
				"s": true,
				"m": "a pebble"
			},
			"duration": [
				{
					"type": "instant"
				}
			],
			"classes": {
				"fromClassList": [
					{
						"name": "Sorcerer",
						"source": "PHB"
					},
					{
						"name": "Warlock",
						"source": "PHB"
					},
					{
						"name": "Wizard",
						"source": "PHB"
					}
				]
			},
			"entries": [
				"你使一块拳头大小的石块出现并投掷到目标身上。进行一次范围性的法术攻击。一旦命中，目标会受到{@damage 1d6}的重击伤害。在它的下一个回合，当它进行攻击卷或能力检查时，目标必须掷出{@dice d4}，并从检查中减去结果。",
				"当你达到5级（{@dice 2d6}）、11级（{@dice 3d6}）和17级（{@dice 4d6}）时，该法术的伤害增加{@dice 1d6}。"
			],
			"spellAttack": [
				"R"
			],
			"damageInflict": [
				"acid",
				"bludgeoning",
				"cold",
				"fire",
				"force",
				"lightning",
				"necrotic",
				"piercing",
				"poison",
				"psychic",
				"radiant",
				"slashing",
				"thunder"
			],
			"damageImmune": [
				"bludgeoning"
			],
			"miscTags": [
				"SCL"
			],
			"scalingLevelDice": {
				"label": "bludgeoning damage",
				"scaling": {
					"1": "1d6",
					"5": "2d6",
					"11": "3d6",
					"17": "4d6"
				}
			}
		},
		{
			"name": "Pyroclasm",
			"level": 9,
			"school": "V",
			"source": "DM14",
			"page": 13,
			"time": [
				{
					"number": 1,
					"unit": "action"
				}
			],
			"range": {
				"type": "point",
				"distance": {
					"type": "feet",
					"amount": 500
				}
			},
			"components": {
				"v": true,
				"s": true,
				"m": "a shard of obsidian"
			},
			"duration": [
				{
					"type": "timed",
					"duration": {
						"type": "minute",
						"amount": 1,
						"upTo": true
					},
					"concentration": true
				}
			],
			"classes": {
				"fromClassList": [
					{
						"name": "Sorcerer",
						"source": "PHB"
					},
					{
						"name": "Warlock",
						"source": "PHB"
					},
					{
						"name": "Wizard",
						"source": "PHB"
					}
				]
			},
			"entries": [
				"你指向一个范围内的地面或类似的表面。一个熔岩喷泉从你选择的地方喷发出来，形成一个5英尺宽、40英尺高的熔岩圆柱，以你能看到的地方为中心。当它喷发时，任何在该区域的生物或在那里开始它的回合的生物都必须做一个灵巧的拯救动作。拯救失败时，生物会受到{@damage 10d8}的火焰伤害，拯救成功时则会受到一半的伤害。",
				"在你的回合开始时，熔岩会以间歇泉的底部为中心扩散成一个池子。第一次扩散时，会产生一个半径为10英尺的熔岩，随后每轮半径增加10英尺，最大半径为50英尺。在池子里开始他们的回合的生物会受到{@damage 5d8}的火焰伤害。",
				"当生物离开该区域时，熔岩会附着在它身上，并且会硬化成石头。该生物的速度降低到一半，并且在灵巧救赎中处于劣势，直到有生物使用行动将硬化的熔岩掰下来。如果你的注意力保持了整整一分钟，熔岩喷泉和熔岩池就会永久地硬化成非魔法石。在硬化的石头中的生物会被限制住。石头有17点攻击力，25点命中率，对除雷霆外的所有伤害有抵抗力，对毒药和精神伤害免疫。被禁锢的生物可以通过成功的DC27力量（竞技）检查来挣脱。"
			],
			"savingThrow": [
				"dexterity"
			],
			"damageInflict": [
				"fire"
			],
			"miscTags": [
				"SGT"
			]
		},
		{
			"name": "Riptide",
			"level": 3,
			"school": "C",
			"source": "DM14",
			"page": 13,
			"time": [
				{
					"number": 1,
					"unit": "action"
				}
			],
			"range": {
				"type": "point",
				"distance": {
					"type": "feet",
					"amount": 60
				}
			},
			"components": {
				"v": true,
				"s": true
			},
			"duration": [
				{
					"type": "timed",
					"duration": {
						"type": "round",
						"amount": 1
					}
				}
			],
			"classes": {
				"fromClassList": [
					{
						"name": "Sorcerer",
						"source": "PHB"
					},
					{
						"name": "Warlock",
						"source": "PHB"
					},
					{
						"name": "Wizard",
						"source": "PHB"
					}
				]
			},
			"entries": [
				"通过一个横扫的手势，你使一股巨大的水浪以你能看到的地面上的一个点为中心，在一个20英尺高、20英尺半径的圆柱体中涌起。该区域内的每个生物都必须做一个力量储蓄动作。蓄力失败时，生物会被束缚并悬浮在圆柱体中，或在蓄力成功时移动到最近的圆柱体边缘。",
				"在你的下一个回合开始时，你可以引导膨胀的水流消散。从以下选项中选择一个。",
				{
					"type": "list",
					"items": [
						{
							"type": "entries",
							"name": "Riptide",
							"entries": [
								"圆筒中的水向你选择的方向流动，将该区域的每个生物扫到圆筒边缘。生物受到{@damage 3d8}重击伤害，并被推到所选择的方向上最多40英尺，或推到圆筒的边缘，俯身着地。"
							]
						},
						{
							"type": "entries",
							"name": "Undertow",
							"entries": [
								"水往下冲，把区域内的每个生物都拉到中心的一个空位上。这些生物被打倒在地，必须做一个宪法救赎动作。如果救赎失败，生物会被击晕，直到你下一回合开始。"
							]
						}
					]
				}
			],
			"savingThrow": [
				"strength",
				"constitution"
			],
			"conditionInflict": [
				"restrained"
			],
			"damageInflict": [
				"bludgeoning"
			],
			"miscTags": [
				"FMV",
				"SGT"
			]
		},
		{
			"name": "Rolling Thunder",
			"level": 2,
			"school": "V",
			"source": "DM14",
			"page": 14,
			"time": [
				{
					"number": 1,
					"unit": "action"
				}
			],
			"range": {
				"type": "line",
				"distance": {
					"type": "feet",
					"amount": 30
				}
			},
			"components": {
				"v": true,
				"s": true,
				"m": "a sliver of metal from a gong"
			},
			"duration": [
				{
					"type": "instant"
				}
			],
			"entries": [
				"一个巨大的钟声从你伸出的手中爆发出来，并以30英尺长5英尺宽的队伍向前滚动。这条线上的每个生物都必须在宪法规定的投掷中取得成功，否则将被震聋1分钟。由无机材料制成的生物，如石头、水晶或金属，对该法术的蓄力动作有劣势。当一个生物以这种方式被震聋时，它被雷鸣般的能量所包围。它在其回合开始时受到{@damage 2d8}的雷霆伤害，并且速度减半。被震聋的生物可以在它的回合结束时重复蓄力，如果成功则结束对它的影响。"
			],
			"entriesHigherLevel": [
				{
					"type": "entries",
					"name": "At Higher Levels",
					"entries": [
						"当你使用3级或以上的法术槽施放此法术时，每超过2级的法术槽等级，伤害增加（%0%）。"
					]
				}
			],
			"savingThrow": [
				"constitution"
			],
			"conditionInflict": [
				"deafened"
			],
			"damageInflict": [
				"thunder"
			]
		},
		{
			"name": "Spire of Stone",
			"level": 2,
			"school": "C",
			"source": "DM14",
			"page": 14,
			"time": [
				{
					"number": 1,
					"unit": "action"
				}
			],
			"range": {
				"type": "point",
				"distance": {
					"type": "self"
				}
			},
			"components": {
				"v": true,
				"s": true,
				"m": "a small basalt cylinder"
			},
			"duration": [
				{
					"type": "timed",
					"duration": {
						"type": "minute",
						"amount": 10,
						"upTo": true
					},
					"concentration": true
				}
			],
			"entries": [
				"你使岩石的尖顶从你脚下的地面、地板或其他表面迸发出来。尖顶的宽度与你的空间一样，举起你，它可以上升到20英尺高。当尖塔出现时，在你5英尺范围内的生物必须在一个灵巧的蓄力动作上成功，否则就会倒下。",
				"作为你回合中的额外行动，你可以使尖塔上升或下降20英尺，最大高度为40英尺。如果你离开尖塔，它就会立即倒塌回地面。当尖顶消失时，它离开它所产生的地表时不会受到伤害。在法术持续期间，你可以作为一个额外动作创造一个新的尖塔。"
			],
			"savingThrow": [
				"dexterity"
			],
			"conditionInflict": [
				"prone"
			],
			"miscTags": [
				"UBA"
			]
		},
		{
			"name": "Tidal Barrier",
			"level": 1,
			"school": "A",
			"source": "DM14",
			"page": 14,
			"time": [
				{
					"number": 1,
					"unit": "action"
				}
			],
			"range": {
				"type": "radius",
				"distance": {
					"type": "feet",
					"amount": 10
				}
			},
			"components": {
				"v": true,
				"s": true,
				"m": "a piece of driftwood"
			},
			"duration": [
				{
					"type": "timed",
					"duration": {
						"type": "minute",
						"amount": 1,
						"upTo": true
					},
					"concentration": true
				}
			],
			"entries": [
				"一股漩涡状的海水围绕着你，在你的空间周围10英尺的范围内撞击和滚动。该区域是困难地形，在该区域开始或进入该区域的生物必须做一个力量救赎动作。如果救赎失败，该生物会被推到离你10英尺远的地方，而且它的速度会降低到0，直到它下一个回合开始。"
			],
			"savingThrow": [
				"strength"
			],
			"miscTags": [
				"FMV"
			]
		},
		{
			"name": "Wind Lash",
			"level": 0,
			"school": "V",
			"source": "DM14",
			"page": 14,
			"time": [
				{
					"number": 1,
					"unit": "action"
				}
			],
			"range": {
				"type": "point",
				"distance": {
					"type": "feet",
					"amount": 20
				}
			},
			"components": {
				"v": true,
				"s": true
			},
			"duration": [
				{
					"type": "instant"
				}
			],
			"entries": [
				"你迅速的手势创造出一道坚固的呼啸风。对目标进行一次近战法术攻击。一旦命中，目标会受到剪断风的{@damage 1d8}切割伤害，并被推离你5英尺远。",
				"当你达到5级（{@dice 2d8}）、11级（{@dice 3d8}）和17级（{@dice 4d8}）时，该法术的伤害增加{@dice 1d8}。"
			],
			"spellAttack": [
				"R"
			],
			"damageInflict": [
				"slashing"
			],
			"miscTags": [
				"FMV",
				"SCL"
			],
			"scalingLevelDice": {
				"label": "slashing damage",
				"scaling": {
					"1": "1d8",
					"5": "2d8",
					"11": "3d8",
					"17": "4d8"
				}
			}
		},
		{
			"name": "Wind Tunnel",
			"level": 1,
			"school": "V",
			"source": "DM14",
			"page": 14,
			"time": [
				{
					"number": 1,
					"unit": "action"
				}
			],
			"range": {
				"type": "line",
				"distance": {
					"type": "feet",
					"amount": 60
				}
			},
			"components": {
				"v": true,
				"s": true,
				"m": "a hollow reed or paper tube"
			},
			"duration": [
				{
					"type": "timed",
					"duration": {
						"type": "minute",
						"amount": 1,
						"upTo": true
					},
					"concentration": true
				}
			],
			"entries": [
				"你创造了一个漩涡状的强风隧道，从你自己向你选择的方向延伸。该隧道是一条60英尺长、10英尺宽的线。风从你身上吹向线的末端，一旦形成就会静止不动。线上的生物随风而动，其速度增加10英尺，随风发射的远程武器攻击不会因为距离过长而处于劣势。线条中的生物逆风而行，每移动1英尺就会消耗2英尺的移动距离，通过线条逆风而行的远程武器攻击会产生劣势。",
				"风洞能驱散气体和蒸汽，它能扑灭该地区的蜡烛、火炬和类似的无保护的火焰。它使受保护的火焰，如灯笼的火焰，疯狂地舞动，并有50%的机会将其扑灭。"
			]
		}
	],
	"subclassFeature": [
		{
			"name": "Elementalist",
			"source": "DM14",
			"page": 9,
			"className": "Wizard",
			"classSource": "PHB",
			"subclassShortName": "Elementalist",
			"subclassSource": "DM14",
			"level": 2,
			"entries": [
				"你把你的奥术研究集中在元素界的内在力量上。有时会被误认为是唤醒者，元素师相信他们所选择的元素的优越性高于其他所有元素，而且他们并不羞于将这个事实公之于众。元素学家通常是隐居的研究者，或者他们与那些欣赏他们独特才能的团体签约。",
				{
					"type": "refSubclassFeature",
					"subclassFeature": "Elemental Savant|Wizard||Elementalist|DM14|2"
				},
				{
					"type": "refSubclassFeature",
					"subclassFeature": "Elemental Focus|Wizard||Elementalist|DM14|2"
				},
				{
					"type": "refSubclassFeature",
					"subclassFeature": "Elemental Mastery|Wizard||Elementalist|DM14|2"
				}
			]
		},
		{
			"name": "Elemental Savant",
			"entries": [
				"从你2级选择这个传统时开始，从元素焦点表中选择一种元素。该元素成为你研究的重点。你可以说、读、写与你的焦点相关的语言，并且相关的伤害类型被你以后获得的特性所使用。"
			],
			"source": "DM14",
			"page": 9,
			"className": "Wizard",
			"classSource": "PHB",
			"subclassShortName": "Elementalist",
			"subclassSource": "DM14",
			"level": 2,
			"header": 1
		},
		{
			"name": "Elemental Focus",
			"entries": [
				{
					"type": "table",
					"colLabels": [
						"Element",
						"Language",
						"Damage Type"
					],
					"colStyles": [
						"col-1",
						"col-1",
						"col-2"
					],
					"rows": [
						[
							"Air",
							"曙光",
							"闪电或雷霆（选择一个）"
						],
						[
							"地球",
							"Terran",
							"Acid"
						],
						[
							"Fire",
							"伊格纳",
							"Fire"
						],
						[
							"水",
							"阿坎",
							"Cold"
						]
					]
				},
				"有些法术与你的重点元素产生共鸣。它们可能会造成相关的伤害类型，操纵相关的元素，或以其他方式体现一个元素主题。与你的GM一起确定一个给定的法术是否与你的焦点产生共鸣。你必须花费一半的金币和时间将一个与你选择的元素产生共鸣的咒语复制到你的法术书中。当你获得一个等级时，你为获得一个等级而学习的两个法术中的一个可以是元素魔法的法术，即使你以前从未遇到过这种法术。同样地，当你学习一个新的咒语时，它可以是一个元素魔法咒语，即使你从来没有遇到过它。"
			],
			"source": "DM14",
			"page": 9,
			"className": "Wizard",
			"classSource": "PHB",
			"subclassShortName": "Elementalist",
			"subclassSource": "DM14",
			"level": 2,
			"header": 1
		},
		{
			"name": "Elemental Mastery",
			"entries": [
				"从2级开始，你可以学习被称为 \"大师 \"的魔法技术，将元素魔法引入你的存在和法术中。",
				{
					"type": "entries",
					"name": "Masteries",
					"entries": [
						"你可以学习两个你选择的绝技，在 \"绝技 \"部分有详细说明。",
						"你在6级、10级和14级时可以额外学习一个你选择的技能。每次你学习一个新的技能时，你也可以用一个不同的技能替换你所知道的一个技能。"
					]
				},
				{
					"type": "entries",
					"name": "Saving Throws",
					"entries": [
						"你的某些特技需要你的目标进行蓄力，以抵抗特技的效果。当你使用这个等级的这种效果时，DC等同于你的巫师法术救赎DC。"
					]
				}
			],
			"source": "DM14",
			"page": 9,
			"className": "Wizard",
			"classSource": "PHB",
			"subclassShortName": "Elementalist",
			"subclassSource": "DM14",
			"level": 2,
			"header": 1
		},
		{
			"name": "Substitue Elements",
			"source": "DM14",
			"page": 9,
			"className": "Wizard",
			"classSource": "PHB",
			"subclassShortName": "Elementalist",
			"subclassSource": "DM14",
			"level": 6,
			"header": 2,
			"entries": [
				"从6级开始，你可以通过你的伤害性法术吸取元素魔法，并将伤害类型改为与你的元素焦点相关的类型。"
			]
		},
		{
			"name": "Elemental Mastery",
			"source": "DM14",
			"page": 9,
			"className": "Wizard",
			"classSource": "PHB",
			"subclassShortName": "Elementalist",
			"subclassSource": "DM14",
			"level": 6,
			"header": 2,
			"entries": [
				"你学会了第三种元素掌握。你也可以用一个不同的技能取代你所知道的一个技能。"
			]
		},
		{
			"name": "Absorb Elements",
			"source": "DM14",
			"page": 9,
			"className": "Wizard",
			"classSource": "PHB",
			"subclassShortName": "Elementalist",
			"subclassSource": "DM14",
			"level": 10,
			"header": 2,
			"entries": [
				"从10级开始，当你会受到与你的元素焦点相关的伤害时，你可以使用你的反应来不受伤害，并且你会恢复相当于你会受到的伤害的一半的命中点。",
				"你可以在你拥有的任何抵抗或豁免权适用之前使用这个能力。你可以使用这个能力的次数等于你的智力修饰值（最小为1），并且当你完成一个长时间的休息时，你会恢复所有已消耗的使用次数。"
			]
		},
		{
			"name": "Elemental Mastery",
			"source": "DM14",
			"page": 9,
			"className": "Wizard",
			"classSource": "PHB",
			"subclassShortName": "Elementalist",
			"subclassSource": "DM14",
			"level": 10,
			"header": 2,
			"entries": [
				"你学会了第四个元素技能。你也可以用一个不同的技能取代你所知道的一个技能。"
			]
		},
		{
			"name": "Irresistible Strike",
			"source": "DM14",
			"page": 9,
			"className": "Wizard",
			"classSource": "PHB",
			"subclassShortName": "Elementalist",
			"subclassSource": "DM14",
			"level": 14,
			"header": 2,
			"entries": [
				"在14级时，你的元素伤害法术是不可阻挡的。当你施展与你的元素焦点相关的伤害类型的法术时，你可以无视对该伤害类型的免疫。",
				"你可以使用这个能力的次数等于你的智力修饰值（最小为1），当你完成一个长时间的休息时，你会恢复所有消耗的使用。"
			]
		},
		{
			"name": "Elemental Mastery",
			"source": "DM14",
			"page": 9,
			"className": "Wizard",
			"classSource": "PHB",
			"subclassShortName": "Elementalist",
			"subclassSource": "DM14",
			"level": 14,
			"header": 2,
			"entries": [
				"你学会了第五个元素技能。你也可以用一个不同的技能取代你所知道的一个技能。"
			]
		}
	]
}
