{
	"$schema": "https://raw.githubusercontent.com/TheGiddyLimit/5etools-utils/master/schema/brew-fast/homebrew.json",
	"_meta": {
		"sources": [
			{
				"json": "MLBMFE",
				"abbreviation": "MLBMFE",
				"full": "Random stuff (not everything) from the 'Mike's free Encounters'",
				"authors": [
					"Michael LaBossiere",
					"[WORKING IN PRORESS]"
				],
				"convertedBy": [
					"p4535992"
				],
				"version": "2022.10.24",
				"color": "4d2611",
				"url": "https://www.dmsguild.com/browse.php?author=Michael%20LaBossiere",
				"targetSchema": "1.7.0"
			}
		],
		"dateAdded": 1657961727,
		"dateLastModified": 1695071994,
		"_dateLastModifiedHash": "ea3e22ce8c"
	},
	"item": [
		{
			"name": "Lesser Bone Dagger",
			"source": "MLBMFE",
			"type": "M",
			"baseItem": "dagger|PHB",
			"rarity": "uncommon",
			"weight": 1,
			"value": 20000,
			"weaponCategory": "simple",
			"property": [
				"F",
				"L",
				"T"
			],
			"range": "20/60",
			"dmg1": "1d4",
			"dmgType": "P",
			"entries": [
				"如果你用这把匕首杀死一个小型或中型的人形物体，它就会变成一个{@creature skeleton|MM}由你控制的{@spell animate dead|PHB}的法术。耗尽这个魔法后，匕首会变成骨灰。",
				"这种武器的某些版本是简单的匕首，而另一些则是精心制作的作品，作为对亡灵之神的一种奉献行为。虽然由骨头组成，但创造的仪式使骨质匕首像锻造的钢铁一样坚硬。"
			],
			"attachedSpells": [
				"animate dead|phb"
			],
			"fluff": {
				"images": [
					{
						"type": "image",
						"href": {
							"type": "external",
							"url": "https://5etools-mirror-1.github.io/img/blank.png"
						}
					}
				],
				"entries": [
					{
						"name": "Credits",
						"type": "inset",
						"entries": [
							"{@link Lesser Bone Dagger|https://www.dmsguild.com/product/287928/Mikes-free-Encounters-110}"
						]
					}
				]
			}
		},
		{
			"name": "Zombie Wine",
			"source": "MLBMFE",
			"value": 20000,
			"type": "P",
			"tier": "minor",
			"rarity": "uncommon",
			"entries": [
				"这种亡灵炼金术看起来、闻起来和尝起来都像一般质量的酒，尽管有一丝淡淡的腐肉味。",
				"如果你仔细检查这瓶酒，成功通过DC15智慧（感知）检查，就会发现酒里有一丝微弱的腐肉味。通过DC15智力（阿卡纳）检查，可以发现酒有亡灵魔法的迹象。在分析酒的过程中，成功通过DC10智力（炼金术士用品）检查，会发现它含有毒药和其他一些元素。一个{@spell identify|PHB}的法术将揭示它的真实性质。",
				"在你喝下僵尸酒的十分钟后，你必须做一个DC 10的宪法救赎（每个剂量）。如果救赎失败，你会受到6({@damage 1d12})的中毒伤害，并在24小时内中毒。拯救成功时，你会受到一半的伤害，并且不会中毒。",
				"如果你在喝了僵尸酒的24小时内死亡，你的尸体会变成不受控制的僵尸。僵尸酒被认为是由杜拉科的一个牧师首次蒸馏出来的，他在皈依前是一个酒商。"
			],
			"fluff": {
				"images": [
					{
						"type": "image",
						"href": {
							"type": "external",
							"url": "https://5etools-mirror-1.github.io/img/blank.png"
						}
					}
				],
				"entries": [
					{
						"name": "Credits",
						"type": "inset",
						"entries": [
							"{@link Zombie Wine|https://www.dmsguild.com/product/287928/Mikes-free-Encounters-110}"
						]
					}
				]
			}
		}
	]
}
