{
	"_meta": {
		"sources": [
			{
				"full": "Middle Finger of Vecna: Evil Archetypes",
				"json": "MFOV:EA",
				"abbreviation": "MFoV",
				"authors": [
					"Middle Finger of Vecna"
				],
				"url": "https://mfov.magehandpress.com/2016/10/evil-archetypes-preview.html",
				"version": "2016.10"
			}
		],
		"optionalFeatureTypes": {
			"mask": "Persona Mask"
		},
		"dateAdded": 1578527975,
		"dateLastModified": 1706998579,
		"_dateLastModifiedHash": "c021c86ce0"
	},
	"subclass": [
		{
			"name": "School of Diabolism",
			"source": "MFOV:EA",
			"shortName": "Diabolist",
			"subclassFeatures": [
				"School of Diabolism|Wizard||Diabolist|MFOV:EA|2",
				"Anchor of Hell|Wizard||Diabolist|MFOV:EA|6",
				"Devil's Advocate|Wizard||Diabolist|MFOV:EA|10",
				"Form Pact|Wizard||Diabolist|MFOV:EA|14"
			],
			"className": "Wizard",
			"classSource": "PHB"
		},
		{
			"name": "College of Masks",
			"source": "MFOV:EA",
			"shortName": "Masks",
			"subclassFeatures": [
				"College of Masks|Bard||Masks|MFOV:EA|3",
				"Hidden Mask|Bard||Masks|MFOV:EA|6",
				"Master of Many Masks|Bard||Masks|MFOV:EA|14"
			],
			"className": "Bard",
			"classSource": "PHB"
		},
		{
			"name": "The Parasite",
			"shortName": "Parasite",
			"source": "MFOV:EA",
			"subclassSpells": [
				"longstrider",
				"ray of enfeeblement",
				"alter self",
				"detect thoughts",
				"blink",
				"haste",
				"death ward",
				"phantasmal killer",
				"dominate person",
				"telekinesis"
			],
			"subclassFeatures": [
				"The Parasite|Warlock||Parasite|MFOV:EA|1",
				"Agitate Magic|Warlock||Parasite|MFOV:EA|6",
				"Host's Resilience|Warlock||Parasite|MFOV:EA|10",
				"Transfer Host|Warlock||Parasite|MFOV:EA|14"
			],
			"additionalSpells": [
				{
					"expanded": {
						"s1": [
							"longstrider",
							"ray of enfeeblement"
						],
						"s2": [
							"alter self",
							"detect thoughts"
						],
						"s3": [
							"blink",
							"haste"
						],
						"s4": [
							"death ward",
							"phantasmal killer"
						],
						"s5": [
							"dominate person",
							"telekinesis"
						]
					}
				}
			],
			"className": "Warlock",
			"classSource": "PHB"
		},
		{
			"name": "Way of the Jiangshi",
			"shortName": "Jiangshi",
			"source": "MFOV:EA",
			"subclassFeatures": [
				"Way of the Jiangshi|Monk||Jiangshi|MFOV:EA|3",
				"Perfect Undeath|Monk||Jiangshi|MFOV:EA|6",
				"The Dead Walk|Monk||Jiangshi|MFOV:EA|11",
				"A Thousand Deaths|Monk||Jiangshi|MFOV:EA|17"
			],
			"className": "Monk",
			"classSource": "PHB"
		},
		{
			"name": "Path of the Cannibal",
			"shortName": "Cannibal",
			"source": "MFOV:EA",
			"subclassFeatures": [
				"Path of the Cannibal|Barbarian||Cannibal|MFOV:EA|3",
				"Manhunter|Barbarian||Cannibal|MFOV:EA|6",
				"Grim Visage|Barbarian||Cannibal|MFOV:EA|10",
				"Consume Soul|Barbarian||Cannibal|MFOV:EA|14"
			],
			"className": "Barbarian",
			"classSource": "PHB"
		},
		{
			"name": "Entropy Domain",
			"shortName": "Entropy",
			"source": "MFOV:EA",
			"subclassSpells": [
				"bane",
				"inflict wounds",
				"heat metal",
				"shatter",
				"bestow curse",
				"haste",
				"blight",
				"dimension door",
				"cloudkill",
				"wall of force"
			],
			"subclassFeatures": [
				"Entropy Domain|Cleric||Entropy|MFOV:EA|1",
				"Entropic Touch|Cleric||Entropy|MFOV:EA|2",
				"Channel Divinity: Distortion Field|Cleric||Entropy|MFOV:EA|2",
				"Channel Divinity: Return to Entropy|Cleric||Entropy|MFOV:EA|6",
				"Divine Strike|Cleric||Entropy|MFOV:EA|8",
				"Sphere of Annihilation|Cleric||Entropy|MFOV:EA|17"
			],
			"additionalSpells": [
				{
					"prepared": {
						"1": [
							"bane",
							"inflict wounds"
						],
						"3": [
							"heat metal",
							"shatter"
						],
						"5": [
							"bestow curse",
							"haste"
						],
						"7": [
							"blight",
							"dimension door"
						],
						"9": [
							"cloudkill",
							"wall of force"
						]
					}
				}
			],
			"className": "Cleric",
			"classSource": "PHB"
		},
		{
			"name": "Oath of Heresy",
			"shortName": "Heretic",
			"source": "MFOV:EA",
			"subclassSpells": [
				"bane",
				"command",
				"enthrall",
				"hold person",
				"fear",
				"vampiric touch",
				"compulsion",
				"dominate beast",
				"dominate person"
			],
			"subclassFeatures": [
				"Oath of Heresy|Paladin||Heretic|MFOV:EA|3",
				"Aura of Disbelief|Paladin||Heretic|MFOV:EA|7",
				"Ur Strike|Paladin||Heretic|MFOV:EA|15",
				"Apostate|Paladin||Heretic|MFOV:EA|20"
			],
			"additionalSpells": [
				{
					"prepared": {
						"3": [
							"bane",
							"command"
						],
						"5": [
							"enthrall",
							"hold person"
						],
						"9": [
							"fear",
							"vampiric touch"
						],
						"13": [
							"compulsion",
							"dominate beast"
						],
						"17": [
							"dominate person",
							"hold person"
						]
					}
				}
			],
			"className": "Paladin",
			"classSource": "PHB"
		},
		{
			"name": "Abysswalker",
			"shortName": "Abysswalker",
			"source": "MFOV:EA",
			"subclassFeatures": [
				"Abysswalker|Ranger||Abysswalker|MFOV:EA|3",
				"Shield of Shadows|Ranger||Abysswalker|MFOV:EA|7",
				"Fiend's Fury|Ranger||Abysswalker|MFOV:EA|11",
				"Wraith Step|Ranger||Abysswalker|MFOV:EA|15"
			],
			"className": "Ranger",
			"classSource": "PHB"
		},
		{
			"name": "Pale Master",
			"shortName": "Pale Master",
			"source": "MFOV:EA",
			"subclassFeatures": [
				"Pale Master|Sorcerer||Pale Master|MFOV:EA|1",
				"Emissary of Death|Sorcerer||Pale Master|MFOV:EA|6",
				"Spellstitched Cohort|Sorcerer||Pale Master|MFOV:EA|14",
				"Overlord|Sorcerer||Pale Master|MFOV:EA|18"
			],
			"className": "Sorcerer",
			"classSource": "PHB"
		},
		{
			"name": "Circle of Desolation",
			"shortName": "Desolation",
			"source": "MFOV:EA",
			"subclassFeatures": [
				"Circle of Desolation|Druid||Desolation|MFOV:EA|2",
				"Desolating Stride|Druid||Desolation|MFOV:EA|6",
				"Contagious Touch|Druid||Desolation|MFOV:EA|10",
				"Plague|Druid||Desolation|MFOV:EA|14"
			],
			"className": "Druid",
			"classSource": "PHB"
		},
		{
			"name": "Man Who Laughs",
			"shortName": "Laughing Man",
			"source": "MFOV:EA",
			"subclassFeatures": [
				"Man Who Laughs|Rogue||Laughing Man|MFOV:EA|3",
				"Mind Games|Rogue||Laughing Man|MFOV:EA|9",
				"Unbelievable Quickness|Rogue||Laughing Man|MFOV:EA|13",
				"Laugh at Death|Rogue||Laughing Man|MFOV:EA|17"
			],
			"className": "Rogue",
			"classSource": "PHB"
		},
		{
			"name": "Umbral Knight",
			"shortName": "Umbral Knight",
			"source": "MFOV:EA",
			"subclassFeatures": [
				"Umbral Knight|Fighter||Umbral Knight|MFOV:EA|3",
				"Morphic Weapon|Fighter||Umbral Knight|MFOV:EA|7",
				"Shadowcast|Fighter||Umbral Knight|MFOV:EA|10",
				"Go Unseen|Fighter||Umbral Knight|MFOV:EA|15",
				"Perfect Darkness|Fighter||Umbral Knight|MFOV:EA|18"
			],
			"className": "Fighter",
			"classSource": "PHB"
		}
	],
	"optionalfeature": [
		{
			"name": "Angel",
			"source": "MFOV:EA",
			"featureType": [
				"mask"
			],
			"entries": [
				"一张雌雄同体的脸，双眼安详地仰望着天空，构成了这个面具，由无暇的雪花石雕刻而成。当你用近战武器攻击击中一个生物时，除了武器的伤害外，你可以消耗一个法术槽对目标造成辐射伤害。一级法术槽的额外伤害为{@damage 1d8}，每高于一级的法术等级增加{@damage 1d8}，最高为{@damage 4d8}。",
				"从6级开始，你可以消耗一个吟游诗人的灵感模子作为行动，来治疗你所接触到的生物，治疗量加上你的吟游诗人等级。"
			]
		},
		{
			"name": "Archmage",
			"source": "MFOV:EA",
			"featureType": [
				"mask"
			],
			"entries": [
				"这个由深紫色萤石制成的面具是以一个满是皱纹的老人形象雕刻而成的。戴上这个面具时，除了你已经准备好的法术外，你还可以准备{@spell burning hands}、{@spell expeditious retreat}和{@spell magic missile}的法术。从6级开始，可以在你准备好的法术中加入（%3%）和（%4%）。",
				"此外，在6级时，当你用法术造成伤害时，你可以消耗一个吟游诗人的灵感模子作为奖励动作，以增加对每个生物造成的伤害，数量为卷轴+你的魅力修改器。"
			]
		},
		{
			"name": "Assassin",
			"source": "MFOV:EA",
			"featureType": [
				"mask"
			],
			"entries": [
				"坚硬的黑色皮革和金属扣创造了刺客令人不安的一面。当你戴着这个面具时，如果你在攻击卷上有优势，你可以对你击中的一个生物造成额外的（%0%）伤害。攻击必须使用精巧的武器或远程武器。如果目标的另一个敌人在其5英尺范围内，该敌人没有丧失能力，并且你在攻击卷上没有劣势，则你不需要在攻击卷上取得优势。",
				"这种额外的伤害会随着你在这个等级中的等级提高而增加。在6级时，它增加到{@damage 2d6}，在10级时，它增加到{@damage 3d6}，在14级时，它增加到{@damage 4d6}。",
				"从6级开始，当你对尚未进入战斗状态的生物进行近身攻击时，你可以消耗一个吟游诗人的灵感模子作为奖励动作，以增加你对该生物的伤害，增加的数量为卷起的伤害。"
			]
		},
		{
			"name": "Beast",
			"source": "MFOV:EA",
			"featureType": [
				"mask"
			],
			"entries": [
				"明亮的、剥落的战漆在这个破旧的木头上留下了一个咆哮的、长着獠牙的野人形象。每当你戴着这个面具在你的回合中进行第一次攻击时，你可以决定不顾一切地攻击。这样做会使你在本回合使用力量的近战武器攻击卷轴上获得优势，但对你的攻击卷轴有优势，直到你下一回合。",
				"此外，从6级开始，当你用近战武器攻击获得关键一击时，你可以消耗一个吟游诗人的灵感作为奖励动作，使你的伤害增加两倍。"
			]
		},
		{
			"name": "Dragon",
			"source": "MFOV:EA",
			"featureType": [
				"mask"
			],
			"entries": [
				"这个由贵重金属和闪烁的宝石组成的五彩面具构成了一个咆哮的巫妖的可怕面孔。当你戴上这个面具时，你可以用你的行动来呼出破坏性的能量。15英尺范围内的每个生物都必须做出灵巧的救赎动作，否则会受到（%0%）的火焰伤害。你可以使用这个能力的次数等于你的魅力修改器。当你完成一个长时间的休息时，你会恢复所有已消耗的使用。",
				"这个能力的伤害随着你在这个等级中的等级提高而增加。在6级时，它增加到{@damage 3d6}，10级时增加到{@damage 4d6}，14级时增加到{@damage 5d6}。",
				"从6级开始，你可以消耗一个吟游诗人的灵感模子作为奖励动作，以获得对你所选择的能量类型的抵抗，持续的回合数与所滚动的数量相等。"
			]
		},
		{
			"name": "Faceless",
			"source": "MFOV:EA",
			"featureType": [
				"mask"
			],
			"entries": [
				"只有一对空洞的眼孔打破了这个原本毫无特色的椭圆形瓷质面具。当你戴上这个面具时，你对法术的救赎有优势。",
				"在6级的时候，你可以使用你的行动并消耗一个吟游诗人的灵感模子来传送一段与你的移动速度相当的距离到一个你能看到的地方。如果你传送到一个已经被物体或生物占据的空间，你会受到相当于所走距离的力量伤害，并被分流到最近的未被占据的位置。"
			]
		},
		{
			"name": "Fiend",
			"source": "MFOV:EA",
			"featureType": [
				"mask"
			],
			"entries": [
				"这个黑曜石面具上有一个黑暗的英俊的恶魔或魔鬼的面孔。恶魔的额头上有黑色的小角，黑色的耳朵耸立着。当你戴着这个面具时，你对火和冷的伤害有抵抗力。",
				"在6级时，你可以唤起恶魔之光。每当另一个生物用近身攻击击中你时，你可以用你的反应来掷出一个吟游诗人的灵感骰子，并从攻击卷中减去它，有可能导致攻击错过你。"
			]
		},
		{
			"name": "Gladiator",
			"source": "MFOV:EA",
			"featureType": [
				"mask"
			],
			"entries": [
				"这张狼皮面具的形状像一张狰狞的战士的脸。疤痕覆盖着它的表面，银色的链环环绕着它的外缘。当你戴上这个面具时，你可以熟练使用中型盔甲和武术武器。",
				"从6级开始，当你进行近战武器攻击时，你可以消耗一个吟游诗人的灵感模子，并将其加入攻击卷。"
			]
		},
		{
			"name": "High Priest",
			"source": "MFOV:EA",
			"featureType": [
				"mask"
			],
			"entries": [
				"这个玫瑰斑岩的面具在歌声中张着一张大嘴，但它的眼睛却被扭曲成了符文的缝隙，不知为何它并没有限制你的视线。戴上这个面具时，除了你已经准备好的法术外，你还可以准备{@spell bless}、{@spell detect evil and good}和{@spell healing word}的法术。从第6级开始，在你准备的法术中加入（%3%）和（%4%）。",
				"此外，在6级时，当你用法术造成伤害时，你可以消耗一个吟游诗人的灵感模子作为奖励动作，以增加对每个生物造成的伤害，数量为卷轴+你的魅力修改器。"
			]
		},
		{
			"name": "Monk",
			"source": "MFOV:EA",
			"featureType": [
				"mask"
			],
			"entries": [
				"这个打磨光滑的木质面具描绘了一个秃头男子的严厉面孔。戴着这个面具时，你可以用灵巧代替力量来进行徒手打击的攻击和伤害卷，你的徒手打击在击中后会造成{@damage 1d4}重击伤害。此外，当你在你的回合中使用徒手打击的攻击动作时，你可以将一次徒手打击作为一个奖励动作。",
				"你的徒手攻击伤害值会随着你在这个等级中的等级提升而改变。在6级时，它增加到（%0%），在14级时，它增加到（%1%）。",
				"从6级开始，当你进行徒手攻击时，你可以使用你的额外行动并消耗一个吟游诗人的灵感模子来进行两次额外的徒手攻击。在这些攻击中，你可以用你的吟游诗人灵感模子代替你的徒手攻击伤害模子。"
			]
		}
	],
	"monster": [
		{
			"name": "Neferat, the Man-Eater",
			"shortName": "Neferat",
			"group": [
				"Orc"
			],
			"isNpc": true,
			"isNamedCreature": true,
			"source": "MFOV:EA",
			"page": 2,
			"size": [
				"M"
			],
			"type": {
				"type": "humanoid",
				"tags": [
					"orc"
				]
			},
			"alignment": [
				"C",
				"E"
			],
			"ac": [
				{
					"ac": 16,
					"from": [
						"chain mail"
					]
				}
			],
			"hp": {
				"formula": "24d8 + 120",
				"average": 228
			},
			"speed": {
				"walk": 30
			},
			"str": 16,
			"dex": 14,
			"con": 20,
			"int": 12,
			"wis": 14,
			"cha": 10,
			"save": {
				"str": "+8",
				"con": "+10",
				"wis": "+7"
			},
			"skill": {
				"athletics": "+8",
				"intimidation": "+5"
			},
			"senses": [
				"darkvision 60 ft."
			],
			"passive": 10,
			"languages": [
				"Common",
				"Orc"
			],
			"cr": "10",
			"trait": [
				{
					"name": "Aggressive",
					"entries": [
						"作为一个额外的行动，Neferat可以以它的速度向它能看到的敌对生物移动。"
					]
				},
				{
					"name": "Cannibalism",
					"entries": [
						"当Neferat将一个生物降低到0命中率时，她会重新获得22（（%0%））的命中率。"
					]
				},
				{
					"name": "Gruumsh's Fury",
					"entries": [
						"Neferat用武器攻击时，会造成额外的9({@damage 2d8})伤害（包括在攻击中）。"
					]
				},
				{
					"name": "Reckless",
					"entries": [
						"在她的回合开始时，Neferat可以在该回合内的所有近战武器攻击卷上获得优势，但对她的攻击卷有优势，直到她下一回合开始。"
					]
				}
			],
			"action": [
				{
					"name": "Multiattack",
					"entries": [
						"Neferat用她的大斧头或长矛进行三次攻击。"
					]
				},
				{
					"name": "Greataxe",
					"entries": [
						"{@atk mw} {@hit 8} to hit, reach 5 ft., one target. Hit: 19 ({@damage 1d12 + 2d8 + 3} ) slashing damage"
					]
				},
				{
					"name": "Spear",
					"entries": [
						"近战或远程武器攻击：{@hit 8}击中，达到5英尺或范围20/60英尺，一个目标。命中：15({@damage 1d6 + 2d8 + 2}的穿刺伤害，如果用双手进行近战攻击，则是16({@damage 3d8 + 2}的穿刺伤害。"
					]
				}
			],
			"fluff": {
				"entries": [
					"奈菲拉对兽人和人类来说都是一个恐怖的存在，当妖精大军威胁到这片土地的时候，她是一个完美的反派，可以让你的玩家们感到震惊。重要的是，她是一个能威胁到其他传统反派以及玩家的反派，这可能会导致玩家与兽人、虫人或反派的派别结盟来阻止她。",
					"{@b Origin}",
					"众所周知，有史以来领导兽人战队的最强壮、最凶恶的兽人是一位名叫奈菲拉的女性。",
					"她在北方兽人部落的男孩中长大，从小就被教导要突袭和猎杀龙裔定居点。她受过暴力教育，并在这方面有很高的天赋，奈菲拉在九岁时杀死了她的第一个兽人酋长，将他的部落据为己有。令人不安的是，即使按照兽人的标准，奈菲拉特也当着整个部落的面吃掉了他的尸体并粉碎了他的骨头，为她赢得了 \"食人者 \"的恶名。",
					"在此后的几十年里，她已经夺取了数十个部落，积累了一支由她指挥的可怕的战士力量。她的精锐卫队是一群被称为 \"女妖 \"的女兽人，她们不放过任何遇到的敌人，并吃掉她们的受害者，有时是活的。",
					"奈菲拉对兽人和人类都是一种威胁。其他兽人战队暂时形成，作为各自首领手下的兽人联军，但奈菲拉没有为她的王位留下任何竞争者，她的战士比任何其他部落都多。如果她愿意，奈菲拉特可以将所有的兽人部落统一在一面野蛮的旗帜之下，但她的目标似乎是人类的土地。如果有更多的部落，她的战队可能是不可阻挡的，可以轻松地冲垮附近的王国。",
					"{@b Battling Neferat}",
					"Neferat从来不会在没有保镖的情况下出现，通常是三到四个忠诚的Harpies（NPC兽人狂战士）。 然而，Neferat也不是一个逃避战斗的人。在确定威胁并命令她的保镖进入战斗后，奈菲拉特会在一回合后进入战斗。"
				]
			},
			"traitTags": [
				"Aggressive",
				"Reckless"
			],
			"senseTags": [
				"D"
			],
			"actionTags": [
				"Multiattack"
			],
			"languageTags": [
				"C",
				"O"
			],
			"damageTags": [
				"P"
			],
			"attachedItems": [
				"greataxe|phb",
				"spear|phb"
			],
			"miscTags": [
				"MLW"
			]
		},
		{
			"name": "Persona",
			"isNpc": true,
			"source": "MFOV:EA",
			"isNamedCreature": true,
			"page": 5,
			"size": [
				"M"
			],
			"type": {
				"type": "humanoid",
				"tags": [
					"human"
				]
			},
			"alignment": [
				"C",
				"N"
			],
			"ac": [
				{
					"ac": 16,
					"from": [
						"scale mail"
					]
				}
			],
			"hp": {
				"formula": "22d8 + 66",
				"average": 165
			},
			"speed": {
				"walk": 30
			},
			"str": 14,
			"dex": 16,
			"con": 16,
			"int": 12,
			"wis": 10,
			"cha": 18,
			"save": {
				"dex": "+6",
				"cha": "+7"
			},
			"skill": {
				"acrobatics": "+6",
				"deception": "+11",
				"perception": "+3",
				"performance": "+11",
				"persuasion": "+11",
				"stealth": "+6"
			},
			"passive": 13,
			"languages": [
				"Common",
				"Dwarvish",
				"Elvish"
			],
			"cr": "8",
			"spellcasting": [
				{
					"name": "Spellcasting",
					"headerEntries": [
						"Persona是一个8级的施法者。他的法术能力是魅力（法术救赎（%0%），用法术攻击命中率+7。） 他准备了以下法术。"
					],
					"spells": {
						"0": {
							"spells": [
								"{@spell dancing lights|PHB}",
								"{@spell minor illusion|PHB}",
								"{@spell true strike|PHB}",
								"{@spell vicious mockery|PHB}"
							]
						},
						"1": {
							"spells": [
								"{@spell charm person|PHB}",
								"{@spell disguise self|PHB}",
								"{@spell tasha's hideous laughter|PHB}",
								"{@spell thunderwave|PHB}"
							],
							"slots": 3
						},
						"2": {
							"spells": [
								"{@spell invisibility|PHB}",
								"{@spell shatter|PHB}",
								"{@spell suggestion|PHB}"
							],
							"slots": 3
						},
						"3": {
							"spells": [
								"{@spell major image|PHB}",
								"{@spell stinking cloud|PHB}"
							],
							"slots": 2
						}
					},
					"ability": "cha",
					"type": "spellcasting"
				}
			],
			"trait": [
				{
					"name": "Masks",
					"entries": [
						"Persona有四个魔法面具，每个面具都赋予不同的属性。他一次只戴一个，并可以作为一个额外的动作切换他的面具。"
					]
				},
				{
					"name": "Mask - Assassin : Sneak Attack (1/Turn)",
					"entries": [
						"当Persona用武器攻击击中目标并在攻击卷上有优势时，或当目标在Persona的盟友5英尺范围内不是{@condition incapacitated}且Persona在攻击卷上没有劣势时，会造成额外的11（{@damage 3d6}）伤害。"
					]
				},
				{
					"name": "Mask - Beast: Reckless",
					"entries": [
						"在他的回合开始时，Persona可以在该回合内的所有近战武器攻击卷上获得优势，但对他的攻击卷有优势，直到他下一回合开始。"
					]
				},
				{
					"name": "Mask - Faceless: Warded",
					"entries": [
						"角色在救人方面有优势。"
					]
				},
				{
					"name": "Mask - Gladiator: Multiattack",
					"entries": [
						"Persona用他的长剑进行三次武器攻击。"
					]
				}
			],
			"action": [
				{
					"name": "Multiattack",
					"entries": [
						"Persona用他的长剑或轻弩进行两次攻击。"
					]
				},
				{
					"name": "Rapier",
					"entries": [
						"{@atk mw} {@hit 6} to hit, reach 5 ft., one target. Hit: 11 {@damage 1d8 + 1d6 + 3}) piercing damage."
					]
				},
				{
					"name": "Light Crossbow",
					"entries": [
						"{@atk rw} {@hit 6} to hit, range 80/120 ft., one target. Hit: 7 ({@damage 1d8 + 3}) piercing damage."
					]
				}
			],
			"fluff": {
				"entries": [
					"Persona是一个戏剧性的、神秘的反派，他的身份比最初看起来要多。对于依靠神秘和阴谋来推动情节发展的活动来说，他是一个伟大的坏人，因为他可以在任何地方，伪装成任何人。如果你觉得特别残忍，你甚至可以让人名冒充党的成员，用一顶伪装的帽子看起来和他一样，用他的一个面具来模仿那个角色的独特技能。",
					"{@b Origin}",
					"没有人知道在他戴上第一个面具之前，Persona是谁。许多人猜测他是一个著名的、现已被遗忘的舞台表演者，或者是一个著名的、但不受尊重的贵族，但除了偶然的证据外，没有什么能真正指向这些起源。Persona是一个谜；也许他的面具后面根本就没有东西。",
					"多年来，一个戴着面具的小偷、骗子和冒名顶替者一直是Pyremarch最强大的人的一个污点。没有人直接见过他的脸，因为Persona用一些面具来掩盖他的身份，这些面具被画成了舞台上的原型，并对其进行了嘲弄。这些面具赋予了他独特的力量，与他们所代表的人物有关，这使得Persona在战斗中非常多才多艺，因为他是致命的。除此之外，当他显露身份时，他穿着贵族的衣服，手指上戴着不少于12个戒指。",
					"但最常见的是，他是在伪装。Persona也许是有史以来最伟大的表演者；他可以完全进入一个角色，以至于欺骗他所冒充的人的朋友和家人，这使他能够完成真正不可思议的抢劫和暗杀。他积累了一笔小财富，并与盗贼协会结下了死仇，他每次都能让盗贼协会感到困惑。",
					"看来，Persona的所有行动都是有目的的。刺杀贵族，盗窃强大的魔法物品，以及小心翼翼地传播错误信息，使城市的各个派别陷入混乱。如果不阻止他，这个单一的蒙面人可能会给成千上万的人带来灭顶之灾。",
					"{@b Battling Persona}",
					"Persona更有可能在战斗中逃跑，而不是与整个团队作战，但他很容易将自己置于危险之中，以实现戏剧性的出场或退出。重要的是，Persona经常试图吸引观众同情他的一方，尽管他很少说真话。",
					"你可能会遇到Persona，他身边有一对官方的宫廷卫兵，或者一群被迷惑的镇民。无论他走到哪里，他都会结交临时盟友，协助他实现自己的目标。"
				]
			},
			"actionTags": [
				"Multiattack"
			],
			"languageTags": [
				"C",
				"D",
				"E"
			],
			"damageTags": [
				"P"
			],
			"miscTags": [
				"RNG",
				"MLW"
			],
			"conditionInflict": [
				"incapacitated"
			],
			"conditionInflictSpell": [
				"charmed",
				"incapacitated",
				"prone",
				"invisible"
			],
			"damageTagsSpell": [
				"T",
				"Y"
			],
			"attachedItems": [
				"light crossbow|phb",
				"rapier|phb"
			],
			"savingThrowForcedSpell": [
				"constitution",
				"wisdom"
			]
		},
		{
			"name": "Undolon",
			"source": "MFOV:EA",
			"isNpc": true,
			"isNamedCreature": true,
			"page": 7,
			"size": [
				"M"
			],
			"type": {
				"type": "humanoid",
				"tags": [
					"human"
				]
			},
			"alignment": [
				"C",
				"E"
			],
			"ac": [
				{
					"ac": 15,
					"from": [
						"{@item chain shirt|phb}"
					]
				}
			],
			"hp": {
				"average": 127,
				"formula": "18d8 + 36"
			},
			"speed": {
				"walk": 30
			},
			"str": 16,
			"dex": 14,
			"con": 14,
			"int": 10,
			"wis": 20,
			"cha": 12,
			"save": {
				"int": "+5",
				"wis": "+10",
				"cha": "+6"
			},
			"skill": {
				"history": "+5",
				"perception": "+10",
				"religion": "+10"
			},
			"passive": 20,
			"languages": [
				"Abyssal",
				"Common"
			],
			"cr": "13",
			"spellcasting": [
				{
					"name": "Spellcasting ",
					"headerEntries": [
						"Undolon是一个18级的施法者。他的法术能力是智慧（法术救赎（%0%），用法术攻击命中率（%1%）。他准备了以下的牧师法术。"
					],
					"spells": {
						"0": {
							"spells": [
								"{@spell guidance}",
								"{@spell resistance}",
								"{@spell sacred flame}",
								"{@spell spare the dying}"
							]
						},
						"1": {
							"slots": 4,
							"spells": [
								"{@spell bane}",
								"{@spell inflict wounds}",
								"{@spell shield of faith}"
							]
						},
						"2": {
							"slots": 3,
							"spells": [
								"{@spell blindness/deafness}",
								"{@spell blur}",
								"{@spell hold person}"
							]
						},
						"3": {
							"slots": 3,
							"spells": [
								"{@spell animate dead}",
								"{@spell haste}",
								"{@spell spirit guardians}*"
							]
						},
						"4": {
							"slots": 3,
							"spells": [
								"{@spell death ward}*",
								"{@spell divination}",
								"{@spell stone shape}"
							]
						},
						"5": {
							"slots": 3,
							"spells": [
								"{@spell contagion}",
								"{@spell geas}",
								"{@spell hallow}"
							]
						},
						"6": {
							"slots": 1,
							"spells": [
								"{@spell harm}"
							]
						},
						"7": {
							"slots": 1,
							"spells": [
								"{@spell divine word}"
							]
						},
						"8": {
							"slots": 1,
							"spells": [
								"{@spell antimagic field}"
							]
						},
						"9": {
							"slots": 1,
							"spells": [
								"{@spell gate}"
							]
						}
					},
					"footerEntries": [
						"* Undolon casts these spells on himself before combat"
					],
					"ability": "wis",
					"type": "spellcasting"
				}
			],
			"trait": [
				{
					"name": "Divine Eminence",
					"entries": [
						"作为一个额外的行动，Undolon可以消耗一个法术槽，使他的近战武器攻击在命中时对目标造成额外的10（（%0%））辐射伤害。这个好处一直持续到回合结束。如果他消耗一个2级以上的法术槽，1级以上的每一级的额外伤害都会增加（%1%）。"
					]
				},
				{
					"name": "Sphere of Annihilation",
					"entries": [
						"Undolon控制一个湮灭之球，他可以引导它移动到60英尺，作为一个额外的动作。被球体击中的生物会受到{@damage 4d10}武力伤害。被球体杀死的生物或被球体吞噬的物体会被完全抹去。"
					]
				}
			],
			"action": [
				{
					"name": "Multiattack",
					"entries": [
						"Undolon进行了两次攻击：一次是用他的熵触，一次是用他的晨星。"
					]
				},
				{
					"name": "Entropic Touch",
					"entries": [
						"{@atk ms} {@hit 10} to hit, reach 5 ft., one target. Hit: 14 ({@damage 4d6}) force damage, plus 4 (an additional {@damage d6} for each die that rolled a 6.)."
					]
				},
				{
					"name": "Morningstar",
					"entries": [
						"{@atk mw} {@hit 8} to hit, reach 5 ft., one target. Hit: 8 ({@damage 1d8 + 3}) bludgeoning damage plus 9 ({@damage 2d8}) force damage."
					]
				}
			],
			"fluff": {
				"entries": [
					"Undolon是一个危险的恶棍，有一支听命于他的施法者军队。他的计划，虽然对大多数观察者来说显然是疯狂的，但可以威胁到多元宇宙的结构。把他作为一个更高层次的反派纳入其中是个好主意，最好是在一个跨越多元宇宙的活动中。他很适合那些专注于收集文物或揭开古代传说的活动，这些活动需要一个直接的、但仍有威胁的坏人。",
					"{@b Origin}",
					"熵很简单：无序、混沌、万物的终结。混沌祭司教导说这是宇宙的自然状态，而熵是不可避免的。如果连神都要倒向熵的力量，那么他们肯定是假神，只有熵的真正精神才值得崇拜。",
					"混沌祭司不仅仅是传播危险的思想，他们还传播危险。这些神职人员巧妙地，有时公开地使用破坏性的魔法，系统地破坏地区的稳定，削弱政府的力量，带来战争、饥荒和动乱。所有这一切不过是 \"熵 \"的延伸，万物总有一天会回归 \"熵\"。",
					"尽管他们有自己的意识形态，但祭司们却没有任何组织性。他们由一个强大的名叫 \"恩多隆 \"的教士领导，他曾经是一名光明教士。翁多隆声称，在一个神圣的洞察力时刻，光明为他照亮了多元宇宙，让他看到了它的全部真面目：一个临时的门面，背后只有无底的熵。",
					"除了在世界范围内传播混乱的回声，Undolon的祭司们还在寻找和收集一个极其强大的咒语的碎片：最后的字。传说中，这个词有杀死神的力量，而且在过去也是如此，但没有一个凡人可以使用它并存活。事实上，如果Undolon完成了这个词，宇宙本身可能会被抛入无政府状态。",
					"{@b Battling Undolon}",
					"Undolon的身旁总是有六个混沌大祭司（NPC祭司），他们帮助他密谋如何最好地利用混沌祭司。伦道隆可能会派他的祭司去，一次三个，同时他用一个{@i gate}的法术召唤强大的帮助，形式是巴洛尔。伦道隆认识这个被他称为D'thrius的balor，它不会攻击他。"
				]
			},
			"actionTags": [
				"Multiattack"
			],
			"languageTags": [
				"AB",
				"C"
			],
			"damageTags": [
				"O",
				"B",
				"R"
			],
			"spellcastingTags": [
				"CC"
			],
			"damageTagsSpell": [
				"N",
				"R",
				"Y"
			],
			"attachedItems": [
				"morningstar|phb"
			],
			"savingThrowForcedSpell": [
				"charisma",
				"constitution",
				"dexterity",
				"wisdom"
			],
			"miscTags": [
				"MLW"
			]
		},
		{
			"name": "Goril, King of Rot",
			"source": "MFOV:EA",
			"isNpc": true,
			"isNamedCreature": true,
			"page": 9,
			"size": [
				"M"
			],
			"type": {
				"type": "humanoid",
				"tags": [
					"elf"
				]
			},
			"alignment": [
				"C",
				"E"
			],
			"ac": [
				{
					"ac": 16,
					"from": [
						"natural armor"
					]
				}
			],
			"hp": {
				"average": 180,
				"formula": "24d8 + 72"
			},
			"speed": {
				"walk": 30
			},
			"str": 14,
			"dex": 16,
			"con": 16,
			"int": 10,
			"wis": 20,
			"cha": 12,
			"save": {
				"dex": "+7",
				"int": "+3",
				"wis": "+9"
			},
			"skill": {
				"athletics": "+7",
				"intimidation": "+5",
				"perception": "+9"
			},
			"senses": [
				"darkvision 60 ft."
			],
			"passive": 19,
			"languages": [
				"Druidic",
				"Elven",
				"Common"
			],
			"cr": "9",
			"spellcasting": [
				{
					"name": "Spellcasting ",
					"headerEntries": [
						"戈利尔是一个11级的施法者。它的法术能力是智慧（法术救赎（%0%），用法术攻击命中率（%1%）。它有以下德鲁伊法术准备。"
					],
					"spells": {
						"0": {
							"spells": [
								"{@spell poison spray}",
								"{@spell produce flame}",
								"{@spell resistance}",
								"{@spell shillelagh}"
							]
						},
						"1": {
							"slots": 4,
							"spells": [
								"{@spell entangle}",
								"{@spell faerie fire}",
								"{@spell thunderwave}"
							]
						},
						"2": {
							"slots": 3,
							"spells": [
								"{@spell flame blade}",
								"{@spell hold person}",
								"{@spell moonbeam}"
							]
						},
						"3": {
							"slots": 3,
							"spells": [
								"{@spell dispel magic}",
								"{@spell sleet storm}",
								"{@spell water walk}"
							]
						},
						"4": {
							"slots": 3,
							"spells": [
								"{@spell blight}",
								"{@spell dominate beast}",
								"{@spell giant insect}"
							]
						},
						"5": {
							"slots": 2,
							"spells": [
								"{@spell contagion}",
								"{@spell insect plague}"
							]
						},
						"6": {
							"slots": 1,
							"spells": [
								"{@spell harm}"
							]
						}
					},
					"ability": "wis",
					"type": "spellcasting"
				}
			],
			"trait": [
				{
					"name": "Blightfire",
					"entries": [
						"当Goril开始它的回合时，与它相邻的所有空间都会被火焰焦油所吞噬，直到它下一个回合结束。当Goril以外的生物在其中一个空间开始它的回合时，它必须在一个{@dc 17}灵巧的救赎中成功，否则会受到18({@damage 4d8})的火焰伤害，或者在救赎成功后受到同样的伤害。"
					]
				},
				{
					"name": "Magic Resistance",
					"entries": [
						"戈里尔在面对法术和其他魔法效果时，在蓄力攻击方面具有优势。"
					]
				}
			],
			"action": [
				{
					"name": "Multiattack",
					"entries": [
						"戈里尔进行了三次攻击：两次用它的猛击，一次用它的毒触。"
					]
				},
				{
					"name": "Slam",
					"entries": [
						"{@atk mw}  {@hit 6} to hit, reach 5 ft., one target. Hit 10 ({@damage 2d6 + 3}) bludgeoning damage, plus 7 ({@damage 2d6}) poison damage."
					]
				},
				{
					"name": "Toxic Touch",
					"entries": [
						"{@atk ms}  {@hit 9} to hit, reach 5 ft., one target. Hit 14 ({@damage 4d6}) poison damage, and the target must make a {@dc 17} Constitution saving throw or be {@condition poisoned} for 1 minute. An affected creature can repeat this save at the end of its turn, ending the effect on a success."
					]
				}
			],
			"fluff": {
				"entries": [
					"戈利尔更多的是作为一种自然力量而不是传统的反派。他也许最适合作为蹂躏土地或特定森林的大瘟疫的原因，就像疾病的活生生的化身。戈利尔并不计划或布置精心设计的陷阱，他只是为了传播废物而存在。",
					"当介绍Goril时，一定要准确地渲染他是多么令人厌恶。与其说他是一个人形生物，不如说他更像一个污垢和焦油的集合体，他的废物中留下了一串污泥。当他说话时，声音来自他身体周围涌出的气泡流，将他的声音扭曲成令人作呕的喧嚣声。",
					"{@b Origin}",
					"很久以前，戈里尔是一个精灵，他与绿圈站在一起，保护自然界免遭腐败。由于他的天赋和野心，戈利尔被树之议会召为绿色骑士，这是一个精灵可以获得的最高荣誉。他不断晋升，最终被任命为绿化队长，成为骑士的领袖。作为队长，他每天都与议会争论，敦促他们让他对腐败势力进行打击，而不仅仅是保卫森林免受入侵者的侵害。议会毫无例外地拒绝了他。",
					"最后，戈利尔变得不耐烦了，他带领一群人进入了绿色骑士从不涉足的荒地。在那里，他没有发现可怕的野兽或大量的蔓延的腐败，而是一个无尽的、荒凉的平原，没有任何生命。当他的骑士们开始因炎热和干渴而死亡时，有什么东西占据了戈利尔，他转向他的兄弟们，杀死了所有仍然站立的人。",
					"当戈利尔回到议会时，他在体内携带了一点废物，一个荒凉的恶性肿瘤，他把它放在森林的中心。它周围的生命灭亡并变得枯萎，永久地摧毁了树木议会和所有神圣的丛林。渐渐地，戈里尔开始像腐烂一样出现；溃烂，腐烂，沉浸在腐败之中。其他精灵逃离了森林，并唾弃戈利尔的名字，称他为蛆虫之主和腐烂之王。",
					"{@b Battling Goril}",
					"戈利尔身后有一对被腐蚀的地狼（使用地狼属性），它们会扑向任何进入戈利尔身后的活物。由于戈瑞尔会不断地改变他周围的地形，因此党派肯定会在困难的地形中与他战斗，充满了危险性。"
				]
			},
			"traitTags": [
				"Magic Resistance"
			],
			"senseTags": [
				"D"
			],
			"actionTags": [
				"Multiattack"
			],
			"languageTags": [
				"DU",
				"C"
			],
			"damageTags": [
				"B",
				"I",
				"F"
			],
			"spellcastingTags": [
				"CD"
			],
			"conditionInflict": [
				"poisoned"
			],
			"conditionInflictSpell": [
				"restrained",
				"paralyzed",
				"prone",
				"charmed",
				"blinded",
				"stunned",
				"poisoned"
			],
			"damageTagsSpell": [
				"F",
				"I",
				"N",
				"P",
				"R",
				"T"
			],
			"savingThrowForced": [
				"constitution",
				"dexterity"
			],
			"savingThrowForcedSpell": [
				"constitution",
				"dexterity",
				"strength",
				"wisdom"
			]
		},
		{
			"name": "Black Knight Roldin",
			"isNpc": true,
			"isNamedCreature": true,
			"page": 11,
			"source": "MFOV:EA",
			"size": [
				"M"
			],
			"type": {
				"type": "humanoid",
				"tags": [
					"human"
				]
			},
			"alignment": [
				"L",
				"E"
			],
			"ac": [
				{
					"ac": 20,
					"from": [
						"{@item plate armor|phb}",
						"{@item shield|phb}"
					]
				}
			],
			"hp": {
				"average": 180,
				"formula": "24d8 + 72"
			},
			"speed": {
				"walk": 30
			},
			"str": 20,
			"dex": 10,
			"con": 16,
			"int": 14,
			"wis": 14,
			"cha": 12,
			"save": {
				"str": "+10",
				"dex": "+5",
				"con": "+8"
			},
			"skill": {
				"athletics": "+10",
				"perception": "+7",
				"survival": "+7"
			},
			"senses": [
				"darkvision 120 ft."
			],
			"passive": 17,
			"languages": [
				"Abyssal",
				"Common"
			],
			"cr": "9",
			"trait": [
				{
					"name": "Invisibility",
					"entries": [
						"罗丁可以随意施展法术（%0%）。"
					]
				},
				{
					"name": "Magic Resistance",
					"entries": [
						"Roldin在面对法术和其他魔法效果时，在蓄力攻击上有优势。"
					]
				},
				{
					"name": "Umbral Blade",
					"entries": [
						"Roldin的长剑可以到达，造成额外的{@damage 3d8}坏死伤害(包含在攻击中)，并且在掷出18-20的情况下获得关键打击。"
					]
				}
			],
			"action": [
				{
					"name": "Multiattack",
					"entries": [
						"罗丁用他的长剑进行了四次攻击。"
					]
				},
				{
					"name": "Longsword",
					"entries": [
						"{@atk mw} {@hit 10} to hit, reach 10 ft., one target. Hit: 9 ({@damage 1d8 + 5}) slashing damage, or 10 ({@damage 1d10 + 5}) slashing damage if used with two hands, plus 13 ({@damage 3d8}) necrotic damage."
					]
				}
			],
			"reaction": [
				{
					"name": "Parry",
					"entries": [
						"罗丁在对抗一次会击中它的近战攻击时，会增加5的AC值。要做到这一点，罗丁必须看到攻击者并挥舞着近战武器。"
					]
				},
				{
					"name": "Shift",
					"entries": [
						"当一个生物移动到罗丁面前时，他可以移动到10英尺以外，而不会引起机会攻击。"
					]
				}
			],
			"fluff": {
				"entries": [
					"罗丁是一个危险的单打独斗者，在需要一个背景反派来骚扰玩家，然后逃之夭夭的战役中是一个有用的工具。如果他面对的是比他的挑战等级低得多的一方，那么他的威慑力就会大得多，这是需要考虑的，因为罗丁总是单独作战。",
					"罗丹的背景故事有很大的神秘性，在彻底打败他之前，玩家们必须了解到这一点。罗丁到底是如何被困在阴影之界的，他是如何生存下来的，又是如何回来的？罗丹是单独行动，还是受一个更强大的实体的指使？唯一知道这些问题答案的是罗尔丁过去的骑士，他们现在已经老了，正在被复仇的骑士一个个挑走。",
					"罗丁也可以适应以其他位面为重点的战役，而不是阴影位面。通往深渊、地狱或远界的传送门也可以为罗丁提供一个合适的替代起源。",
					"{@b Origin}",
					"长夜开始时，罗丁还是个年轻的骑士。太阳根本没有升起，土地陷入混乱，来自地底的邪恶生物开始恐吓地面。一支强大的骑士队伍被召集起来，以恢复秩序和大地的光明。罗丹和他的导师，勇敢的凯斯特一样，也被算作他们中的一员。",
					"最终，这群骑士找到了黑暗的源头，一座破旧的法师塔，里面有很多活生生的影子。不知何故，塔里的居民胡乱地打开了一个通往阴影界的入口，它失去了控制，吞噬了塔的顶层，并导致了无尽的黑夜。",
					"骑士们一路战斗到灾难的源头，边走边杀戮阴影，但当他们最后到达时，只有罗丁和凯斯特还站着。据凯斯特说，两人都在英勇战斗，但虚空包围了罗丁，把他困在里面。其他骑士被救活了，回家后受到了英雄般的欢迎，但罗丹却再也没有出现。至少，在几周前是这样。",
					"一个身穿漆黑盔甲的骑士挥舞着罗丁的剑，凭空出现在国王的宫殿里，杀死了勇者凯斯特，然后同样迅速地消失了。也许，黑骑士只是为了向曾经带领他进入命运多舛的塔楼的骑士们复仇，也许他是为了再次带来长夜。",
					"{@b Battling Roldin}",
					"罗丹随意使用他的隐形能力，喜欢在不为人知的情况下出手，并在敌人被杀后迅速消失不见。只有在非常幸运的情况下，加上探测幻术的能力，当事人才能在他不经意间发现他，或者打断他的暗杀行动。",
					"如果他认为这支队伍对他更大的目标构成威胁，或者这支队伍成功地阻碍了他，罗丁会在他们最脆弱的时候打击他们：在与另一个敌人的艰难战斗之后直接打击他们，在一个不稳定的绳桥的正中间，或者在晚上，当篝火刚刚熄灭的时候。",
					"罗丹很执着，不睡觉、不吃饭、不喝酒。他在攻击前会跟踪目标很长时间，一旦出现就是一股毁灭性的力量。"
				]
			},
			"traitTags": [
				"Magic Resistance"
			],
			"senseTags": [
				"SD"
			],
			"actionTags": [
				"Multiattack",
				"Parry"
			],
			"languageTags": [
				"AB",
				"C"
			],
			"damageTags": [
				"S",
				"N"
			],
			"miscTags": [
				"RCH",
				"MLW"
			],
			"attachedItems": [
				"longsword|phb"
			]
		},
		{
			"name": "Siddhartha, the Bloodless",
			"source": "MFOV:EA",
			"isNpc": true,
			"isNamedCreature": true,
			"page": 13,
			"size": [
				"M"
			],
			"type": "undead",
			"alignment": [
				"N",
				"E"
			],
			"ac": [
				{
					"ac": 17,
					"from": [
						"natural armor"
					]
				}
			],
			"hp": {
				"average": 158,
				"formula": "21d8 + 63"
			},
			"speed": {
				"walk": 30
			},
			"str": 14,
			"dex": 20,
			"con": 16,
			"int": 12,
			"wis": 14,
			"cha": 14,
			"save": {
				"dex": "+8",
				"wis": "+5"
			},
			"skill": {
				"acrobatics": "+8",
				"athletics": "+5",
				"perception": "+5",
				"stealth": "+8"
			},
			"senses": [
				"darkvision 120 ft."
			],
			"passive": 15,
			"resist": [
				"necrotic",
				{
					"resist": [
						"bludgeoning",
						"piercing",
						"slashing"
					],
					"note": "from nonmagical weapons",
					"cond": true
				}
			],
			"languages": [
				"Common"
			],
			"cr": "8",
			"trait": [
				{
					"name": "Magic Resistance",
					"entries": [
						"释迦牟尼在面对法术和其他魔法效果的时候，在蓄力攻击上有优势。"
					]
				},
				{
					"name": "Regeneration",
					"entries": [
						"如果释迦牟尼至少还有1点命中率，他在回合开始时可以恢复10点命中率。如果释迦牟尼受到辐射伤害，这个特性在他下一个回合开始时不会发挥作用。"
					]
				},
				{
					"name": "Spider Climb",
					"entries": [
						"释迦牟尼可以爬上困难的表面，包括倒立在天花板上，而不需要进行能力检查。"
					]
				}
			],
			"action": [
				{
					"name": "Multiattack",
					"entries": [
						"悉达多进行四次徒手打击或进行两次徒手打击并对一个生物使用千人斩。"
					]
				},
				{
					"name": "Animate Dead (1/Day)",
					"entries": [
						"释迦牟尼可以将该法术（%0%）作为五级法术来施展。"
					]
				},
				{
					"name": "Thousand Deaths",
					"entries": [
						"近身攻击：{@hit 8}击中，到达5英尺，一个生物。命中：如果目标的剩余命中率低于一半，它必须成功进行{@dc 13}宪法救赎，否则会被降低到0命中率。"
					]
				},
				{
					"name": "Unarmed Strike",
					"entries": [
						"{@atk mw} {@hit 8} to hit, reach 5 ft., one creature. Hit: 11 ({@damage 1d12}+5) bludgeoning damage + 5 ({@damage 1d8}) necrotic"
					]
				}
			],
			"fluff": {
				"entries": [
					"释迦牟尼是一个直接从功夫恐怖片中走出来的反派，非常适合具有强烈恐怖或东方影响的活动，或者作为通常不涉足这些主题的活动的一个清新的变化。",
					"{@b Origin}",
					"江氏吸血鬼在整个东方都很有名，他们比其他类型的亡灵更令人恐惧，因为当其他亡灵完全失去他们的身份时，江氏却一直保持着他们的身份，拥有致命的智慧和一生的武术技巧。很少有人知道，可怕的江氏族人实际上是凡人，更少有人知道释迦牟尼的故事，他是江氏族人中第一个不死的人。",
					"释迦牟尼从遥远的地方来到东方，翻山越岭，用香料和丝绸换取黄金。当他的存货卖完了，库房也满了，他打算回家，但在路上被无情的强盗伏击。释迦牟尼是个慷慨的人，他把自己一半的黄金给了这些人，这是一笔小小的财富，如果他能安全地回到自己的家乡，但土匪们拒绝了。匪徒把他从车上扔下来，拿走了他所有的东西，然后打断他的双腿，让他自生自灭。",
					"一天过去了，释迦牟尼在路上没有看到其他人，只是看着附近的高山上有一盏小小的、持续的灯在闪动。第二天早上，他用竹子绑住双腿，爬上山去寻找帮助。在山顶，他发现了一个寺院，里面都是善良的僧人，他们给他吃的，照顾他恢复健康，并教他开掌之道，以及充斥着我们所有人的气。",
					"释迦牟尼在僧侣们那里呆了一年零一天，学习了他们要教给他的一切，但他内心对那些在路上袭击他的人充满了仇恨。当他终于可以走路时，尽管腿很僵硬，他还是离开了寺院，找到了强盗的藏身处。在愤怒中，他杀死了他在那里发现的每一个人，拥抱自己内心的黑暗，回避与他的气的平衡。",
					"在接下来的几十年里，释迦牟尼将炼制江湖道，并收了几个徒弟。他的皮肤变得灰白、枯萎，不久，他就和一具尸体没有区别了。的确，释迦牟尼活了几百年，也夺走了几百条生命。",
					"他寻找更大、更强大的神灵来消耗和增加自己的力量，并利用他的江氏军队来寻找他们。释迦牟尼觊觎皇帝和国王的神权，特别是在可能的情况下，他试图耗尽他们的气力来增强自己的力量。",
					"{@b Battling Siddhartha}",
					"释迦牟尼总是在不少于两名江湖术士中出现（使用吸血鬼再生状态，但没有吸血鬼的弱点特征。）他很可能在战斗前就知道对方和对方的弱点，并且会利用这些知识来发挥他的优势。"
				]
			},
			"traitTags": [
				"Magic Resistance",
				"Regeneration",
				"Spider Climb"
			],
			"senseTags": [
				"SD"
			],
			"actionTags": [
				"Multiattack"
			],
			"languageTags": [
				"C"
			],
			"savingThrowForced": [
				"constitution"
			]
		},
		{
			"name": "Ransom the Heretic",
			"source": "MFOV:EA",
			"isNpc": true,
			"isNamedCreature": true,
			"page": 15,
			"size": [
				"M"
			],
			"type": {
				"type": "humanoid",
				"tags": [
					"human"
				]
			},
			"alignment": [
				"L",
				"E"
			],
			"ac": [
				{
					"ac": 20,
					"from": [
						"{@item plate armor|phb}",
						"{@item shield|phb}"
					]
				}
			],
			"hp": {
				"average": 255,
				"formula": "34d8 + 102"
			},
			"speed": {
				"walk": 30
			},
			"str": 20,
			"dex": 10,
			"con": 16,
			"int": 12,
			"wis": 14,
			"cha": 16,
			"save": {
				"str": "+10",
				"con": "+8",
				"cha": "+8"
			},
			"skill": {
				"athletics": "+10",
				"perception": "+7",
				"religion": "+6"
			},
			"passive": 17,
			"resist": [
				"necrotic",
				"radiant"
			],
			"languages": [
				"Common"
			],
			"cr": "15",
			"spellcasting": [
				{
					"name": "Spellcasting",
					"headerEntries": [
						"兰斯姆是一个15级的施法者。他的法术能力是魅力（法术救赎（%0%），用法术攻击击中（%1%））。他准备了以下的圣骑士法术。"
					],
					"spells": {
						"1": {
							"slots": 4,
							"spells": [
								"{@spell command}",
								"{@spell divine favor}",
								"{@spell protection from evil and good}"
							]
						},
						"2": {
							"slots": 3,
							"spells": [
								"{@spell hold person}",
								"{@spell magic weapon}"
							]
						},
						"3": {
							"slots": 3,
							"spells": [
								"{@spell dispel magic}",
								"{@spell fear}"
							]
						},
						"4": {
							"slots": 2,
							"spells": [
								"{@spell banishment}",
								"{@spell dominate beast}"
							]
						}
					},
					"ability": "cha",
					"type": "spellcasting"
				}
			],
			"trait": [
				{
					"name": "Burn Effigy",
					"entries": [
						"Ransom可以使用他的额外行动，对与他相邻的每个生物造成11({@damage 3d6})的火焰伤害。"
					]
				},
				{
					"name": "Unbeliever",
					"entries": [
						"Ransom对牧师、德鲁伊、其他圣骑士和其他神源施放的法术免疫。"
					]
				}
			],
			"action": [
				{
					"name": "Multiattack",
					"entries": [
						"Ransom用他的长剑进行了两次攻击。"
					]
				},
				{
					"name": "Longsword",
					"entries": [
						"{@atk mw} {@hit 10}击中，到达10英尺，一个目标。{@h}9 ({@damage 1d8 + 5})的砍击伤害，如果双手使用，则为10 ({@damage 1d10 + 5})的砍击伤害，外加13 ({@damage 3d8})的坏死伤害。"
					]
				},
				{
					"name": "Blaspheme (1/Day) Day)",
					"entries": [
						"赎金说的是异端邪说，深奥的语句震撼了整个房间。30英尺范围内的每个生物都必须做一个魅力救赎动作（（%0%）），否则一分钟内无法恢复生命值。"
					]
				}
			],
			"reaction": [
				{
					"name": "Parry",
					"entries": [
						"Ransom在对抗一次会击中他的近战攻击时，会增加5的AC值。要做到这一点，Ransom必须看到攻击者并挥舞着近战武器。"
					]
				}
			],
			"fluff": {
				"entries": [
					"赎金是一个非常危险的反派，对高级别的政党来说是一个很好的搭配，特别是在有哲学主题和基础冲突的战役中。包括他在内，会让人质疑神性的本质，以及你的活动中的人物所持有的个人法律理想。",
					"兰瑟姆最可怕的地方在于他在某种程度上可能是对的。作为GM，你对此有最终决定权，但对神明本身产生一些怀疑，会使兰森、保卫者和整个战役世界处于一个非常不同的境地。如果对兰森的证据选择得当，你甚至可以把游戏媒介作为一个整体来参考，就像下面的例子那样。",
					"{@b Origin}",
					"尽管他的追随者们用沙哑的语调称他为 \"真理演讲者兰森 \"或 \"第一反抗者\"，但大多数人只是叫他 \"该死的异端\"。这并不总是如此；兰森曾经是一名法律的圣骑士，他是对抗混沌力量的先锋，保护无辜者。",
					"但是有一天，当兰森在他的国王的领地的一个遥远的角落调查威胁时，他发现了一个埋在农夫的田里的东西。这个东西显然是从天上掉下来的，当兰瑟姆看到它的那一刻，他抛弃了他的神，他的誓言，以及宇宙的秩序。今天没有人知道兰瑟姆发现了什么，只知道它是无可辩驳的证据，证明神是假的，宇宙本身也可能是假的。",
					"兰瑟姆创立了无神论者组织 \"捍卫者\"，致力于从基础上摧毁所有信仰。对他最亲密的追随者，兰森展示了证据，他一直带在身边，随时都藏在一个小雪松盒子里。没有人瞥见过这个盒子里的东西而保持他们的信仰。",
					"违抗者在必须的地方进行阴谋诡计，在可以的地方公开会面。他们的目标是让所有人都皈依他们的思想流派，并摧毁所有反对他们的人。虽然万神殿的庙宇强大而根深蒂固，但炼金术士和奥术师的队伍也加入了这一事业--科学和理性对许多人来说是足够的证据。",
					"近几个月来，保卫者似乎一直在加快他们的目标。兰瑟姆正在推动他们做一些激烈的事情；一些与他的证据有关的事情。如果不加以阻止，捍卫者们可能会让神灵自己倒下，因为没有崇拜，神性就会枯萎。",
					"{@b Ransom's Evidence}",
					"你可以在《赎金的证据》的活动中使用各种文物，但这里有一个建议，它嘲笑了游戏艺术形式，以及可能出现的生存危机。",
					"{@b The Icosahedron}. 兰瑟姆看到这件神器从天而降，又从天外而降。一瞬间，他看到了一张大桌子的边缘，和巨大的椅子腿，并明白这一切上面的生命根本不是神。二十面体，一个令人惊讶的密集的20面体，大约一英尺宽，每个面上都刻有奇怪的符号。当它放在地上，一面朝上时，周围的人可以感受到现实的转变和命运的牵引。有些符号比其他符号更有力量，有好处也有坏处。",
					"最后，当二十面体被卷起时，它赋予了一种规模感。二十面体来自现实，而其他东西都不是真正的现实。",
					"兰森对二十面体有两个目标，这源于他对正义和法律的信仰：他希望把它送回桌子，因为它是从那里来的；他希望用它来摧毁宇宙。宇宙是虚假的，是非神的创造，应该被终结。同时，二十面体属于创造者，应该被归还，当它结束时，所有东西都应该是平等的。对他来说，其他事情都不重要。"
				]
			},
			"actionTags": [
				"Multiattack",
				"Parry"
			],
			"languageTags": [
				"C"
			],
			"damageTags": [
				"S",
				"N",
				"F"
			],
			"spellcastingTags": [
				"CP"
			],
			"miscTags": [
				"MW",
				"RCH",
				"AOE",
				"MLW"
			],
			"damageTagsSpell": [
				"R"
			],
			"attachedItems": [
				"longsword|phb"
			],
			"savingThrowForcedSpell": [
				"charisma",
				"wisdom"
			]
		},
		{
			"name": "Virgil",
			"source": "MFOV:EA",
			"isNpc": true,
			"isNamedCreature": true,
			"page": 17,
			"size": [
				"M"
			],
			"type": {
				"type": "humanoid",
				"tags": [
					"human"
				]
			},
			"alignment": [
				"N",
				"E"
			],
			"ac": [
				{
					"ac": 17,
					"from": [
						"{@item half plate armor|phb}"
					]
				}
			],
			"hp": {
				"average": 180,
				"formula": "24d8 + 72"
			},
			"speed": {
				"walk": 40
			},
			"str": 14,
			"dex": 20,
			"con": 16,
			"int": 12,
			"wis": 16,
			"cha": 10,
			"save": {
				"dex": "+9",
				"con": "+7",
				"wis": "+7"
			},
			"skill": {
				"perception": "+7",
				"religion": "+5",
				"stealth": "+9",
				"survival": "+7"
			},
			"senses": [
				"darkvision 120 ft."
			],
			"passive": 17,
			"resist": [
				"cold",
				"fire",
				{
					"resist": [
						"bludgeoning",
						"piercing",
						"slashing"
					],
					"note": "from nonmagical weapons that aren't silvered",
					"cond": true
				}
			],
			"languages": [
				"Infernal",
				"Common",
				"telepathy 120 ft."
			],
			"cr": "10",
			"spellcasting": [
				{
					"name": "Spellcasting",
					"headerEntries": [
						"维吉尔是一个12级的施法者。他的法术能力是智慧（法术救赎（%0%），用法术攻击命中率（%1%））。他准备了以下的圣骑士法术。"
					],
					"spells": {
						"1": {
							"slots": 4,
							"spells": [
								"{@spell cure wounds}",
								"{@spell fog cloud}",
								"{@spell longstrider}"
							]
						},
						"2": {
							"slots": 3,
							"spells": [
								"{@spell silence}",
								"{@spell spike growth}"
							]
						},
						"3": {
							"slots": 3,
							"spells": [
								"{@spell lightning arrow}",
								"{@spell wind wall}"
							]
						}
					},
					"ability": "wis",
					"type": "spellcasting"
				}
			],
			"trait": [
				{
					"name": "Alert",
					"entries": [
						"维吉尔在主动性上有优势。"
					]
				},
				{
					"name": "Devil's Sight",
					"entries": [
						"神奇的黑暗并不妨碍维吉尔的黑暗视觉。"
					]
				},
				{
					"name": "Drain Soul (1/Day)",
					"entries": [
						"维吉尔可以在一分钟内吸食一个（%0%）生物的灵魂。该生物被杀死，只能通过{@spell true resurrection}或{@spell wish}的法术来恢复生命。维吉尔的命中率恢复到最大值，并恢复所有消耗的法术槽。维吉尔必须至少每7天吸干一个灵魂，否则他就会枯萎而死。"
					]
				}
			],
			"action": [
				{
					"name": "Multiattack",
					"entries": [
						"维吉尔用他的短剑进行四次攻击，或者用他的短剑进行两次攻击，用他的地狱之鞭进行两次攻击。"
					]
				},
				{
					"name": "Shortsword",
					"entries": [
						"{@atk mw} {@hit 9}击中，到达5英尺，一个目标。{@h}17 ({@damage 2d6 + 1d8 + 5})砍击伤害。如果被击中，目标必须做一个{@dc 15}体质测试，否则会被{@condition paralyzed}，直到维吉尔的下一个回合结束。"
					]
				},
				{
					"name": "Infernal Lash",
					"entries": [
						"{@atk ms} {@hit 7}击中，到达10英尺，一个目标。命中 : 13 ({@damage 4d4 + 3}) 坏死性伤害 ."
					]
				}
			],
			"reaction": [
				{
					"name": "Parry",
					"entries": [
						"维吉尔在对抗一次会击中它的近战攻击时，会增加5的攻击力。要做到这一点，维吉尔必须看到攻击者并挥舞着近战武器。"
					]
				},
				{
					"name": "Wraith Form (1/Day).",
					"entries": [
						"当维吉尔受到伤害时，他会变成一个无实体的、闪烁的阴影。直到他的下一个回合开始，他对非魔法武器的伤害免疫，并对所有其他伤害有抵抗力。"
					]
				}
			],
			"fluff": {
				"entries": [
					"维吉尔是一个黑暗、神秘的角色，非常适合最终发生在地狱的战役，或者需要一个真正有自杀情节的反派。毕竟，维吉尔有足够的动机来煽动一场史诗般的灾难，只要这场灾难足以彻底摧毁他不朽的灵魂。他也可以在党派遇到文物后成为一个有趣的补充，因为他可能有理由猎杀他们，为自己争取文物。",
					"玩家可以通过维吉尔关于地狱的著作间接地与他互动，因为它与现实世界的文本但丁的《地狱》直接平行。在他的起源故事中，维吉尔扮演着但丁和他自己的角色，并因为现在被遗忘的原因而走过地狱。他是一个活生生的传奇人物，强调这一点可以使他成为一个有气势的、令人难忘的存在。",
					"{@b Origin}",
					"当你长时间盯着深渊时，深渊也会回瞪你。",
					"几个世纪前，维吉尔在九层地狱的深处行走，但他，在他不自然的长寿中，仍然被九层地狱的黑色影响所玷污。他边走边写，带着他的著作回到了凡间，因为他的缘故，今天很多学者都知道在地狱里等待的折磨。他的著作详细介绍了地狱的不同层次，游荡在地狱底层的魔鬼类型，以及在每一层统治的大公的名字。但维吉尔的旅行并非没有代价。",
					"今天，维吉尔本人就是一个介于魔鬼和裹尸布之间的人。他的身体仍然是凡人，卡在生与死之间的半路上，需要他耗费生者的生命力来坚持在这个世界上。",
					"维吉尔对死亡感到恐惧，尽管他自己就是一个死亡的幽灵。他清楚地知道在来世等待他的是什么邪恶，因此无休止地寻找逃脱命运的方法。在某处，他囤积了古代知识的碎片和魔法文物的碎片。他的最终目标是发现一件可以让他觐见诸神的神器或仪式，以乞求宽恕并要求进入更高的层面。如果做不到这一点，维吉尔就会寻找足够强大的东西来摧毁他的灵魂，而不顾附带的损害。毁灭世界对他来说是可以接受的，如果他能在这个过程中避免回到冥界的话。",
					"对许多人来说，他的名字不是一个学者的名字，而是一个民间传说的名字--一个警告儿童不要被邪恶事物吸引的道德故事。然而，维吉尔并不是一个传说；他在这个世界上游荡，以无助者为食，并寻找逃离等待他的地狱的机会。",
					"{@b Battling Virgil}",
					"维吉尔从来不会在没有明确目标的情况下进入战斗。通常情况下，他通过施放{@i fog cloud}（在白天）或{@i silence}（在晚上）来显示自己。",
					"一旦他获得了一件神器，或者使受害者失去意识被吸干了生命，他就会立即逃跑，把神器送回他的囤积处，或者和他的受害者一起从安全处吸干它。除非有特别的东西阻止他逃跑，否则维吉尔从来不会战斗到死，总是确保他有一个很好的胜利或逃跑的机会。",
					"为了确保逃跑，维吉尔可以召唤魔鬼来分散注意力。他从不与被召唤的魔鬼并肩作战，因为他对魔鬼的恐惧超过任何生物。"
				]
			},
			"traitTags": [
				"Devil's Sight"
			],
			"senseTags": [
				"SD"
			],
			"actionTags": [
				"Multiattack",
				"Parry"
			],
			"languageTags": [
				"I",
				"C",
				"TP"
			],
			"damageTags": [
				"S",
				"N"
			],
			"spellcastingTags": [
				"CP"
			],
			"miscTags": [
				"MW",
				"RCH",
				"MLW"
			],
			"conditionInflict": [
				"paralyzed"
			],
			"conditionInflictSpell": [
				"deafened"
			],
			"damageTagsSpell": [
				"B",
				"L",
				"P"
			],
			"attachedItems": [
				"shortsword|phb"
			],
			"savingThrowForced": [
				"constitution"
			],
			"savingThrowForcedSpell": [
				"dexterity",
				"strength"
			]
		},
		{
			"name": "The Pale Man",
			"source": "MFOV:EA",
			"isNpc": true,
			"isNamedCreature": true,
			"page": 19,
			"size": [
				"M"
			],
			"type": {
				"type": "humanoid",
				"tags": [
					"human"
				]
			},
			"alignment": [
				"C",
				"E"
			],
			"ac": [
				{
					"ac": 17,
					"from": [
						"{@item studded leather armor|phb}"
					]
				}
			],
			"hp": {
				"average": 150,
				"formula": "20d8 + 60"
			},
			"speed": {
				"walk": 30
			},
			"str": 14,
			"dex": 20,
			"con": 16,
			"int": 12,
			"wis": 10,
			"cha": 16,
			"save": {
				"dex": "+8",
				"int": "+4",
				"wis": "+3"
			},
			"skill": {
				"acrobatics": "+8",
				"deception": "+9",
				"perception": "+3",
				"stealth": "+11",
				"performance": "+9"
			},
			"passive": 13,
			"languages": [
				"Common"
			],
			"cr": "7",
			"trait": [
				{
					"name": "Cunning Action",
					"entries": [
						"在他的每个回合中，苍白人可以使用一个额外的行动来进行冲刺、脱离或隐藏行动。"
					]
				},
				{
					"name": "Evasion",
					"entries": [
						"如果 \"苍白人 \"受到的效果允许他做一个灵巧的蓄力动作来承受一半的伤害，那么如果他的蓄力动作成功，他就不会受到伤害，如果失败，他就只会受到一半的伤害。"
					]
				},
				{
					"name": "Pranks",
					"entries": [
						"苍白者有一些小玩意，可以让他作为11级施法者复制以下咒语（咒语保存（%0%），（%1%）用咒语攻击击中）。{@spell poison spray}, {@spell shocking grasp}, {@spell vicious mockery}"
					]
				},
				{
					"name": "Relentless (1/Day)",
					"entries": [
						"如果苍白人受到的伤害会使他的命中率降为0，那么他的命中率反而会降为1。"
					]
				},
				{
					"name": "Sneak Attack (1/Turn)",
					"entries": [
						"当苍白者用武器攻击击中目标并在攻击卷上有优势时，或者当目标在苍白者的盟友5英尺范围内不是{@condition incapacitated}且苍白者在攻击卷上没有劣势时，会造成额外的13（{@dice 4d6}）伤害。"
					]
				}
			],
			"action": [
				{
					"name": "Multiattack",
					"entries": [
						"苍白人进行两次短剑攻击，并投掷一个笑气弹或一个（%0%）飞镖。"
					]
				},
				{
					"name": "Shortsword",
					"entries": [
						"{@atk mw} {@hit 8}击中，到达5英尺，一个目标。{@h}12 ({@damage 2d6 + 5})砍击或火焰伤害。如果一个生物被这把武器降低到0命中率并死亡，其尸体会燃烧并碎裂成灰。"
					]
				},
				{
					"name": "Laughing Gas Bomb",
					"entries": [
						"{@atk rw} {@hit 8}击中，范围30/60英尺，一个生物。{@h}10 ({@damage 4d4})的毒药伤害，并且目标和目标5英尺范围内的所有生物必须做一个{@dc 15}宪法救赎动作，否则在攻击卷轴上有劣势，直到你下一个回合开始。"
					]
				},
				{
					"name": "Poisoned Dart",
					"entries": [
						"{@atk rw} {@hit 8}击中，范围30/120英尺，一个生物。{@h}10 ({@damage 2d4 + 5})穿刺伤害，目标必须在{@dc 15}体质救赎行中成功，否则会被{@condition poisoned}1分钟。目标可以在其每个回合结束时重复蓄力，如果成功则结束对自己的影响。"
					]
				}
			],
			"reaction": [
				{
					"name": "Uncanny Dodge",
					"entries": [
						"苍白人对击中他的一次武器攻击的伤害减半，然后移动5英尺而不引起机会攻击。"
					]
				}
			],
			"fluff": {
				"entries": [
					"苍白者是一个可怕的人物，大多数漫画迷都应该本能地认识到这一点，（尽管这里的人物是原创的，与任何其他人物，无论是真实的还是虚构的，都纯属巧合）。他是一个伟大的反复出现的反派，因为他有在不可能的情况下生存的倾向，以及他创造独特的、错综复杂的计划的惊人能力，这可以填补一个会议。",
					"{@b Origin}",
					"苍白者是一个谜。他是一个小丑，也是一个杀人犯；是一个恶作剧者，也是一个精神病患者。",
					"关于苍白者的故事可以追溯到几个世纪以前，但苍白者本人似乎是一个年轻的、其他方面健康的人。健康，也就是说，除了他脸上凝固的笑脸和他不自然的白色，几乎漂白的皮肤。乍一看，他的外表可能显得很欢快，但随着时间的推移，它总是让人感到不安和烦躁。他的历史和他的外表一样无法解释；许多人听说过他，但没有人知道他的名字，或者他从哪里来。",
					"就所有的意图和目的而言，\"苍白人 \"是一种混乱的力量。他计划并执行精心设计的恶作剧，有时是为了扰乱和逗乐，有时是为了致残和伤害。大多数时候，它是两者的结合。",
					"他选择的工具是小玩意和气体。苍白者在炼金术和修补方面有一些经验，他喜欢把宫廷小丑的陈词滥调和插科打诨扭曲成破坏工具。他最出名的是笑气炸弹，这为他的笑话提供了一个致命的笑料，尽管他也采用了闪电式握手器和酸性花朵。如果一切都失败了，他非常精通匕首、短剑、轻剑和其他兵器，如果他的笑话落空，他可以迅速结束一场对抗。",
					"他经常秘密旅行，所到之处都会造成破坏。通常，他的阴险计划是针对随机的人，但偶尔他会选择一个他喜欢玩的人，不厌其烦地威胁他们。",
					"最后，\"苍白人 \"非常善于在其他致命的情况下生存。当一个事件本来可以杀死他时，当烟雾散去时，他根本无处可寻。这可能仅仅是由于一些运气，加上他非自然的敏捷性，但其他人猜测，苍白人比他的外表更有魅力。",
					"{@b Battling the Pale Man}",
					"苍白者身边总是有一些五颜六色的随从（NPC打手）来协助他的计划，如果在他的某个临时巢穴中被发现，他还会有一对鬣狗随时准备被放出来。",
					"苍白者是不可预测的，但也采用了他提前很久就设定好的陷阱和恶作剧。如果机会对他不利，他通常会寻找一种别出心裁的方式来试图摧毁所有人，比如把一栋大楼弄倒，或者引发一场大规模爆炸。无论多么不可能，只要他的死亡没有被人亲眼看到，他的尸体就永远不会被收回，他就会以某种方式活下来。"
				]
			},
			"traitTags": [
				"Sneak Attack"
			],
			"actionTags": [
				"Multiattack"
			],
			"languageTags": [
				"C"
			],
			"damageTags": [
				"S",
				"F",
				"I",
				"P"
			],
			"miscTags": [
				"MW",
				"RW",
				"THW",
				"MLW"
			],
			"conditionInflict": [
				"incapacitated"
			],
			"attachedItems": [
				"shortsword|phb"
			],
			"savingThrowForced": [
				"constitution"
			]
		},
		{
			"name": "Patia the Pale",
			"source": "MFOV:EA",
			"isNpc": true,
			"isNamedCreature": true,
			"page": 21,
			"size": [
				"M"
			],
			"type": "undead",
			"alignment": [
				"N",
				"E"
			],
			"ac": [
				12,
				{
					"ac": 15,
					"condition": "with {@spell mage armor}",
					"braces": true
				}
			],
			"hp": {
				"average": 170,
				"formula": "20d8 + 80"
			},
			"speed": {
				"walk": 30
			},
			"str": 18,
			"dex": 14,
			"con": 18,
			"int": 10,
			"wis": 14,
			"cha": 20,
			"save": {
				"wis": "+7",
				"cha": "+10"
			},
			"skill": {
				"arcana": "+5",
				"perception": "+7"
			},
			"senses": [
				"darkvision 60 ft."
			],
			"passive": 12,
			"resist": [
				"necrotic",
				"psychic"
			],
			"immune": [
				"poison"
			],
			"conditionImmune": [
				"charmed",
				"exhaustion",
				"frightened",
				"paralyzed",
				"poisoned",
				"stunned"
			],
			"languages": [
				"Common"
			],
			"cr": "14",
			"spellcasting": [
				{
					"name": "Spellcasting ",
					"headerEntries": [
						"帕蒂亚是一个18级的施法者。她的法术能力是魅力（法术救赎（%0%），用法术攻击击中（%1%）。她准备了以下巫师法术。"
					],
					"spells": {
						"0": {
							"spells": [
								"{@spell chill touch}",
								"{@spell fire bolt}",
								"{@spell mage hand}",
								"{@spell true strike}"
							]
						},
						"1": {
							"slots": 4,
							"spells": [
								"{@spell mage armor}*",
								"{@spell inflict wounds}",
								"{@spell sleep}",
								"{@spell thunderwave}"
							]
						},
						"2": {
							"slots": 3,
							"spells": [
								"{@spell invisibility}",
								"{@spell misty step}",
								"{@spell ray of enfeeblement}",
								"{@spell scorching ray}"
							]
						},
						"3": {
							"slots": 3,
							"spells": [
								"{@spell animate dead}",
								"{@spell fireball}",
								"{@spell slow}"
							]
						},
						"4": {
							"slots": 3,
							"spells": [
								"{@spell blight}",
								"{@spell greater invisi bility}",
								"{@spell polymorph}"
							]
						},
						"5": {
							"slots": 3,
							"spells": [
								"{@spell cloudkill}",
								"{@spell contagion}",
								"{@spell dominate person}"
							]
						},
						"6": {
							"slots": 1,
							"spells": [
								"{@spell circle of death}",
								"{@spell create undead}"
							]
						},
						"7": {
							"slots": 1,
							"spells": [
								"{@spell finger of death}"
							]
						},
						"8": {
							"slots": 1,
							"spells": [
								"{@spell power word stun}"
							]
						},
						"9": {
							"slots": 1,
							"spells": [
								"{@spell power word kill}"
							]
						}
					},
					"footerEntries": [
						"* Patia casts these spells on her self before combat"
					],
					"ability": "cha",
					"type": "spellcasting"
				}
			],
			"trait": [
				{
					"name": "Overlord",
					"entries": [
						"帕蒂亚可以使用她的额外行动来指挥1英里内受她控制的任何数量的亡灵。"
					]
				},
				{
					"name": "Necrotic Healing",
					"entries": [
						"当帕蒂亚会受到坏死的伤害时，她反而会重新获得相当于会受到的伤害的命中率。"
					]
				},
				{
					"name": "Regeneration",
					"entries": [
						"复仇者在其回合开始时重新获得20点生命值。如果复仇者受到火焰或辐射伤害，这个特性在复仇者的下一回合开始时不会发挥作用。复仇者的身体只有在它的回合开始时命中率为0并且没有再生时才会被摧毁。"
					]
				},
				{
					"name": "Rejuvenation",
					"entries": [
						"当复仇者的身体被摧毁时，它的灵魂会一直存在。24小时后，灵魂会栖息在同一存在平面的另一具尸体上，并使其具有生命力，同时恢复所有的命中率。当灵魂没有身体的时候，可以用一个{@spell wish}的法术来强迫灵魂去往来世，不再回来。"
					]
				},
				{
					"name": "Turn Immunity",
					"entries": [
						"复仇者对变成亡灵的效果免疫。"
					]
				},
				{
					"name": "Vengeful Tracker",
					"entries": [
						"复仇者知道它所要复仇的任何生物的距离和方向，即使该生物和复仇者处于不同的存在平面。如果被复仇者追踪的生物死亡，复仇者就会知道。"
					]
				}
			],
			"action": [
				{
					"name": "Dagger",
					"entries": [
						"近战或远程武器攻击{@hit 7}命中，到达5英尺或范围20/60英尺，一个目标。{@h}4 ({@damage 1d4 + 2})穿刺伤害。"
					]
				}
			],
			"fluff": {
				"entries": [
					"帕蒂亚是一个行走的复仇故事，她的背后有一整个亡灵部落。她很适合那些以大规模、毁灭性的亡灵群为特征的战役，也很容易适合那些喜欢探究的侦探工作的战役，因为派遣她的一个最简单的方法就是解开她的过去，并确保她的复仇得到满足。直接与她和她的部落作战是一个适合高级别团队的挑战，而捕获传真则可以由低级别团队完成。",
					"{@b Origin}",
					"虽然她的尸体上没有什么证据，但毫无疑问，帕蒂亚女士曾经是这片土地上最美丽的少女。今天，她是这片土地上最大的祸害。",
					"当一个遭遇残酷和不公正的死亡的人被给予罕见的第二次复仇机会时，亡灵就会出现。帕蒂亚女士是一个美丽的平民，在违背自己意愿的情况下，成为了一个贵族的妻子。她的丈夫是巴纳姆-传真，一个专制的贵族，代表国王管理东方的许多庄园，因虐待他的财产，包括他的仆人、雇员和妻子而臭名昭著。不管帕蒂亚是怎么死的，肯定是死于他的手，而且是如此的野蛮，以至于目睹的人都不敢重复其细节。一年后，帕蒂亚的坟墓被发现是空的，从里面挖出来的。",
					"帕蒂亚现在是个复仇者，她发现自己被赋予了 \"死亡符号\"，这是一种不死的标记，可以使死人复活并收缩，为他们服务。她迅速组建了一支尸体大军，占领了法克斯的庄园，迫使他向西逃亡。懦弱的法克斯仍在逃亡，被一个横扫乡村的亡灵部落追赶，他们所到之处，人数不断增加。一年多过去了，\"苍白的帕蒂亚\"（Patia the Pale），正如她所知道的那样，仍然坚持不死，这表明她是一个最罕见的复仇者，一个拥有十年时间来寻求对那些伤害她的人进行报复的天赋。然而，传真仍然隐藏着，帕蒂亚的苍白部落也在增长。",
					"{@b Battling Patia}",
					"直接面对帕蒂亚并不是一件容易的事。她身后永远跟着她的亡灵部落，成千上万的僵尸、骷髅和食尸鬼，还有少量的食人魔、巫师和幽灵混杂其中。她只有在认为有机会杀死巴纳姆-传真时才会直接暴露自己。即使不包括这一点，她本身也是一个强大的巫师，有施展死灵法术的天赋。",
					"有一个替代方法可以打发帕蒂亚，而不用通过亡灵大军作战。如果队伍能够找到并杀死传真，帕蒂亚就会回到来世，而她的亡灵也会简单地变成无生命的。当然，如果找到他很容易，毫无疑问帕蒂亚已经成功了--法克斯似乎受到了强大的魔法保护。"
				]
			},
			"traitTags": [
				"Regeneration",
				"Rejuvenation",
				"Turn Immunity"
			],
			"senseTags": [
				"D"
			],
			"languageTags": [
				"C"
			],
			"damageTags": [
				"P"
			],
			"spellcastingTags": [
				"CS"
			],
			"damageTagsSpell": [
				"F",
				"I",
				"N",
				"T"
			],
			"attachedItems": [
				"dagger|phb"
			],
			"savingThrowForcedSpell": [
				"constitution",
				"dexterity",
				"wisdom"
			],
			"miscTags": [
				"MLW"
			]
		},
		{
			"name": "Host of X",
			"source": "MFOV:EA",
			"isNpc": true,
			"isNamedCreature": true,
			"page": 24,
			"size": [
				"M"
			],
			"type": {
				"type": "humanoid",
				"tags": [
					"human"
				]
			},
			"alignment": [
				"N",
				"E"
			],
			"ac": [
				{
					"ac": 16,
					"from": [
						"{@item breastplate|phb}"
					]
				}
			],
			"hp": {
				"average": 111,
				"formula": "13d8 + 52"
			},
			"speed": {
				"walk": 30
			},
			"str": 16,
			"dex": 14,
			"con": 18,
			"int": 10,
			"wis": 12,
			"cha": 20,
			"save": {
				"str": "+6",
				"con": "+7",
				"cha": "+8"
			},
			"skill": {
				"arcana": "+3",
				"history": "+3"
			},
			"senses": [
				"darkvision 120 ft."
			],
			"passive": 11,
			"resist": [
				"cold",
				"fire",
				"lightning",
				"poison"
			],
			"languages": [
				"Common"
			],
			"cr": "11",
			"spellcasting": [
				{
					"name": "Innate Spellcasting ",
					"headerEntries": [
						"宿主与生俱来的法术能力是魅力（法术救赎（%0%），用法术攻击命中率（%1%））攻击）。它可以先天性地施展以下法术，不需要任何物质成分。"
					],
					"spells": {
						"0": {
							"spells": [
								"{@spell eldritch blast}",
								"{@spell mage hand}",
								"{@spell minor illusion}"
							]
						}
					},
					"will": [
						"{@spell detect magic}",
						"{@spell false life}",
						"{@spell levitate}",
						"{@spell mage armor}*"
					],
					"daily": {
						"3e": [
							"{@spell darkness}",
							"{@spell hellish rebuke}",
							"{@spell hold person}",
							"{@spell invisibility}",
							"{@spell ray of enfeeblement}",
							"{@spell shatter}"
						],
						"1e": [
							"{@spell bestow curse}",
							"{@spell death ward}*",
							"{@spell dimension door}",
							"{@spell eyebite}",
							"{@spell finger of death}",
							"{@spell polymorph}"
						]
					},
					"footerEntries": [
						"* The host casts these spells on itself before combat"
					],
					"ability": "cha",
					"type": "spellcasting"
				}
			],
			"trait": [
				{
					"name": "Agonizing Blast",
					"entries": [
						"宿主在命中时将自己的魅力修正值加到它所造成的长生爆的伤害上。"
					]
				},
				{
					"name": "Host's Resilience",
					"entries": [
						"宿主使用其额外行动获得10个临时打击点。"
					]
				},
				{
					"name": "Magic Resistance",
					"entries": [
						"宿主在面对法术和其他魔法效果时有优势。"
					]
				}
			],
			"action": [
				{
					"name": "Multiattack",
					"entries": [
						"宿主进行两次狼牙棒攻击。"
					]
				},
				{
					"name": "Mace",
					"entries": [
						"{@atk mw}  {@hit 6} to hit, reach 5 ft., one target. {@h}16 ({@damage 1d6 + 2d8 + 3}) bludgeoning damage, and the host regains hit points equal to half the damage dealt."
					]
				}
			],
			"fluff": {
				"entries": [
					"寄生虫X是一个外星之谜，对于那些以外星入侵为主题的战役，或任何其他类型的吸食者，都是一个很好的重复性反派。这个反派很适合政治阴谋（因为X喜欢把有钱有势的人作为宿主）和谋杀神秘的冒险家，或者任何有结构的任务。\"这些人中有一个是秘密的怪物\"。",
					"X对党派来说是非常难以捉拿的，因为它可以通过一连串的尸体逃跑，并在以后穿着新的皮肤出现。你甚至可以，如果你觉得特别悲哀的话，偷偷地把X放进一个党员的身体里，来一个讨厌的惊喜。",
					"{@b Origin}",
					"寄生虫是一种来自遥远星空的生物，它披着人的皮肤在地球上行走。",
					"没有人真正确定它来自哪里，或者它是如何到达这里的，但这种寄生虫肯定是外来的。在其宿主之外，它似乎是一束可怕的卷须和神经，没有任何躯干或核心。它的真实名字非常复杂，以至于无法发音，也许最接近的名字是Xhateol'dagh，它满足于被其宿主称为X。",
					"对大多数人来说，X不过是一个神话，因为它几乎从未在其当前的宿主之外出现。它经常交换宿主，在最好的情况下每隔几年就交换一次，因为它逐渐耗尽并使宿主枯萎，只剩下一具躯壳。",
					"当它的宿主被耗尽时，它就会进行罕见的暴露式跋涉，去寻找一个新的宿主。它用卷须抓住一个潜在的宿主，然后钻进它的身体，在宿主的体腔之间的空间里居住。一旦进入，它通常会做三件事中的一件：它可以选择与宿主谈判，提供魔法和力量；它可以通过在宿主身上制造巨大的痛苦来胁迫宿主；或者它可以简单地杀死宿主，将其尸体作为傀儡使用一小段时间，直到它开始腐烂。人们可以通过跟踪一串干枯的尸体和可怕的谋杀案来追踪寄生虫的行程。",
					"对于自愿接受它的宿主，X可以授予一个契约，赋予其宿主作为术士的强大魔法。作为交换，宿主只需听从寄生虫的心灵感应命令，并允许寄生虫在其体内生活。这个契约是一个非常有吸引力的提议，但最终要以宿主自己的生命为代价，因为宿主使用的魔法越多，寄生虫对其系统的伤害就越大。",
					"X对它在这个星球上的目标深藏不露。也许，它是一个先遣侦察员，是舰队到达前的第一个入侵者。也可能它只是被困在这里，正在寻找返回其家园的方法。也许，甚至，X是它的最后一个同类，它只是想生存，或找到一个繁殖的方法。",
					"{@b Battling X}",
					"每次遇到X都有不同的宿主，（以下统计数字代表一个普通的人类宿主。）只要附近有另一个潜在的宿主，它通常会不顾一切地战斗，不担心宿主的生命。如果被打败，它将试图逃进最近的活体中，然后逃走。",
					"如果它意识到聚会对它的最终目标构成威胁，X可能会简单地居住在一个不太显眼但非常强大的宿主身上，就像一个完全长大的牛头人，并试图一劳永逸地结束这个问题。然而，在其他大多数时候，X更倾向于采取隐蔽的方法，并会尝试着一次一次地将党派的人干掉。",
					"{@b Host Template}",
					"这种寄生虫可以吸收大量的生物作为宿主。野兽、人形生物、巨人或畸形生物都可以成为宿主。当一个生物成为宿主时，它将保留其所有的统计数据，除了下面提到的。",
					"伤害抵抗力。宿主获得对寒冷、火、雷电和毒药伤害的抵抗力。",
					"感知力。宿主获得120英尺范围内的盲视，并能与宿主进行心灵感应。",
					"宿主的复原力。宿主可以使用它的奖励动作来获得10个临时命中率。",
					"魔法抵抗。宿主在对抗法术和其他魔法效果时有优势。",
					"先天法术。宿主与生俱来的法术能力是 \"魅力\"（法术救赎DC17，法术攻击的命中率+8）。它可以先天性地施展以下法术，不需要任何物质成分。",
					"咒语（随意）。{@i eldritch blast, mage hand, minor illusion}",
					"随意。{@i detect magic, false life, levitate, mage armor*}",
					"3/天每个：{@i darkness, hellish rebuke, hold person, invisibility, ray of enfeeblement, shatter}",
					"每个1/天: {@i bestow curse, dimension door, eyebite, finger of death, polymorph}",
					"*宿主在战斗前对自己施放这些法术",
					"沥血攻击。当宿主用近战武器攻击造成伤害时，它将恢复相当于所受伤害一半的命中率。",
					"{@b Losing the Template}",
					"如果一个宿主的生命值降到了0，它的寄生虫就会存在宿主的身体里寻找新的宿主，从该生物身上移走这个模板。如果另一个潜在的宿主显示出更大的潜力，或者如果它需要暂时伪装成另一个生物，那么寄生虫可能会选择离开。",
					"在没有宿主的情况下，寄生虫有AC10，25点命中率，移动速度为5英尺。它可以作为一个动作抓取一个潜在的宿主（逃脱DC15），并作为一个动作进入一个被它抓取的生物，将这个模板赋予它。它可以进入一个无意识的生物，而无需抓捕它。"
				]
			},
			"traitTags": [
				"Magic Resistance"
			],
			"senseTags": [
				"SD"
			],
			"actionTags": [
				"Multiattack"
			],
			"languageTags": [
				"C"
			],
			"damageTags": [
				"B"
			],
			"spellcastingTags": [
				"I"
			],
			"damageTagsSpell": [
				"F",
				"N",
				"O",
				"T"
			],
			"attachedItems": [
				"mace|phb"
			],
			"savingThrowForcedSpell": [
				"constitution",
				"dexterity",
				"wisdom"
			],
			"miscTags": [
				"MLW"
			]
		},
		{
			"name": "Senator Faust",
			"source": "MFOV:EA",
			"isNpc": true,
			"isNamedCreature": true,
			"page": 26,
			"size": [
				"M"
			],
			"type": {
				"type": "humanoid",
				"tags": [
					"human"
				]
			},
			"alignment": [
				"L",
				"E"
			],
			"ac": [
				12,
				{
					"ac": 15,
					"condition": "with {@spell mage armor}",
					"braces": true
				}
			],
			"hp": {
				"average": 117,
				"formula": "18d8 + 36"
			},
			"speed": {
				"walk": 30
			},
			"str": 10,
			"dex": 14,
			"con": 14,
			"int": 20,
			"wis": 10,
			"cha": 16,
			"save": {
				"dex": "+7",
				"int": "+10",
				"wis": "+5"
			},
			"skill": {
				"arcana": "+13",
				"deception": "+7",
				"history": "+9",
				"persuasion": "+11",
				"religion": "+9"
			},
			"passive": 10,
			"resist": [
				{
					"resist": [
						"bludgeoning",
						"piercing",
						"slashing"
					],
					"note": "from stoneskin",
					"cond": true
				}
			],
			"languages": [
				"Infernal",
				"Common"
			],
			"cr": "13",
			"spellcasting": [
				{
					"name": "Spellcasting ",
					"headerEntries": [
						"浮士德是一个18级的施法者。他的法术能力是智力（法术救赎（%0%），用法术攻击命中率（%1%）。他准备了以下巫师法术。"
					],
					"spells": {
						"0": {
							"spells": [
								"{@spell acid splash}",
								"{@spell fire bolt}",
								"{@spell friends}",
								"{@spell prestidigitation}"
							]
						},
						"1": {
							"slots": 4,
							"spells": [
								"{@spell false life}",
								"{@spell mage armor}*",
								"{@spell magic missile}"
							]
						},
						"2": {
							"slots": 3,
							"spells": [
								"{@spell darkness}",
								"{@spell invisibility}",
								"{@spell mirror image}"
							]
						},
						"3": {
							"slots": 3,
							"spells": [
								"{@spell counterspell}",
								"{@spell fly}",
								"{@spell lightning bolt}"
							]
						},
						"4": {
							"slots": 3,
							"spells": [
								"{@spell black tentacles}",
								"{@spell blight}",
								"{@spell stoneskin}*"
							]
						},
						"5": {
							"slots": 3,
							"spells": [
								"{@spell cone of cold}",
								"{@spell modify memory}",
								"{@spell scrying}"
							]
						},
						"6": {
							"slots": 1,
							"spells": [
								"{@spell disintegrate}"
							]
						},
						"7": {
							"slots": 1,
							"spells": [
								"{@spell plane shift}"
							]
						},
						"8": {
							"slots": 1,
							"spells": [
								"{@spell clone}"
							]
						},
						"9": {
							"slots": 1,
							"spells": [
								"{@spell gate}"
							]
						}
					},
					"footerEntries": [
						"* Faust casts these spells on himself before combat"
					],
					"ability": "int",
					"type": "spellcasting"
				}
			],
			"trait": [
				{
					"name": "Infernal Allies",
					"entries": [
						"浮士德受到魔族的精心监视，魔族可以派一个强大的盟友来支持他。在他第一次受到伤害后的一个回合，一个（%0%），和四个（%1%）自动传送到浮士德15英尺内无人的空间，并立即攻击对他有敌意的生物。如果浮士德选择的话，他可以压制对他的盟友的召唤。此外，浮士德可以用他的行动来召唤一个（%2%），它听从他的命令。他一次可以用这种方式召唤出3个小恶魔。"
					]
				},
				{
					"name": "Magic Resistance",
					"entries": [
						"浮士德在面对法术和其他魔法效果时的蓄力攻击中具有优势。"
					]
				}
			],
			"action": [
				{
					"name": "Dagger",
					"entries": [
						"{@atk mw,rw}{@hit 6}击中，距离5英尺或范围20/60英尺，一个目标。{@h}4 ({@damage 1d4 + 2})穿刺伤害。"
					]
				}
			],
			"fluff": {
				"entries": [
					"浮士德参议员是一个大魔鬼的特使，是政治运动的完美策划者。他的目标是邪恶的，他的手段也是阴险的，最重要的是，他可以召唤魔鬼来挑战党。",
					"最好是在背景中介绍浮士德，作为阴谋的主谋，让当事人按照他们的推理来了解他，并揭开他的背景故事。他是个悲剧人物（就像他的名字来自文学作品中的经典人物一样），当事人可以选择找到一种方法来对付辩护人，以确保浮士德从他的交易中获得自由。",
					"{@b Origin}",
					"就所有的意图和目的而言，浮士德是一个疯狂的天才。他是一个熟练的政治家、外交家和奥术师，在与魔鬼讨价还价时，所有这些都对他有好处。",
					"浮士德的故事是一个悲剧性的故事，是一个试图战胜命运的杰出人物的故事。当浮士德还是个巫师学徒的时候，他很年轻就结婚了，而且幸福得不得了（就像年轻人一样），但是当他只差几个月就能成为咒语学校的大师时，事情就不对劲了。他的妻子患上了咳嗽，并且开始失去手指的感觉。她最终为他生了一个女儿，但在分娩时丧生，孩子出生时病得很重。牧师、治疗师和其他巫师依次来访，但没有人能够缓解这种疾病。",
					"浮士德在绝望中，从更强大的力量中寻求解决办法。他知道，如果诸神不帮忙，下面的魔鬼会帮忙。但浮士德没有召唤一个人到物质界来谈判，而是选择了一个更大胆的选择：通过一个黑暗的仪式，他独自前往九层地狱，寻找一个名叫代言人的魔鬼。因为他以自己的条件见到了代言人，他认为他可以从这个魔鬼那里谈成一个更好的交易，也许可以把他的孩子从死亡中救出来。提倡者在他的领域里暂停了时间，与浮士德谈判了好几年。两人最终达成了一项协议，浮士德认为该协议没有任何漏洞或不利因素。他错了。",
					"浮士德回到凡间不是作为一个巫师，而是作为一个参议员，是这个国家最有权力的人之一。这只是浮士德讨价还价后获得的众多好处之一。另一个好处是有一个熟悉的小恶魔来协助他的计划。",
					"为了完成他与辩护人的交易，浮士德必须在他的参议员席位上完成三项可怕的任务。首先，浮士德必须用一把虔诚的匕首刺杀国王，并确保他的弟弟，一个代言人的邪恶仆人，能够登上王位。其次，他必须在国内造成一场巨大的灾难，这场灾难将以代言人的名义使成千上万的无辜者丧生。最后，他必须在九层地狱打开一扇通往代言人领域的大门，让无数的魔鬼涌入凡间。只有这样，浮士德才能够补救他的孩子。",
					"{@b Battling Patia}",
					"浮士德是一个非常难以攻击的敌人，部分原因是他是一个强大的政府官员。他非常注意掩饰自己的恶意活动，因此任何针对他的行动都显得毫无道理、非法和叛国。在公共场合，他从不远离一小队训练有素的卫兵，（NPC老兵），即使在家里，也有一对私人卫兵不离耳。",
					"但这些保护者与浮士德可以召唤的地狱盟友相比，就显得微不足道了。他的工作被代言人认为是非常重要的，所以只要浮士德被证明有致命的危险，就会自动召唤一大批魔鬼到他那里。当然，他做好了绝不让他的地狱朋友暴露他的身份，所以他很少在公共场所召唤他们，除非情况真的很危急，或者他有信心能处理好所有的证人。"
				]
			},
			"traitTags": [
				"Magic Resistance"
			],
			"languageTags": [
				"I",
				"C"
			],
			"damageTags": [
				"P"
			],
			"spellcastingTags": [
				"CW"
			],
			"miscTags": [
				"RW",
				"MW",
				"THW",
				"MLW"
			],
			"damageTagsSpell": [
				"A",
				"B",
				"C",
				"F",
				"L",
				"N",
				"O"
			],
			"attachedItems": [
				"dagger|phb"
			],
			"savingThrowForcedSpell": [
				"charisma",
				"constitution",
				"dexterity",
				"wisdom"
			]
		}
	],
	"subclassFeature": [
		{
			"name": "School of Diabolism",
			"source": "MFOV:EA",
			"page": 112,
			"className": "Wizard",
			"classSource": "PHB",
			"subclassShortName": "Diabolist",
			"subclassSource": "MFOV:EA",
			"level": 2,
			"entries": [
				"你长期以来一直认为，权力往往是亵渎的。卑鄙的魔鬼，居住在凡人领域之外的永恒的火焰坑中，拥有的力量让凡人的作品感到羞愧。然而，他们无疑是邪恶的，甚至与他们进行交易都是值得诅咒的。通过对晦涩难懂的召唤和捆绑仪式的深入研究，你已经接触到了下层世界，并且自己也接触到了一个恶魔，不是为了与之谈判，而是为了指挥。",
				{
					"name": "Vile Knowledge",
					"entries": [
						"到了2级，你精通各种神秘的仪式和恶魔的召唤，并在涉及它们的智力（（%0%））检查中具有优势。"
					],
					"type": "entries"
				},
				{
					"name": "Imp Familiar",
					"entries": [
						"在2级时，你将{@spell find familiar}的法术添加到你的法术书中，如果它本来就不在那里。当你召唤你的熟人时，你可以召唤一个（%1%），它像熟人一样服从你的命令。作为你回合中的额外行动，你可以命令你的熟悉的小恶魔执行一个行动或进行一次攻击。"
					],
					"type": "entries"
				}
			]
		},
		{
			"name": "Anchor of Hell",
			"source": "MFOV:EA",
			"page": 112,
			"className": "Wizard",
			"classSource": "PHB",
			"subclassShortName": "Diabolist",
			"subclassSource": "MFOV:EA",
			"level": 6,
			"header": 2,
			"entries": [
				"在第6级时，作为一个动作，你可以选择30英尺范围内你能看到的一个生物，进行一个魅力救赎。如果救赎失败，在接下来的一分钟内，该生物每移动一英尺就会多走一英尺。使用这个能力后，你必须完成一个短暂或长时间的休息才能再次使用它。"
			]
		},
		{
			"name": "Devil's Advocate",
			"source": "MFOV:EA",
			"page": 112,
			"className": "Wizard",
			"classSource": "PHB",
			"subclassShortName": "Diabolist",
			"subclassSource": "MFOV:EA",
			"level": 10,
			"header": 2,
			"entries": [
				"到了10级，你在地狱的谈判中异常精明，在对恶魔的魅力（（%0%））检查中具有优势。此外，你施展{@spell find familiar}法术作为召唤小恶魔的仪式所需的时间减少到1个动作。"
			]
		},
		{
			"name": "Form Pact",
			"source": "MFOV:EA",
			"page": 112,
			"className": "Wizard",
			"classSource": "PHB",
			"subclassShortName": "Diabolist",
			"subclassSource": "MFOV:EA",
			"level": 14,
			"header": 2,
			"entries": [
				"从14级开始，通过消耗一个3级以上的法术槽，一个5级以上的法术槽，以及一品脱的鲜血，你可以进行一个需要1小时集中精力的仪式，从下层世界召唤出一个魔物。",
				"通过向恶魔献上一个有智慧的生物，或者向恶魔献上大量自己的血液（使你的命中率降低一半，并使你的体质分降低2分，直到你完成一次长时间的休息），你可以在接下来的24小时内获得以下好处之一。",
				{
					"type": "list",
					"items": [
						"你可以争取一个（%0%）的服务，为期一天。为该魔物掷出主动权，它有自己的回合。当它的生命值降至0或在24小时后消失。在持续时间内，该魔物对你和你的同伴是友好的，但除此之外，它的行为与它的排列方式一致。它服从你对它发出的任何口头命令（不需要你采取行动），但如果没有使用适当的措辞，它可以阴险地解释命令。如果你不向它发出任何命令，它就会保护自己免受敌对生物的攻击，但不采取其他行动。",
						"你可以在持续时间内获得对非魔法打击、穿刺和砍击伤害的抵抗。",
						"当你为一个法术掷出伤害时，你可以重新掷出一些伤害骰子，其数量不超过你的智力修正值。你必须使用新的卷轴。",
						"You can cast any {@filter spell of 7th level or lower|spells|level=0;1;2;3;4;5;6;7} once in the next 24 hours without expending a spell slot or spell components."
					]
				},
				"在订立契约后，你的契约必须结束，你必须在订立另一个契约前进行长时间休息。"
			]
		},
		{
			"name": "College of Masks",
			"source": "MFOV:EA",
			"page": 51,
			"className": "Bard",
			"classSource": "PHB",
			"subclassShortName": "Masks",
			"subclassSource": "MFOV:EA",
			"level": 3,
			"entries": [
				"面具学院的吟游诗人被其他吟游诗人称为面具大师，他们是精湛的表演者，练习成为他们所描绘的人物，而不是仅仅模仿他们。这个学院的吟游诗人相信，所有的生活都是表演，而不是生活，要成为这出大戏的演员，只需要戴上另一个人的比喻性面具。因为每个人每天都戴着面具，所以面具大师随身携带着许多面具，每个面具都是特定原型人物或生物的强大魔法神器，以使他们更好地进入这些角色。",
				{
					"name": "Bonus Proficiencies",
					"entries": [
						"当你在3级加入面具学院时，你获得了对（%0%）和（%1%）的熟练度。如果你已经精通其中一项技能，你可以从吟游诗人在1级时可以选择的技能中选择另一项技能的熟练度。"
					],
					"type": "entries"
				},
				{
					"name": "Persona Masks",
					"entries": [
						"三级时，你学会了制作强大的魔法（%0%），每个魔法都能让你化身为不同的角色，并获得该原型人物的某些方面。你开始时有两个你选择的角色面具。你只能使用自己创造的面具，其他人（甚至是另一个面具大师）都不能从你创造的角色面具中获益。你可以作为一个额外的动作切换面具。",
						"你可以在6级时创造两个额外的面具，在14级时再创造一个。"
					],
					"type": "entries"
				}
			]
		},
		{
			"name": "Hidden Mask",
			"source": "MFOV:EA",
			"page": 51,
			"className": "Bard",
			"classSource": "PHB",
			"subclassShortName": "Masks",
			"subclassSource": "MFOV:EA",
			"level": 6,
			"header": 2,
			"entries": [
				"到6级时，你会戴上面具，即使别人看不到它。你可以使用你的额外行动来使你所戴的面具变得不可见，或者使不可见的面具恢复可见。"
			]
		},
		{
			"name": "Master of Many Masks",
			"source": "MFOV:EA",
			"page": 51,
			"className": "Bard",
			"classSource": "PHB",
			"subclassShortName": "Masks",
			"subclassSource": "MFOV:EA",
			"level": 14,
			"header": 2,
			"entries": [
				"在14级时，你是一个拥有面具中所包含的原型的大师。你可以同时佩戴两个面具，获得每个面具的好处。"
			]
		},
		{
			"name": "The Parasite",
			"source": "MFOV:EA",
			"page": 105,
			"className": "Warlock",
			"classSource": "PHB",
			"subclassShortName": "Parasite",
			"subclassSource": "MFOV:EA",
			"level": 1,
			"entries": [
				"大多数术士与死去的神和外来的、无形的灵魂签订契约，因此总是有理由怀疑他们的守护者的真实性。相比之下，你可以保证你的守护者的力量，因为它就在你的体内。这不是一个比喻，你的守护者真的住在你的身体里。其他人会称你的守护者为寄生虫，而你只是一个宿主，但你知道真相。",
				"你的守护者是一种罕见的、强大的生物，也许是其最后的同类。它对这个世界来说是陌生的，或者说是非常古老的，为了保持健康，它必须在一个宿主体内居住。作为补偿，它向携带它的生物提供了巨大的力量和超自然的秘密。你心甘情愿地接受这个生物的交易，接受它的力量，并邀请它的声音进入你的大脑。",
				{
					"type": "entries",
					"name": "Expanded Spell List",
					"entries": [
						"寄生者让你在学习术士法术时从一个扩展的法术列表中选择。以下的法术会被添加到术士法术列表中为你所用。",
						{
							"type": "table",
							"caption": "Parasite Expanded Spells",
							"colLabels": [
								"Spell Level",
								"Spells"
							],
							"colStyles": [
								"col-3 text-center",
								"col-9"
							],
							"rows": [
								[
									"1st",
									"{@spell longstrider}, {@spell ray of enfeeblement}"
								],
								[
									"2nd",
									"{@spell alter self}, {@spell detect thoughts}"
								],
								[
									"3rd",
									"{@spell blink}, {@spell haste}"
								],
								[
									"4th",
									"{@spell death ward}, {@spell phantasmal killer}"
								],
								[
									"5th",
									"{@spell dominate person}, {@spell telekinesis}"
								]
							]
						}
					]
				},
				{
					"type": "refSubclassFeature",
					"subclassFeature": "Leeching Strike|Warlock||Parasite|MFOV:EA|1"
				}
			]
		},
		{
			"name": "Leeching Strike",
			"entries": [
				"一级时，你的守护者教会你以他人为食，就像它以你为食一样。每回合一次，当你用近战武器攻击造成伤害时，你会获得相当于所受伤害一半的临时命中率，四舍五入，最高可达你的术士等级。"
			],
			"source": "MFOV:EA",
			"page": 105,
			"className": "Warlock",
			"classSource": "PHB",
			"subclassShortName": "Parasite",
			"subclassSource": "MFOV:EA",
			"level": 1,
			"header": 1
		},
		{
			"name": "Agitate Magic",
			"source": "MFOV:EA",
			"page": 105,
			"className": "Warlock",
			"classSource": "PHB",
			"subclassShortName": "Parasite",
			"subclassSource": "MFOV:EA",
			"level": 6,
			"header": 2,
			"entries": [
				"从6级开始，你可以使用你的额外行动来召唤你的寄生虫来破坏你周围的外来魔法。在长达1分钟的时间内，你对来自法术的伤害有抵抗力，并在对法术的救赎上有优势。在这段时间内，你会在你的回合开始时受到不可减少的、不可避免的（%0%）伤害，因为你的赞助人以你为食来助长这个效果。你可以在你的回合中提前结束这个效果，但你会立即受到10点伤害。"
			]
		},
		{
			"name": "Host's Resilience",
			"source": "MFOV:EA",
			"page": 105,
			"className": "Warlock",
			"classSource": "PHB",
			"subclassShortName": "Parasite",
			"subclassSource": "MFOV:EA",
			"level": 10,
			"header": 2,
			"entries": [
				"10级时，你的守护者会与你分享它的一些生命力。当你掷出主动权时，你会获得10个临时的命中率，并保持1分钟之久。"
			]
		},
		{
			"name": "Transfer Host",
			"source": "MFOV:EA",
			"page": 105,
			"className": "Warlock",
			"classSource": "PHB",
			"subclassShortName": "Parasite",
			"subclassSource": "MFOV:EA",
			"level": 14,
			"header": 2,
			"entries": [
				"到14级时，你可以使用你的行动将你的寄生虫赞助人转移到你所能触及的另一个宿主身上。在1分钟内，在它的每个回合开始时，目标必须做一个宪法救赎动作。如果救赎失败，目标会受到（%0%）的伤害，直到它的回合结束，并受到25点不可还原的伤害。构造物、元素和亡灵会自动成功地进行这个蓄力。",
				"当你的寄生虫在你的身体之外时，你只剩下你的魔法能力的残余，不能施展一级或更高的法术，也不能使用这个赞助人提供的任何力量或能力。",
				"在这个持续时间结束时，或者当新的宿主被降低到0命中率时，你的寄生虫会被从宿主的身体中弹出，并落在该生物附近的空间。在没有宿主的情况下，寄生虫拥有AC10和10点生命值。如果它的命中率降至0，寄生虫就会受到严重伤害，你将无法施展1级或以上的法术，直到你在体内完成一次长时间休息。你可以作为一个额外动作重新吸收你的寄生虫。",
				"如果你将你的寄生虫转移到一个挑战等级大于你的等级的宿主身上，有（%0%）的机会，由GM决定，它会选择留在它的新宿主身上。如果是这种情况，它不会对目标施加任何负面因素，并且只有在宿主的命中率降至0时才会返回。",
				"使用这个能力后，你必须完成一个长时间的休息才能再次使用它。"
			]
		},
		{
			"name": "Way of the Jiangshi",
			"source": "MFOV:EA",
			"page": 76,
			"className": "Monk",
			"classSource": "PHB",
			"subclassShortName": "Jiangshi",
			"subclassSource": "MFOV:EA",
			"level": 3,
			"entries": [
				"所有生物都居住着两种气能，正气和负气，通常称为阴和阳。当一个精神处于和谐状态时，阴阳处于平衡状态，而当一个精神处于不和谐状态时，一种能量压倒另一种，使生物在精神和身体上陷入混乱。",
				"江氏家族是一个僧侣组织，他们回避和谐，并在自己的精神中拥抱负气。这些僧侣发现，充斥着负气的精神可以实现自己的一种平衡，因为它可以通过负气本身的亡灵能量来维持。",
				"普通人通常称江氏家族为 \"气的吸血鬼\"，因为他们具有从生物中吸取气能的独特能力，而且他们的负面气能以可怕的方式影响他们的身体，使他们看起来像死亡的阴影。",
				{
					"name": "Semblance of Death",
					"entries": [
						"只要你在3级时选择了这个传统，你的皮肤就会变成病态的灰色，你的关节会在永久的僵硬中僵硬，导致你采取一种独特的战斗风格。为了移动，你会突然跳跃和弯曲，而其他生物对你的机会攻击则处于劣势。"
					],
					"type": "entries"
				},
				{
					"name": "Steal Ki",
					"entries": [
						"在3级时，每当你将一个生物的命中率降低到0时，你就会重新获得相当于你熟练度加成一半的消耗的奇异点，向下取整。"
					],
					"type": "entries"
				}
			]
		},
		{
			"name": "Perfect Undeath",
			"source": "MFOV:EA",
			"page": 76,
			"className": "Monk",
			"classSource": "PHB",
			"subclassShortName": "Jiangshi",
			"subclassSource": "MFOV:EA",
			"level": 6,
			"header": 2,
			"entries": [
				"在6级时，作为一项行动，你可以获得相当于你僧侣等级两倍的临时命中率，持续一分钟。一旦你使用这个功能，你必须在再次使用前完成一个短暂或长时间的休息。"
			]
		},
		{
			"name": "The Dead Walk",
			"source": "MFOV:EA",
			"page": 76,
			"className": "Monk",
			"classSource": "PHB",
			"subclassShortName": "Jiangshi",
			"subclassSource": "MFOV:EA",
			"level": 11,
			"header": 2,
			"entries": [
				"从10级开始，你可以在不使用法术槽或法术组件的情况下施展法术（%0%）。在使用这个能力后，你必须完成一个长时间的休息才能再次使用它。"
			]
		},
		{
			"name": "A Thousand Deaths",
			"source": "MFOV:EA",
			"page": 76,
			"className": "Monk",
			"classSource": "PHB",
			"subclassShortName": "Jiangshi",
			"subclassSource": "MFOV:EA",
			"level": 17,
			"header": 2,
			"entries": [
				"在17级时，你可以致命地消耗一个生物的气力。你可以使用你的行动并花费4点气力，对一个剩余命中率低于一半的生物进行徒手攻击。这个生物必须成功地进行宪法救赎，否则就会被降低到0点生命值。"
			]
		},
		{
			"name": "Path of the Cannibal",
			"source": "MFOV:EA",
			"page": 46,
			"className": "Barbarian",
			"classSource": "PHB",
			"subclassShortName": "Cannibal",
			"subclassSource": "MFOV:EA",
			"level": 3,
			"entries": [
				"走食人之路的野蛮人确实是个怪物。只有食人者，如他们所称，以猎杀人类为乐，并以如此狰狞的意图行事。他们相信，当他们吞食敌人的肉体时，他们会摧毁那个生物永恒的灵魂，并将其部分精华吸收到自己的体内。当然，这种信念是野蛮的，甚至以大多数原始文化的标准来看，但不管怎样，食人者的凶残是全世界都知道的。",
				{
					"name": "Consume Flesh",
					"entries": [
						"从3级开始，每当你在狂暴时将一个生物的命中率降至0，你就会重新获得相当于你野蛮人等级两倍的命中率。此外，直到你的下一个回合开始，你在能力检查和蓄势待发方面有优势。"
					],
					"type": "entries"
				}
			]
		},
		{
			"name": "Manhunter",
			"source": "MFOV:EA",
			"page": 46,
			"className": "Barbarian",
			"classSource": "PHB",
			"subclassShortName": "Cannibal",
			"subclassSource": "MFOV:EA",
			"level": 6,
			"header": 2,
			"entries": [
				"在第6级时，你可以在猎杀或追踪人形生物时，将你的熟练度加成两倍于你所做的任何能力检查。你可以在快速行进时追踪人形生物，你可以在正常行进时隐秘地移动。"
			]
		},
		{
			"name": "Grim Visage",
			"source": "MFOV:EA",
			"page": 46,
			"className": "Barbarian",
			"classSource": "PHB",
			"subclassShortName": "Cannibal",
			"subclassSource": "MFOV:EA",
			"level": 10,
			"header": 2,
			"entries": [
				"到了10级，大多数人认为你更像一个怪物而不是人。当你愤怒的时候，你可以尝试恐吓你周围5英尺内的一个生物，作为一个额外动作。它必须成功地进行智慧救赎（DC等于8+你的魅力（（%0%））修改器），或者被你（%1%），直到你下一回合结束。",
				"一旦一个生物对这个能力做了拯救动作，你在24小时内就不能对该生物再次使用这个能力。"
			]
		},
		{
			"name": "Consume Soul",
			"source": "MFOV:EA",
			"page": 46,
			"className": "Barbarian",
			"classSource": "PHB",
			"subclassShortName": "Cannibal",
			"subclassSource": "MFOV:EA",
			"level": 14,
			"header": 2,
			"entries": [
				"在14级时，每当你在狂暴时将一个生物的命中率降低到0，你可以使用你的额外行动来吞噬它的精华。这样做可以治愈困扰你的任何疾病或诅咒，消除你可能有的所有等级的疲惫，也可以结束影响你的任何下列状况：（%0%）、（%1%）、（%2%）和（%3%）。",
				"此外，在接下来的一分钟里，你在救赎动作上有优势。",
				"你用这个能力瞄准的生物只能通过{@spell true resurrection}或{@spell wish}的法术来恢复生命。"
			]
		},
		{
			"name": "Entropy Domain",
			"source": "MFOV:EA",
			"page": 36,
			"className": "Cleric",
			"classSource": "PHB",
			"subclassShortName": "Entropy",
			"subclassSource": "MFOV:EA",
			"level": 1,
			"entries": [
				"熵，万物的终结，回归混沌。那些追随这个领域的神灵的人很少是邪恶的，他们希望所有的东西都回到宇宙起源的混沌之中。",
				{
					"type": "table",
					"caption": "Entropy Domain Spells",
					"colLabels": [
						"Cleric Level",
						"Spells"
					],
					"colStyles": [
						"col-3 text-center",
						"col-9"
					],
					"rows": [
						[
							"1st",
							"{@spell bane}, {@spell inflict wounds}"
						],
						[
							"3rd",
							"{@spell heat metal}, {@spell shatter}"
						],
						[
							"5th",
							"{@spell bestow curse}, {@spell haste}"
						],
						[
							"7th",
							"{@spell blight}, {@spell dimension door}"
						],
						[
							"9th",
							"{@spell cloudkill}, {@spell wall of force}"
						]
					]
				},
				{
					"type": "refSubclassFeature",
					"subclassFeature": "Bonus Proficiencies|Cleric||Entropy|MFOV:EA|1"
				}
			]
		},
		{
			"name": "Bonus Proficiencies",
			"entries": [
				"当你在一阶选择这个领域时，你获得了对（%0%）和（%1%）的熟练度。"
			],
			"source": "MFOV:EA",
			"page": 36,
			"className": "Cleric",
			"classSource": "PHB",
			"subclassShortName": "Entropy",
			"subclassSource": "MFOV:EA",
			"level": 1,
			"header": 1
		},
		{
			"name": "Entropic Touch",
			"source": "MFOV:EA",
			"page": 36,
			"className": "Cleric",
			"classSource": "PHB",
			"subclassShortName": "Entropy",
			"subclassSource": "MFOV:EA",
			"level": 2,
			"header": 2,
			"entries": [
				"2级时，你的触摸可以增加熵，并使生物的生命力枯萎。对你范围内的生物进行一次近身法术攻击。一旦命中，该生物会受到{@damage 1d6}武力伤害。如果其中一个骰子掷出6，则再掷一个d6，如果这个骰子掷出6，则再掷一次，以此类推，整个攻击的最大伤害为（%1%）。当你达到5级（{@damage 2d6} / {@damage 6d6}）、11级（{@damage 3d6} / {@damage 8d6}）和17级（{@damage 4d6} / {@damage 10d6}）时，该攻击的伤害增加{@damage 1d6}，其最大伤害增加{@damage 2d6} 。"
			]
		},
		{
			"name": "Channel Divinity: Distortion Field",
			"source": "MFOV:EA",
			"page": 36,
			"className": "Cleric",
			"classSource": "PHB",
			"subclassShortName": "Entropy",
			"subclassSource": "MFOV:EA",
			"level": 2,
			"header": 2,
			"entries": [
				"二级时，你可以使用你的通道神性来增加或加速或减速一个空间区域的熵。作为一个行动，选择一个半径为10英尺的球体，你可以在30英尺内看到。在{@dice 1d6}回合内，当你专注于这个效果时，每当一个生物在一个回合中第一次进入受影响的区域或在那里开始它的回合，该生物就会受到{@damage 2d6}的坏死伤害。另外，你也可以在施法时为该区域的每个生物治疗一次{@dice 2d6}的打击点数。"
			]
		},
		{
			"name": "Channel Divinity: Return to Entropy",
			"source": "MFOV:EA",
			"page": 36,
			"className": "Cleric",
			"classSource": "PHB",
			"subclassShortName": "Entropy",
			"subclassSource": "MFOV:EA",
			"level": 6,
			"header": 2,
			"entries": [
				"在6级时，你学会使用你的神性通道来修复或破坏物体。作为一个动作，你可以修复或破坏一个无人看管的非魔法物体，该物体的面积小于你牧师等级的5倍。物体会从这个效果中痊愈或受到{@dice 8d8}武力伤害。"
			]
		},
		{
			"name": "Divine Strike",
			"source": "MFOV:EA",
			"page": 36,
			"className": "Cleric",
			"classSource": "PHB",
			"subclassShortName": "Entropy",
			"subclassSource": "MFOV:EA",
			"level": 8,
			"header": 2,
			"entries": [
				"到8级时，你获得为你的攻击注入神力的能力。在你的每个回合中，当你用武器攻击击中一个生物时，你可以使攻击造成额外的（%0%）武力伤害。在14级时，这将增加到{@damage 2d8}。"
			]
		},
		{
			"name": "Sphere of Annihilation",
			"source": "MFOV:EA",
			"page": 36,
			"className": "Cleric",
			"classSource": "PHB",
			"subclassShortName": "Entropy",
			"subclassSource": "MFOV:EA",
			"level": 17,
			"header": 2,
			"entries": [
				"到了第17层，你可以创造一个纯熵的口袋，能量大到在多元宇宙中形成一个洞，一个湮灭之球。这个球体比普通的湮灭球体更不稳定，因此表现也不同。你的球体是一个直径2英尺的黑球，出现在你的广场上，一分钟后消散。被球体完全吞噬的非魔法物品会被抹去。除了魔法物品之外，任何触及球体但未被其完全吞噬的物品都会受到{@damage 4d10}武力伤害。",
				"你可以将球体向任何方向移动15英尺作为一个额外动作。如果球体进入一个生物所占据的空间，该生物必须做一个灵巧的救赎动作，否则就会被球体触及，受到{@damage 4d10}力量伤害。如果一个生物被这种伤害杀死，它的身体会被分解，它的灵魂会被吞噬，并且只能用{@spell wish}的法术来恢复生命。在你创造了一个湮灭之球后，你不能再创造另一个，直到你完成一个长时间的休息。"
			]
		},
		{
			"name": "Oath of Heresy",
			"source": "MFOV:EA",
			"page": 82,
			"className": "Paladin",
			"classSource": "PHB",
			"subclassShortName": "Heretic",
			"subclassSource": "MFOV:EA",
			"level": 3,
			"entries": [
				"你们已经看到了真相。历史上伟大的预言家都是假的，他们的教士也被欺骗了；众神并不是我们想象的那样。你的伟大启示是一个结晶的时刻，由你的誓言来实现。你将用你的声音向有耳朵的人传播真理，在不能驱散谎言的地方，你的剑可能会散发出它自己的真理。",
				{
					"type": "entries",
					"name": "Tenets of Heresy",
					"entries": [
						"异端在火中锻造，生活在不同的信条下，但他们普遍拥有以下信仰。",
						{
							"type": "entries",
							"entries": [
								{
									"type": "entries",
									"name": "The Gods are a Lie",
									"entries": [
										"你的启示让你看到了这一点，人们所知道的神不存在，你可能永远不会再接受建立在他们之上的宗教。"
									]
								}
							]
						},
						{
							"type": "entries",
							"entries": [
								{
									"type": "entries",
									"name": "Their Prophets are False",
									"entries": [
										"假神的先知，包括他们的牧师、圣骑士和祭司，应被告知真相。如果他们继续传播他们的谎言，他们将被处死，他们的庙宇将被摧毁。"
									]
								}
							]
						},
						{
							"type": "entries",
							"entries": [
								{
									"type": "entries",
									"name": "Steal from the Gods",
									"entries": [
										"你可以吸走众神的力量，用它来施展你自己的 \"神圣 \"魔法，在这个过程中削弱众神的力量。"
									]
								}
							]
						},
						{
							"type": "entries",
							"entries": [
								{
									"type": "entries",
									"name": "Reveal the Truth",
									"entries": [
										"你的信息永远不会被轻易接受，因为人们对自己的信仰有强烈的坚持。你必须让他们看到真相。"
									]
								}
							]
						}
					]
				},
				{
					"type": "entries",
					"name": "Oath Spells",
					"entries": [
						"你在所列的圣骑士等级中获得誓言法术。",
						{
							"type": "table",
							"caption": "Oath of Heresy Spells",
							"colLabels": [
								"Paladin Level",
								"Spells"
							],
							"colStyles": [
								"col-3 text-center",
								"col-9"
							],
							"rows": [
								[
									"3rd",
									"{@spell bane}, {@spell command}"
								],
								[
									"5th",
									"{@spell enthrall}, {@spell hold person}"
								],
								[
									"9th",
									"{@spell fear}, {@spell vampiric touch}"
								],
								[
									"13th",
									"{@spell compulsion}, {@spell dominate beast}"
								],
								[
									"17th",
									"{@spell dominate person}, {@spell hold person}"
								]
							]
						}
					]
				},
				{
					"name": "Channel Divinity",
					"entries": [
						"当你在3级时发出这个誓言，你会获得以下两个通道神性选项。",
						{
							"type": "entries",
							"name": "Blaspheme",
							"entries": [
								"你说的是异端邪说，深奥的语句震撼了整个房间。30英尺范围内的每个不友好的生物都必须做一个 \"魅力储蓄\"。如果救赎失败，该生物将在24小时内无法通过魔法恢复生命值。"
							]
						},
						{
							"type": "entries",
							"name": "Burn Effigy",
							"entries": [
								"你可以把你的敌人当作神的遗像来焚化。选择一个你能看到的30英尺内的人形物体。目标必须在智慧救赎中获得成功，否则在你保持对该效果的注意力时，会受到（%0%）的伤害，持续时间为1分钟，并受到（%1%）的火焰伤害。在它的每个回合结束时，目标可以再次进行智慧救赎，如果成功则结束该效果。如果失败，该生物会受到额外的（%2%）火焰伤害。"
							]
						}
					],
					"type": "entries"
				}
			]
		},
		{
			"name": "Aura of Disbelief",
			"source": "MFOV:EA",
			"page": 82,
			"className": "Paladin",
			"classSource": "PHB",
			"subclassShortName": "Heretic",
			"subclassSource": "MFOV:EA",
			"level": 7,
			"header": 2,
			"entries": [
				"在第7级时，你的偶像崇拜使诸神的仆人丧失了能力。你和你周围10英尺范围内的所有友好生物对神术、牧师、圣骑士、德鲁伊、游侠和其他GM认为合适的来源所施放的法术都有优势。",
				"18级时，这个光环的范围增加到30英尺。"
			]
		},
		{
			"name": "Ur Strike",
			"source": "MFOV:EA",
			"page": 82,
			"className": "Paladin",
			"classSource": "PHB",
			"subclassShortName": "Heretic",
			"subclassSource": "MFOV:EA",
			"level": 15,
			"header": 2,
			"entries": [
				"从15级开始，你不仅可以从诸神那里窃取神力，你也可以从凡人那里吸取神力。在你的每个回合中，当你用武器攻击击中一个生物时，你可以使攻击对目标造成额外的{@damage 1d6}坏死伤害，并且你重新获得与所受坏死伤害数量相等的命中率。"
			]
		},
		{
			"name": "Apostate",
			"source": "MFOV:EA",
			"page": 82,
			"className": "Paladin",
			"classSource": "PHB",
			"subclassShortName": "Heretic",
			"subclassSource": "MFOV:EA",
			"level": 20,
			"header": 2,
			"entries": [
				"在20级的时候，完全脱离了神的意志，你可以采取一种被你的亵渎影响所赋予的形式，一个小神化。你可以作为一个动作变成一个由黑暗、旋转的能量组成的形象，持续1分钟。当你变身时，你会获得以下效果。",
				{
					"type": "list",
					"items": [
						"你对所有神圣的法术和效果都免疫。",
						"你可以将你的魅力修饰值加到你的AC上。",
						"你的Ur Strikes被赋予了力量。你的Ur Strike造成{@damage 4d6}坏死伤害，并且你恢复相当于所受坏死伤害量一半的命中率。"
					]
				}
			]
		},
		{
			"name": "Abysswalker",
			"source": "MFOV:EA",
			"page": 89,
			"className": "Ranger",
			"classSource": "PHB",
			"subclassShortName": "Abysswalker",
			"subclassSource": "MFOV:EA",
			"level": 3,
			"entries": [
				"反映深渊行者原型的游骑兵曾前往下层世界，无论是身体上还是精神上，并亲眼目睹了那里的黑暗。这样一种深层的邪恶在访问那里的人身上留下了印记，而深渊行者则表现出它的一些特征。",
				{
					"name": "Infernal Lash",
					"entries": [
						"从你在3级选择这个原型开始，当你在你的回合中采取攻击行动时，你可以使用你的额外行动，用坏死能量的鞭子向敌人攻击。对15英尺内的生物进行一次范围性的法术攻击。这次攻击不会因为在敌对生物的范围内而产生劣势。一旦命中，目标会受到{@damage 1d8}坏死的伤害。在10级时，你可以将你的智慧修正值加到这个伤害上。"
					],
					"type": "entries"
				}
			]
		},
		{
			"name": "Shield of Shadows",
			"source": "MFOV:EA",
			"page": 89,
			"className": "Ranger",
			"classSource": "PHB",
			"subclassShortName": "Abysswalker",
			"subclassSource": "MFOV:EA",
			"level": 7,
			"header": 2,
			"entries": [
				"在7级时，你可以作为一个额外的动作显现或解除一个由影子材料组成的盾牌。这个盾牌没有重量，附着在你的一只手臂上，让你的手臂可以自由挥舞武器或执行其他动作。"
			]
		},
		{
			"name": "Fiend's Fury",
			"source": "MFOV:EA",
			"page": 89,
			"className": "Ranger",
			"classSource": "PHB",
			"subclassShortName": "Abysswalker",
			"subclassSource": "MFOV:EA",
			"level": 11,
			"header": 2,
			"entries": [
				"11级时，每回合一次，当你对你开始回合时相邻的敌对生物采取攻击行动时，你可以对它进行一次额外的攻击。"
			]
		},
		{
			"name": "Wraith Step",
			"source": "MFOV:EA",
			"page": 89,
			"className": "Ranger",
			"classSource": "PHB",
			"subclassShortName": "Abysswalker",
			"subclassSource": "MFOV:EA",
			"level": 15,
			"header": 2,
			"entries": [
				"到15级时，当一个生物对你进行近身攻击时，你可以使用你的反应来短暂地变成非物质，打断攻击。你可以在任何方向移动10英尺，而不会引起机会攻击。攻击者可以选择一个新的攻击目标，如果有的话。"
			]
		},
		{
			"name": "Pale Master",
			"source": "MFOV:EA",
			"page": 99,
			"className": "Sorcerer",
			"classSource": "PHB",
			"subclassShortName": "Pale Master",
			"subclassSource": "MFOV:EA",
			"level": 1,
			"entries": [
				"苍白的主人是可怕的。你的力量起源于死灵，你的肉体被石化和腐蚀了。也许你出生在一颗坏星下，或在一片盛开的夜来香中，也许你被诅咒为不死之身，但未能完全转化。不管怎么说，你现在陷入了一个可怕的困境；你是一个活生生的、有知觉的头脑，被困在一具腐烂的尸体里。",
				"因为你像死人一样，他们听从你的召唤。当黑暗的诅咒在你体内升起时，你的力量也在增长，一个不死的部落聚集在你身边。",
				{
					"type": "refSubclassFeature",
					"subclassFeature": "Deathsign|Sorcerer||Pale Master|MFOV:EA|1"
				},
				{
					"type": "refSubclassFeature",
					"subclassFeature": "Undead Cohort|Sorcerer||Pale Master|MFOV:EA|1"
				}
			]
		},
		{
			"name": "Deathsign",
			"entries": [
				"从1级开始，你被标记为死亡。当你通常会从一个1级或更高等级的法术中受到坏死伤害时，你反而会重新获得相当于所受坏死伤害一半的命中率（向下取整）。",
				"你的死亡标志也赋予你亡灵魔法。你在所列的巫师等级中学习死灵法术。这些法术不计入你已知的法术总数。",
				{
					"type": "table",
					"caption": "Pale Master Spells",
					"colLabels": [
						"Sorcerer Level",
						"Spells"
					],
					"colStyles": [
						"col-3 text-center",
						"col-9"
					],
					"rows": [
						[
							"1st",
							"{@spell inflict wounds}"
						],
						[
							"3rd",
							"{@spell ray of enfeeblement}"
						],
						[
							"5th",
							"{@spell animate dead}"
						],
						[
							"7th",
							"{@spell blight}"
						],
						[
							"9th",
							"{@spell contagion}"
						],
						[
							"11th",
							"{@spell create undead}"
						]
					]
				}
			],
			"source": "MFOV:EA",
			"page": 99,
			"className": "Sorcerer",
			"classSource": "PHB",
			"subclassShortName": "Pale Master",
			"subclassSource": "MFOV:EA",
			"level": 1,
			"header": 1
		},
		{
			"name": "Undead Cohort",
			"entries": [
				"一级时，你有一个亡灵队列，是你自己的亡灵部落的开始。你可以选择一个（%0%）或一个（%1%）。",
				"你的队友会自己掷出主动权并在自己的回合中行动。在你的同伴的AC、攻击卷和伤害卷中加入你的熟练度奖励。它的最大命中率等于其正常最大命中率的一半或你的巫师等级的四倍，以较高者为准。",
				"在你的每个回合中，你可以使用一个额外的行动，在精神上指挥你的同伙和任何其他在你控制下的不死生物，如法术（%0%）。",
				"当你长时间休息时，你可以通过外科手术修复你的同伙，如果它已经死亡，可以使其遗体重新复活，并恢复到最大命中率。"
			],
			"source": "MFOV:EA",
			"page": 99,
			"className": "Sorcerer",
			"classSource": "PHB",
			"subclassShortName": "Pale Master",
			"subclassSource": "MFOV:EA",
			"level": 1,
			"header": 1
		},
		{
			"name": "Emissary of Death",
			"source": "MFOV:EA",
			"page": 99,
			"className": "Sorcerer",
			"classSource": "PHB",
			"subclassShortName": "Pale Master",
			"subclassSource": "MFOV:EA",
			"level": 6,
			"header": 2,
			"entries": [
				"从6级开始，每当你用死灵法术造成伤害时，你可以在伤害卷上加上你的魅力修正值。当你这样做时，你可以花费1个巫术点来获得{@dice 1d10}的临时打击点数。"
			]
		},
		{
			"name": "Spellstitched Cohort",
			"source": "MFOV:EA",
			"page": 99,
			"className": "Sorcerer",
			"classSource": "PHB",
			"subclassShortName": "Pale Master",
			"subclassSource": "MFOV:EA",
			"level": 14,
			"header": 2,
			"entries": [
				"你使用一种叫做法术缝合的技术使你的同伙提高了14级。你的同伙学会了一个（%0%），它可以在自己的回合中使用你的巫师等级施放。",
				"此外，你的死亡标志也延伸到你的同族：当你的同族通常会从咒语以外的来源受到坏死伤害时，它反而会重新获得与坏死伤害量相等的命中。"
			]
		},
		{
			"name": "Overlord",
			"source": "MFOV:EA",
			"page": 99,
			"className": "Sorcerer",
			"classSource": "PHB",
			"subclassShortName": "Pale Master",
			"subclassSource": "MFOV:EA",
			"level": 18,
			"header": 2,
			"entries": [
				"18级时，当你施展法术（%0%）来重新控制亡灵时，你可以消耗一定数量的巫术点数来施展它，就像使用高一级的法术槽一样，每消耗一个点数。"
			]
		},
		{
			"name": "Circle of Desolation",
			"source": "MFOV:EA",
			"page": 64,
			"className": "Druid",
			"classSource": "PHB",
			"subclassShortName": "Desolation",
			"subclassSource": "MFOV:EA",
			"level": 2,
			"entries": [
				"你已经拥抱了枯萎。你是苍蝇的祭司，蛆虫的领主，腐烂的国王。无论出于什么原因，你的圈子里的成员已经将他们的力量转向了自然的荒芜和生命的终结。现在，花朵在你的指尖枯萎，树木随着你的目光颤抖和死亡。",
				{
					"name": "Blightfire",
					"entries": [
						"当你在2级选择这个圈子时，你获得了一眼就能引发野火的能力。作为一个行动，你可以释放一个炙热的火焰，影响你20英尺范围内5英尺的地面，直到你下一个回合开始前都会被点燃。每个进入受影响空间的生物或在其中开始他们的回合的生物必须做一个灵巧的蓄力动作。如果救赎失败，目标会受到{@damage 1d8}的火焰伤害。火焰会点燃所有没有被穿戴或携带的易燃物。",
						"你可能影响到的相邻方块的数量和火力伤害随着你在德鲁伊等级中的等级增加，具体如下。5级（2个方块/{@damage 2d8}伤害），11级（2个方块/{@damage 3d8}伤害），17级（3个方块/{@damage 4d8}伤害）。"
					],
					"type": "entries"
				},
				{
					"name": "Deforestation",
					"entries": [
						"二级时，你学会从你周围的生物中汲取养分。结果是，你不再需要食物或水来生存。此外，作为你的行动，你可以从你周围的生命中吸取能量，杀死你周围20英尺内的所有植物，并恢复你的德鲁伊等级的命中率（%0%）。在此范围内的植物生物会受到与此数量相等的坏死伤害。",
						"使用这个功能后，你不能再使用它，直到你完成一个长时间的休息。"
					],
					"type": "entries"
				}
			]
		},
		{
			"name": "Desolating Stride",
			"source": "MFOV:EA",
			"page": 64,
			"className": "Druid",
			"classSource": "PHB",
			"subclassShortName": "Desolation",
			"subclassSource": "MFOV:EA",
			"level": 6,
			"header": 2,
			"entries": [
				"从6级开始，你可以通过非魔法植物而不被它们拖累，如果它们有刺、骨刺或类似的危险，也不会受到它们的伤害。所有挡在你面前的非生物的植物都会枯萎并碎裂成灰尘，在你身后留下一条清晰的道路。此外，对于那些用魔法创造或操纵来阻碍移动的植物，例如那些由（%0%）法术创造的植物，你在拯救动作上有优势。"
			]
		},
		{
			"name": "Contagious Touch",
			"source": "MFOV:EA",
			"page": 64,
			"className": "Druid",
			"classSource": "PHB",
			"subclassShortName": "Desolation",
			"subclassSource": "MFOV:EA",
			"level": 10,
			"header": 2,
			"entries": [
				"从10级开始，你可以在不消耗法术槽的情况下施放（%0%）或（%1%）。在使用这个能力后，你必须完成一个长时间的休息才能再次使用它。"
			]
		},
		{
			"name": "Plague",
			"source": "MFOV:EA",
			"page": 64,
			"className": "Druid",
			"classSource": "PHB",
			"subclassShortName": "Desolation",
			"subclassSource": "MFOV:EA",
			"level": 14,
			"header": 2,
			"entries": [
				"从14级开始，作为你的一个行动，你可以放出一团无形的瘟疫之云。在1分钟内，与你相邻的每一个你选择的生物都必须做一个宪法救赎动作，否则就会被（%0%），轮数等于你的智慧修正值。中毒的生物在它的回合结束时受到{@damage 4d6}的毒药伤害，然后可以重新尝试这个自救动作，如果成功则结束该效果。拯救成功后，生物会在24小时内对该效果免疫。",
				"使用这个能力后，你不能再使用它，直到你完成一个长时间的休息。"
			]
		},
		{
			"name": "Man Who Laughs",
			"source": "MFOV:EA",
			"page": 94,
			"className": "Rogue",
			"classSource": "PHB",
			"subclassShortName": "Laughing Man",
			"subclassSource": "MFOV:EA",
			"level": 3,
			"entries": [
				"你有一种独特的魅力，能在杀死人之前让他们瞬间发笑。街头艺人、宫廷小丑和喜剧演员都是优秀的笑匠，因为他们脚步轻盈，很快就能开玩笑，而且一般都熟悉你使用的工具。大笑的人是进入敌人头脑的专家，他们可以避免死亡，并将他们的错误行为包装在恶作剧和笑话中。",
				{
					"name": "Bonus Proficiencies",
					"entries": [
						"当你在3级选择这个原型时，你获得对（%0%）和（%1%）技能的熟练度。"
					],
					"type": "entries"
				},
				{
					"name": "Punchline",
					"entries": [
						"你有一系列的小玩意和工具来制造真正致命的笑话。你获得了以下所列的恶作剧，你可以随意使用它们。",
						"提供咒语的恶作剧使用魅力作为你的法术能力。如果你的某个恶作剧要求救赎，救赎的方式是。",
						{
							"type": "abilityDc",
							"name": "Pranks",
							"attributes": [
								"cha"
							]
						},
						{
							"type": "entries",
							"entries": [
								{
									"type": "entries",
									"name": "Forked Tongue",
									"entries": [
										"你知道这个咒语（%0%），并能随意施放。"
									]
								}
							]
						},
						{
							"type": "entries",
							"entries": [
								{
									"type": "entries",
									"name": "Joy Buzzer",
									"entries": [
										"你知道这个咒语（%0%），并能随意施放。"
									]
								}
							]
						},
						{
							"type": "entries",
							"entries": [
								{
									"type": "entries",
									"name": "Laughing Gas Bomb",
									"entries": [
										"你可以使用你的行动来投掷笑气弹，这是一种精细的投掷武器，射程为30/60英尺，击中后会造成{@damage 1d4}的毒药伤害。此外，目标和5英尺范围内的每个生物必须做一个宪法救赎动作，否则就会开始不受控制地大笑，并且在攻击卷中处于劣势，直到你下一个回合开始。拯救成功后，生物在24小时内对笑气弹的效果免疫。",
										"这个炸弹的伤害随着你在这个等级中的等级增加而增加。它在5级时变成{@damage 2d4}，11级时变成{@damage 3d4}，17级时变成{@damage 4d4}。"
									]
								}
							]
						},
						{
							"type": "entries",
							"entries": [
								{
									"type": "entries",
									"name": "Trick Flower",
									"entries": [
										"你知道这个咒语（%0%），并能随意施放。"
									]
								}
							]
						}
					],
					"type": "entries"
				}
			]
		},
		{
			"name": "Mind Games",
			"source": "MFOV:EA",
			"page": 94,
			"className": "Rogue",
			"classSource": "PHB",
			"subclassShortName": "Laughing Man",
			"subclassSource": "MFOV:EA",
			"level": 9,
			"header": 2,
			"entries": [
				"到9级时，你可以进入敌人的思想。你可以用你的行动与另一个能说至少一种语言并能听到你的生物互动。这个生物必须做一个智慧救赎动作。",
				{
					"type": "abilityDc",
					"name": "Mind Games",
					"attributes": [
						"cha"
					]
				},
				"在拯救失败的情况下，在1分钟内，你可以对该生物使用偷袭，即使你对它没有优势，或者目标的敌人都不在它的5英尺之内。在持续时间内，你可以在对该生物的恶作剧伤害卷中加入你的魅力修饰，并且你在对该生物的（%0%）、（%1%）或（%2%）检查中拥有优势。拯救成功后，该生物将在24小时内对该能力免疫。"
			]
		},
		{
			"name": "Unbelievable Quickness",
			"source": "MFOV:EA",
			"page": 94,
			"className": "Rogue",
			"classSource": "PHB",
			"subclassShortName": "Laughing Man",
			"subclassSource": "MFOV:EA",
			"level": 13,
			"header": 2,
			"entries": [
				"从13级开始，在你使用不可思议的闪避后，你可以移动5英尺而不引起机会攻击。"
			]
		},
		{
			"name": "Laugh at Death",
			"source": "MFOV:EA",
			"page": 94,
			"className": "Rogue",
			"classSource": "PHB",
			"subclassShortName": "Laughing Man",
			"subclassSource": "MFOV:EA",
			"level": 17,
			"header": 2,
			"entries": [
				"从17级开始，当你的命中率降至0并且没有被直接杀死时，你可以选择降至1命中率。直到你的下一个回合结束，你在攻击卷轴上有优势，而其他生物在对你的攻击卷轴上有劣势。",
				"一旦你使用这个能力，你就不能再使用它，直到你完成一个长时间的休息。"
			]
		},
		{
			"name": "Umbral Knight",
			"source": "MFOV:EA",
			"page": 70,
			"className": "Fighter",
			"classSource": "PHB",
			"subclassShortName": "Umbral Knight",
			"subclassSource": "MFOV:EA",
			"level": 3,
			"entries": [
				"暗影骑士是与黑暗有先天联系的武术战士。虽然有些人刻意研究影子的艺术，但大多数人都是本能地发展他们的能力，通过练习和奉献来磨练他们对影子材料的操纵。那些掌握这门艺术的人是很少有人能与之匹敌的战士。塑造黑暗的能力使他们能够瞄准敌人的弱点，打出不该打的一击，甚至攻击几步之外的敌人。",
				{
					"name": "Umbral Blade",
					"entries": [
						"作为一个额外的动作，你可以将你持有的任何武器包裹在一个变幻莫测的影子鞘里。结果是，它变成了阴影：它是黑暗的、不清晰的，并且在移动时留下了阴影的痕迹。在被阴影笼罩的情况下，这把武器在克服对非魔法攻击和伤害的抵抗力和免疫力方面算作魔法。如果它离开你的手，它就不再是阴影了。",
						{
							"type": "entries",
							"entries": [
								{
									"type": "entries",
									"name": "Shadow Points",
									"entries": [
										"你有一个3点的影子点数，随着你在这个等级中获得的等级而增加，如影子点数表所示。当武器被阴影化时，你可以消耗阴影点来获得一些不同的好处，如下所示。你每次只能获得其中一项好处。当你短期或长期休息时，你会恢复所有消耗的阴影点数。"
									]
								}
							]
						},
						{
							"type": "entries",
							"entries": [
								{
									"type": "entries",
									"name": "Shadowstrike",
									"entries": [
										"作为一个额外的动作，你可以花费1个影子点来给你的影子武器注入乌黑的力量。滚动（%0%）。此武器在攻击卷轴上获得与卷轴数量相等的奖励，直到你下一回合开始。"
									]
								}
							]
						},
						{
							"type": "entries",
							"entries": [
								{
									"type": "entries",
									"name": "Shadowbane",
									"entries": [
										"当你用带影子的武器对费人、魔人或亡灵进行武器攻击时，你可以消耗1个影子点，在命中时造成额外的（%0%）坏死伤害。"
									]
								}
							]
						},
						{
							"type": "entries",
							"entries": [
								{
									"type": "entries",
									"name": "Shadowsharp",
									"entries": [
										"你花费1个影子点，用影子材料增强你武器的边缘。直到你的下一个回合开始，你用此武器进行的近战攻击在掷出18-20的情况下可获得关键打击。"
									]
								}
							]
						},
						{
							"type": "table",
							"caption": "Shadow Points",
							"colLabels": [
								"Fighter Level",
								"Shadow Points"
							],
							"colStyles": [
								"col-3 text-center",
								"col-9"
							],
							"rows": [
								[
									"3rd",
									"3"
								],
								[
									"7th",
									"4"
								],
								[
									"10th",
									"6"
								],
								[
									"18th",
									"8"
								]
							]
						}
					],
					"type": "entries"
				}
			]
		},
		{
			"name": "Morphic Weapon",
			"source": "MFOV:EA",
			"page": 70,
			"className": "Fighter",
			"classSource": "PHB",
			"subclassShortName": "Umbral Knight",
			"subclassSource": "MFOV:EA",
			"level": 7,
			"header": 2,
			"entries": [
				"到了第七级，当你使武器影化时，你可以塑造它周围的影子物质，将它完全转化为你所精通的任何武器的形式。你可以将改变它的形状作为一个额外动作，如果武器离开你的手，它就会恢复到原来的形式。"
			]
		},
		{
			"name": "Shadowcast",
			"source": "MFOV:EA",
			"page": 70,
			"className": "Fighter",
			"classSource": "PHB",
			"subclassShortName": "Umbral Knight",
			"subclassSource": "MFOV:EA",
			"level": 10,
			"header": 2,
			"entries": [
				"在10级时，当你用带影子的近战武器进行攻击动作时，你可以花费一个影子点来从根本上扩展武器，它变得像影子一样扭曲。直到你下一个回合开始时，武器的射程变为15英尺。"
			]
		},
		{
			"name": "Go Unseen",
			"source": "MFOV:EA",
			"page": 70,
			"className": "Fighter",
			"classSource": "PHB",
			"subclassShortName": "Umbral Knight",
			"subclassSource": "MFOV:EA",
			"level": 15,
			"header": 2,
			"entries": [
				"在15级时，你可以花费3个影子点对自己施法（%0%），而不需要消耗一个法术槽。"
			]
		},
		{
			"name": "Perfect Darkness",
			"source": "MFOV:EA",
			"page": 70,
			"className": "Fighter",
			"classSource": "PHB",
			"subclassShortName": "Umbral Knight",
			"subclassSource": "MFOV:EA",
			"level": 18,
			"header": 2,
			"entries": [
				"从18级开始，每当你在没有影子点数的情况下掷出主动权，你会立即恢复2个影子点数。"
			]
		}
	]
}
