{
	"_meta": {
		"sources": [
			{
				"json": "festivalguide",
				"abbreviation": "FEST:Guide",
				"full": "Festival Guide",
				"authors": [
					"PD Jakobs"
				],
				"convertedBy": [
					"MrTavish"
				],
				"version": "1.0",
				"url": "https://www.dmsguild.com/product/207642/Festival-Guide?term=Festival+Guide&test_epoch=0",
				"targetSchema": "1.0.0"
			}
		],
		"dateAdded": 1549715846,
		"dateLastModified": 1673562612,
		"_dateLastModifiedHash": "b7b10989b4"
	},
	"book": [
		{
			"name": "Festival Guide",
			"id": "FEST:Guide",
			"source": "festivalguide",
			"group": "homebrew",
			"published": "2017-03-16",
			"contents": [
				{
					"name": "Introduction",
					"headers": [
						"Fun Ideas",
						"Festival Activities"
					]
				},
				{
					"name": "Appendix"
				}
			]
		}
	],
	"bookData": [
		{
			"id": "FEST:Guide",
			"source": "festivalguide",
			"data": [
				{
					"type": "section",
					"name": "Introduction",
					"entries": [
						"你可以在玩家访问的任何村庄增加这个节日。这里有游戏、小贩和娱乐。请自由修改它，以适应你的玩家的兴趣和游戏风格（更多的战斗或更多的角色扮演）。",
						{
							"type": "section",
							"name": "Fun Ideas",
							"entries": [
								"{@b Fortune Teller}: 你可以用算命先生给玩家一个新的任务挂钩，或者给他们一个关于当前任务的提示。",
								"{@b Biergarten}: 在啤酒花园设置一个好的老式的酒吧战斗。如果你想让玩家发挥创意，用简易武器战斗（比如拿起椅子，或者把杯子砸到别人头上），那么在入口处安排一个人要求他们检查武器，同时向他们解释，帐篷上有一个反魔法场。",
								"{@b Petting Zoo}: 让一些野兽从宠物园里逃出来，在节日里造成混乱。另外，如果玩家正在寻找异国情调的宠物，宠物园里的动物可以出售。",
								"{@b Quest Hooks}: 格斗比赛的冠军可能会被邀请与镇长共进晚餐，镇长要求帮助解决镇子里的一个问题。隐身迷宫的冠军可以得到加入盗贼公会的邀请。",
								"{@b More Interesting Prizes}: 奖品可以是食物或有趣的饰品，甚至是魔法物品，而不仅仅是赢得几个硬币。如果奖品比较大，那么参赛费可以更多，比如说1GP而不是5SP。",
								{
									"type": "list",
									"items": [
										"一瓶好酒",
										"绮丽的羽毛帽子",
										"木质奖杯，上面写着",
										"一个纪念杯",
										"与市长共进晚餐",
										"参观当地的矿场（任务钩）。",
										"一袋随机果冻豆（见附录）。",
										"一个在未来任务中有用的项目",
										"神奇的物品",
										"一个蛋糕",
										"在你的衣服上别上一条丝带，可以让你免费进入娱乐帐篷或享受其他特权。",
										"一只活鸡或小猪"
									]
								}
							]
						},
						{
							"type": "section",
							"name": "Festival Activities",
							"entries": [
								{
									"type": "section",
									"name": "Games",
									"entries": [
										"{@b Limits}: 一个玩家只能赢得一次游戏，之后就不能再玩这个游戏。你也可以限制他们尝试赢得不超过3次。",
										{
											"type": "section",
											"name": "Fighting Pit",
											"entries": [
												"如果玩家的装备已经升级，而且他们要与NPC作战，你可以要求他们从入口附近的武器架上选择非魔法装备，而不是使用自己的装备。",
												"玩家可以参加非致命性的PVP，对抗对方或NPC。参赛者一直战斗到对手失去知觉。之后会有治疗师站在一旁为他们治疗。你可以为魔法战斗、仅有近战或仅有远程武器设立单独的类别。两个玩家可以选择互相战斗，或者DM可以从Wizards of the Coast网站上获取一个等级合适的预生成的角色表（例如一个战士）并将其作为对手。你也可以带来一个有趣的怪物，让玩家去战斗（个人或团体）。",
												"{@i Entry Fee}: 1 sp",
												"{@i Prize: 2 sp (or coupon for a free mug of ale)}",
												"{@b Tournament Option}: 与其每场比赛都是单独的竞赛，你可以把它变成一个8级的锦标赛（或16级）。从4场决斗开始（共8名参赛者）。使用适当级别的NPC来填补任何空位。4名获胜者分别与另一名获胜者（随机选择）进行战斗。这些决斗的两个赢家互相厮杀，直到有一个最终的冠军。",
												"{@i Entry Fee: 1 gp}",
												"{@i Prize: 50 gp (or a +1 weapon)}"
											]
										},
										{
											"type": "section",
											"name": "Archery Contest (Archery Field)",
											"entries": [
												"最多可以有5名选手参赛。玩家可以相互竞争，也可以用海岸魔法师预先生成的角色表中的相应等级的游侠来填补任何空位。所有参赛者站在离目标20英尺的地方，进行攻击卷。目标有一个AC12的命中率。每个打中一个的人都可以留在比赛中，然后再移动20英尺远，再试一次，这使得AC值上升到13。继续移动到更远的地方，增加AC值，直到只剩下一个赢家。",
												"{@i Entry Fee: 5 sp}",
												"{@i Prize: 25 sp (or 5 arrows/bolts of sleep)}",
												"{@i Item: ammunition of sleep, when hit, the target does a DC13 wisdom save or fall asleep}."
											]
										},
										{
											"type": "section",
											"name": "Arm Wrestling (Location 10)",
											"entries": [
												"这纯粹是两个对手之间的力量能力检查。NPC对手有一个+3的力量修改器。",
												"{@i Entry Fee: 1 sp}",
												"{@i Prize: 2 sp (or a can of spinach)}"
											]
										},
										{
											"type": "section",
											"name": "Pie Eating Contest (Location 11)",
											"entries": [
												"任何数量的玩家都可以进入，加上两个村民。NPC有一个+3的宪法修改器。所有参与者将吃一个牛肚派（牛肚是牛胃的内膜）。为所有参与者掷出一个体质拯救球。除了最高分的人之外，其他人都无法将食物吃下去而被淘汰。如果出现平局，继续吃更多的馅饼，直到只剩下一个参赛者。胜利者没有吐出馅饼，并赢得奖品；另一个肚皮馅饼!",
												"{@i Entry Fee: 1 sp}",
												"{@i Prize: a tripe pie}"
											]
										},
										{
											"type": "section",
											"name": "Archery Contest (Archery Field)",
											"entries": [
												"才艺表演（啤酒花园舞台）要参加，玩家要选择一个才艺，并扮演自己的角色来展示这个才艺。然后，他们对该才艺进行相应的技能检查，看看观众的掌声有多大。例如，演奏乐器或唱歌将是一个表演检查，杂耍将是一个灵巧检查，举起重物将是一个力量检查，等等。这是一个发挥创造力的机会。任何数量的玩家都可以和一些NPC一起参加。得分最高的玩家（或NPC）获胜。如果出现平局，他们就再表演一次他们的才能，直到只剩下一个赢家。作为管理员，只需描述NPC在做什么，你不需要扮演它（除非你想）。",
												"一些NPC的天赋和技能修改器。",
												{
													"type": "section",
													"name": "Archery Contest (Archery Field)",
													"entries": [
														"山羊农夫贝塔唱了一首歌（-3次演出）。",
														"铁匠罗纳德从观众席上各举起一个小孩（+3力量）。",
														"新手德鲁伊Elowen对三只花栗鼠发出指令，它们在舞台上表演杂技。(+2 动物处理)",
														"巫师Gareth用小幻术讲述了这个小镇的历史，并附有图像。(+2历史)",
														"小偷Vinny会玩一些牌技（+2技巧）。"
													]
												},
												"{@i Entry Fee: 5 sp}",
												"{@i Prize}: All the money from the entry fees (or a big fancy hat)."
											]
										},
										{
											"type": "section",
											"name": "Chicken Rodeo (Chicken Coop)",
											"entries": [
												"参与者需要做一个动物处理检查，看他们是否能抓住一只鸡（DC15）。如果第一轮没有人成功或出现平局，则继续进行更多轮次。第一个成功的人获胜。",
												"{@i Entry Fee}:  1 sp",
												"{@i Prize:} All the gold from the entry fees (or a baby chick)"
											]
										}
									]
								},
								{
									"type": "section",
									"name": "Entertainment",
									"entries": [
										{
											"type": "section",
											"name": "Freak Show (Location 12)",
											"entries": [
												"一个站在帐篷外的人承诺说他会给你看所有领域中最丑陋的生物。他每次只允许一个人进入，并收取4个硬币的入场费。然后这个人被允许进入帐篷，在那里他们穿过一个有绳索的区域，来到一个帘子前，旁边站着另一个人。那个人告诉这个人 \"拉开帘子看那可憎的东西\"。当他们这样做时，他们看到一面镜子。那人要求他们做个好孩子，不要告诉别人他们看到的东西，如果他们抱怨，他会给他们退一半的钱，但前提是他们保证不说出去。",
												"{@b Basilisk Option}: 另一个选择是在幕布后面放一个巴斯里斯克（MM第24页），任何看着它的人都要做一个DC12的宪法救赎，否则就会变成石头。负责演出的人再把被石化的玩家移到幕布后面的一个独立区域，以后再卖给艺术爱好者（也许在艺术商那里有一些类似的雕像，他是这个阴谋的幕后策划者）。希望玩家能很快发现他们的朋友失踪了，并找到他们。杀死玄武岩，把它的血涂在被石化的受害者身上，可以让他们复活。",
												"{@b Other Options}: 你可以用这个做很多事情。也许它是一个丑陋但无害的生物，只想从监狱中被释放出来。或者它是一个想从受害者身上榨取生命的（%1%）（MM第300页）。或者它是一个{@creature Mind Flayer}（《MM》第222页），对角色使用geas，让他们做一些邪恶的事情。",
												"{@i Entry Fee: 4 sp}"
											]
										},
										{
											"type": "section",
											"name": "Petting Zoo",
											"entries": [
												"一个热情的森林地精护林员，名叫巴奇，收集了许多危险的野兽，并将它们陈列在不同的围栏里。他很喜欢这些动物，并声称它们被完美地驯服了。如果玩家进入围栏去抚摸一个生物，他们需要做一个动物处理检查（DC13），否则就会被攻击。 巴奇在整个过程中都很无奈地告诉动物要冷静下来，并告诉你不要伤害它。",
												"如果受到攻击，玩家可以留下来战斗或从入口处逃跑，但他们必须做一个DC15的灵巧检查，以迅速关闭门，使生物无法逃脱。关于生物的一些建议。",
												{
													"type": "list",
													"items": [
														"A {@creature Cockatrice} (CR ½, p. 42 of MM)",
														"安（%0%）（CR 3，MM第249页）。",
														"An {@creature Ettercap} (CR 2, p. 131 of MM)",
														"A {@creature Hydra} (CR 8, p. 190 of MM)",
														"A {@creature Dire Wolf} (CR 1, p. 305 of MM)",
														"一个{@creature Werewolf}的形状转变为狼的形状(CR 3，MM的第211页)",
														"A {@creature Bullette} (CR 5, p. 34 of MM)"
													]
												}
											]
										},
										{
											"type": "section",
											"name": "Hedge Maze",
											"entries": [
												"本文件最后附有一张迷宫地图。",
												"{@b Stealth Option}: 这是一个隐身挑战。玩家必须在开始时做一个DC12的隐身检查，然后在走向中间时每10步再做一次。如果他们失败了，他们就会离开{@creature Shriekers}，并在迷宫中失败。尖叫者是一种真菌，当有东西经过它的时候会发出尖叫声。他们需要走到中心，做一个神出鬼没的检查（也是DC12），在无人注意的情况下打开箱子，拿出一个奖品。然后他们就可以离开了，不需要再做隐身检查。",
												"{@i Entry Fee: 1 gp}",
												"{@i Prize: A bag of Random Jelly Beans (or a black mask that gives a +1 to stealth)}",
												"{@b Dungeon Option}: 迷宫里有怪兽和陷阱。玩家可以一起进去。每走10步，玩家就会遇到一个CR值合适的怪物。例如，对于4个平均等级为2级的玩家来说，CR2的怪物是合适的。对于1个2级的玩家来说，CR ½的怪物是合适的。DMG第306页按挑战等级列出了怪物。他们需要走到迷宫的中心，打开一个被困的箱子。这个箱子有一个DC12的检测陷阱和DC12的调查检查来禁用。如果被引爆，它会造成1d8的穿刺伤害，因为有一支箭从里面射出。箱子的奖励与参与的玩家人数相等。",
												"{@i Entry Fee: 1 gp per participant}",
												"{@i Prize: A bag of Random Jelly Beans}"
											]
										}
									]
								},
								{
									"type": "section",
									"name": "Vendors",
									"entries": [
										{
											"type": "section",
											"name": "Biergarten",
											"entries": [
												"啤酒花园是一个大帐篷，中间摆放着长长的野餐桌，边缘摆放着较小的圆桌。一端设置有一个木制酒吧。在另一端，一个乐队在舞台上演奏音乐（如果有吟游诗人，他们会邀请吟游诗人和他们一起演奏几首歌）。舞台前面有空间可以跳舞。灯笼提供灯光，一直到深夜。",
												{
													"type": "list",
													"name": "Refreshments For Sale:",
													"items": [
														"棍子上的肉 2 sp",
														"一片苹果派 3 sp",
														"香肠和烤土豆 5元",
														"一品脱麦芽酒 4 sp",
														"一品脱苹果酒 1 sp",
														"杯子里的蜂蜜酒 5 sp",
														"精灵酒瓶 2 gp"
													]
												}
											]
										},
										{
											"type": "section",
											"name": "Madame Esmeralda, Fortune Teller (Location 9)",
											"entries": [
												"埃斯梅拉达夫人在小贩区搭了一个帐篷，她在那里为一个人算命，价格为5先令。帐篷里挂着五颜六色的灯笼。有一张小圆桌，中间放着一个玻璃球，两边放着一把椅子。掷出1d20来决定玩家将得到哪条命。",
												{
													"type": "table",
													"colLabels": [
														"d20",
														"Result"
													],
													"colStyles": [
														"col-3 text-center",
														"col-7"
													],
													"outro": [
														"{@b Optional Extra}: The fortune teller offers the players to draw from the Deck of Many Things."
													],
													"rows": [
														[
															1,
															"一周内会有一次对冒险家的暗杀行动。冒险家杀死的敌人的家人会寻找他们，并试图在长时间的休息中杀死他们。比如说，冒险者杀死的第一个兽人的父亲。"
														],
														[
															{
																"type": "cell",
																"roll": {
																	"min": 2,
																	"max": 3
																}
															},
															"冒险者有一个秘密的崇拜者，他很快就会暴露自己。如果这群人和一个NPC一起旅行，那可能是这个NPC，也可能是他们过去见过的一个NPC。"
														],
														[
															{
																"type": "cell",
																"roll": {
																	"min": 4,
																	"max": 5
																}
															},
															"算命先生开始为冒险家杀死的人通灵。"
														],
														[
															{
																"type": "cell",
																"roll": {
																	"min": 6,
																	"max": 7
																}
															},
															"冒险者得到与他们正在进行的任务有关的提示（由DM决定提示是什么）。"
														],
														[
															{
																"type": "cell",
																"roll": {
																	"min": 8,
																	"max": 9
																}
															},
															"算命先生开始为冒险家过去的一个死人传话。也许一位已故的祖母会责备他们不安于现状、不建立家庭的无价值的冒险生活。"
														],
														[
															{
																"type": "cell",
																"roll": {
																	"min": 10,
																	"max": 11
																}
															},
															"冒险家被诅咒了，将在1周内病入膏肓! 幸运的是，算命先生可以用一些非常稀有的材料以50克的价格配制一种药水，可以消除诅咒。算命先生关于诅咒的说法是假的，他只是想赚点外快（通过DC18洞察力检查来发现）。药水只是一种强烈的草药茶。"
														],
														[
															{
																"type": "cell",
																"roll": {
																	"min": 12,
																	"max": 13
																}
															},
															"冒险家有一个诅咒，导致他们有时运气不好（谁不是呢？）幸运的是，算命先生有一种好运药水，她可以以50克的价格卖给他们。这是一种真正的药水（见附录）。"
														],
														[
															{
																"type": "cell",
																"roll": {
																	"min": 14,
																	"max": 15
																}
															},
															"冒险家有一个伟大的未来......作为一个芜杂的农夫。算命先生有一个愿景，就是让玩家安顿下来，买一个农场并结婚。他们将有12个孩子。"
														],
														[
															{
																"type": "cell",
																"roll": {
																	"min": 16,
																	"max": 17
																}
															},
															"算命先生告诉玩家，他们党内的一个成员将在不久的将来背叛他们。她在说谎（通过DC18洞察力检查来发现）。"
														],
														[
															{
																"type": "cell",
																"roll": {
																	"min": 18,
																	"max": 19
																}
															},
															"算命先生开始引导一个恶魔，它告诉玩家要做一些邪恶的事情，否则会死得很惨。恶魔对冒险者没有实际的力量，也不能伤害他们，它完全是在虚张声势（DC18洞察力可以发现）。"
														],
														[
															20,
															"冒险者将得到一份遗产。由DM决定是什么，也许是一件普通的魔法物品，或者是一件传家宝，或者是一把神秘的钥匙。"
														]
													]
												},
												"如果有玩家对算命先生无礼或开始攻击，她会诅咒他们。",
												{
													"type": "inset",
													"entries": [
														"埃斯梅拉达夫人愤怒地站起来，说：\"你怎么敢这样对待我？\"。她把手伸进挂在腰带上的一个袋子里，把红色的灰尘扔到你的脸上，同时用你听不懂的语言嘟囔着什么，并挥舞着双手。然后她在一阵烟雾中消失了，帐篷里的所有东西都和她一起消失了。你发现自己站在帐篷曾经存在的一个空地上。"
													]
												},
												"该角色会被诅咒。只要他们对别人无礼，说脏话，撒谎或虐待别人，他们就会受到1d10的精神伤害。这个诅咒可以用消除诅咒的咒语或做3件主要的善事来消除。"
											]
										},
										{
											"type": "section",
											"name": "Potions Vendor (Location 1)",
											"entries": [
												"出售治疗药水，以及DMG的其他药水（从第187页开始）。关于库存的一些建议。",
												"啤酒花园是一个大帐篷，中间摆放着长长的野餐桌，边缘摆放着较小的圆桌。一端设置有一个木制酒吧。在另一端，一个乐队在舞台上演奏音乐（如果有吟游诗人，他们会邀请吟游诗人和他们一起演奏几首歌）。舞台前面有空间可以跳舞。灯笼提供灯光，一直到深夜。",
												{
													"type": "list",
													"name": "Refreshments For Sale:",
													"items": [
														"疗伤药水50gp",
														"大疗效药水150gp",
														"攀登药水 180gp",
														"动物友谊药水200gp",
														"火焰气息药剂150gp",
														"山地巨人的力量药水 150gp"
													]
												}
											]
										},
										{
											"type": "section",
											"name": "Arcane Vendor (Location 2)",
											"entries": [
												"出售DMG中价值不凡的魔法物品（从第150页开始。关于库存的一些建议。",
												{
													"type": "list",
													"name": "Refreshments For Sale:",
													"items": [
														"咒语卷轴（咒语）10gp",
														"法术卷轴（1级）60gp",
														"消除诅咒卷轴200gp",
														"炼金壶150gp",
														"储物袋 100gp",
														"夜用护目镜200gp",
														"不动的棒子 100gp"
													]
												}
											]
										},
										{
											"type": "section",
											"name": "Weapons Vendor (Location 3)",
											"entries": [
												"卖家有非魔法类型的武器，价格列在PHB第149页。如果DM愿意，他们也可以提供DMG中的魔法武器。"
											]
										},
										{
											"type": "section",
											"name": "Armor Vendor (Location 4)",
											"entries": [
												"卖家有非魔法类型的盔甲，价格列在PHB第145页。如果DM愿意，他们也可以从DMG中提供神奇的盔甲。"
											]
										},
										{
											"type": "section",
											"name": "Art Dealer (Location 5)",
											"entries": [
												"这个商贩买卖有趣的物品和非魔法性质的遗物。这是一个很好的机会，玩家可以出售一些他们想摆脱的东西。如果玩家想买东西，你可以在DMG第135页上找到艺术物品。"
											]
										},
										{
											"type": "section",
											"name": "Art Dealer (Location 5)",
											"entries": [
												"珠宝商（位置6）这个商贩买卖非魔法的珠宝和宝石。这是一个很好的机会，可以让玩家卖掉一些他们想摆脱的东西。如果玩家想购买一些东西，你可以在DMG第134页找到宝石。"
											]
										},
										{
											"type": "section",
											"name": "Artisan's Tools (Location 7)",
											"entries": [
												"这个商贩出售工具和乐器，来自《公共卫生手册》第154页。"
											]
										},
										{
											"type": "section",
											"name": "Raffle Tickets (Location 8)",
											"entries": [
												"玩家可以买票赢得抽奖，奖品是由DM选择的魔法物品。在节日结束时，DM从1100中选择一个数字。然后玩家滚动（或直接选择）一个数字，如果有人与所选数字完全匹配，他们就赢了。否则，一个NPC获胜。(或者，如果你想确保玩家获胜，就选择与数字最接近的人。）",
												"{@i Cost: 1gp}",
												"{@i Prize Suggestion: An interesting uncommon magical item that would require players to be creative in its use. For example; an alchemy jug, a portable hole, a bag of tricks.}"
											]
										},
										{
											"type": "section",
											"name": "Shady Vendor",
											"entries": [
												"如果玩家走到一个小贩面前，似乎对一件昂贵的物品感兴趣，一个阴暗的人物会走到他们面前，悄悄地要求与他们私下交谈。然后他就会提出以50%的折扣向他们出售同样的物品。他发誓说这是合法的（通过DC10洞察力检查来发现他在撒谎）。如果玩家同意，这个阴暗的小贩会安排他们一小时后带着物品在啤酒花园见面。然后他将从真正的小贩那里偷取物品，并将其带到啤酒花园卖给玩家。如果玩家继续出售，但没有立即将物品藏起来，真正的小贩会注意到他们带着物品，指责他们偷窃，并叫警卫来抓他们。",
												"如果玩家把物品藏起来，他们只会听到小贩因为偷窃而叫来警卫，但玩家不会受到牵连。"
											]
										}
									]
								}
							]
						}
					]
				},
				{
					"type": "section",
					"name": "Appendix",
					"entries": [
						{
							"type": "section",
							"name": "Special Items",
							"entries": [
								{
									"type": "section",
									"name": "Ammunition of Sleep",
									"entries": [
										"5 螺栓、箭或其他弹药。",
										"当用来击中目标时，目标会进行DC13智慧救赎，失败会使目标昏迷10分钟，直到睡眠者受到伤害，或有人采取行动唤醒他们。"
									]
								},
								{
									"type": "section",
									"name": "Potion of Luck",
									"entries": [
										"喝下药水后，该人将在1小时内对所有能力、救赎和攻击卷有优势。"
									]
								},
								{
									"name": "Random Jelly Beans",
									"id": "FEST:Guide",
									"source": "festivalguide",
									"colLabels": [
										"d12",
										"Result"
									],
									"colStyles": [
										"col-3 text-center",
										"col-7"
									],
									"intro": [
										"A small bag of jelly beans, all green. The bag has 25 candies. Roll a 1d12 to see what effect the candy has on the player."
									],
									"rows": [
										[
											1,
											"1 在10分钟内，你唯一能说的词是 \"gygax\"。"
										],
										[
											2,
											" 你感觉像空气一样轻。你可以在接下来的10分钟内飞行。"
										],
										[
											3,
											"糖果让你感到胃部不适。你会呕吐出绿色粘液，持续1分钟。"
										],
										[
											4,
											"在接下来的10分钟内，你的力量修正值获得+5。"
										],
										[
											5,
											"你的鼻子会变成亮紫色，持续10分钟，使你在隐身检查中处于劣势。"
										],
										[
											6,
											"你可以在接下来的10分钟内与50英尺内的任何人进行心灵感应。"
										],
										[
											7,
											"1 在10分钟内，你唯一能说的词是 \"gygax\"。"
										],
										[
											8,
											"你会变成隐形人，持续10分钟。"
										],
										[
											9,
											"你的皮肤上会出现红斑，持续10分钟，使你在基于魅力的检查中处于不利地位。"
										],
										[
											10,
											"你感到很幸运。在接下来的1小时内，你对所有能力检查都有优势。"
										],
										[
											11,
											"在接下来的10分钟里，你的脚一直在打滑，你在任何杂技检查中都处于劣势。"
										],
										[
											12,
											"在接下来的10分钟里，你有双倍的速度。"
										]
									],
									"type": "table"
								}
							]
						}
					]
				}
			]
		}
	],
	"table": [
		{
			"name": "fortuneteller results",
			"source": "festivalguide",
			"colLabels": [
				"d20",
				"Result"
			],
			"colStyles": [
				"col-3 text-center",
				"col-7"
			],
			"outro": [
				"{@b Optional Extra}: The fortune teller offers the players to draw from the Deck of Many Things."
			],
			"rows": [
				[
					1,
					"一周内会有一次对冒险家的暗杀行动。冒险家杀死的敌人的家人会寻找他们，并试图在长时间的休息中杀死他们。比如说，冒险者杀死的第一个兽人的父亲。"
				],
				[
					{
						"type": "cell",
						"roll": {
							"min": 2,
							"max": 3
						}
					},
					"冒险者有一个秘密的崇拜者，他很快就会暴露自己。如果这群人和一个NPC一起旅行，那可能是这个NPC，也可能是他们过去见过的一个NPC。"
				],
				[
					{
						"type": "cell",
						"roll": {
							"min": 4,
							"max": 5
						}
					},
					"算命先生开始为冒险家杀死的人通灵。"
				],
				[
					{
						"type": "cell",
						"roll": {
							"min": 6,
							"max": 7
						}
					},
					"冒险者得到与他们正在进行的任务有关的提示（由DM决定提示是什么）。"
				],
				[
					{
						"type": "cell",
						"roll": {
							"min": 8,
							"max": 9
						}
					},
					"算命先生开始为冒险家过去的一个死人传话。也许一位已故的祖母会责备他们不安于现状、不建立家庭的无价值的冒险生活。"
				],
				[
					{
						"type": "cell",
						"roll": {
							"min": 10,
							"max": 11
						}
					},
					"冒险家被诅咒了，将在1周内病入膏肓! 幸运的是，算命先生可以用一些非常稀有的材料以50克的价格配制一种药水，可以消除诅咒。算命先生关于诅咒的说法是假的，他只是想赚点外快（通过DC18洞察力检查来发现）。药水只是一种强烈的草药茶。"
				],
				[
					{
						"type": "cell",
						"roll": {
							"min": 12,
							"max": 13
						}
					},
					"冒险家有一个诅咒，导致他们有时运气不好（谁不是呢？）幸运的是，算命先生有一种好运药水，她可以以50克的价格卖给他们。这是一种真正的药水（见附录）。"
				],
				[
					{
						"type": "cell",
						"roll": {
							"min": 14,
							"max": 15
						}
					},
					"冒险家有一个伟大的未来......作为一个芜杂的农夫。算命先生有一个愿景，就是让玩家安顿下来，买一个农场并结婚。他们将有12个孩子。"
				],
				[
					{
						"type": "cell",
						"roll": {
							"min": 16,
							"max": 17
						}
					},
					"算命先生告诉玩家，他们党内的一个成员将在不久的将来背叛他们。她在说谎（通过DC18洞察力检查来发现）。"
				],
				[
					{
						"type": "cell",
						"roll": {
							"min": 18,
							"max": 19
						}
					},
					"算命先生开始引导一个恶魔，它告诉玩家要做一些邪恶的事情，否则会死得很惨。恶魔对冒险者没有实际的力量，也不能伤害他们，它完全是在虚张声势（DC18洞察力可以发现）。"
				],
				[
					20,
					"冒险者将得到一份遗产。由DM决定是什么，也许是一件普通的魔法物品，或者是一件传家宝，或者是一把神秘的钥匙。"
				]
			]
		},
		{
			"name": "Random Jelly Beans",
			"source": "festivalguide",
			"colLabels": [
				"d12",
				"Result"
			],
			"colStyles": [
				"col-3 text-center",
				"col-7"
			],
			"intro": [
				"A small bag of jelly beans, all green. The bag has 25 candies. Roll a 1d12 to see what effect the candy has on the player."
			],
			"rows": [
				[
					1,
					"1 在10分钟内，你唯一能说的词是 \"gygax\"。"
				],
				[
					2,
					" 你感觉像空气一样轻。你可以在接下来的10分钟内飞行。"
				],
				[
					3,
					"糖果让你感到胃部不适。你会呕吐出绿色粘液，持续1分钟。"
				],
				[
					4,
					"在接下来的10分钟内，你的力量修正值获得+5。"
				],
				[
					5,
					"你的鼻子会变成亮紫色，持续10分钟，使你在隐身检查中处于劣势。"
				],
				[
					6,
					"你可以在接下来的10分钟内与50英尺内的任何人进行心灵感应。"
				],
				[
					7,
					"1 在10分钟内，你唯一能说的词是 \"gygax\"。"
				],
				[
					8,
					"你会变成隐形人，持续10分钟。"
				],
				[
					9,
					"你的皮肤上会出现红斑，持续10分钟，使你在基于魅力的检查中处于不利地位。"
				],
				[
					10,
					"你感到很幸运。在接下来的1小时内，你对所有能力检查都有优势。"
				],
				[
					11,
					"在接下来的10分钟里，你的脚一直在打滑，你在任何杂技检查中都处于劣势。"
				],
				[
					12,
					"在接下来的10分钟里，你有双倍的速度。"
				]
			]
		}
	],
	"item": [
		{
			"name": "Ammunition of Sleep",
			"type": "A",
			"rarity": "uncommon",
			"weight": 0.05,
			"tier": "major",
			"entries": [
				"5个螺栓、箭或其他弹药。当用来击中目标时，目标会进行DC13智慧救赎，失败会使目标昏迷10分钟，直到睡眠者受到伤害，或有人采取行动将其唤醒。"
			],
			"source": "festivalguide"
		},
		{
			"name": "Potion of Luck",
			"tier": "major",
			"rarity": "uncommon",
			"weight": 0.5,
			"type": "P",
			"entries": [
				"喝下药水后，该人将在1小时内对所有能力、救赎和攻击卷有优势。"
			],
			"source": "festivalguide"
		}
	]
}
