{
	"_meta": {
		"sources": [
			{
				"json": "SSW",
				"abbreviation": "SSW",
				"full": "The Spiritual Swordsman",
				"version": "2.0",
				"authors": [
					"Ewerton Costa",
					"Raul Rosá"
				],
				"convertedBy": [
					"Raul Rosá"
				],
				"url": "https://drive.google.com/file/d/1kHjfvHX2WX_z4o-VShMslXb9yfODRJVH/view?usp=sharing",
				"targetSchema": "1.0.0"
			}
		],
		"optionalFeatureTypes": {
			"SM": "Spiritual Manifestation",
			"SM:S": "Superior Spiritual Manifestation"
		},
		"dateAdded": 1579478745,
		"dateLastModified": 1687213881,
		"_dateLastModifiedHash": "f45b718f50"
	},
	"class": [
		{
			"name": "Spiritual Swordsman",
			"source": "SSW",
			"hd": {
				"number": 1,
				"faces": 10
			},
			"proficiency": [
				"str",
				"wis"
			],
			"classTableGroups": [
				{
					"colLabels": [
						"Spirit Awakening",
						"{@filter Spiritual Manifestations|optionalfeatures|feature type=sm}",
						"Spirit Awakening Damage"
					],
					"rows": [
						[
							"2",
							"-",
							{
								"type": "dice",
								"toRoll": [
									{
										"number": 1,
										"faces": 4
									}
								]
							}
						],
						[
							"2",
							"1",
							{
								"type": "dice",
								"toRoll": [
									{
										"number": 1,
										"faces": 4
									}
								]
							}
						],
						[
							"2",
							"2",
							{
								"type": "dice",
								"toRoll": [
									{
										"number": 1,
										"faces": 4
									}
								]
							}
						],
						[
							"2",
							"2",
							{
								"type": "dice",
								"toRoll": [
									{
										"number": 1,
										"faces": 4
									}
								]
							}
						],
						[
							"3",
							"2",
							{
								"type": "dice",
								"toRoll": [
									{
										"number": 1,
										"faces": 6
									}
								]
							}
						],
						[
							"3",
							"2",
							{
								"type": "dice",
								"toRoll": [
									{
										"number": 1,
										"faces": 6
									}
								]
							}
						],
						[
							"3",
							"3",
							{
								"type": "dice",
								"toRoll": [
									{
										"number": 1,
										"faces": 6
									}
								]
							}
						],
						[
							"3",
							"3",
							{
								"type": "dice",
								"toRoll": [
									{
										"number": 1,
										"faces": 6
									}
								]
							}
						],
						[
							"4",
							"3",
							{
								"type": "dice",
								"toRoll": [
									{
										"number": 1,
										"faces": 6
									}
								]
							}
						],
						[
							"4",
							"3",
							{
								"type": "dice",
								"toRoll": [
									{
										"number": 1,
										"faces": 6
									}
								]
							}
						],
						[
							"4",
							"4",
							{
								"type": "dice",
								"toRoll": [
									{
										"number": 1,
										"faces": 8
									}
								]
							}
						],
						[
							"4",
							"4",
							{
								"type": "dice",
								"toRoll": [
									{
										"number": 1,
										"faces": 8
									}
								]
							}
						],
						[
							"5",
							"4",
							{
								"type": "dice",
								"toRoll": [
									{
										"number": 1,
										"faces": 8
									}
								]
							}
						],
						[
							"5",
							"4",
							{
								"type": "dice",
								"toRoll": [
									{
										"number": 1,
										"faces": 8
									}
								]
							}
						],
						[
							"5",
							"4",
							{
								"type": "dice",
								"toRoll": [
									{
										"number": 1,
										"faces": 8
									}
								]
							}
						],
						[
							"5",
							"5",
							{
								"type": "dice",
								"toRoll": [
									{
										"number": 1,
										"faces": 8
									}
								]
							}
						],
						[
							"6",
							"5",
							{
								"type": "dice",
								"toRoll": [
									{
										"number": 1,
										"faces": 10
									}
								]
							}
						],
						[
							"6",
							"5",
							{
								"type": "dice",
								"toRoll": [
									{
										"number": 1,
										"faces": 10
									}
								]
							}
						],
						[
							"6",
							"5",
							{
								"type": "dice",
								"toRoll": [
									{
										"number": 1,
										"faces": 10
									}
								]
							}
						],
						[
							"无限制",
							"5",
							{
								"type": "dice",
								"toRoll": [
									{
										"number": 1,
										"faces": 10
									}
								]
							}
						]
					]
				}
			],
			"startingProficiencies": {
				"armor": [
					"light",
					"medium",
					"{@item shield|phb|shields}"
				],
				"weapons": [
					"melee simple",
					"melee martial"
				],
				"skills": [
					{
						"choose": {
							"from": [
								"athletics",
								"acrobatics",
								"insight",
								"intimidation",
								"nature",
								"perception",
								"survival"
							],
							"count": 2
						}
					}
				]
			},
			"startingEquipment": {
				"additionalFromBackground": true,
				"default": [
					"A {@filter simple|items|source=phb|category=basic|type=simple weapon;melee weapon=u~u~sand} or {@filter martial|items|source=phb|category=basic|type=martial weapon;melee weapon=u~u~sand} weapon and a {@item shield|phb}",
					"(a) {@item leather armor|phb} or (b) {@item scale mail|phb}",
					"(a) a {@item dungeoneer's pack|phb} or (b) an {@item explorer's pack|phb}"
				],
				"goldAlternative": "{@dice 2d4×10|2d4 × 10|Starting Gold}",
				"defaultData": [
					{
						"_": [
							"shield|phb"
						]
					},
					{
						"a": [
							{
								"equipmentType": "weaponSimpleMelee"
							}
						],
						"b": [
							{
								"equipmentType": "weaponMartialMelee"
							}
						]
					},
					{
						"a": [
							"leather armor|phb"
						],
						"b": [
							"scale mail|phb"
						]
					},
					{
						"a": [
							"dungeoneer's pack|phb"
						],
						"b": [
							"explorer's pack|phb"
						]
					}
				]
			},
			"multiclassing": {
				"requirements": {
					"or": [
						{
							"str": 13,
							"dex": 13
						}
					],
					"wis": 13
				},
				"proficienciesGained": {
					"armor": [
						"light",
						"medium",
						"{@item shield|phb|shields}"
					],
					"weapons": [
						"melee simple",
						"melee martial"
					]
				}
			},
			"classFeatures": [
				"Spiritual Weapon|Spiritual Swordsman|SSW|1",
				"Spirit Awakening|Spiritual Swordsman|SSW|1",
				"Fighting Style|Spiritual Swordsman|SSW|2",
				"Spiritual Manifestation|Spiritual Swordsman|SSW|2",
				{
					"classFeature": "Spiritual Path|Spiritual Swordsman|SSW|3",
					"gainSubclassFeature": true
				},
				"Sincerity of the Soul|Spiritual Swordsman|SSW|3",
				"Ability Score Improvement|Spiritual Swordsman|SSW|4",
				"Extra Attack|Spiritual Swordsman|SSW|5",
				"Spiritual Fusion|Spiritual Swordsman|SSW|6",
				{
					"classFeature": "Spiritual Path Feature|Spiritual Swordsman|SSW|6",
					"gainSubclassFeature": true
				},
				"Superior Manifestation|Spiritual Swordsman|SSW|7",
				"Ability Score Improvement|Spiritual Swordsman|SSW|8",
				"Spiritual Harvest|Spiritual Swordsman|SSW|9",
				"Spirit Sintony|Spiritual Swordsman|SSW|10",
				{
					"classFeature": "Spiritual Path Feature|Spiritual Swordsman|SSW|11",
					"gainSubclassFeature": true
				},
				"Ability Score Improvement|Spiritual Swordsman|SSW|12",
				"Soul Network|Spiritual Swordsman|SSW|13",
				"Advanced Superior Manifestation|Spiritual Swordsman|SSW|14",
				"Eternal Spirit|Spiritual Swordsman|SSW|15",
				"Ability Score Improvement|Spiritual Swordsman|SSW|16",
				{
					"classFeature": "Spiritual Path Feature|Spiritual Swordsman|SSW|17",
					"gainSubclassFeature": true
				},
				"Spiritual Pressure|Spiritual Swordsman|SSW|18",
				"Ability Score Improvement|Spiritual Swordsman|SSW|19",
				"Perfect Superior Manifestation|Spiritual Swordsman|SSW|20"
			],
			"subclassTitle": "Spiritual Path",
			"fluff": [
				{
					"entries": [
						"一个旅行者独自走在平原上，几个公路工人准备伏击他。他们认为这是一个容易的目标。当其中一个强盗做出第一个动作时，他瘫倒在地。看到这一幕，其他人试图做出反应，但甚至无法接近这个旅行者。在斗篷的掩护下，这个陌生人终于显露出来，他的眼睛发光，手中的短剑更是闪闪发光。该地区的压力是无法忍受的，打手们无法移动一个手指。\"那是什么？\"他们问自己。他们不可能知道他们面前的是一个强大的精神剑客，他压倒性的存在足以打败他们。",
						"在冰山上训练了七年，这个半精灵已经忘记了社会意味着什么。他经历了最绝望的情况，最严酷的训练，只由他以前的主人驱动。师傅已经死了一段时间，但他一直在引导新的朝圣者穿过山。半精灵知道他的主人只有在他完成训练后才能自由地去另一个世界，所以他也在训练。",
						"一群邪教分子准备召唤一个强大的恶魔。他们认为自己是孤独的，但从阴影中突然出现了一个熟练的铁皮人，他一个接一个地收割他们的灵魂，吸收他们精神的能量。邪教徒们召唤了错误的魔鬼。",
						{
							"type": "entries",
							"name": "Spirit Warrior",
							"entries": [
								"灵性剑士利用他与神灵和空灵界的联系的力量来超越物质世界的物理极限。他们在近战格斗技术方面受过高级训练，他们挥舞武器的技巧甚至令最伟大的战士羡慕不已。当他们挥舞他们的精神武器时，可以看到他们的耐心和纪律，这种武器是由从环境中收集的碎片，也是由剑客本人的灵魂制成的。",
								"有时他的武器是剑客发现的一个古老的灵魂的表现，而这个灵魂现在伴随着他的旅程。在其他时候，一个创伤可能将剑客的灵魂分裂成两块或更多的碎片，从而创造了他的武器。或者，剑客可能已经通过冥想和自我了解，学会了将自己的一部分精神延伸到物质世界的一个物体上。",
								"无论他的武器的来源是什么，它们与剑客的结合将它们变成世界上精神能量的导体，使他们能够使用和操纵这种能量来实现他们的各种目标。"
							]
						},
						{
							"type": "entries",
							"name": "Tuned With the Souls",
							"entries": [
								"灵性剑客的生活一般包括维持生与死的自然循环。他们对来世的理解与其他人不同，他们与神灵的不断接触通常使他们有一种与物质世界脱节的感觉。",
								"因此，许多剑客一生中大部分时间都是孤独的流浪者，远离文明，冥想，只与神灵为伴。他们多年来一直保持这种生活方式，直到精神世界中的一些邪恶或干扰迫使他们返回社会。"
							]
						},
						{
							"type": "inset",
							"name": "Why Not a Subclass?",
							"entries": [
								"当你遇到一个新的类时，你会很自然地问设计者 \"为什么你要设计一个类，而不是一个子类？\"。",
								"精神剑士，虽然类似于{@class fighter}、{@class warlock}甚至是刀客{@class wizard}，但有一个不同的、到目前为止独一无二的概念。它是一个与精神世界、幽灵、鬼魂和灵魂有着深刻联系的等级。它与精神能量有着密切的联系，并且能够操纵它们，以至于将这种力量具体化为他的精神武器的形状。",
								"这种对他自己的精神和一般精神的深刻了解，与武器的联系以及他在这个世界上的责任，都是可以通过很多方式来探索的特性，而这些方式只用一个子类是无法探索的。而且，通过这个类别和它的子类别，我们试图将这些细微的差别和不同种类的束缚带到灵性剑士身上。"
							]
						},
						{
							"type": "entries",
							"name": "Creating a Spiritual Swordsman",
							"entries": [
								"在创造一个精神上的剑客时，最重要的方面是知道什么将你与你的精神武器联系在一起。剑客和他的武器之间的联系是赋予他身份的东西，决定了别人会如何看待他。",
								"考虑到这一点，在创造你的剑客之前问问自己：你是如何与你的武器建立起这种联系的？你是否在一个精神研究的秩序中训练，在那里你找到了你的肉体和你的精神状态之间的平衡？你是否发现自己处于一个艰难的境地，并且多年来一直带着一件家庭武器，在困难的时刻突然显示出自己是一个没有活力的精神武器？",
								"你与精神世界的联系又是怎样的？你经常看到死人吗？你有任何精神上的朋友或同事吗？或者你被这种联系所诅咒，并寻求使你心中的灵魂安静下来？",
								{
									"type": "entries",
									"name": "Quick Build",
									"entries": [
										"按照这些建议，你可以迅速成为一个灵性剑客。首先，把你的最高能力得分放在力量或灵巧上，其次是智慧，然后是体质。其次，选择（%0%）的背景。最后，选择一种适合所选主要能力的武器。"
									]
								}
							]
						}
					],
					"source": "SSW",
					"name": "Spiritual Swordsman",
					"type": "section"
				}
			]
		}
	],
	"optionalfeature": [
		{
			"name": "Climatic Resistance",
			"source": "SSW",
			"featureType": [
				"SM"
			],
			"prerequisite": [
				{
					"level": {
						"level": 3,
						"class": {
							"name": "Spiritual Swordsman"
						},
						"subclass": {
							"name": "Elemental Blade"
						}
					},
					"other": "Path of the Elemental Blade"
				}
			],
			"entries": [
				"当你携带任何一种精神武器时，你会自然地适应所有的气候。",
				"从16级开始，你可以使用一个动作来改变你的调和元素。"
			]
		},
		{
			"name": "Direct the Spirit",
			"source": "SSW",
			"featureType": [
				"SM"
			],
			"prerequisite": [
				{
					"level": {
						"level": 7,
						"class": {
							"name": "Spiritual Swordsman"
						},
						"subclass": {
							"name": "Guided Spirit"
						}
					},
					"other": "Path of the Guided Spirit"
				}
			],
			"entries": [
				"你的灵力武器现在可以在远离你的地方盘旋，甚至在远处进行攻击。只要你在你的灵力武器的120英尺范围内，并且至少有一只空闲的手来引导它们，你就可以使用一个额外的行动，将你选择的一个灵力武器向任何方向移动30英尺。",
				"此外，只要你的灵力武器在你120英尺范围内，你可以用它进行近战攻击，目标是武器所占空间内的生物。"
			]
		},
		{
			"name": "Elemental Focus",
			"source": "SSW",
			"featureType": [
				"SM"
			],
			"prerequisite": [
				{
					"level": {
						"level": 7,
						"class": {
							"name": "Spiritual Swordsman"
						},
						"subclass": {
							"name": "Elemental Blade"
						}
					},
					"other": "Path of the Elemental Blade"
				}
			],
			"entries": [
				"当你携带任何一件灵性武器时，每当你造成伤害时，你可以通过你所调和的元素的伤害类型来改变该伤害类型。"
			]
		},
		{
			"name": "Elemental Manipulation",
			"source": "SSW",
			"featureType": [
				"SM"
			],
			"prerequisite": [
				{
					"level": {
						"level": 3,
						"class": {
							"name": "Spiritual Swordsman"
						},
						"subclass": {
							"name": "Elemental Blade"
						}
					},
					"other": "Path of the Elemental Blade"
				}
			],
			"entries": [
				"你可以通过你的灵性武器，在最低水平上用这种表现形式施放一次以下的法术，不需要物质成分。施放的法术取决于你的武器所调和的元素。以这种方式施法后，你必须在再次施法前完成一个短暂或长时间的休息。如果该法术需要一个攻击卷，那么攻击的奖励等于（%0%）。",
				{
					"type": "table",
					"colLabels": [
						"Element",
						"Spell"
					],
					"rows": [
						[
							"Air",
							"{@spell Thunderwave}"
						],
						[
							"地球",
							"{@spell Earth Tremor|XGE}"
						],
						[
							"Fire",
							"{@spell Burning Hands}"
						],
						[
							"水",
							"{@spell Ice Knife|XGE}"
						]
					]
				},
				"在13级时，当你使用你的（%0%）行动时，如果有的话，你可以通过施放这些法术之一来代替其中的一次攻击。"
			]
		},
		{
			"name": "Energetic Manipulation",
			"source": "SSW",
			"featureType": [
				"SM"
			],
			"prerequisite": [
				{
					"level": {
						"level": 14,
						"class": {
							"name": "Spiritual Swordsman"
						},
						"subclass": {
							"name": "Balance Protector"
						}
					},
					"other": "Path of the Balance Protector"
				}
			],
			"entries": [
				"你可以用这个表现施展一次最低等级的（%0%）法术，不需要物质成分，只需花费两个灵魂槽。智慧是你对它的施法能力。使用这个表现后，你只有在完成长时间的休息后才能再次使用它。"
			],
			"additionalSpells": [
				{
					"innate": {
						"_": [
							"bigby's hand"
						]
					},
					"ability": "wis"
				}
			]
		},
		{
			"name": "Flower of Death",
			"source": "SSW",
			"featureType": [
				"SM"
			],
			"prerequisite": [
				{
					"level": {
						"level": 14,
						"class": {
							"name": "Spiritual Swordsman"
						},
						"subclass": {
							"name": "Soul Reaper"
						}
					},
					"other": "Path of the Soul Reaper"
				}
			],
			"entries": [
				"当你的精神觉醒处于激活状态时，每当你用你的精神武器攻击击中一个生物，该生物就会受到诅咒，直到你的精神觉醒结束。如果你将一个被此特征诅咒的生物降低到0命中率，该生物会释放出强大的能量，其精神碎片会扩散，对它周围10英尺内的每个你选择的生物造成{@dice 1d6}的坏死伤害。",
				"18级时，伤害增加到（%0%）。"
			]
		},
		{
			"name": "Lightning Step",
			"source": "SSW",
			"featureType": [
				"SM"
			],
			"prerequisite": [
				{
					"level": {
						"level": 3,
						"class": {
							"name": "Spiritual Swordsman"
						}
					}
				}
			],
			"entries": [
				"当你不穿重甲时，你的行走速度增加10英尺。",
				"在13级时，对你的机会攻击有劣势。"
			]
		},
		{
			"name": "Magical Storm",
			"source": "SSW",
			"featureType": [
				"SM"
			],
			"prerequisite": [
				{
					"level": {
						"level": 14,
						"class": {
							"name": "Spiritual Swordsman"
						},
						"subclass": {
							"name": "Elemental Blade"
						}
					},
					"other": "Path of the Elemental Blade"
				}
			],
			"entries": [
				"你可以通过你的灵性武器，在最低水平上用这种表现形式施放一次以下的法术，不需要物质成分。施放的法术取决于你的武器所调和的元素。以这种方式施法后，在再次施法之前，你必须完成一个短暂或长时间的休息。",
				{
					"type": "table",
					"colLabels": [
						"Element",
						"Spell"
					],
					"rows": [
						[
							"Air",
							"{@spell Lightning Bolt}"
						],
						[
							"地球",
							"{@spell Erupting Earth|XGE}"
						],
						[
							"Fire",
							"{@spell Fireball}"
						],
						[
							"水",
							"{@spell Tidal Wave|XGE}"
						]
					]
				}
			]
		},
		{
			"name": "Malefic Harvest",
			"source": "SSW",
			"featureType": [
				"SM"
			],
			"prerequisite": [
				{
					"level": {
						"level": 3,
						"class": {
							"name": "Spiritual Swordsman"
						},
						"subclass": {
							"name": "Soul Reaper"
						}
					},
					"other": "Path of the Soul Reaper"
				}
			],
			"entries": [
				"当你的精神觉醒处于激活状态时，每当你将一个敌对的生物减少到0点命中率时，你会获得相当于你的智慧修饰值的临时命中率（最小值为0）。",
				"在第9级时，如果你仍然有这些命中率，同时会通过这个特性获得新的临时命中率，相反，新的命中率会加到你实际拥有的临时命中率上。"
			]
		},
		{
			"name": "One With the Elements",
			"source": "SSW",
			"featureType": [
				"SM"
			],
			"prerequisite": [
				{
					"level": {
						"level": 7,
						"class": {
							"name": "Spiritual Swordsman"
						},
						"subclass": {
							"name": "Elemental Blade"
						}
					},
					"other": "Path of the Elemental Blade"
				}
			],
			"entries": [
				"当你携带任何你的灵性武器时，你会获得以下的好处之一，这取决于你所调整的元素。",
				{
					"type": "list",
					"items": [
						"{@b Air:}你可以{@action Disengage}作为你回合中的额外行动。如果你这样做，你的速度会增加10英尺，直到你的回合结束。",
						"{@b Earth:} 你在你的装甲等级上获得+2的奖励。",
						"{@b Fire:}你在灵巧检查和救赎上有优势。",
						"{@b Water:} 你可以在水下呼吸和说话。你还能获得与你的步行速度相等的游泳速度。"
					]
				}
			]
		},
		{
			"name": "Peace of Spirit",
			"source": "SSW",
			"featureType": [
				"SM"
			],
			"entries": [
				"你的纪律和对自己存在的掌握反映在从你身上散发出来的和平。每当你完成一次短期或长期的休息，你就会获得（%0%）法术的好处，就像通过你的精神武器施放一样。",
				"从11级开始，你可以选择一个你能看到的盟友，与你一起完成剩下的部分，获得同样的好处。"
			]
		},
		{
			"name": "Predatory Instinct",
			"source": "SSW",
			"featureType": [
				"SM"
			],
			"prerequisite": [
				{
					"level": {
						"level": 11,
						"class": {
							"name": "Spiritual Swordsman"
						}
					}
				}
			],
			"entries": [
				"每当你用你的灵力武器攻击到一个生物时，它必须成功地进行智慧救赎，否则在攻击卷轴上会处于劣势，直到你下一个回合开始。一旦一个生物成功地完成了这个救赎动作，它就会在24小时内对这个特性产生免疫。",
				"在17级时，拯救失败的生物也会被（%0%）。"
			]
		},
		{
			"name": "Reaper's Lunge",
			"source": "SSW",
			"featureType": [
				"SM"
			],
			"prerequisite": [
				{
					"level": {
						"level": 3,
						"class": {
							"name": "Spiritual Swordsman"
						},
						"subclass": {
							"name": "Soul Reaper"
						}
					},
					"other": "Path of the Soul Reaper"
				}
			],
			"entries": [
				"当你在一个昏暗的光线或黑暗的区域时，你可以（%0%）作为一个额外的行动。",
				"在11级时，当你在昏暗的光线或黑暗的区域内隐身时，你也是听不见的。"
			]
		},
		{
			"name": "Shadow Assault",
			"source": "SSW",
			"featureType": [
				"SM"
			],
			"prerequisite": [
				{
					"level": {
						"level": 7,
						"class": {
							"name": "Spiritual Swordsman"
						},
						"subclass": {
							"name": "Soul Reaper"
						}
					},
					"other": "Path of the Soul Reaper"
				}
			],
			"entries": [
				"每当你对你所隐藏的生物进行攻击卷时，你在该卷上获得+2的奖励。",
				"在14级时，如果你用攻击击中你所隐藏的生物，它就会受到相当于你精神觉醒伤害的坏死伤害。"
			]
		},
		{
			"name": "Spectral Bond",
			"source": "SSW",
			"featureType": [
				"SM"
			],
			"prerequisite": [
				{
					"level": {
						"level": 3,
						"class": {
							"name": "Spiritual Swordsman"
						},
						"subclass": {
							"name": "Guided Spirit"
						}
					},
					"other": "Path of the Guided Spirit"
				}
			],
			"entries": [
				"你的灵性武器与你相连。当你作为{@action Attack}行动的一部分进行攻击，并且没有持有你的灵力武器之一，如果它没有被任何人携带或持有，你可以立即使它出现在你的手中，只要你有一只自由的手来持有它。"
			]
		},
		{
			"name": "Spirit Beam",
			"source": "SSW",
			"featureType": [
				"SM"
			],
			"prerequisite": [
				{
					"level": {
						"level": 11,
						"class": {
							"name": "Spiritual Swordsman"
						}
					}
				}
			],
			"entries": [
				"当你的精神觉醒处于激活状态时，你可以使用一个动作，强迫你周围30英尺范围内的每一个生物做一个灵巧的蓄力动作。拯救失败时，生物会受到{@dice 6d8}武力伤害，拯救成功时则受到一半的伤害。",
				"一旦你使用了这个功能，只有在你的精神觉醒得到新的激活后，你才能再次使用。"
			]
		},
		{
			"name": "Spirit Dimension",
			"source": "SSW",
			"featureType": [
				"SM"
			],
			"prerequisite": [
				{
					"level": {
						"level": 16,
						"class": {
							"name": "Spiritual Swordsman"
						}
					}
				}
			],
			"entries": [
				"作为一个行动，在你10英尺范围内，你选择的任何数量的生物必须在智慧救赎中成功，否则将在1分钟内被（%0%）。这些生物可以在他们每个回合结束时重复蓄力，如果成功则结束该状态。",
				"一旦你使用了这个功能，你必须在再次使用前完成长时间的休息。"
			]
		},
		{
			"name": "Spirit Rancor",
			"source": "SSW",
			"featureType": [
				"SM"
			],
			"prerequisite": [
				{
					"level": {
						"level": 3,
						"class": {
							"name": "Spiritual Swordsman"
						}
					}
				}
			],
			"entries": [
				"每当一个生物用近身攻击击中你时，你可以立即使用你的反应来迫使它做一个智慧救赎动作。如果该生物失败了，它就会对你变成（%0%）。",
				"该生物可以在它的每个回合结束时重复蓄力，如果成功则结束该效果。在蓄力成功后，生物在24小时内对该特性免疫。",
				"你可以使用这个功能的次数等于你的智慧修正值（最小为1）。在完成长时间的休息后，你会重新获得所有已消耗的使用次数。"
			]
		},
		{
			"name": "Spiritual Agility",
			"source": "SSW",
			"featureType": [
				"SM"
			],
			"prerequisite": [
				{
					"level": {
						"level": 7,
						"class": {
							"name": "Spiritual Swordsman"
						}
					}
				}
			],
			"entries": [
				"你的精神增强了你的反应能力，使你能够快速行动。你在你的主动权卷中加入你的智慧修正值。",
				"在14级时，你对任何还没有参加战斗的生物的攻击卷有优势。"
			]
		},
		{
			"name": "Spiritual Blindage",
			"source": "SSW",
			"featureType": [
				"SM"
			],
			"entries": [
				"当你没有穿戴盔甲时，你的盔甲等级等于13+你的智慧修正值。"
			]
		},
		{
			"name": "Spiritual Bond",
			"source": "SSW",
			"featureType": [
				"SM"
			],
			"prerequisite": [
				{
					"level": {
						"level": 7,
						"class": {
							"name": "Spiritual Swordsman"
						}
					}
				}
			],
			"entries": [
				"当你的精神觉醒处于激活状态时，每当你在你的回合中用你的精神武器进行具有投掷属性的远程武器攻击时，你可以使用一个额外动作将自己传送到距离目标5英尺内的一个非封闭空间。",
				"11级时，如果你的攻击击中了目标，你可以对它进行一次额外的近战武器攻击，作为同一奖励行动的一部分。"
			]
		},
		{
			"name": "Spiritual Charge",
			"source": "SSW",
			"featureType": [
				"SM"
			],
			"entries": [
				"当你的精神觉醒处于活动状态时，在你每个回合结束时掷出（%0%）。如果结果是5或更大，你会获得一次精神充电，持续到你的觉醒结束。",
				"当你用你的灵性武器近身攻击击中一个生物时，你可以花费一个灵性冲锋来造成{@dice 1d6}的额外力量伤害。该伤害在8级时增加到{@dice 2d6}，在14级时增加到{@dice 3d6}。",
				"如果你在已经有一个灵性冲锋的情况下获得一个灵性冲锋，相反，该冲锋的伤害会增加（%0%），最多可增加（%1%）的伤害。"
			]
		},
		{
			"name": "Spiritual Impact",
			"source": "SSW",
			"featureType": [
				"SM"
			],
			"prerequisite": [
				{
					"level": {
						"level": 7,
						"class": {
							"name": "Spiritual Swordsman"
						},
						"subclass": {
							"name": "Guided Spirit"
						}
					},
					"other": "Path of the Guided Spirit"
				}
			],
			"entries": [
				"每当你用你的精神武器击中一个生物时，你可以强迫它做一个力量储蓄动作。如果它失败了，它就会被推到离你攻击的武器10英尺的方向。",
				"在17级时，测试失败的生物也会被（%0%）。"
			]
		},
		{
			"name": "Spiritual Sight",
			"source": "SSW",
			"featureType": [
				"SM"
			],
			"entries": [
				"你在60英尺范围内获得{@sense darkvision}。",
				"在16级时，你还会获得{@sense blindsight}在20英尺范围内的能力。"
			]
		},
		{
			"name": "Spiritual Smite",
			"source": "SSW",
			"featureType": [
				"SM"
			],
			"prerequisite": [
				{
					"level": {
						"level": 3,
						"class": {
							"name": "Spiritual Swordsman"
						},
						"subclass": {
							"name": "Balance Protector"
						}
					},
					"other": "Path of the Balance Protector"
				}
			],
			"entries": [
				"每回合一次，当你用你的精神武器进行近身攻击时，你可以花费一个灵魂槽对目标造成{@dice 2d8}的额外武力伤害。",
				"伤害在11级时增加到（%0%），在17级时增加到（%1%）。"
			]
		},
		{
			"name": "Steps in the Air",
			"source": "SSW",
			"featureType": [
				"SM"
			],
			"prerequisite": [
				{
					"level": {
						"level": 11,
						"class": {
							"name": "Spiritual Swordsman"
						}
					}
				}
			],
			"entries": [
				"当你的精神觉醒处于激活状态时，在你的回合中，你的飞行速度等于你行走速度的一半。在你的回合结束时，如果你停留在空中并且没有其他东西支撑你，你就会坠落。",
				"此外，你可以在跌倒时使用你的反应，减少你受到的任何跌倒伤害，其数量相当于你的灵剑士等级的五倍。"
			]
		},
		{
			"name": "Tornado of Souls",
			"source": "SSW",
			"featureType": [
				"SM"
			],
			"prerequisite": [
				{
					"level": {
						"level": 7,
						"class": {
							"name": "Spiritual Swordsman"
						},
						"subclass": {
							"name": "Balance Protector"
						}
					},
					"other": "Path of the Balance Protector"
				}
			],
			"entries": [
				"你可以用这个表现施展一次最低等级的（%0%）法术，不需要物质成分，只需花费一个灵魂槽。智慧是你对它的施法能力。如果你这样做，该法术的伤害就会变成力量伤害。在使用这个表现之后，你只有在完成一个长时间的休息之后才能再次使用它。",
				"在18级时，在咒语的持续时间内，你在体质判定方面有优势。"
			],
			"additionalSpells": [
				{
					"innate": {
						"_": [
							"spirit guardians"
						]
					},
					"ability": "wis"
				}
			]
		},
		{
			"name": "Veil of Pain",
			"source": "SSW",
			"featureType": [
				"SM"
			],
			"prerequisite": [
				{
					"level": {
						"level": 7,
						"class": {
							"name": "Spiritual Swordsman"
						},
						"subclass": {
							"name": "Balance Protector"
						}
					},
					"other": "Path of the Balance Protector"
				}
			],
			"entries": [
				"你可以用这种表现形式将（%0%）的法术作为3级法术施放一次，不需要物质成分，只需花费一个灵魂槽。智慧是你对它的施法能力。如果你这样做了，该法术的伤害就变成了力量伤害。在使用这个表现后，你只有在完成长时间休息后才能再次使用它。",
				"18级时，该法术可作为5级法术施放。"
			],
			"additionalSpells": [
				{
					"innate": {
						"_": [
							"inflict wounds"
						]
					},
					"ability": "wis"
				}
			]
		},
		{
			"name": "Weapon Defragmentation",
			"source": "SSW",
			"featureType": [
				"SM"
			],
			"prerequisite": [
				{
					"level": {
						"level": 3,
						"class": {
							"name": "Spiritual Swordsman"
						},
						"subclass": {
							"name": "Guided Spirit"
						}
					},
					"other": "Path of the Guided Spirit"
				}
			],
			"entries": [
				"当你的精神觉醒处于激活状态时，你可以使用一个行动将你的一个精神武器分解成3个由空灵能量组成的小刀片。对于每把刀，选择一个你能看到的40英尺内的生物。目标必须做一个灵巧的蓄力动作，如果蓄力失败，将受到与你的精神觉醒伤害相等的砍伤，如果蓄力成功，将受到一半的伤害。",
				"你可以在9级的时候制造一个额外的刀片，最多可以制造4个刀片，在15级的时候制造一个额外的刀片，最多可以制造5个刀片。"
			]
		},
		{
			"name": "Balance Defiler",
			"source": "SSW",
			"featureType": [
				"SM",
				"SM:S"
			],
			"prerequisite": [
				{
					"level": {
						"level": 7,
						"class": {
							"name": "Spiritual Swordsman"
						},
						"subclass": {
							"name": "Balance Protector"
						}
					},
					"other": "Path of the Balance Protector"
				}
			],
			"entries": [
				"偶尔，在引导鬼魂通过另一个世界之前，你会用你的力量迫使他们听从你的命令。",
				"当你的精神觉醒处于活动状态时，你可以使用一个动作来召唤一个精神与你并肩作战。该精神使用的是（%0%）的特性。它滚动自己的主动权，并独立于你行动，但将你和你的同伴视为盟友。当你的精神觉醒结束时，该精神会消失。当你仍有至少一个灵体活着时，你不能召唤其他灵体。",
				{
					"type": "entries",
					"name": "Advanced Manifestation",
					"entries": [
						"当你使用这个功能时，你会召唤三个灵魂，而不是一个。"
					]
				},
				{
					"type": "entries",
					"name": "Perfect Manifestation",
					"entries": [
						"当你使用此功能时，你会召唤五个灵体，而不是一个。此外，每当你或你的一个灵魂将一个敌对的生物减少到0点生命值时，你可以用你的反应来召唤它的灵魂作为一个新的灵魂，即使还有其他灵魂活着。"
					]
				}
			]
		},
		{
			"name": "Death",
			"source": "SSW",
			"featureType": [
				"SM",
				"SM:S"
			],
			"prerequisite": [
				{
					"level": {
						"level": 7,
						"class": {
							"name": "Spiritual Swordsman"
						},
						"subclass": {
							"name": "Soul Reaper"
						}
					},
					"other": "Path of the Soul Reaper"
				}
			],
			"entries": [
				"你变得能够吸干生物的灵魂，加强你自己和你的精神武器。",
				"当你的精神觉醒处于激活状态时，每当你用你的精神武器击中一个命中率低于15点的生物时，该目标必须成功地进行宪法救赎，否则会立即死亡。当你以这种方式杀死一个生物时，你也会在1小时内获得所有蓄力攻击的优势。",
				{
					"type": "entries",
					"name": "Advanced Manifestation",
					"entries": [
						"该功能会在命中率为30或更低的生物身上触发。"
					]
				},
				{
					"type": "entries",
					"name": "Perfect Manifestation",
					"entries": [
						"这个功能会在命中率为45或更低的生物身上触发，也会在你的关键命中上触发。"
					]
				}
			]
		},
		{
			"name": "Elemental Form",
			"source": "SSW",
			"featureType": [
				"SM",
				"SM:S"
			],
			"prerequisite": [
				{
					"level": {
						"level": 7,
						"class": {
							"name": "Spiritual Swordsman"
						},
						"subclass": {
							"name": "Elemental Blade"
						}
					},
					"other": "Path of the Elemental Blade"
				}
			],
			"entries": [
				"你的精神能够从元素界吸收大量的能量，以至于改变你的身体形态。",
				"当你激活你的精神觉醒时，你可以选择进入元素形态。当你这样做时，你会获得相当于你的灵剑士等级+你的智慧修正值的临时命中率，并且你会根据你所调和的元素，采取空气、大地、火或水元素的形态。你可以选择你的装备在你的空间里掉到地上，与你的新形态融合，或者被它穿在身上。穿着的装备功能如常，但由DM决定该装备是否还能被你穿着。你的装备不会为了配合新形态而改变大小或形状，而任何新形态不能穿戴的装备必须要么掉到地上，要么与它合并。与形态融合的装备在你离开形态之前没有任何效果。",
				"当处于元素形态时，你会获得以下好处。",
				{
					"type": "list",
					"items": [
						"你对来自非魔法攻击的重击、穿刺和砍击伤害有抵抗力。",
						"你的灵性武器与你的身体融为一体。你的非武装打击被认为是用你的灵性武器进行的攻击，并根据你所调和的元素类型造成{@dice 2d6}的伤害。",
						"如果你的任何灵性武器具有精巧的属性，你可以选择使用灵巧而不是力量来进行非武装打击时的攻击和伤害卷。"
					]
				},
				"当精神觉醒结束时，元素形态就会结束。进入元素形态后，你必须完成长时间的休息才能再次进行。",
				{
					"type": "entries",
					"name": "Advanced Manifestation",
					"entries": [
						"在元素形态下，你会根据你所适应的元素获得额外的好处。",
						{
							"type": "list",
							"items": [
								"{@b Air:}你的飞行（盘旋）速度等于你的行走速度，不能被{@condition prone}，并且可以占据其他生物的空间。当你在一个你是（%2%）的生物的空间里时，那个生物不能呼吸。",
								"{@b Earth:}你无视困难的地形，并在力量检查上有优势。你还获得了一个+2的护甲等级奖励。",
								"{@b Fire:}每当一个在你5英尺范围内的生物用近战攻击击中你时，该生物会受到相当于你的智慧修正值的火焰伤害。另外，每当一个生物从你身上受到火伤害时，它也会着火。在它或其他生物使用行动来灭火之前，它在每个回合开始时都会受到1d10的火焰伤害。",
								"{@b Water:} 你的游泳速度等于你的步行速度，并且可以在水下呼吸。如果你已经有了游泳的速度，这个速度会加倍。另外，每当你对一个生物造成寒冷伤害时，它必须成功地进行宪法救赎，否则就会一直受到{@spell slow}法术的影响，直到其下一回合结束。"
							]
						}
					]
				},
				{
					"type": "entries",
					"name": "Perfect Manifestation",
					"entries": [
						"在完成短期或长期休息后，你会重新获得进入元素形态的能力。此外，你在元素形态下获得新的行动选项，这取决于你所适应的元素。",
						{
							"type": "list",
							"items": [
								"{@b Air:}作为一个动作，你在你周围产生一股旋风。在你的空间里的每个生物都必须成功地进行力量投掷，否则会受到{@dice 3d8}重击伤害，被抛向一个随机的方向20英尺，并坠落{@condition prone}。",
								"{@b Earth:}作为一个行动，你在你周围创造一个地震。在你周围40英尺范围内的地面上的每一个生物必须成功地进行一次抗震救灾。拯救失败时，生物会受到{@dice 4d6}重击伤害并跌落{@condition prone}；拯救成功时，会受到一半的伤害但不会跌落。",
								"{@b Fire:}作为一个动作，你呼出一股热浪，影响你周围所有的生物。在你5英尺范围内的每个生物都必须成功地进行体质测试，否则就会受到{@condition incapacitated}的影响，直到其下一回合结束。",
								"{@b Water:} 作为一个动作，你可以变成水的形态。直到你的回合结束，你可以通过其他生物的空间，就像它们是困难地形一样。如果你在一条直线上移动了至少20英尺，你所经过的每个生物都必须成功地进行一次力量测验，或者被你带走。在你的回合结束时，每个被你携带的生物都会被驱逐到最近的非封闭空间，并受到{@dice 2d10}重击伤害。"
							]
						}
					]
				}
			]
		},
		{
			"name": "Elemental Tempest",
			"source": "SSW",
			"featureType": [
				"SM",
				"SM:S"
			],
			"prerequisite": [
				{
					"level": {
						"level": 7,
						"class": {
							"name": "Spiritual Swordsman"
						},
						"subclass": {
							"name": "Elemental Blade"
						}
					},
					"other": "Path of the Elemental Blade"
				}
			],
			"entries": [
				"你能够引导你体内的元素力量。",
				"当你的精神觉醒处于活动状态时，你可以使用一个动作来召唤一个元素光环，从你身边延伸到10英尺。该光环持续到你的精神觉醒结束，并给予你以下好处，取决于你所调和的元素。",
				{
					"type": "list",
					"items": [
						"{@b Air:}一个在该区域开始的敌对生物必须成功地进行一次力量救赎，否则就会被抛离你10英尺远。",
						"{@b Earth:}该地区的地面被认为是敌对生物的困难地形。",
						"{@b Fire:}一个在该区域开始其回合的敌对生物受到相当于你的精神觉醒伤害的火力伤害。",
						"{@b Water:}在该区域结束其回合的敌对生物必须成功地进行灵巧救赎，否则就会跌倒{@condition prone}。"
					]
				},
				"当精神觉醒结束时，元素形态就会结束。进入元素形态后，你必须完成长时间的休息才能再次进行。",
				{
					"type": "entries",
					"name": "Advanced Manifestation",
					"entries": [
						"在光环激活时，你会获得额外的好处，这取决于你所调和的元素。",
						{
							"type": "list",
							"items": [
								"{@b Air:}你可以在你的每个回合使用一个额外的行动，在你30英尺范围内的一个点上召唤雷击。在该点5英尺范围内的每个生物必须做一个灵巧的蓄力动作。拯救失败时，生物会受到{@dice 3d10}的闪电伤害，拯救成功时则会受到一半的伤害。",
								"{@b Earth:}你可以在每个回合使用一个额外行动，尝试让大地吞噬一个你能看到的光环内的生物。目标必须成功地进行蓄力投掷，否则会变成（%1%）。目标可以在每个回合开始时重复这个蓄力动作，如果成功则结束该状态。",
								"{@b Fire:}你可以在你的每个回合使用一个额外的动作来发出一个热浪。在光环内的每个生物都必须做一个 \"宪法救赎\"。拯救失败时，生物会受到{@dice 2d6}的火焰伤害，拯救成功时则会受到一半的伤害。",
								"{@b Water:}你可以在你的每个回合中进行一次额外行动，尝试冻结一个从你30英尺范围内的点开始的10英尺立方体。该区域内的每个生物都必须成功地进行一次蓄力动作，否则其速度将降至0，并且在你下一回合开始前不能享受任何速度的奖励。"
							]
						}
					]
				},
				{
					"type": "entries",
					"name": "Perfect Manifestation",
					"entries": [
						"你现在同时表现出所有元素的一些能力。你的光环的范围增加了5英尺。另外，当光环处于激活状态时，你会从非你所调和的元素中获得额外的好处。",
						{
							"type": "list",
							"items": [
								"{@b Air:} 你的速度增加5英尺。",
								"{@b Earth:}如果你会受到重击、穿刺或切割的伤害，该伤害会减少3。",
								"{@b Fire:}光环中的敌对生物在他们每个回合开始时受到5个火力伤害。",
								"{@b Water:}光环中的敌方生物的速度降低5英尺。"
							]
						}
					]
				}
			]
		},
		{
			"name": "Guardian Form",
			"source": "SSW",
			"featureType": [
				"SM",
				"SM:S"
			],
			"prerequisite": [
				{
					"level": {
						"level": 7,
						"class": {
							"name": "Spiritual Swordsman"
						},
						"subclass": {
							"name": "Balance Protector"
						}
					},
					"other": "Path of the Balance Protector"
				}
			],
			"entries": [
				"你担任精神领袖的角色，捍卫需要帮助的灵魂，净化物质世界。",
				"当你激活你的精神觉醒时，你可以选择进入守护者形态。在这个形态下，你对击打、力量、穿刺和砍击伤害有抵抗力。另外，每当一个生物用近战攻击错过你时，你可以用你的反应对它造成相当于你智慧修饰值的力量伤害（最小值为1）。",
				"守护形态在精神觉醒结束时结束。进入守护形态后，你必须完成一个短期或长期的休息才能再次进行。",
				{
					"type": "entries",
					"name": "Advanced Manifestation",
					"entries": [
						"每回合一次，当你用你的精神武器击中一个生物时，如果你处于守护者形态，你可以花费一个灵魂槽来迫使它做一个智慧救赎。一旦失败，该生物将被（%0%），直到其下一回合开始。",
						"另外，当你使用你的反应力用此功能造成武力伤害时，该伤害增加（%0%）。"
					]
				},
				{
					"type": "entries",
					"name": "Perfect Manifestation",
					"entries": [
						"当你进入守护者形态并且没有剩余的灵魂槽时，你会重新获得所有的灵魂槽。"
					]
				}
			]
		},
		{
			"name": "Overwhelming Agression",
			"source": "SSW",
			"featureType": [
				"SM",
				"SM:S"
			],
			"prerequisite": [
				{
					"level": {
						"level": 7,
						"class": {
							"name": "Spiritual Swordsman"
						}
					}
				}
			],
			"entries": [
				"你对精神武器的专业挥舞可以得到更多的加强，使你的攻击精确致命。",
				"当你的精神觉醒处于激活状态时，用你的精神武器进行攻击，只要掷出19或20，就能获得关键打击。",
				{
					"type": "entries",
					"name": "Advanced Manifestation",
					"entries": [
						"当你的精神觉醒处于激活状态时，你的关键一击会忽略伤害抵抗力和免疫力。",
						"同时，每当你取得关键一击时，该攻击会造成相当于你的精神觉醒伤害两倍的额外伤害。"
					]
				},
				{
					"type": "entries",
					"name": "Perfect Manifestation",
					"entries": [
						"每当你取得关键一击时，攻击造成的额外伤害等于你精神觉醒伤害的四倍，而不是两倍。"
					]
				}
			]
		},
		{
			"name": "Shadow Form",
			"source": "SSW",
			"featureType": [
				"SM",
				"SM:S"
			],
			"prerequisite": [
				{
					"level": {
						"level": 7,
						"class": {
							"name": "Spiritual Swordsman"
						},
						"subclass": {
							"name": "Soul Reaper"
						}
					},
					"other": "Path of the Soul Reaper"
				}
			],
			"entries": [
				"你与影子成为一体。",
				"当你激活你的精神觉醒时，你可以选择进入阴影形态。在该形态下，你会获得以下好处。",
				{
					"type": "list",
					"items": [
						"你有{@sense darkvision}到60英尺的范围，并能在该范围内看穿神奇的黑暗。",
						"对你的攻击卷有劣势。",
						"只要你或你的目标在昏暗的光线下或黑暗中，你在攻击卷上就有优势。",
						"你有光感，使你在阳光直射下的攻击卷和能力检查中处于劣势。"
					]
				},
				"当精神觉醒结束时，影子形态就会结束。在进入影子形态后，你必须完成一个短期或长期的休息才能再次进行。",
				{
					"type": "entries",
					"name": "Advanced Manifestation",
					"entries": [
						"当你处于影子形态时，你可以在你的回合中使用你的影子门功能作为一个额外动作。"
					]
				},
				{
					"type": "entries",
					"name": "Perfect Manifestation",
					"entries": [
						"每当你对一个生物造成坏死伤害时，如果你处于阴影形态，该生物的最大命中率会以相同的数量减少，并且你会恢复相当于所受伤害一半的命中率。"
					]
				}
			]
		},
		{
			"name": "Spirit Dance",
			"source": "SSW",
			"featureType": [
				"SM",
				"SM:S"
			],
			"prerequisite": [
				{
					"level": {
						"level": 7,
						"class": {
							"name": "Spiritual Swordsman"
						},
						"subclass": {
							"name": "Guided Spirit"
						}
					},
					"other": "Path of the Guided Spirit"
				}
			],
			"entries": [
				"你对你的精神武器的掌握和控制变得完美。",
				"当你的精神觉醒处于激活状态时，如果你在用你的任何精神武器进行的远程武器攻击中处于劣势，你也会在该攻击中获得优势。",
				"另外，每当你在用你的灵力武器进行攻击时有优势，你可以重掷任何数量的伤害骰子一次。你必须使用新的卷轴。",
				{
					"type": "entries",
					"name": "Advanced Manifestation",
					"entries": [
						"当你的精神觉醒处于激活状态时，你在使用精神武器的远程攻击卷中获得+2的奖励，并且每当你用精神武器对一个生物的远程攻击失败时，你可以使用你的反应将攻击重定向到原目标20英尺内的另一个生物，对其重复攻击卷。"
					]
				},
				{
					"type": "entries",
					"name": "Perfect Manifestation",
					"entries": [
						"当你的精神觉醒处于激活状态时，每当你用你的精神武器对一个生物进行远程攻击时，在攻击轨迹上的每一个你选择的生物必须成功地进行一个灵巧的蓄力，否则也会被攻击击中。矮小的生物会自动成功地进行这个蓄力动作。"
					]
				}
			]
		},
		{
			"name": "Way of the Blade",
			"source": "SSW",
			"featureType": [
				"SM",
				"SM:S"
			],
			"prerequisite": [
				{
					"level": {
						"level": 7,
						"class": {
							"name": "Spiritual Swordsman"
						},
						"subclass": {
							"name": "Guided Spirit"
						}
					},
					"other": "Path of the Guided Spirit"
				}
			],
			"entries": [
				"你操纵武器的精神能量的能力增加到可以把它们变成纯能量的程度。",
				"当你激活你的精神觉醒时，你可以选择进入剑道。当你这样做时，你的精神武器会变成纯粹的能量，其伤害也会变成力量伤害。",
				"当在刀锋的作用下，你可以在你的回合中使用一个额外的动作来克隆你周围60英尺内的每一件灵力武器。复制品出现在与原始武器相邻的空间，拥有它的所有属性，对你来说是灵性武器，并且不计入你拥有的灵性武器数量。",
				"当你的精神觉醒结束时，只要你还活着，你的精神武器会立即朝你的方向移动，以最短的方式穿过生物和物体。每当灵力武器以这种方式穿过敌对生物的空间时，该生物必须进行智慧救赎，如果救赎失败，将受到相当于你的灵力觉醒伤害的力量伤害，如果救赎成功，将受到一半的伤害。一旦你的精神武器全部到手，原来的武器就会倒下，克隆体也就不复存在。另外，你可以在你的回合中使用一个动作来结束你的精神觉醒。",
				"进入刀道后，必须完成短暂或长时间的休息，才能再做。",
				{
					"type": "entries",
					"name": "Advanced Manifestation",
					"entries": [
						"当你在刀锋的道路上时，当你的精神觉醒结束时，每当你的任何精神武器在来到你的方向时经过一个盟友的空间，该盟友就会获得相当于你的精神觉醒伤害+你的威德姆修改器的临时命中率。"
					]
				},
				{
					"type": "entries",
					"name": "Perfect Manifestation",
					"entries": [
						"如果生物的智慧救赎失败，它也会被（%0%），直到下一回合结束。"
					]
				}
			]
		},
		{
			"name": "Weapon Mastery",
			"source": "SSW",
			"featureType": [
				"SM",
				"SM:S"
			],
			"prerequisite": [
				{
					"level": {
						"level": 7,
						"class": {
							"name": "Spiritual Swordsman"
						}
					}
				}
			],
			"entries": [
				"你对精神武器的掌握变得如此强大，以至于你可以创造出强大的空气位移，或强大的地震。",
				"当你的精神觉醒处于激活状态时，你可以使用一个动作，用你的一件武器进行特殊打击，这取决于它的伤害类型。",
				{
					"type": "list",
					"items": [
						"{@b Bludgeoning Damage:}以自己为中心的15英尺半径范围内的其他生物必须做一个灵巧的蓄力动作，如果蓄力失败会受到{@dice 4d6}重击伤害，如果蓄力成功会受到一半的重击伤害。",
						"{@b Piercing Damage:}在距离你30英尺长、5英尺宽的直线上的生物必须做一个灵巧的蓄力动作，如果蓄力失败会受到{@dice 4d6}的穿刺伤害，如果蓄力成功会受到一半的伤害。",
						"{@b Slashing Damage:}在你20英尺范围内的生物必须做一个灵巧的蓄力动作，如果蓄力失败会受到{@dice 4d6}的砍伤，如果蓄力成功则受到一半的伤害。"
					]
				},
				{
					"type": "entries",
					"name": "Advanced Manifestation",
					"entries": [
						"打击的伤害各增加（%0%）。"
					]
				},
				{
					"type": "entries",
					"name": "Perfect Manifestation",
					"entries": [
						"打击的范围各增加10英尺，并对建筑物造成双倍伤害。它们还获得独特的附加效果。",
						{
							"type": "list",
							"items": [
								"(拯救失败的生物会跌落（%0%）。该区域的地面也会变成困难的地形，直到被清除为止，每5英尺直径的部分需要至少1分钟才能用手清除。",
								"{@b Piercing Damage:} 救赎失败的生物，他们的速度会降低到0，不能从他们速度的任何奖励中获益，并且是{@condition incapacitated}直到他们下一回合结束。",
								"{@b Slashing Damage:} 拯救失败的生物会受到最大的伤害。"
							]
						}
					]
				}
			]
		}
	],
	"classFeature": [
		{
			"name": "Spiritual Weapon",
			"source": "SSW",
			"className": "Spiritual Swordsman",
			"classSource": "SSW",
			"level": 1,
			"entries": [
				"一级时，你的精神表现为你自己武器的精神。从列表中选择一件灵剑士精通的武器。这个武器会在身体上显现，并成为你的精神武器。",
				"只要你至少有一只空闲的手，你可以把它实体化和非实体化作为一个额外的动作。你与这些武器有一种特殊的联系，它们成为你的同伴，可能有自己的欲望。灵性武器的个性各不相同，但通常与剑客最强的个性特征相似。",
				"你可以通过从你的灵魂和环境中吸收精神碎片来创造一个新的精神武器。这个过程需要4个小时，在这个过程中你必须集中精力（就像你在集中精力施法一样）。你可以选择灵剑士精通的列表中的任何武器。",
				"你最多可以拥有两件精神武器。如果你创造了第三件，最古老的武器就会破碎并被摧毁。你也可以将一件实体武器，如果是灵性剑士精通的武器列表中的武器，变成灵性武器，在这种情况下，这个过程只需要1小时。如果你试图超过你的最大值，这样做也会击碎你最古老的精神武器。",
				"灵剑士的一些特征要求其目标做出蓄力动作以避免其影响。难度的计算公式为：。",
				{
					"type": "abilityDc",
					"name": "Spiritual Weapon",
					"attributes": [
						"wis"
					]
				}
			]
		},
		{
			"name": "Spirit Awakening",
			"source": "SSW",
			"className": "Spiritual Swordsman",
			"classSource": "SSW",
			"level": 1,
			"entries": [
				"你对精神微粒的阐述和你的武术训练让你释放出你隐藏的精神力量。",
				"作为你回合中的额外行动，你可以激活精神觉醒，获得以下好处。",
				{
					"type": "list",
					"items": [
						"用你的灵性武器攻击会造成1d4的额外伤害。这个伤害会随着你的等级增加。",
						"你对被{@condition charmed}或{@condition frightened}的救赎有优势。"
					]
				},
				"你的变身持续1分钟。如果你被击倒（%0%）或死亡，它会提前结束。",
				"一旦你激活精神觉醒的次数达到你的精神剑士等级的上限，你必须完成一个长时间的休息才能再次激活它。你在1级时可以激活精神觉醒2次，5级3次，9级4次，13级5次，17级6次。"
			]
		},
		{
			"name": "Fighting Style",
			"source": "SSW",
			"className": "Spiritual Swordsman",
			"classSource": "SSW",
			"level": 2,
			"entries": [
				"你采用一种特殊的战斗风格作为你的专长。从以下选项中选择一个。你不能多次选择相同的格斗风格，即使你可以再次选择。",
				{
					"type": "options",
					"count": 1,
					"entries": [
						{
							"type": "refOptionalfeature",
							"optionalfeature": "Defense"
						},
						{
							"type": "refOptionalfeature",
							"optionalfeature": "Dueling"
						},
						{
							"type": "refOptionalfeature",
							"optionalfeature": "Great Weapon Fighting"
						},
						{
							"type": "refOptionalfeature",
							"optionalfeature": "Two-Weapon Fighting"
						}
					]
				}
			]
		},
		{
			"name": "Spiritual Manifestation",
			"source": "SSW",
			"className": "Spiritual Swordsman",
			"classSource": "SSW",
			"level": 2,
			"entries": [
				"你发现奇特的精神表现与你的武器的精神有关。",
				{
					"type": "inlineBlock",
					"entries": [
						"在第2级时，你获得一种你所选择的精神表现形式。可用选项的清单可以在{@filter Optional Features|optionalfeatures|Feature Type=SM}页面上找到。当你获得某些精神剑士等级时，你会获得你所选择的额外表现。"
					]
				},
				"这些表现是永久性的，在选择了一个之后，你将无法改变它。",
				"体现中的等级先决条件指的是精神剑士的等级，而不是角色等级。"
			]
		},
		{
			"name": "Spiritual Path",
			"source": "SSW",
			"className": "Spiritual Swordsman",
			"classSource": "SSW",
			"level": 3,
			"entries": [
				"当你达到第三级时，你的武器的精神会完全向你揭示，向你展示它的力量，并建立一个更亲密的联系。这种启示会赋予剑客来自他的武器的特殊力量。",
				"从可用的路径列表中选择一条塑造你武器精神的路径。你的选择在3级时授予你特性，在6级、11级和17级时再次授予你特性。"
			]
		},
		{
			"name": "Sincerity of the Soul",
			"source": "SSW",
			"className": "Spiritual Swordsman",
			"classSource": "SSW",
			"level": 3,
			"entries": [
				"在第三级时，你与空灵界和精神世界的联系变得足够强大，使你能看到人们超越他们的肉体。",
				"作为一项行动，你可以感知离你60英尺范围内的生物的灵魂，直到你下一个回合开始。你在该区域看到的每一个生物都会在你面前出现一个彩色的光环，象征着它此刻精神中最强烈的情绪。光环的颜色可以从红色代表愤怒，靛蓝色代表悲伤，黑色代表仇恨，黄色代表快乐，等等。DM选择哪种颜色代表每种情绪。",
				"你知道每种颜色的含义，并能以这种方式感知包裹在光环内的任何个人的最肤浅感受。",
				"你可以使用这个功能的次数等于1+你的智慧修改器（最小为1）。当你完成长期休息时，你会重新获得所有已消耗的使用次数。"
			]
		},
		{
			"name": "Ability Score Improvement",
			"source": "SSW",
			"className": "Spiritual Swordsman",
			"classSource": "SSW",
			"level": 4,
			"entries": [
				"当你达到四级时，你可以将你选择的一项能力得分提高2分，或者将你选择的两项能力得分提高1分。",
				"如果你的DM允许使用功法，你可以改用（%0%）。"
			]
		},
		{
			"name": "Extra Attack",
			"source": "SSW",
			"className": "Spiritual Swordsman",
			"classSource": "SSW",
			"level": 5,
			"entries": [
				"从5级开始，每当你在你的回合中采取{@action Attack}行动时，你可以攻击两次，而不是一次。"
			]
		},
		{
			"name": "Spiritual Fusion",
			"source": "SSW",
			"className": "Spiritual Swordsman",
			"classSource": "SSW",
			"level": 6,
			"entries": [
				"在6级时，你用你的灵性武器进行的攻击算作魔法攻击，以克服对非魔法攻击和伤害的抵抗和免疫。"
			]
		},
		{
			"name": "Spiritual Path Feature",
			"source": "SSW",
			"className": "Spiritual Swordsman",
			"classSource": "SSW",
			"level": 6,
			"entries": [
				"在6级时，你从你的精神之路获得一个特性。"
			]
		},
		{
			"name": "Superior Manifestation",
			"source": "SSW",
			"className": "Spiritual Swordsman",
			"classSource": "SSW",
			"level": 7,
			"entries": [
				"到了第七级，你用精神武器进行的所有训练都得到了回报，你们之间的联系得到了加强，表现出了更大的力量。",
				"当你选择精神表现时，你可以选择一种特殊的精神表现，称为高级表现。可供选择的清单可以在{@filter Optional Features|optionalfeatures|Feature Type=SM}页面找到",
				"随着你的等级提高，高级表现会变得更加强大，在14级时进化到高级高级表现，在20级时进化到完美高级表现。你只能选择一种高级表现形式。"
			]
		},
		{
			"name": "Ability Score Improvement",
			"source": "SSW",
			"className": "Spiritual Swordsman",
			"classSource": "SSW",
			"level": 8,
			"entries": [
				"当你达到8级时，你可以将你选择的一项能力得分提高2分，或者将你选择的两项能力得分提高1分。",
				"如果你的DM使用可选的特技，你可以改用一个特技。"
			]
		},
		{
			"name": "Spiritual Harvest",
			"source": "SSW",
			"className": "Spiritual Swordsman",
			"classSource": "SSW",
			"level": 9,
			"entries": [
				"从9级开始，每当你在你的回合中用你的任何灵力武器将一个生物的命中率降低到0，你就会恢复与你的智慧修饰值相等的命中率（最低为0），并且你的速度增加10英尺，直到回合结束。另外，你的行动在本回合不会引发机会攻击。"
			]
		},
		{
			"name": "Spirit Sintony",
			"source": "SSW",
			"className": "Spiritual Swordsman",
			"classSource": "SSW",
			"level": 10,
			"entries": [
				"10级时，你获得了冥想的能力，可以吸收你周围的灵魂所能透露的信息。",
				"冥想10分钟后，你将自己与这个地方相融合，在你周围60英尺的范围内显现出一个光环，并持续1分钟。",
				"当光环持续时，你会获得（%0%）法术的好处，并获得20英尺范围内的真实视力。此外，你在与看清光环内的事物有关的智慧（感知）检查中具有优势。",
				"你的DM也可以根据这个地方的历史、最近发生的事件和精神氛围，选择在光环内揭示额外的信息。"
			]
		},
		{
			"name": "Spiritual Path Feature",
			"source": "SSW",
			"className": "Spiritual Swordsman",
			"classSource": "SSW",
			"level": 11,
			"entries": [
				"11级时，你从你的精神之路获得一个特性。"
			]
		},
		{
			"name": "Ability Score Improvement",
			"source": "SSW",
			"className": "Spiritual Swordsman",
			"classSource": "SSW",
			"level": 12,
			"entries": [
				"当你达到12级时，你可以将你选择的一项能力得分提高2分，或者将你选择的两项能力得分提高1分。",
				"如果你的DM使用可选的特技，你可以改用一个特技。"
			]
		},
		{
			"name": "Soul Network",
			"source": "SSW",
			"className": "Spiritual Swordsman",
			"classSource": "SSW",
			"level": 13,
			"entries": [
				"从13级开始，你学会了如何通过自己的灵魂触及其他生物的精神，使你的交流变得完美。",
				"你能理解每一种口语，任何能理解语言的生物都能理解你说的话。"
			]
		},
		{
			"name": "Advanced Superior Manifestation",
			"source": "SSW",
			"className": "Spiritual Swordsman",
			"classSource": "SSW",
			"level": 14,
			"entries": [
				"14级时，你的高级表现力成为高级表现力。"
			]
		},
		{
			"name": "Eternal Spirit",
			"source": "SSW",
			"className": "Spiritual Swordsman",
			"classSource": "SSW",
			"level": 15,
			"entries": [
				"从15级开始，你对精神碎片的频繁吸收使你能接近永恒的精神世界。",
				"你不会衰老，而且对毒药和疾病有免疫力。此外，当你携带任何一种精神武器时，你不需要吃喝。"
			]
		},
		{
			"name": "Ability Score Improvement",
			"source": "SSW",
			"className": "Spiritual Swordsman",
			"classSource": "SSW",
			"level": 16,
			"entries": [
				"当你达到16级时，你可以将你选择的一个能力得分提高2分，或者将你选择的两个能力得分提高1分。",
				"如果你的DM使用可选的特技，你可以改用一个特技。"
			]
		},
		{
			"name": "Spiritual Path Feature",
			"source": "SSW",
			"className": "Spiritual Swordsman",
			"classSource": "SSW",
			"level": 17,
			"entries": [
				"17级时，你从你的精神之路获得一个特性。"
			]
		},
		{
			"name": "Spiritual Pressure",
			"source": "SSW",
			"className": "Spiritual Swordsman",
			"classSource": "SSW",
			"level": 18,
			"entries": [
				"在18级时，你的精神在你被唤醒时对所有希望对你造成伤害的生物发出一种重量感。",
				"当你的精神觉醒处于激活状态时，你会发出一个光环，距离你最多60英尺。进入光环的生物或在那里开始它的回合的生物必须在智慧救赎中成功，否则就会变成（%0%）。受影响的生物可以在他们每个回合结束时重复蓄力，如果成功则结束该效果。一旦成功，生物也会在24小时内对该效果免疫。构造物不受此特征影响。"
			]
		},
		{
			"name": "Ability Score Improvement",
			"source": "SSW",
			"className": "Spiritual Swordsman",
			"classSource": "SSW",
			"level": 19,
			"entries": [
				"当你达到19级时，你可以将你选择的一项能力得分提高2分，或者将你选择的两项能力得分提高1分。",
				"如果你的DM使用可选的特技，你可以改用一个特技。"
			]
		},
		{
			"name": "Perfect Superior Manifestation",
			"source": "SSW",
			"className": "Spiritual Swordsman",
			"classSource": "SSW",
			"level": 20,
			"entries": [
				"在20级时，你的高级表现成为完美的高级表现。"
			]
		}
	],
	"subclassFeature": [
		{
			"name": "Balance Protector",
			"source": "SSW",
			"className": "Spiritual Swordsman",
			"classSource": "SSW",
			"subclassShortName": "Balance Protector",
			"subclassSource": "SSW",
			"level": 3,
			"entries": [
				"在剑客的旅程和冥想中，他与灵魂接触，发现了许多关于精神编织的东西。当他的武器暴露在剑客面前时，它可能会显示出一种深刻的愿望，即保留堕落者的灵魂，并确保他们到达另一个世界，并始终关注平面之间的平衡。",
				"平衡保护者担心把死者的灵魂安全地带到另一个世界，但也有能力操纵这种精神能量来加强他或她的武术技能。",
				{
					"type": "refSubclassFeature",
					"subclassFeature": "Bonus Cantrip|Spiritual Swordsman|SSW|Balance Protector|SSW|3"
				},
				{
					"type": "refSubclassFeature",
					"subclassFeature": "Keeper of Souls|Spiritual Swordsman|SSW|Balance Protector|SSW|3"
				},
				{
					"type": "refSubclassFeature",
					"subclassFeature": "Balance Manifest|Spiritual Swordsman|SSW|Balance Protector|SSW|3"
				}
			]
		},
		{
			"name": "Bonus Cantrip",
			"entries": [
				"当你在3级选择这条道路时，你学会了（%0%）的咒语。智慧是你对它的施法能力。"
			],
			"source": "SSW",
			"className": "Spiritual Swordsman",
			"classSource": "SSW",
			"subclassShortName": "Balance Protector",
			"subclassSource": "SSW",
			"level": 3,
			"header": 1
		},
		{
			"name": "Keeper of Souls",
			"entries": [
				"当你在3级选择这条道路时，你发现你的精神武器有储存精神碎片的能力，并将它们作为你能力的燃料。你获得了2个灵魂槽。这些插槽可以用来使用平衡保护者的一些能力。每当你完成一次短期或长期的休息，以及当你将一个生物的命中率降低到0时，你会重新获得一个已花费的灵魂槽。",
				"你最多有两个灵魂槽，当你达到11级时增加到三个灵魂槽。",
				"当你至少有一个灵魂槽时，你的灵魂觉醒伤害会变成武力伤害。"
			],
			"source": "SSW",
			"className": "Spiritual Swordsman",
			"classSource": "SSW",
			"subclassShortName": "Balance Protector",
			"subclassSource": "SSW",
			"level": 3,
			"header": 1
		},
		{
			"name": "Balance Manifest",
			"entries": [
				"同样在第三级，你的灵性武器的保护性启示表现出一些特殊性。",
				"你获得一个你选择的精神表现。它不计入你所知道的精神表现形式的数量，而且必须是需要平衡保护者的路径的表现形式。",
				"你在7h和14级时通过这种方式获得其他的表现形式。"
			],
			"source": "SSW",
			"className": "Spiritual Swordsman",
			"classSource": "SSW",
			"subclassShortName": "Balance Protector",
			"subclassSource": "SSW",
			"level": 3,
			"header": 1
		},
		{
			"name": "Beacon of Crossing",
			"source": "SSW",
			"className": "Spiritual Swordsman",
			"classSource": "SSW",
			"subclassShortName": "Balance Protector",
			"subclassSource": "SSW",
			"level": 6,
			"header": 2,
			"entries": [
				"从6级开始，每当你身边10英尺内的生物死亡，你会获得相当于你灵剑士等级一半的临时命中率。在14级时，这个功能的范围变成30英尺。"
			]
		},
		{
			"name": "Spectral Vitality",
			"source": "SSW",
			"className": "Spiritual Swordsman",
			"classSource": "SSW",
			"subclassShortName": "Balance Protector",
			"subclassSource": "SSW",
			"level": 11,
			"header": 2,
			"entries": [
				"在11级时，你变得能够使用你所穿越的灵魂的碎片来强化自己。",
				"每当你救赎失败时，你可以花费一个灵魂槽并重复救赎。你必须使用新的结果。"
			]
		},
		{
			"name": "Bridge to the Beyond",
			"source": "SSW",
			"className": "Spiritual Swordsman",
			"classSource": "SSW",
			"subclassShortName": "Balance Protector",
			"subclassSource": "SSW",
			"level": 17,
			"header": 2,
			"entries": [
				"从第17层开始，你的精神成为灵魂用来穿越到另一个世界的主要途径。",
				"当你启动你的精神觉醒时，你会发出一个30英尺的幽灵光环。在光环中选择一定数量的生物，最多为1+你的智慧修正值（最少为1）。当你的精神觉醒保持有效时，被选择的生物如果在光环内，就会对打击、穿刺和砍击伤害产生抵抗。另外，每当光环内的生物被降低到0点命中率时，你就会重新获得一个灵魂槽。"
			]
		},
		{
			"name": "Elemental Blade",
			"source": "SSW",
			"className": "Spiritual Swordsman",
			"classSource": "SSW",
			"subclassShortName": "Elemental Blade",
			"subclassSource": "SSW",
			"level": 3,
			"entries": [
				"有一些剑士的精神可以达到其他位面的基础。这些剑客的武器吸收了从元素界游荡到空灵界的精神碎片，当他们的精神在剑客面前显露出来时，他们就会显示出控制这些界的元素能量的能力。",
				"元素之刃能够使用来自元素界的精神能量来控制自然界的精神，操纵天气并释放来自空气、地球、火和水界的能量。",
				{
					"type": "refSubclassFeature",
					"subclassFeature": "Elemental Attunement|Spiritual Swordsman|SSW|Elemental Blade|SSW|3"
				},
				{
					"type": "refSubclassFeature",
					"subclassFeature": "Elemental Manifest|Spiritual Swordsman|SSW|Elemental Blade|SSW|3"
				}
			]
		},
		{
			"name": "Elemental Attunement",
			"entries": [
				"当你在3级时选择这条道路，你就有能力将你的精神武器与元素界相调和。每当你完成一次短期或长期的休息，你必须在空气、地球、火或水之间做出选择。你的精神武器会与该元素相适应，直到你下一次休息结束。",
				"当你携带任何一件灵力武器时，你会根据所调和的元素知道一个咒语，你可以通过你的灵力武器来施放它。同时，你的精神觉醒伤害也会根据你的调和元素而改变，如下表所示。",
				{
					"type": "table",
					"colLabels": [
						"Element",
						"Cantrip",
						"Awakening Damage"
					],
					"rows": [
						[
							"Air",
							"{@spell Gust|XGE}",
							"电动"
						],
						[
							"地球",
							"{@spell Mold Earth|XGE}",
							"Acid"
						],
						[
							"Fire",
							"{@spell Control Flames|XGE}",
							"Fire"
						],
						[
							"水",
							"{@spell Shape Water|XGE}",
							"Cold"
						]
					]
				}
			],
			"source": "SSW",
			"className": "Spiritual Swordsman",
			"classSource": "SSW",
			"subclassShortName": "Elemental Blade",
			"subclassSource": "SSW",
			"level": 3,
			"header": 1
		},
		{
			"name": "Elemental Manifest",
			"entries": [
				"同样在第三层，你的灵力武器的元素启示表现出一些特殊性。",
				"你获得一个你选择的精神表现。它不计入你所知道的精神表现形式的数量，而且必须是需要元素之刃路径的表现形式。",
				"你在7h和14级时通过这种方式获得其他的表现形式。"
			],
			"source": "SSW",
			"className": "Spiritual Swordsman",
			"classSource": "SSW",
			"subclassShortName": "Elemental Blade",
			"subclassSource": "SSW",
			"level": 3,
			"header": 1
		},
		{
			"name": "Elemental Armor",
			"source": "SSW",
			"className": "Spiritual Swordsman",
			"classSource": "SSW",
			"subclassShortName": "Elemental Blade",
			"subclassSource": "SSW",
			"level": 6,
			"header": 2,
			"entries": [
				"从6级开始，每当你受到你所调和的元素类型的伤害时，你可以使用你的反应来获得对那种伤害的抵抗，直到你下一个回合开始。",
				"此外，当你的精神觉醒处于活动状态时，每当一个生物用近战攻击击中你时，你可以让它受到与你的精神觉醒伤害相等的调和元素类型的伤害。造成此伤害后，你只能在下一回合结束后再次造成此伤害。"
			]
		},
		{
			"name": "Amplified Power",
			"source": "SSW",
			"className": "Spiritual Swordsman",
			"classSource": "SSW",
			"subclassShortName": "Elemental Blade",
			"subclassSource": "SSW",
			"level": 11,
			"header": 2,
			"entries": [
				"11级时，你的攻击和法术无视对酸、冷、电和火伤害的抵抗。"
			]
		},
		{
			"name": "Spirit of the Elements",
			"source": "SSW",
			"className": "Spiritual Swordsman",
			"classSource": "SSW",
			"subclassShortName": "Elemental Blade",
			"subclassSource": "SSW",
			"level": 17,
			"header": 2,
			"entries": [
				"在17级时，你获得对你所调和的元素类型的伤害的抗性，而且你的元素盔甲特征现在赋予你对该伤害的免疫力而不是抗性。",
				"另外，当你的灵魂觉醒处于活动状态时，你可以将你的灵魂与另一个生物的灵魂相连，以克服它的抵抗力。作为你回合中的额外行动，你可以在离你30英尺的地方标记一个你能看到的生物，或者你用灵魂的真诚特征感应到的生物。",
				"只要你的精神觉醒持续，你对被标记的生物的伤害卷就会对你所调和的元素类型的伤害免疫，就像对该伤害的抵抗一样。此外，每当被标记的生物受到你的元素盔甲的伤害时，它就会受到最大的伤害。",
				"在你用这种方式标记一个生物后，只有在你完成短暂或长时间的休息后，你才能再次这样做。"
			]
		},
		{
			"name": "Guided Spirit",
			"source": "SSW",
			"className": "Spiritual Swordsman",
			"classSource": "SSW",
			"subclassShortName": "Guided Spirit",
			"subclassSource": "SSW",
			"level": 3,
			"entries": [
				"灵性剑士一般都成为近战高手，专注于在刀剑的距离上与对手决斗。然而，也有一些人发现他们与精神武器的联系超过了物理障碍，并在这种遥远的联系中获得力量。",
				"导灵剑士将他或她的精神训练集中在通过他与武器的联系来操纵他的武器，能够控制它并操纵它的能量而不需要直接接触。",
				{
					"type": "refSubclassFeature",
					"subclassFeature": "Spiritual Thrower|Spiritual Swordsman|SSW|Guided Spirit|SSW|3"
				},
				{
					"type": "refSubclassFeature",
					"subclassFeature": "Precise Manifest|Spiritual Swordsman|SSW|Guided Spirit|SSW|3"
				}
			]
		},
		{
			"name": "Spiritual Thrower",
			"entries": [
				"在3D级别，当你选择这条道路时，你会发现你的灵性武器有可能弯曲周围的灵性编织物，使它们能够在一定距离内盘旋或被投掷。",
				"只要你的精神武器没有重型或双手属性，它就会获得投掷属性，范围为20/60英尺。此外，你的武器能够盘旋在你身边，而不需要你用一只手拿着它。",
				"另外，当你的精神觉醒处于激活状态时，每当你用你的精神武器进行远程攻击时，攻击范围会增加一倍。"
			],
			"source": "SSW",
			"className": "Spiritual Swordsman",
			"classSource": "SSW",
			"subclassShortName": "Guided Spirit",
			"subclassSource": "SSW",
			"level": 3,
			"header": 1
		},
		{
			"name": "Precise Manifest",
			"entries": [
				"同样在第三层，与你的精神武器的遥远联系的启示表现出一些特殊性。",
				"你获得一个你选择的精神表现。它不计入你所知道的精神表现的数量，而且必须是一个需要导引之灵路径的表现。",
				"你在7h和14级时通过这种方式获得其他的表现形式。"
			],
			"source": "SSW",
			"className": "Spiritual Swordsman",
			"classSource": "SSW",
			"subclassShortName": "Guided Spirit",
			"subclassSource": "SSW",
			"level": 3,
			"header": 1
		},
		{
			"name": "Keep at Distance",
			"source": "SSW",
			"className": "Spiritual Swordsman",
			"classSource": "SSW",
			"subclassShortName": "Guided Spirit",
			"subclassSource": "SSW",
			"level": 6,
			"header": 2,
			"entries": [
				"从6级开始，每当一个生物在离你5英尺处完成它的回合时，你可以立即使用你的反应来移动到你速度的一半，而不会引起机会攻击。"
			]
		},
		{
			"name": "Eagle Eyes",
			"source": "SSW",
			"className": "Spiritual Swordsman",
			"classSource": "SSW",
			"subclassShortName": "Guided Spirit",
			"subclassSource": "SSW",
			"level": 11,
			"header": 2,
			"entries": [
				"从第11级开始，你与精神世界的联系使你始终保持警觉，能够从远处察觉到危险。",
				"你在主动性卷轴上有优势，只要你不是{@condition blinded}或{@condition deafened}，就不会被惊讶。此外，当你的任何精神武器离你至少5英尺时，你的被动智慧（感知）有+5的奖励。"
			]
		},
		{
			"name": "Master of Guided Manipulation",
			"source": "SSW",
			"className": "Spiritual Swordsman",
			"classSource": "SSW",
			"subclassShortName": "Guided Spirit",
			"subclassSource": "SSW",
			"level": 17,
			"header": 2,
			"entries": [
				"在17级时，你的精神武器的辛特尼使你的远程攻击变得更加致命和强大。",
				"如果一个敌对的生物在离你5英尺以内，你用你的精神武器进行远程攻击时不再有劣势。此外，当你的精神觉醒处于激活状态时，在滚动主动权后对一个生物的第一次攻击命中被认为是一个关键命中。"
			]
		},
		{
			"name": "Soul Reaper",
			"source": "SSW",
			"className": "Spiritual Swordsman",
			"classSource": "SSW",
			"subclassShortName": "Soul Reaper",
			"subclassSource": "SSW",
			"level": 3,
			"entries": [
				"有时，当剑客与武器的联系变得更加紧密时，武器会显示出自己是一个灵魂收割者，肩负着把灵魂带到来世的重任。",
				"灵魂收割者的目标是收割和净化堕落者的灵魂，在这个过程中强化自己，同时也平衡精神织体。收割者做得很精确，利用来自灵魂和黑暗本身的阴影能量来策划激烈的伏击和攻击，让最无畏的生物都感到胆寒。",
				{
					"type": "refSubclassFeature",
					"subclassFeature": "Shadowed Spirit|Spiritual Swordsman|SSW|Soul Reaper|SSW|3"
				},
				{
					"type": "refSubclassFeature",
					"subclassFeature": "Dark Manifest|Spiritual Swordsman|SSW|Soul Reaper|SSW|3"
				}
			]
		},
		{
			"name": "Shadowed Spirit",
			"entries": [
				"从你在3级时选择这条道路开始，你的精神变得能够利用环境的阴影来改变你在这个世界上的存在，将你从你的猎物面前隐藏起来。",
				"当你在昏暗的光线或黑暗中时，你可以使用一个动作来隐身，直到你进行攻击、施法或与一个没有被你携带的物体互动。如果你离开了昏暗的光线或黑暗的区域，隐身状态会在你的回合结束时结束。"
			],
			"source": "SSW",
			"className": "Spiritual Swordsman",
			"classSource": "SSW",
			"subclassShortName": "Soul Reaper",
			"subclassSource": "SSW",
			"level": 3,
			"header": 1
		},
		{
			"name": "Dark Manifest",
			"entries": [
				"同样在第三级，你的精神武器的黑暗启示表现出一些特殊性。当你的精神觉醒处于激活状态时，你的精神觉醒伤害会变成坏死性伤害。",
				"你还会获得一个你选择的精神表现。它不计入你所知道的精神表现形式的数量，而且必须是需要灵魂收割者之路的表现形式。",
				"你在7h和14级时通过这种方式获得其他的表现形式。"
			],
			"source": "SSW",
			"className": "Spiritual Swordsman",
			"classSource": "SSW",
			"subclassShortName": "Soul Reaper",
			"subclassSource": "SSW",
			"level": 3,
			"header": 1
		},
		{
			"name": "Vital Drain",
			"source": "SSW",
			"className": "Spiritual Swordsman",
			"classSource": "SSW",
			"subclassShortName": "Soul Reaper",
			"subclassSource": "SSW",
			"level": 6,
			"header": 2,
			"entries": [
				"从6级开始，每当你用你的精神武器近身攻击击中一个生物时，你可以强迫它做一个宪法救赎。如果救赎失败，它将受到0%的坏死伤害，如果救赎成功，将受到一半的伤害。你重新获得的命中率相当于这样造成的伤害的一半。如果以这种方式获得的命中率超过你的最大命中率，你将获得临时命中率的差值。伤害在10级时增加到{@dice 4d6}，在16级时增加到{@dice 5d6}。",
				"在你使用这个功能后，你必须完成短暂或长时间的休息才能再次使用它。"
			]
		},
		{
			"name": "Shadow Door",
			"source": "SSW",
			"className": "Spiritual Swordsman",
			"classSource": "SSW",
			"subclassShortName": "Soul Reaper",
			"subclassSource": "SSW",
			"level": 11,
			"header": 2,
			"entries": [
				"在11级时，通过你的精神武器与黑暗的亲密关系，你变得能够在阴影中穿行。",
				"当你的精神觉醒处于激活状态时，你可以使用一个动作来被阴影所包围，并进入空灵界。你会获得{@spell etherealness}法术的好处，但你看到的物质界是绿色的，而不是灰色的，而且光源会变得比平时更亮。在空灵界时，你的速度也会翻倍。这些好处持续到你的回合结束。"
			]
		},
		{
			"name": "Marked for Death",
			"source": "SSW",
			"className": "Spiritual Swordsman",
			"classSource": "SSW",
			"subclassShortName": "Soul Reaper",
			"subclassSource": "SSW",
			"level": 17,
			"header": 2,
			"entries": [
				"17级时，你可以标记一个生物，让它被你的精神武器收割，揭示它的弱点。",
				"作为一个行动，选择一个你能看到或感觉到的敌对生物。该生物会被你的精神武器标记。当标记处于激活状态时，你在智慧（感知）和智慧（生存）的检查中具有优势，可以找到该生物，并在用你的精神武器攻击它时具有优势。另外，每回合一次，当你用你的精神武器攻击到被标记的生物时，你会造成相当于你的智慧修饰值的额外坏死伤害（最小值为0）。",
				"如果你用你的任何灵性武器将一个被标记的生物降低到0命中率，该生物的身体会在灵性残骸中碎裂，被你吸收，使你重新获得与你的灵性剑士等级相等的命中率。如果以这种方式获得的命中率超过你的最大命中率，你将获得临时命中率的差额。",
				"当被标记的生物死亡时，或者当你标记另一个生物时，或者当你使用一个行动提前结束它时，标记就会结束。这个特性对构造物没有效果。"
			]
		}
	],
	"subclass": [
		{
			"name": "Balance Protector",
			"spellcastingAbility": "wis",
			"additionalSpells": [
				{
					"prepared": {
						"3": [
							"spare the dying#c"
						]
					}
				}
			],
			"subclassFeatures": [
				"Balance Protector|Spiritual Swordsman|SSW|Balance Protector|SSW|3",
				"Beacon of Crossing|Spiritual Swordsman|SSW|Balance Protector|SSW|6",
				"Spectral Vitality|Spiritual Swordsman|SSW|Balance Protector|SSW|11",
				"Bridge to the Beyond|Spiritual Swordsman|SSW|Balance Protector|SSW|17"
			],
			"source": "SSW",
			"shortName": "Balance Protector",
			"className": "Spiritual Swordsman",
			"classSource": "SSW"
		},
		{
			"name": "Elemental Blade",
			"spellcastingAbility": "wis",
			"additionalSpells": [
				{
					"prepared": {
						"3": [
							"gust|xge#c",
							"mold earth|xge#c",
							"control flames|xge#c",
							"shape water|xge#c"
						]
					}
				}
			],
			"subclassFeatures": [
				"Elemental Blade|Spiritual Swordsman|SSW|Elemental Blade|SSW|3",
				"Elemental Armor|Spiritual Swordsman|SSW|Elemental Blade|SSW|6",
				"Amplified Power|Spiritual Swordsman|SSW|Elemental Blade|SSW|11",
				"Spirit of the Elements|Spiritual Swordsman|SSW|Elemental Blade|SSW|17"
			],
			"source": "SSW",
			"shortName": "Elemental Blade",
			"className": "Spiritual Swordsman",
			"classSource": "SSW"
		},
		{
			"name": "Guided Spirit",
			"subclassFeatures": [
				"Guided Spirit|Spiritual Swordsman|SSW|Guided Spirit|SSW|3",
				"Keep at Distance|Spiritual Swordsman|SSW|Guided Spirit|SSW|6",
				"Eagle Eyes|Spiritual Swordsman|SSW|Guided Spirit|SSW|11",
				"Master of Guided Manipulation|Spiritual Swordsman|SSW|Guided Spirit|SSW|17"
			],
			"source": "SSW",
			"shortName": "Guided Spirit",
			"className": "Spiritual Swordsman",
			"classSource": "SSW"
		},
		{
			"name": "Soul Reaper",
			"subclassFeatures": [
				"Soul Reaper|Spiritual Swordsman|SSW|Soul Reaper|SSW|3",
				"Vital Drain|Spiritual Swordsman|SSW|Soul Reaper|SSW|6",
				"Shadow Door|Spiritual Swordsman|SSW|Soul Reaper|SSW|11",
				"Marked for Death|Spiritual Swordsman|SSW|Soul Reaper|SSW|17"
			],
			"source": "SSW",
			"shortName": "Soul Reaper",
			"className": "Spiritual Swordsman",
			"classSource": "SSW"
		}
	]
}
