{
	"$schema": "https://raw.githubusercontent.com/TheGiddyLimit/5etools-utils/master/schema/brew-fast/homebrew.json",
	"_meta": {
		"sources": [
			{
				"json": "DLRG",
				"abbreviation": "DLRG",
				"full": "Ritual Grafting: A Guide to Ritual Grafting and its uses for the 5e Eberron setting",
				"authors": [
					"D. Larson",
					"Paper Druid Publishing"
				],
				"convertedBy": [
					"p4535992"
				],
				"version": "2019.01.01",
				"color": "771717",
				"url": "https://www.dmsguild.com/product/263060/Ritual-Grafting",
				"targetSchema": "1.9.2"
			}
		],
		"optionalFeatureTypes": {
			"OF:DLRG": "Grafts"
		},
		"dateAdded": 1604991176,
		"dateLastModified": 1705266948,
		"_dateLastModifiedHash": "0e282e0bf6"
	},
	"optionalfeature": [
		{
			"name": "Deathless Fleshgrafter",
			"source": "DLRG",
			"page": 3,
			"featureType": [
				"OF:DLRG"
			],
			"prerequisite": [
				{
					"race": [
						{
							"name": "Elf (Aereni)"
						},
						{
							"name": "Elf (High)"
						}
					],
					"level": {
						"level": 5
					},
					"other": "Proficiency in Religion"
				}
			],
			"entries": [
				"你可以培育和移植无死亡生物的组织和身体部位到其他人身上，赋予接受你移植的人新的、强大的能力。",
				{
					"name": "Prerequisites",
					"type": "entries",
					"entries": [
						"Aereni精灵，施法者等级5，精通宗教。"
					]
				},
				{
					"name": "Benefit",
					"type": "entries",
					"entries": [
						"你可以创建并附加任何你符合前提条件的免死嫁衣（具体要求见各嫁衣）。",
						"一个拥有至少两个无死角移植的角色在对毒药或疾病的救治上获得优势。拥有三个移植物的人物可以获得对毒药和疾病伤害的抵抗力。一旦人物接受了他们的第四次移植，他们就会对毒药和疾病完全免疫，而且除了第五次移植本身所赋予的能力外，第五次移植也没有进一步的奖励了。"
					]
				}
			]
		},
		{
			"name": "Elemental Grafter",
			"source": "DLRG",
			"page": 5,
			"featureType": [
				"OF:DLRG"
			],
			"prerequisite": [
				{
					"level": {
						"level": 5
					},
					"other": "Proficiency in Arcana,"
				}
			],
			"entries": [
				"你可以创造并附着任何你符合前提条件的元素嫁接。",
				"一个拥有至少两个相同种类的元素移植（空气、土、水或火）的角色会获得一个特别的好处，但前提是他们没有一个对立元素的移植。",
				{
					"name": "Prerequisites",
					"type": "entries",
					"entries": [
						"精通奥术，施法者等级5级。"
					]
				},
				{
					"name": "Benefit",
					"type": "entries",
					"entries": [
						"你可以创造并附着任何你符合前提条件的元素嫁接。",
						"一个拥有至少两个相同种类的元素移植（空气、土、水或火）的角色会获得一个特别的好处，但前提是他们没有一个对立元素的移植。",
						{
							"type": "list",
							"items": [
								"一个拥有至少两个空气移植物（而没有土移植物）的角色，只要他们没有穿重甲或装备，每一个移植物都能获得额外的5英尺移动距离。",
								"一个拥有至少两个土移植（没有水移植）的角色，每一个移植都会获得+1 AC。",
								"一个拥有至少两个火植体（没有水植体）的角色在灵巧救赎和主动性方面获得优势。",
								"一个拥有至少两个水移植（没有火移植）的角色会获得30英尺的游泳速度--如果角色已经拥有游泳速度，他反而会在每个水移植中增加5英尺的游泳速度。"
							]
						},
						"一个角色可以拥有不同类型的移植物，比如一个是火的，一个是水的，并获得它们各自的效果，他们只是错过了上述的好处。"
					]
				}
			]
		},
		{
			"name": "Eldeen Plantgrafter",
			"source": "DLRG",
			"page": 8,
			"featureType": [
				"OF:DLRG"
			],
			"prerequisite": [
				{
					"level": {
						"level": 5
					},
					"other": "Proficiency in Nature"
				}
			],
			"entries": [
				"你可以创造并将植物移植到他人身上，赋予接受你移植的人新的、强大的能力。",
				{
					"name": "Prerequisites",
					"type": "entries",
					"entries": [
						"精通自然，施法者等级5级。"
					]
				},
				{
					"name": "Benefit",
					"type": "entries",
					"entries": [
						"你可以创造并附着任何你满足前提条件的植物嫁接。",
						"一个拥有至少两种植物移植的人物，在面对改变心智的效果时，在智慧救赎上有优势。"
					]
				}
			]
		}
	],
	"table": [
		{
			"name": "Deathless Grafts",
			"source": "DLRG",
			"page": 2,
			"colLabels": [
				"Deathless Grafts",
				"Price"
			],
			"colStyles": [
				"col-6 text-center",
				"col-6 text-left"
			],
			"rows": [
				[
					"不朽的行者之腿",
					"6,000 gp"
				],
				[
					"祖先的手臂",
					"6,500 gp"
				],
				[
					"接骨板",
					"8,000 gp"
				],
				[
					"无死角的面孔",
					"30,000 gp"
				],
				[
					"无死角的肉体",
					"31,000 gp"
				]
			]
		},
		{
			"name": "Elemental Grafts",
			"source": "DLRG",
			"page": 2,
			"colLabels": [
				"Elemental Grafts",
				"Price"
			],
			"colStyles": [
				"col-6 text-center",
				"col-6 text-left"
			],
			"rows": [
				[
					"石家庄电镀",
					"2,800 gp"
				],
				[
					"震颤嫁接",
					"5,000 gp"
				],
				[
					"尘埃表格",
					"7,000 gp"
				],
				[
					"炙热的目光",
					"7,000 gp"
				],
				[
					"海洋的适应性",
					"8,500 gp"
				],
				[
					"海浪的呼吸",
					"9,000 gp"
				],
				[
					"水性体",
					"11,000 gp"
				],
				[
					"自助餐的拳头",
					"13,000 gp"
				],
				[
					"火焰之手",
					"13,500 gp"
				],
				[
					"炽热的皮肤",
					"17,500 gp"
				],
				[
					"元素的肉体",
					"31,000 gp"
				],
				[
					"旋风形式",
					"59,000 gp"
				],
				[
					"地球滑翔机",
					"110,500 gp"
				]
			]
		},
		{
			"name": "Plant Grafts",
			"source": "DLRG",
			"page": 3,
			"colLabels": [
				"Plant Grafts",
				"Price"
			],
			"colStyles": [
				"col-6 text-center",
				"col-6 text-left"
			],
			"rows": [
				[
					"树皮甲壳",
					"3,600 gp"
				],
				[
					"感知种子",
					"4,600 gp"
				],
				[
					"擒拿手藤条",
					"7,800 gp"
				],
				[
					"根脚",
					"7,500 gp"
				],
				[
					"疲劳孢子",
					"12,000 gp"
				],
				[
					"黑森林的肉体",
					"19,000 gp"
				],
				[
					"愈合结节",
					"21,000 gp"
				]
			]
		}
	],
	"book": [
		{
			"name": "Ritual Grafting: A Guide to Ritual Grafting and its uses for the 5e Eberron setting",
			"id": "DLRG",
			"source": "DLRG",
			"cover": {
				"type": "external",
				"url": "https://d1vzi28wh99zvq.cloudfront.net/images/8957/263060-thumb140.png"
			},
			"published": "2021-07-23",
			"group": "homebrew",
			"contents": [
				{
					"name": "Introduction to Grafting",
					"headers": [
						"Creating Grafts"
					],
					"ordinal": {
						"type": "chapter",
						"identifier": 1
					}
				},
				{
					"name": "Deathless Grafts",
					"headers": [
						"Arms of the Ancestor",
						"Bone Plating",
						"Deathless Flesh",
						"Deathless Visage",
						"Legs of the Undying Marcher"
					],
					"ordinal": {
						"type": "chapter",
						"identifier": 2
					}
				},
				{
					"name": "Elemental Grafts",
					"headers": [
						"Aqueous Body [Water]",
						"Breath of the Waves [Water]",
						"Buffeting Fists [Air]",
						"Dust Form [Air]",
						"Earth Glider [Earth]",
						"Elemental Flesh [Any]",
						"Hands of Flame [Fire]",
						"Incendiary Skin [Fire]",
						"Oceanic Adaptation [Water]",
						"Scorching Gaze [Fire]",
						"Stony Plating [Earth]",
						"Tremor Graft [Earth]",
						"Whirlwind Form [Air]"
					],
					"ordinal": {
						"type": "chapter",
						"identifier": 3
					}
				},
				{
					"name": "Plant Grafts",
					"headers": [
						"Healing Nodules",
						"Darkwood Flesh",
						"Fatigue Spores",
						"Grappling Vine",
						"Perception Seed",
						"Rootlegs",
						"Treebark Carapace"
					],
					"ordinal": {
						"type": "chapter",
						"identifier": 4
					}
				},
				{
					"name": "Credit",
					"ordinal": {
						"type": "chapter",
						"identifier": 5
					}
				}
			]
		}
	],
	"bookData": [
		{
			"id": "DLRG",
			"source": "DLRG",
			"data": [
				{
					"type": "section",
					"name": "Introduction to Grafting",
					"page": 2,
					"entries": [
						"在许多奇幻和科幻的rpg世界中，修改和改变自己身体的愿望是一种流行的观念，随着5e中重新引入（%0%），我注意到了移植的缺乏，并决定尝试自己转换它们",
						"魔法嫁接系统的理念是，一个人有能力（只要他们采取适当的特技）从现有的、愿意的生物中抽取一部分，并将其移植到自己的身体上，或移植到另一个生物的身体上，以这样的方式修改它，使其提供某种奖励或能力。",
						"嫁接的想法在一些社会中是不受欢迎的，当然也不便宜，但随着技术的进步和时间的推移，嫁接过程的危险性已经大大降低。",
						"嫁接过程有一定的规则，不能破坏。",
						{
							"type": "list",
							"items": [
								"{@b Grafts can only be created and applied by someone who has taken the appropriate feat.}与魔法物品的创造不同，这在理论上是相似的，移植物的创造者必须能够在微小的范围内非常精细地操纵生物能量。以下功法允许玩家使用这种魔法：{@i {@optfeature Deathless Fleshgrafter|DLRG}}、{@i {@optfeature Eldeen Plantgrafter|DLRG}}和{@i {@optfeature Elemental Grafter|DLRG}}。",
								"{@b An individual may only have a total of five grafts grown on their body, and all such grafts have to be of the same type.}就像玩家只能适应这么多的魔法物品一样，在被生物魔法信号淹没之前，身体只能承受这么多的增强，这往往会导致疯狂，有时甚至死亡。身体的任何部分（头部、腿部、皮肤、肉体和手臂）都不能支持一个以上的移植，而且任何个人都不能拥有两种不同类型的移植（无死亡、元素或植物）。",
								"{@b Using a graft requires sacrifice from the host to be successful.} 移植会对宿主的身体造成伤害，在大多数情况下，它只对宿主的总命中率产生轻微的负面影响。一些较难应用的移植物有较重的代价，如永久的能力分数降低，或在某些救赎或检查中造成永久的不利条件。这些代价在移植物被穿戴时是无法绕过的，而且移植物只能由能够应用它们的同一个人移除。",
								"{@b All grafts must come from a donor creature, or from tissues taken from one or more in a laboratory setting.}如果取自捐赠者，所给的组织在应用于宿主时必须不超过七天。",
								"{@b Grafts can be difficult to remove.}嫁接物本身没有统计资料，而且不能与被嫁接的生物分开成为目标或被损坏。拥有适当特技的角色可以安全地移除移植体，但需要在安静的环境中工作8小时。如果没有适当的特技，只能通过移除附着在身体上的部分来移除嫁接物，但以这种方式移除的嫁接物会立即死亡。同样地，如果一个有嫁接物的角色被杀，嫁接物也会随他们而死。",
								"{@b A graft is not a magical item.}一旦完成，它不会释放出魔法能量（尽管在建造嫁接物时可能需要法术），而且它不会像魔法物品那样占用一个体位。嫁接物不受驱散魔法或反魔法领域等法术的影响。"
							]
						},
						{
							"type": "entries",
							"name": "Creating Grafts",
							"page": 2,
							"entries": [
								"与切除移植物类似，创建一个移植物也需要在安静、舒适的环境中工作8小时，并需要供应材料（包括捐赠的组织）。材料供应的费用包括在移植物的制作费用中。",
								"否则，创造移植物与制作魔法品质的物品非常相似，包括创造的成本、所需的时间、法术的准备和组件的支出。与一些魔法物品不同，移植物不需要在多日内制作完成--制作者可以在这里和那里花一天时间来照料实验室培育的组织移植物，但在花完所需的总时间之前，它不会发挥作用。此外，角色在不完整的移植体上花费的时间不能超过一周，否则它就会死亡，而且角色将损失一部分创造移植体所涉及的gp成本，相当于在它死亡前花费的时间。",
								"一个角色必须在每一天的嫁接过程中花费8小时。如果不这样做，不会导致组件或金币的损失，但这一天的工作是浪费的。",
								{
									"type": "entries",
									"name": "Grafts",
									"page": 2,
									"entries": [
										"{@table Deathless Grafts|DLRG}",
										"{@table Elemental Grafts|DLRG}",
										"{@table Plant Grafts|DLRG}"
									]
								}
							]
						}
					]
				},
				{
					"type": "section",
					"name": "Deathless Grafts",
					"page": 3,
					"entries": [
						"将不死之身的肉体移植到有价值的精灵英雄身上的艺术，长期以来一直是艾瑞纳精灵文化的一部分，他们是艾伯伦上唯一已知的掌握这项技艺的群体，直到最近。",
						"创造无死角移植物的目的不止一个，其中之一是艾瑞纳的不朽守护者需要知道哪些特定的精灵值得拥有无死角的力量和责任。这些移植物也被用来作为少数勇敢的精灵的荣誉徽章，他们为自己的国家而战，令人钦佩。",
						"艾瑞尼人通过使用自愿捐献的无死亡者的肉体来创造移植物，但众所周知，秘密的小集团为自己的移植物目的而种植和收获肉体和骨骼。",
						"无死亡移植物遵循上述移植物的一般规则。增加一个无死亡移植物需要获得{@i {@optfeature Deathless Fleshgrafter|DLRG}}的特技。",
						{
							"type": "entries",
							"name": "Arms of the Ancestor",
							"page": 3,
							"entries": [
								"一个不朽的祖先的手臂上的肉被移植到你自己的手臂上。你获得了它巨大力量的好处，以及引导正能量达到有益或有害目的的能力。",
								"{@b Graft Location.} Arms.",
								"{@b Description.} 你的一只手臂与你其他的外表不协调，它被不死的祖先的不死之肉所覆盖。现在，祖先的手臂绷得紧紧的，呈尸白色，肉质枯萎，触摸起来很干燥，但这种外表掩盖了巨大的力量。你的手指很长，几乎是骨架，手臂上有干燥和灰尘的坟墓的气味。",
								"{@b Activation.}手臂可以引导正能量作为一个标准动作，可以治疗活人或伤害亡灵。两者都需要一个近战的接触。",
								"{@b Effect.}祖先的手臂使你在攀爬和游泳检查中获得优势，在抓取时获得优势，并且由这只手臂挥舞的任何武器在其伤害卷上获得+1。",
								"除此以外，你可以触摸一个生物来赋予其有益或有害的效果。你触摸的生物获得3（1d6）个临时命中率，而亡灵生物则受到3（1d6）个辐射伤害。这种效果在短暂的休息后会重新充电。",
								"{@b Sacrifice.}添加这种嫁接物会造成身体上的损失，使你的触觉麻木，并使新的手臂不如你所习惯的那样灵活。因此，你的灵巧评分为-1。",
								"{@b Construction.}需要{@i {@optfeature Deathless Fleshgrafter|DLRG}}，{@spell Enhance Ability|PHB}法术(在创造过程中给予嫁接者公牛的力量能力)，3250金币，和9天。",
								"{@b Graft Donor.}来自无死亡生物的手臂的肉体。",
								"{@b Graft Sacrifice.} -4 hp, -1 Dexterity。",
								"{@b Price.} 6,500 gp."
							]
						},
						{
							"type": "entries",
							"name": "Bone Plating",
							"page": 3,
							"entries": [
								"你的皮肤是用从一个受尊敬的无死亡者身上提取的样本生长出来的骨片硬化的。因此，你的弱点现在被一个保护性的骨质层所覆盖。",
								"{@b Graft Location.} Skin.",
								"{@b Description.} 薄而结实的骨骼层覆盖着你的皮肤。骨头是淡白色的，延伸到从你的锁骨到你的脚踝的每一个脆弱区域。骨头镀层触摸起来很光滑，它随着你的动作移动，丝毫不妨碍你的动作。骨板和你的皮肤是一个没有特征的表面；没有人能够告诉你一个在哪里结束，另一个在哪里开始。",
								"{@b Activation.}一旦移植体安装完毕，骨板就会一直发挥作用。使用它不需要你的任何行动。",
								"{@b Effect.}你的护甲自然提高了1。因为嫁接提高了你的自然护甲，所以它与法术（如{@spell Barkskin}法术）完全叠加。",
								"镀骨也提供对冷损伤的抵抗力，无论其来源如何。",
								"{@b Construction.}需要{@i {@optfeature Deathless Fleshgrafter|DLRG}}, 3,700 gp, 和9天。",
								"{@b Graft Donor.} 一块来自无死亡生物的骨头。",
								"{@b Graft Sacrifice.} -4 hp.",
								"{@b Price.} 8,000 gp."
							]
						},
						{
							"type": "entries",
							"name": "Deathless Flesh",
							"page": 3,
							"entries": [
								"这种嫁接物与你全身的肌肉和皮下组织融合，使你的肉体具有不死之身的弹性。你对伤害的抵抗力变得更强，你可以甩掉通常会让你这种体型的生物掉下来的打击。",
								"{@b Graft Location.} 肉体。",
								"{@b Description.} 不死的肉体使你的身体看起来更轻微，甚至更虚弱。你的肌肉在你的皮肤下显得几乎萎缩，皮肤呈现出一种死亡般的苍白。",
								"{@b Activation.}一旦安装了嫁接物，无死角的肉体就会一直活跃。使用它不需要你的任何行动。",
								"{@b Effect.} 你获得一个好处，赋予你抵抗大多数针对你的关键攻击的毅力。每当你被击中要害时，你有50%的机会忽略额外的伤害。此外，每长时休息一次，如果你的生命值降至0，你在第一次死亡自救中具有优势。不幸的是，这种嫁接对你的健康造成了严重的影响，你的体质得分将永久为-1。",
								"{@b Construction.}需要{@i {@optfeature Deathless Fleshgrafter|DLRG}}，{@spell Wish|PHB}法术，16,500金币，和33天。",
								"{@b Graft Donor.} 一块从无死亡的生物身上切下的肌肉。",
								"{@b Graft Sacrifice.} -1 宪法。",
								"{@b Price.} 30,000 gp."
							]
						},
						{
							"type": "entries",
							"name": "Deathless Visage",
							"page": 4,
							"entries": [
								"这个嫁接可以让人了解艾瑞纳不死的议员们的长期心态和智慧。不朽者的远见和耐心对任何凡人生物来说都是可怕的，而这个东西只需看一眼就能唤起这种恐怖。在必要的时候，你也可以调用古代精灵的知识来寻求帮助，但你也感觉到精灵族的重量在你的肩上，有时会干扰你的社交。",
								"{@b Graft Location.} Head.",
								"{@b Description.} 这种移植生长在你的脸的上部。虽然它对你的外表影响不大，但你的五官略微收紧，使你的脸看起来更憔悴，像骷髅头。你的眉毛似乎被巨大的担忧压住了。",
								"然而，移植物并不只是覆盖你的脸，而是与你头上的肉融合在一起，穿过你的头骨，延伸到你的大脑部分。在那里，它使你能够接触到艾瑞尼人的祖先记忆。",
								"当你启动你那可怕的目光时，你的眼睛会闪烁着永恒的黑暗，那些被你注视的人对你似乎代表的不朽感到恐惧。先决条件。这种嫁接只能给一个最大寿命至少为200年的生物。激活。激活这个嫁接物的强光攻击是一个标准动作。在历史、宗教和自然检查中获得的关于过去的优势奖励可以作为一个自由动作使用。",
								"{@b Effect.}当无死神的面容嫁接被激活时，你可以将你的目光固定在30英尺内能看到你（并被你看到）的单一生物身上。这个效果类似于主动使用的凝视攻击，但它不像凝视攻击那样影响生物的回合。",
								"你的目标生物会受到惊吓，除非他们的智慧救赎成功（DC8+熟练度+Cha修改器）。即使他们救赎成功，他们仍然会受到影响--这是一个心灵影响的能力。在一个回合内，该生物在所有的攻击卷、能力检查、蓄力投掷和技能检查中都处于劣势。",
								"嫁接的次要力量使你能够利用精灵们的长期记忆。你在所有与过去的事情有关的历史、宗教和自然检查中获得优势。这种嫁接的缺点是它给你的思想和灵魂带来了沉重的心理负担，使你的社交能力有所下降。你在所有的虚张声势、外交手段、洞察力和恐吓检查中都处于劣势，除了另一个艾瑞尼精灵或无死亡的生物之外。",
								"{@b Construction.}需要{@i {@optfeature Deathless Fleshgrafter|DLRG}}，{@spell Cause Fear|XGE}法术，16,000金币，以及32天。",
								"{@b Graft Donor.} 来自无死亡生物头皮的肉体。",
								"{@b Graft Sacrifice.} -6 hp.",
								"{@b Price.} 31,000 gp."
							]
						},
						{
							"type": "entries",
							"name": "Legs of the Undying Marcher",
							"page": 4,
							"entries": [
								"一个不死的捐赠者腿上的肉被融合到你自己的腿上。你现在拥有不死之身的耐力，以及对过去冲突的记忆，使你在战斗中具有更好的稳定性和反应力。",
								"{@b Graft Location.} Legs.",
								"{@b Description.} 一个不死鸟的腿上的肉已经融合到你自己的腿上，完全取代了自然的肉体。",
								"你的新肢体是憔悴的，似乎没有肌肉。他们的皮肤像尸体一样白，像不死的人一样干瘪，但尽管他们的外表，他们比以前更强壮，更结实。有时，你甚至感觉到你的动作被你的不死鸟捐赠者引导。",
								"{@b Activation.}腿部一旦安装好就会一直活动。",
								"{@b Effect.}你的腿在行走时不会疲惫，所以你在强行军时不需要进行体质检查以避免疲惫。你的双腿还拥有他们的无死角捐献者所积累的经验，从而产生了一些预感，使你在灵巧的拯救动作中获得优势。",
								"最后，腿部的耐用性给你带来了更大的稳定性，从而使你在被撞倒或被推搡时具有优势。",
								"{@b Construction.}需要{@i {@optfeature Deathless Fleshgrafter|DLRG}}，{@spell Greater Restoration|PHB}法术，3,000金币，6天。",
								"{@b Graft Donor.}来自无死亡生物的腿的肉。",
								"{@b Graft Sacrifice.} -2 hp.",
								"{@b Price.} 6,000 gp."
							]
						}
					]
				},
				{
					"type": "section",
					"name": "Elemental Grafts",
					"page": 4,
					"entries": [
						"在早期嫁接研究中投入最多的是齐拉尔戈的地精，他们长期以来一直在寻找方法使他们的土地免受最后战争的蹂躏（以及从战争中获利的新方法）。Zilargo的元素专家们希望通过将部分元素精华融合到他们自己的身体中来更好地理解元素魔法。",
						"虽然许多元素移植赋予其持有者元素的力量，但其他元素移植则建立在与元素更多的精神联系上，赋予其持有者令人惊讶和独特的能力。",
						"早在半年前，元素移植物就开始变得流行起来。比起其他类型的移植物，它们在利兰达家族和奥瑞恩家族的成员中尤其常见，他们经常与元素打交道。除此之外，Zilargo的子孙都有元素移植物，它们的力量随着宿主的成长而增长和转化。",
						"这些移植物通常会给它们的宿主带来异样的外观，但并不是所有这样的生物都有明显的身体特征来识别它们是移植物的接受者，将另一个世界的部分生物与自己的肉体结合的过程总是有有趣的副作用。",
						"成为元素移植捐赠者的生物必须被召唤出来。有些是自愿的（比如那些同意帮助 \"纯洁力量 \"组织的人），但有些则是为了创造强大的移植物的能力而被专门收割的。",
						"从被召唤的生物身上获取的材料，如果没有立即用于嫁接创造过程，那么一旦召唤咒语结束，它们就会与被召唤的生物一起消失。",
						"添加元素移植物需要获得一个具有{@i {@optfeature Elemental Grafter|DLRG}}特技的角色。",
						{
							"type": "entries",
							"name": "Aqueous Body [Water]",
							"page": 5,
							"entries": [
								"水元素的基本物质已经被移植到你自己的身体上，使你能够在水中移动，就像在那里出生和长大一样。此外，你可以利用你的自然流畅性，使你在水下战斗中更加闪避，导致你的对手有时在他们的打击会落地时错过你。",
								"{@b Graft Location.} 肉体。",
								"{@b Description.} 你的肉体有一种微弱的蓝色调，你的血管似乎在你的皮肤上很突出。在水下时，你的肉体几乎变成半透明的，你的轮廓变得难以与周围环境区分。",
								"{@b Activation.}当你在水中时，嫁接所给予的失误机会总是有效的，不需要你的行动。",
								"{@b Effect.}当你在水底时，你会变得模糊不清，就像被{@spell Blur|PHB}的咒语所掩盖一样，你可以不需要掩体或黑暗就能隐藏起来。此外，你可以在水下呼吸，就像受到永久的（%2%）法术的影响。",
								"然而，这种嫁接会降低你在陆地上的整体敏捷性，导致你的灵巧得分永久为-1。",
								"{@b Construction.}需要{@i {@optfeature Elemental Grafter|DLRG}}，{@spell Water Breathing|PHB}和{@spell Blur|PHB}法术，5,600金币，以及13天。",
								"{@b Graft Donor.} 水元素的任何部分。",
								"{@b Graft Sacrifice.} -6 hp, -1 Dexterity。",
								"{@b Price.} 11,000 gp"
							]
						},
						{
							"type": "entries",
							"name": "Breath of the Waves [Water]",
							"page": 5,
							"entries": [
								"你在你的血管中引导水的健康活力，并能将其神奇地增强的恢复特性吸入你自己或你的同伴身上。你也永远不需要担心渴死，因为流经你的水让你无休止地保持水分。",
								"{@b Graft} 位置。头部。",
								"{@b Description.} 你的口腔内部，包括你的舌头和喉咙，已经被水元素的物质所取代。水在你的嘴里轻轻拍打，你的舌头似乎是水做的，你的牙齿仍然存在，但它们是半透明的，像冰。",
								"在你身边的人可以听到你说的每一个字背后都有海洋波浪的轻轻拍打。你的声音也充满了活力，即使是在死亡的威胁下，或者你被悲伤或疾病带走时。你的呼吸总是闻起来新鲜而纯净。",
								"{@b Activation.}避免脱水的能力始终是主动的，不需要你的行动。通过你的呼吸消除负面状况的能力可以在每个短暂的休息时间作为标准动作使用一次。",
								"{@b Effect.}你对所有导致脱水的效果都有免疫力，包括{@spell Abi-Dalzim's Horrid Wilting|XGE}的法术。你也不需要喝水来避免脱水，因为你的嫁接物会提供你所需要的所有水。",
								"此外，你的呼吸可以给相邻的生物（或你自己）带来活化水的好处，由你的嫁接神奇地充电。当你对一个生物呼吸时，以下任何或所有条件都会被否定：疲惫、疲劳、瘫痪和眩晕。如果你所呼吸的生物正在死亡，它会自动将其稳定到1HP。",
								"{@b Construction.}需要{@i {@optfeature Elemental Grafter|DLRG}}，{@spell Cure Wounds|PHB}法术，4500金币，和9天。",
								"{@b Graft Donor.} 水元素的任何部分。",
								"{@b Graft Sacrifice.} -4 hp.",
								"{@b Price.} 9,000 gp."
							]
						},
						{
							"type": "entries",
							"name": "Buffeting Fists [Air]",
							"page": 5,
							"entries": [
								"一部分空气元素被束缚在你的手中，使你能更有效地保护自己免受远程攻击。你还可以通过猛击你的拳头来缓冲你的敌人，迫使他们远离你。",
								"{@b Graft Location.} Arms.",
								"{@b Description.} 你的手有时几乎看不见，它们的肉在旋转，好像被强风从内部搅动。当你快速移动你的双手时，你会产生一股明显的强气流。在战斗中，你似乎被一股从你手中发出的强风所包围，当你击打你的敌人时，强风的咆哮声环绕着你。",
								"{@b Activation.}你偏转箭矢的能力始终处于激活状态，你的自助餐能力每天可以作为标准动作激活一次。",
								"{@b Effect.}你获得使用风的能力，就像你在你的手臂上施展{@spell Warding Wind|XGE}的法术一样，只是每次长时间休息只能使用等于1+你的灵巧修饰的次数（最少一次）。",
								"此外，每天一次，你可以将你的拳头击打在一起，使范围内的任何敌人受到强烈的风的冲击。",
								"在你10英尺范围内的任何敌人受到8（2d6）武力伤害，并被推后5英尺。",
								"{@b Construction.}需要{@i {@optfeature Elemental Grafter|DLRG}}，{@spell Warding Wind|XGE}法术，6,500金币，以及13天。",
								"{@b Graft Donor.} 空气元素的任何部分。",
								"{@b Graft Sacrifice.} -4 hp.",
								"{@b Price.} 13,000 gp."
							]
						},
						{
							"type": "entries",
							"name": "Dust Form [Air]",
							"page": 6,
							"entries": [
								"你可以极其轻松地在地球上滑行，而且一次可以滑行数英里。只有矿脉或金属矿石阻碍了你的地下进程。",
								"{@b Graft Location.} Arms.",
								"{@b Description.} 这种嫁接将你的手臂、手和手指变成坚韧的钻探工具。你的手指有钝的末端，没有指甲。你的前臂、手和手指比正常情况下更厚，并且覆盖着土元素常见的土质、断裂的皮肤。",
								"当你快速移动你的手臂时（例如在战斗中挥舞武器时），你的动作会发出岩石撞击土壤的微弱砰砰声。在使用嫁接术时，你的手和手臂会发出淡淡的绿色光芒。",
								"{@b Activation.} 激活嫁接需要一整轮的注意力，以使你的手臂与大地相适应。",
								"{@b Effect.} 你获得了像土元素一样毫不费力地滑过坚实的大地的能力。你可以以正常的移动速度在石头、泥土或几乎任何其他种类的土（除了金属）中滑行，就像鱼在水中游泳一样轻松。你的钻洞不会留下任何隧道或洞口，也不会产生任何涟漪或其他存在的迹象。当你以这种方式在地球上滑行时，你不能让任何其他生物与你一起滑行。",
								"只要你的注意力没有被打断，你就可以保持在坚实的泥土中，最长可达10分钟。如果效果结束时你还在固体土中，你会被分流到最近的空地上，并且每移动5英尺就会受到1d6点伤害。",
								"某些法术，如果在你所占据的土地或石头上施放，仍然可以伤害你。{@b (See the spell {@spell Meld into Stone|PHB}了解更多细节。)}。",
								"你沉重的手臂降低了你在地面上的敏捷性，导致你的灵巧得分永久为-1。",
								"{@b Construction.}需要{@i {@optfeature Elemental Grafter|DLRG}}，{@spell Meld into Stone|PHB}法术，56,000金币，和113天。",
								"{@b Graft Donor.} 土元素的任何部分。",
								"{@b Graft Sacrifice.} -6 hp, -1 Dexterity。",
								"{@b Price.} 110,500 gp."
							]
						},
						{
							"type": "entries",
							"name": "Elemental Flesh [Any]",
							"page": 6,
							"entries": [
								"元素精华贯穿你的身体，赋予你难以置信的复原力。你的肉体和重要器官得到加强，使你有能力无视潜在的残废打击。",
								"{@b Graft Location.} 肉体。",
								"{@b Description.} 你的身体发生了元素性的变化，你被一种异世界的光环所包围。你似乎并不完全是这个世界的一部分，你与给予你这种移植的元素的一些特征相同。",
								"如果你的元素捐献者是空气元素，你的皮肤是苍白的，部分是半透明的。仔细观察，你的肉体似乎几乎是自行移动的，就像气流在你体内流动一样。",
								"如果你的捐赠者是土元素，你的眼睛就像火山岩的碎片，你的皮肤和头发是黑暗、健康土壤的颜色。",
								"如果你的捐赠者是火元素，你的皮肤有红润的颜色，你的眼睛不时跳动着闪烁的光芒，你的身体散发着发烧的热量。",
								"最后，如果你的捐赠者是水元素，你的动作就会过于流畅和优雅，而且你的皮肤会有淡淡的蓝色。",
								"{@b Prerequisite.}在你获得元素肉体之前，你必须至少有一个其他的元素嫁接。激活。元素肉体一旦安装完毕就会被激活，使用它不需要你的任何行动。",
								"{@b Effect.} 许多由你最重要的器官执行的身体过程现在由移植体执行，使这些器官的伤害不那么具有威胁性。因此，你有50%的机会无视关键打击或偷袭所造成的额外伤害。你在抵御会使你眩晕的效果的检查中也有优势。",
								"当你采取这种嫁接时，你选择哪种类型的元素捐赠它。然后这个嫁接就被算作是该类型的元素嫁接。",
								"{@b Construction.}需要{@i {@optfeature Elemental Grafter|DLRG}}，{@spell Wish|PHB}法术，15,500金币，和31天。",
								"{@b Graft Donor.} 活体元素的任何部分，重量至少为3磅。",
								"{@b Graft Sacrifice.} -8 hp.",
								"{@b Price.} 31,000 gp."
							]
						},
						{
							"type": "entries",
							"name": "Hands of Flame [Fire]",
							"page": 6,
							"entries": [
								"你的双手被火焰所包围，使你能够加热你的金属武器，并以它们造成火力伤害。仅仅是你的触摸就能使易燃物被点燃。",
								"{@b Graft Location.} Arms.",
								"{@b Description.} 你的双手发出微弱的橙色火焰。虽然从未真正点燃过，但你的手和前臂的皮肤似乎蕴含着液态的火焰，当它在你的身体里奔跑时，会轻微地跳动。",
								"当你激活嫁接时，它的光芒变得几乎是白色的，可以看到一丝热量从你的手中升起。",
								"他们的肉体几乎是半透明的，让任何看着他们的人都能看到皮肤下火热的血管和白热的骨骼的痕迹。嫁接激活后，当你的手在空中移动时，你可以听到火焰的噼啪声。",
								"{@b Activation.} 激活嫁接是一个奖励动作。",
								"{@b Effect.}每次你激活嫁接，你的手会变白热，持续1个回合。你会产生大量的热量，以至于你的触摸会造成1d6点的火力伤害，并且你会点燃你触摸的任何易燃物。(你的金属武器也会导热，当这个嫁接激活时，用这种武器攻击会造成额外的（1%）点火焰伤害。",
								"如果你丢掉武器或它被夺走，火焰会立即死亡（尽管任何处理武器以便从你手中夺走它的人也会受到火灾伤害）。",
								"{@b Construction.}需要{@i {@optfeature Elemental Grafter|DLRG}}，{@spell Flame Blade|PHB}法术，6,500金币，以及13天。",
								"{@b Graft Donor.} 火元素的任何一块身体。",
								"{@b Graft Sacrifice.} -4 hp.",
								"{@b Variants.} 属于 \"纯洁力量 \"组织的Zilargo的地精已经开始试验类似的其他能量类型的移植。虽然他们还没有显示出任何结果，但对其他类型的能量伤害酸、电和冷的移植可能就在眼前。",
								"{@b Price.} 13,500 gp."
							]
						},
						{
							"type": "entries",
							"name": "Incendiary Skin [Fire]",
							"page": 7,
							"entries": [
								"火元素的精华住在你的皮肤下，使接触你的人受伤，同时赋予你对火伤害的免疫力。移植位置。皮肤。",
								"{@b Description.} 你的皮肤有红润的光泽，触摸起来比正常人更温暖。近看，火河似乎就在表面下流淌，当你兴奋时，它看起来几乎是发光的。当你生气时，你的皮肤会炽热得发白，并散发出木头烧焦的微弱气味。",
								"{@b Activation.} 你可以作为反应激活你燃烧皮肤的炽热效果。如果是对一次攻击的反应，其效果适用于该次攻击以及在效果持续期间对你发生的任何其他攻击。",
								"抗火效果始终是主动的，不需要你的任何行动。",
								"{@b Effect.} 你的燃烧皮肤使你对火焰伤害有抵抗力。当你激活你的皮肤的炽热效果时，你会变得触目惊心，直到你下一个回合开始。在你的炽热效果激活时，任何人用自然武器或徒手攻击你，都会受到{@damage 1d6}的火焰伤害。你自己的衣服和装备不受影响，但激活这个效果会消耗体力，你每次这样做都会受到1点伤害。",
								"{@b Construction.}需要{@i {@optfeature Elemental Grafter|DLRG}}，{@spell Fire Shield|PHB}和{@spell Protection From Energy|PHB}的法术，9,500金币，以及113天。",
								"{@b Graft Donor.} 火元素的任何部分。",
								"{@b Graft Sacrifice.} -4 hp, 每当炽热效果被激活时-1 hp。",
								"{@b Price.} 17,500 gp"
							]
						},
						{
							"type": "entries",
							"name": "Oceanic Adaptation [Water]",
							"page": 7,
							"entries": [
								"你将水元素嫁接到你的手臂上，赋予你在水中和陆地上一样自由移动的能力。",
								"{@b Graft Location.} Arms.",
								"{@b Description.} 沿着你的手臂长出了两块长长的亮蓝色肉块。这些斑块看起来总是湿漉漉的，是热带珊瑚礁水的明亮色调。当完全浸泡在水中时，这些斑块会闪闪发光，变得半透明。",
								"{@b Activation.}当你在水下时，嫁接会自动运作，不需要你的行动就能使用。",
								"{@b Effect.} 你可以在水中移动，就像在{@spell Freedom of Movement|PHB}法术的作用下一样。即使在静止的水中移动也不会影响你的移动。如果你和你的目标都浸泡在水中，而不仅仅是接触到水，你也会在近战武器攻击中获得优势。",
								"{@b Construction.}需要{@i {@optfeature Elemental Grafter|DLRG}}，{@spell Freedom of Movement|PHB}法术，4,000金币，以及8天。",
								"{@b Graft Donor.} 一块水元素的身体。",
								"{@b Graft Sacrifice.} -4 hp.",
								"{@b Price.} 8,500 gp."
							]
						},
						{
							"type": "entries",
							"name": "Scorching Gaze [Fire]",
							"page": 7,
							"entries": [
								"你的眼睛被你的元素嫁接捐赠者的火焰所燃烧。",
								"你只需看一眼，就能让火焰噼啪作响，让你的敌人焦头烂额。",
								"{@b Graft Location.} Head.",
								"{@b Description.} 你燃烧着火焰，似乎从你的眼窝舔向你的眉毛。当你生气时，火焰会变得更加猛烈。",
								"你的目光可以引发火灾，你的周围有淡淡的灰烬和煤炭的味道。有些人可能会认为你有恶魔的血统，但火元素才是你天赋的来源。",
								"{@b Activation.}你可以作为一个额外的动作来抑制或恢复这个效果。将你的目光投向一个生物是一个标准动作，而将目光集中到一个物体上使其燃烧需要1轮的注意力。效果。你的眼睛给你一个凝视攻击，范围为30英尺，造成{@damage 1d6}点火焰伤害。如果体质救赎成功，则火力伤害将被抵消。",
								"用一整轮的注意力，你可以将你的目光投向30英尺内的可燃物，并将其点燃（这包括魔法物品）。该物品，如果被穿戴或携带，可以尝试DC15灵巧救赎以避免被烧焦。这些物品每回合受到{@damage 1d6}的火焰伤害，直到被摧毁或熄灭。",
								"不幸的是，你火热的目光使你的观察力比正常人略差，你在与视觉有关的感知和调查检查中处于劣势。",
								"{@b Construction.}需要{@i {@optfeature Elemental Grafter|DLRG}}，{@spell Scorching Ray|PHB}法术，3500金币，和7天。",
								"{@b Graft Donor.}火元素的眼睛。",
								"{@b Graft Sacrifice.} -4 hp.",
								"{@b Price.} 7,000 gp."
							]
						},
						{
							"type": "entries",
							"name": "Stony Plating [Earth]",
							"page": 8,
							"entries": [
								"你的皮肤变得像土元素一样坚硬。石皮已经融合到你身体的关键部位，为你提供了更大的保护，使你免受物理伤害。",
								"{@b Graft Location.} Skin.",
								"{@b Description.}你的部分皮肤有岩石、峭壁的外观，使你看起来好像是部分由岩石形成的。在这些粗糙的地方，你的皮肤色素比正常皮肤略深--丰富的土的颜色。正常的皮肤与你的移植体完美地融合在一起。每当你在战斗中被击中时，新变成的泥土的香气就会围绕着你。",
								"{@b Activation.}一旦嫁接物安装完毕，石膏板总是活跃的。",
								"{@b Effect.}你的自然护甲对AC的加成提高1，该效果与其他提高AC的效果叠加。",
								"{@b Construction.}需要{@i {@optfeature Elemental Grafter|DLRG}}，{@spell Stoneskin|PHB}法术，1,500金币，和3天。",
								"{@b Graft Donor.} 一块来自大号或更大的土元素身体的石头。",
								"{@b Graft Sacrifice.} -4 hp.",
								"{@b Price.} 2,800 gp."
							]
						},
						{
							"type": "entries",
							"name": "Tremor Graft [Earth]",
							"page": 8,
							"entries": [
								"这种嫁接赋予你与大地的联系，使你能够感受到那些经过你附近的人的脚步声。你可以通过他们的脚步感知他人，即使你看不到他们，也能知道你附近生物的确切位置。",
								"{@b Graft Location.} Legs.",
								"{@b Description.} 这种移植是沿着你的下身躯干两侧和腿部生长的。这种皮肤是石板的颜色，摸起来很粗糙，像粗沙。",
								"沿着你两侧的皮肤似乎在轻微地嗡嗡作响，在你的能力范围内，即使是沿着地面的最细微的运动也会被移植体检测到并传递给你。",
								"{@b Activation.} 嫁接需要一个移动动作来激活，其效果是瞬间的。",
								"{@b Effect.} 只要你接触地面，你就可以采取移动行动来激活你的嫁接，感知20英尺内所有生物的数量和位置。当你启动这个能力时，你知道范围内生物的确切位置，但除非你也能看到它们，否则随着这些生物的移动，这些知识会很快变得毫无意义。",
								"你笨重的双腿使你的行动更加缓慢和笨重。因此，你的陆地速度减少了5英尺。",
								"{@b Construction.}需要{@i {@optfeature Elemental Grafter|DLRG}}，{@spell Meld Into. Stone|PHB}法术，2500金币，和6天。",
								"{@b Graft Donor.} 土元素身体的任何部分。",
								"{@b Graft Sacrifice.} -2 hp.",
								"{@b Price.} 5,000 gp."
							]
						},
						{
							"type": "entries",
							"name": "Whirlwind Form [Air]",
							"page": 8,
							"entries": [
								"你可以将自己包裹在旋风中，使你能够非常轻松地在空中移动。",
								"{@b Graft Location.} Skin.",
								"{@b Description.} 你的身体课程有淡蓝色的静脉状结构，似乎在你的皮肤表面下移动。当嫁接被激活时，你的整个身体都被一股汹涌的旋风所包围。你能以极快的速度在陆地上奔跑，留下一缕缕尘埃在你身后。",
								"{@b Activation.} 激活或停用嫁接是一个标准动作。",
								"{@b Effect.} When the graft is activated, a swirling vortex of air forms around you, allowing you to fly with the faultless control of an air elemental. While the graft is active, you gain a fly speed of 20 feet with perfect maneuverability.",
								"然而，你周围的风降低了你的能见度和听力，你在感知检查中处于不利地位。",
								"风的噪音也使隐身变得困难，导致在隐身检查中也处于劣势。此外，这种嫁接法在水中不起作用。",
								"这种嫁接对你的健康所造成的压力会导致你的体质分数永久为-1。",
								"{@b Construction.}需要{@i {@optfeature Elemental Grafter|DLRG}}，{@spell Blight|PHB}法术，29,500金币，和58天。",
								"{@b Graft Donor.}空气元素在旋风形态下的任何部分。",
								"{@b Graft Sacrifice.} -1 宪法。",
								"{@b Price.} 59,000 gp."
							]
						}
					]
				},
				{
					"type": "section",
					"name": "Plant Grafts",
					"page": 8,
					"entries": [
						"艾尔迪恩河谷的德鲁伊们（特别是守门人和森林守护者）从事移植物的研究，独立于其他地方的类似努力。守门人建立了以保护为重点的移植物，希望通过让植物的肉体与他们自己的肉体融合来更接近自然界，甚至在他们寻求成为更好的守护者来抵御地下之龙的恐怖。",
						"与齐拉尔戈地精不同，守门人会坚决否认他们的天然植物移植与可憎的戴尔基尔的可憎行为之间有任何相似之处，指出他们的移植是由他们的土地盟友自愿提供的。一些森林守护者认为植物移植是对自然力量的彻底牺牲，随着时间的推移，该群体的德鲁伊之间的移植变得越来越普遍。",
						"植物移植遵循与其他类型相同的一般规则，增加植物移植需要与拥有{@i {@optfeature Eldeen Plantgrafter|DLRG}}特技的人接触。",
						{
							"type": "entries",
							"name": "Healing Nodules",
							"page": 8,
							"entries": [
								"一种治疗性真菌的结节从你的身体中萌发出来。这些结节可以被你或其他生物折断并食用，治愈伤口或提供其他好处。",
								"{@b Graft Location.} Skin.",
								"{@b Description.} 除了你的脸，你的皮肤在暴露在空气中的任何地方都会长出小的、块状的真菌结节。这些结节的颜色比你的自然皮肤颜色略深，而且是粗糙的、峭壁的。",
								"结节可以被掰下来（无痛）食用，味道很像新鲜的蘑菇，闻起来有黑暗、滋养土壤的味道。",
								"{@b Activation.} 掰开一个治疗结点是一个自由动作，但是消耗它是一个标准动作，就像喝药水一样。每小时只有一个结点具有治疗能力，因为在两次使用之间，你的移植物需要时间来充实一个新的结点。你也可以用你的结节来治疗疾病，但这样做意味着你在24小时内不能产生正常的结节。",
								"{@b Effect.}从你的肉体中长出的结节具有显著的治疗能力。任何生物吃了一个就能获得一个{@spell Cure Wounds|PHB}法术的好处，体质是你的法术修改器。此外，你每天可以用这个结点去除一种疾病，但之后的24小时内不能再长出治疗性结点。不幸的是，为结核提供动力所需的能量对你的身体恢复力是一个沉重的压力--你在体质测试中获得劣势。",
								"{@b Construction.}需要{@i {@optfeature Eldeen Plantgrafter|DLRG}}，{@spell Cure Wounds|PHB}和{@spell Lesser Restoration|PHB}法术，10,500 gp，以及21天。",
								"{@b Graft Donor.} 一块来自干尸树的橡木和一个来自仙女环的蘑菇。",
								"{@b Graft Sacrifice.} -6 hp.",
								"{@b Price.} 21,000 gp."
							]
						},
						{
							"type": "entries",
							"name": "Darkwood Flesh",
							"page": 9,
							"entries": [
								"这种嫁接使你的肉体像黑木一样坚固。你可以无视那些会使普通生物致残的打击，你可以汲取黑木的精华来治疗自己。",
								"{@b Graft Location.} 肉体。",
								"{@b Description.} 当移植物被植入时，你的肉色会明显变深，呈现出淡淡的树皮状纹理。",
								"当关键一击或偷袭被你的黑木肉体否定时，你的皮肤会瞬间变得更加致密和木质化，几乎像黑木树的肉体。当你的快速愈合功能被激活时，激活快速愈合功能的伤口会流出少量粘稠的绿色汁液。",
								"{@b Activation.} 嫁接所提供的强化功能一旦安装就会一直有效，而快速治疗的效果会在对你的关键打击或偷袭得分时自动激活。",
								"{@b Effect.}由于你的肉体部分是黑木，你获得了无视一些关键打击或偷袭的能力。",
								"每当对你进行成功的偷袭，或每当关键一击的时候，你有50%的机会忽略所受到的额外伤害（尽管你仍然会受到正常伤害）。",
								"如果你被没有被黑木肉体否定的关键打击或偷袭击中，嫁接物会立即释放一种汁液，每回合治疗1d4个临时命中点，持续1分钟（10回合）。这个能力的多次自动激活最多可以叠加3次（例如，如果你被3次没有被你的黑木肉体否定的偷袭击中，你将每回合治疗（%0%））。",
								"不幸的是，虽然黑木比其他类型的木材更轻更坚固，但嫁接仍然限制了你的敏捷性。你的灵巧得分永久为-1。",
								"{@b Construction.}需要{@i {@optfeature Eldeen Plantgrafter|DLRG}}，{@spell Cure Wounds|PHB}和{@spell Plant Growth|PHB}*法术，9,500金币，以及19天。",
								"{@b Graft Donor.} 活的黑木树的心脏。",
								"{@b Graft Sacrifice.} -4 hp, -1 Dexterity。",
								"{@b Price.} 19,000 gp."
							]
						},
						{
							"type": "entries",
							"name": "Fatigue Spores",
							"page": 9,
							"entries": [
								"在你的皮肤上嫁接了一株生长的产生孢子的真菌。当你愿意时，你可以使一团孢子从你的身体中扩散，使附近的人变得疲惫。移植位置。皮肤。",
								"{@b Description.} 你的皮肤，特别是你的躯干、脖子和大腿的皮肤，被一种绿色的、片状的真菌覆盖。对于那些不熟悉移植的人来说，你可能看起来是某种疾病的受害者。",
								"你身上带着淡淡的青草味，你身上的真菌有一种柔软的质地，就像蘑菇的底部一样。然而，除非你愿意，否则没有孢子从真菌中释放出来。",
								"{@b Activation.}你可以每分钟激活你的孢子一次作为奖励动作。",
								"{@b Effect.}当你激活嫁接时，有毒的孢子会从你的身体中扩散出一团深绿色的云。所有与你相邻的生物都必须在宪法规定的救赎中获得成功（DC8+熟练度+你的Con修改器），否则就会获得一级的疲惫。对你的孢子救治成功的目标在24小时内不能再受到影响。",
								"一个人的单独疲劳孢子的效果是不累积的，但是如果一个生物对两个使用该孢子的不同生物的拯救失败，它们会被叠加。对毒药的免疫力适用于疲劳孢子的效果。",
								"{@b Construction.}需要{@i {@optfeature Eldeen Plantgrafter|DLRG}}，{@spell Plant Growth|PHB}和{@spell Entangle|PHB}的法术，6000金币，以及12天。",
								"{@b Graft Donor.} 在活的树人身上长出的一块真菌。",
								"{@b Graft Sacrifice.} -4 hp.",
								"{@b Variants.} 关于其他真菌孢子移植的传言存在，这些孢子赋予它们的携带者各种效果，包括腐蚀附近敌人的肉体或使他们陷入深度沉睡。疲劳孢子仍然是森林守护者和守门人中最常见的品种。",
								"{@b Price.} 12,000 gp."
							]
						},
						{
							"type": "entries",
							"name": "Grappling Vine",
							"page": 9,
							"entries": [
								"你可以从任何一只手臂上发射出粗大、粘稠的藤蔓，用它来困住你的敌人。",
								"{@b Graft Location.} Arms.",
								"{@b Description.} 你的手臂看起来有点肿，尤其是肘部以下。在你的皮肤下可以看到让人联想到血管的绿色线条，沿着你的手腕前面有一个撅起的开口，允许你向你的一个敌人发射你体内的活藤。",
								"从你的手臂上冒出来的粘稠的绿色藤蔓直径约为2英寸。虽然藤蔓坚韧而木质化，但长长的脉络沿着它的长度运行，使它看起来更像肉体而不是植物。",
								"{@b Activation.} 激活抓取藤蔓是一个标准动作。",
								"{@b Effect.}你可以从你的手臂上发射一根粗大的粘性藤蔓，试图抓住对手。这样做需要一个攻击卷（藤蔓的范围是10英尺）。如果你击中，你不会造成伤害，但可以尝试开始抓捕。如果目标未能通过检查来争夺抓捕，它将被视为被抓捕并被拉入你的空间。一旦成功抓捕，藤蔓会收缩，造成相应的伤害。",
								"你只能用这些藤蔓来抓取你体型或更小的生物。每次你赢得对该生物的抓捕竞赛时，束缚伤害为1d6+你的Str修改器。如果你最初的攻击没有成功，或者抓捕竞赛失败，藤蔓会自动缩进你的手臂。",
								"你一次只能使用一根藤蔓，不过即使你的手掌已满，你也可以使用一根藤蔓。",
								"你也可以用藤蔓抓住10英尺以外无人看管的物体。通过成功的远程攻击，你可以将藤蔓锁在这样的物体上，并将其扣回你的手中。你以这种方式瞄准的任何物体都必须足够小，以适合你的手。",
								"这些藤蔓的强度不足以承受你的体重，因此你不能用它们来协助攀登，也不能挂在上面。",
								"延伸的藤蔓可以被攻击--每根藤蔓有12点攻击力和20点命中率。受损的藤蔓在8小时内完全愈合，而被切断的藤蔓在一周内重新生长。一个{@spell Regenerate|PHB}的法术会让它立即重新生长。",
								"{@b Construction.}需要{@i {@optfeature Eldeen Plantgrafter|DLRG}}，{@spell Entangle|PHB}和{@spell Plant Growth|PHB}法术，3500金币，以及7天。",
								"{@b Graft Donor.} 活生生的藤蔓。",
								"{@b Graft Sacrifice.} -4 hp.",
								"{@b Price.} 7,800 gp."
							]
						},
						{
							"type": "entries",
							"name": "Perception Seed",
							"page": 10,
							"entries": [
								"在你的眼睛里植入这颗种子后，你会获得更好的视觉感知，即使在阴暗的环境中也能感知到微小的细节。",
								"{@b Graft Location.} Head.",
								"{@b Description.}这颗绿色的种子又长又细，沿着它的长度有一条细黑线的痕迹。一旦它被嫁接，眼睛的瞳孔就会呈现出同样的叶绿色调，颜色会像蔓延的植物根系一样渗透到周围的白色中。",
								"这种嫁接在植入时是很痛苦的，但痛苦是短暂的。移植后，种子与你的视神经结合。你的视力立即变得敏锐，你可以看到你以前看不到的东西。整个世界看起来更加集中和敏锐。",
								"{@b Activation.}一旦安装了嫁接物，感知种子所赋予的增强的感觉就会一直活跃。",
								"{@b Effect.}你获得黑暗视觉，如果你已经拥有黑暗视觉，你能看到的距离会翻倍。你的感知检查和攻击卷在黑暗中没有劣势。",
								"{@b Construction.}需要{@i {@optfeature Eldeen Plantgrafter|DLRG}}，{@spell Enhance Ability|PHB}法术，2,000金币，以及4天。",
								"{@b Graft Donor.} 一颗来自觉醒的树的种子。",
								"{@b Graft Sacrifice.} -2 hp.",
								"{@b Price.} 4,600 gp."
							]
						},
						{
							"type": "entries",
							"name": "Rootlegs",
							"page": 10,
							"entries": [
								"你可以把根扎进土里，借助森林的力量来保持自己的稳定。在扎根时，你只能非常缓慢地移动，但你获得了强大的古树的力量和坚韧。",
								"{@b Graft Location.} Legs.",
								"{@b Description.} 厚厚的根藏在你的腿里，一旦这个嫁接物被植入，你的腿就会变得肿胀和深褐色。当你希望它们出现时，它们就会这样做，将你牢牢地扎根于你脚下的土地。",
								"在扎根时，你的脚似乎与地面融为一体，即使被靴子包裹着。你的小腿看起来像古老橡树的巨大根系。当你迈出脚步时（这很难），你的脚似乎已经被复杂的根部结构所取代，深入到地面。激活。激活嫁接是一个奖励动作。你可以使用这个嫁接物的次数与你的康德修饰值相同（每天至少一次）。解除嫁接是一个自由动作。",
								"{@b Effect.}当你激活这个嫁接时，厚厚的根系会从你的脚上长出，并将你固定在地面上，直到你下一个回合结束。你的速度下降到5英尺，但是你在抵抗任何方式的移动上获得优势，包括被击倒在地或试图将你从当前方格中抓取。",
								"如果你没有站在坚固的表面上，你就不能激活这个嫁接。如果你在激活嫁接时站在地上（而不是石头或木头），你也会在那一回合治疗1d4个命中点。",
								"除了身体上的消耗外，粗大的树根使你的行动力下降，使你的灵巧得分永远为-1。你也很难进行一些体力活动，使你在与攀爬、跳跃或游泳有关的运动（力量）检查中处于劣势。",
								"{@b Construction.}需要{@i {@optfeature Eldeen Plantgrafter|DLRG}}，{@spell Awaken|PHB}法术，3500金币，和7天。",
								"{@b Graft Donor.} 一棵五百年树龄的橡树的活根。",
								"{@b Graft Sacrifice.} -4 hp, -1 Dexterity。",
								"{@b Price.} 7,500 gp."
							]
						},
						{
							"type": "entries",
							"name": "Treebark Carapace",
							"page": 10,
							"entries": [
								"你的皮肤变得像树一样坚硬。活生生的植物的坚硬肉体已经融合到你身体的关键部位，给你提供了更大的保护，使你免受物理伤害。",
								"移植位置。皮肤。",
								"描述。你的皮肤在被移植的地方有一种粗糙的、类似树皮的外观。在嫁接物与皮肤无缝融合的地方，它的质地是粗糙的、峭壁的，木材的香气淡淡地围绕着你。",
								"激活。一旦嫁接完成，你的树皮外壳就一直处于激活状态。使用它不需要你的任何行动。",
								"效果。当树皮外壳被植入后，你的自然护甲会增加1，这与其他增加AC的法术和效果叠加。",
								"这种嫁接也赋予你一种有限的能力来抵抗你的形态被改变。你在抵抗多形性和类似的效果时获得优势。",
								"建造。需要{@i {@optfeature Eldeen Plantgrafter|DLRG}}，{@spell Barkskin|PHB}和{@spell Plant Growth|PHB}的法术，1,800金币，以及4天。",
								"嫁接供体。一块来自活树的树皮。",
								"嫁接牺牲。-4 hp。",
								"价格。3,600 gp。"
							]
						}
					]
				},
				{
					"type": "section",
					"name": "Credit",
					"page": 8,
					"entries": [
						"DUNGEONS & DRAGONS, D&D, Wizards of the Coast, Forgotten Realms, Ravenloft, Eberron, the dragon ampersand, and all other Wizards of the Coast product names, and their respective logos are trademarks of Wizards of the Coast in the USA and other countries. 本作品所包含的材料的版权属于Wizards of the Coast和/或其他作者。这些材料是根据《地下城主协会社区内容协议》许可使用的。本作品中的所有其他原创材料的版权[2018]由D-Larson拥有，并根据《地下城大师协会的社区内容协议》发布。"
					]
				}
			]
		}
	]
}
