{
	"_meta": {
		"sources": [
			{
				"json": "TSGtTT",
				"abbreviation": "TSGtTT",
				"full": "The Seeker's Guide to Twisted Taverns",
				"color": "7ba130",
				"authors": [
					"Ghostfire Gaming"
				],
				"convertedBy": [
					"cadowtin"
				],
				"url": "https://ghostfiregaming.com/welcome-to-the-twisted-taverns/",
				"version": "0.1"
			}
		],
		"dateAdded": 1644736552,
		"dateLastModified": 1706998579,
		"_dateLastModifiedHash": "a030729356"
	},
	"book": [
		{
			"name": "The Seeker's Guide to Twisted Taverns",
			"id": "TSGtTT",
			"source": "TSGtTT",
			"published": "2020-01-01",
			"group": "homebrew",
			"cover": {
				"type": "external",
				"url": "https://raw.githubusercontent.com/cadowtin/homebrew/twisted_taverns/_img/TSGtTT/cover_resized.png"
			},
			"contents": [
				{
					"name": "Ch 2: Rail-Away",
					"headers": [
						"Areas of the Tavern",
						"The Tavern Operators",
						"The Tavern Guests",
						"Menu",
						"The Quest Board",
						"Events",
						"Tavern History",
						"Stat Block"
					]
				}
			]
		}
	],
	"bookData": [
		{
			"id": "TSGtTT",
			"source": "TSGtTT",
			"data": [
				{
					"type": "section",
					"name": "Ch 2: Rail-Away",
					"page": 20,
					"entries": [
						{
							"type": "image",
							"href": {
								"type": "external",
								"url": "https://raw.githubusercontent.com/TheGiddyLimit/homebrew/master/_img/TSGtTT/Rail-Away/rail-away_icon.png"
							}
						},
						"到底是目的地还是旅程更重要？在Rail-Away上，工业团队决定同时提供这两样东西! 这个旅行酒馆的轨道可以穿过任何数量的地点，以适应你的运动--在地面和地下，在城市和城镇之间，穿过乡村，越过山脉，或沿着海岸。轨道可以是环形的，以实现无限循环，使你回到开始的地方，也可以是端到端的旅程，沿途进行冒险。作为使用本书的另一种玩法，\"铁路之路 \"可以作为一艘游船，依次访问所有其他酒馆。",
						"在 \"铁路之路 \"上发现的冒险是为5到10级的角色准备的。酒馆可以作为一个临时地点来玩，作为危险冒险的喘息之地。另外，你也可以通过它的任务组合和使用所提供的NPC的谋杀之谜事件来玩。",
						"虽然Rail-Away在车站停靠的频率由总经理决定，但有些任务要求在两站之间至少有一天的旅行时间，以使玩家角色有时间进行冒险。停站也可以通过加油、乘客转换或增加货运车来促成。",
						{
							"type": "image",
							"href": {
								"type": "external",
								"url": "https://raw.githubusercontent.com/TheGiddyLimit/homebrew/master/_img/TSGtTT/Rail-Away/rail-away_pic.png"
							}
						},
						{
							"type": "entries",
							"name": "Areas of the Tavern",
							"page": 21,
							"entries": [
								"铁道部的车厢是按照列出的顺序连接的，但也可以根据需要由总经理决定添加额外的车厢。除非另有说明，每节车厢的两端都有一个小平台，以方便列车行驶时在车厢之间移动，还有一个梯子，以提供通往列车顶部的通道。",
								"一行人可以从出发的车站登上Rail-Away，上任何一节卧铺或便利设施车厢，无论是否有票，因为Prim的售票员会在出发后在车厢内穿梭。任何曾经乘坐过火车的人都知道，不要在没有买票的情况下被抓出来。如果一行人试图这样做，他们会很快知道普里姆的绰号（见酒馆经营者），并被踢下火车。",
								{
									"type": "inset",
									"entries": [
										"{@b {@i Note.}}方块实际上是2.5英尺而不是5英尺。建议使用迷你模型的GM将这些方块视为5英尺，并忽略这个尺寸带来的任何战斗限制。"
									]
								},
								{
									"name": "1. The Steam Engine",
									"page": 21,
									"entries": [
										{
											"type": "image",
											"href": {
												"type": "external",
												"url": "https://raw.githubusercontent.com/TheGiddyLimit/homebrew/master/_img/TSGtTT/Rail-Away/rail_1.png"
											}
										},
										"Rail-Away的发动机是一个古老的技术奇迹，有两个高耸的烟囱，似乎永远不会停止喷烟。内部和外部都是由闪闪发光的黑铁、银色的管道和黄铜装置组成，并有一些红色和金色的油漆点缀。车头的捕牛栅栏不止一次地挽救了火车出轨，尽管只有一次它推开的是一头真正的牛。",
										"只有引擎室的后半部分可以让正常的人类进入。中间镶嵌的圆形舱门通向发动机本身，它由一个火元素和一些蒸汽梅菲特提供动力，全部由工程师布兰特-芬丹控制。"
									],
									"type": "entries"
								},
								{
									"name": "2. Cargo / Livestock Car",
									"page": 22,
									"entries": [
										{
											"type": "image",
											"href": {
												"type": "external",
												"url": "https://raw.githubusercontent.com/TheGiddyLimit/homebrew/master/_img/TSGtTT/Rail-Away/Rail_2.png"
											}
										},
										"这节多功能车厢是Rail-Away列车中较小的一节车厢，但有三个用途：客人坐骑等牲畜的区域，放置用品和无法放入房间的较大客人物品的货舱，以及为工程师准备的带有私人盥洗室的小卧室。虽然车厢外面的标准与列车的其他部分相同，但里面却是光秃秃的，没有任何装饰。地板都是普通的木头，有些地方被牲畜的 \"诉讼 \"明显损坏。除了通向发动机的工程师室的门上没有窗户。牲畜区有工作灯，但货舱没有内置照明。",
										"工程师的房间很简陋，只有一张双人床、一个上锁的箱子、一个衣柜和一张写字台。书桌上堆放着一小堆书和账簿，但它们都被一层细小的灰尘所覆盖。唯一让人感到舒适的是，浴室里有一个爪足浴缸和大量的香皂、快速起泡的泡泡浴和精油。",
										"如果金门勋爵在船上，货舱里会有一个属于他的上锁的大箱子。里面有2000金币、五颗钻石（每颗价值75金币）、一批精美的衣服，以及一份详细记录了金门勋爵非法商业交易的（%0%）。这是一个简单的 \"凯撒移位 \"密码，利用了地下水和盗贼的语言，可以通过DC16情报（调查）检查来破解。任何有 \"盗贼之语 \"知识的人在检查中都有优势。账簿中重复最多的代码是 \"Bpm Svqnm\"。",
										"",
										""
									],
									"type": "entries"
								},
								{
									"name": "3. Staff Sleeper Car",
									"page": 22,
									"entries": [
										{
											"type": "image",
											"href": {
												"type": "external",
												"url": "https://raw.githubusercontent.com/TheGiddyLimit/homebrew/master/_img/TSGtTT/Rail-Away/rail_3.png"
											}
										},
										"职员卧铺车厢的外观与Rail-Away的其他车厢相同，但内部的装饰和家具明显更简单（尽管仍然很舒适）。这里的颜色没有保持其他内饰的华丽色调，而是更加柔和朴实，以节省维护费用。",
										"车厢的两端有两个卫生间，有马桶、水槽和淋浴，供工作人员使用。有五间卧室，每间卧室有四张双人床（像双层床一样叠在一起），一把椅子，一个箱子，还有两个小壁橱，用来挂制服，以免弄皱了。一个储物柜位于车厢中央附近，工作人员知道，如果普里姆今天过得很辛苦，就去找她，因为她把悬挂的打孔袋放在那里。这个破旧的沙袋里藏着一把破镐和一副脚镣。"
									],
									"type": "entries"
								},
								{
									"name": "4. The Saphire, Emerald, and Ruby",
									"page": 22,
									"entries": [
										{
											"type": "image",
											"href": {
												"type": "external",
												"url": "https://raw.githubusercontent.com/TheGiddyLimit/homebrew/master/_img/TSGtTT/Rail-Away/rail_4.png"
											}
										},
										"有三个标准卧铺车厢，每个车厢都有。",
										{
											"type": "list",
											"items": [
												"四个带厕所、水槽和淋浴的共用浴室：两个在车厢的一端，两个在车厢中间",
												"两个大房间，有一张双人床，一个箱子，小扶手椅，以及一张带直背椅的小木桌。",
												"五个小房间，有一张双人床、一个箱子和一张椅子",
												"两个大房间，有一张双人床、箱子、小扶手椅和一张带直背椅的小木桌，还有一个带厕所、水槽和淋浴的私人盥洗室。"
											]
										},
										"虽然不是很宽敞，但房间都很舒适，对于火车来说也是比较宽裕的。The Rail-Away为自己比许多固定的旅馆更方便而自豪，这个称号在很多方面都是理所当然的。区分卧铺车厢的唯一方法是通过颜色和名称，每个车厢都有不同的装饰：皇家蓝（蓝宝石）、深绿（绿宝石）和深红（红宝石）。",
										{
											"type": "image",
											"href": {
												"type": "external",
												"url": "https://raw.githubusercontent.com/TheGiddyLimit/homebrew/master/_img/TSGtTT/Rail-Away/railaway_cabin.png"
											},
											"title": "Cabin"
										}
									],
									"type": "entries"
								},
								{
									"name": "5. The Silver Piece",
									"page": 23,
									"entries": [
										{
											"type": "image",
											"href": {
												"type": "external",
												"url": "https://raw.githubusercontent.com/TheGiddyLimit/homebrew/master/_img/TSGtTT/Rail-Away/rail_5.png"
											}
										},
										"餐车也被称为 \"银件\"，是一个舒适的空间，充满了诱人的气味和景象，宏伟的红色天鹅绒窗帘总是被拉开，以便客人在用餐时可以欣赏到路过的风景。加利福尼亚式的厨房位于车内，使客人可以享受到半身人厨师Somen Gilrona为他们准备食物。苏门对她的刀具（和她可爱的小凳子）的快节奏熟练操作，本身就是一种娱乐手段。",
										"膳食是全天供应的，也可以直接点到房间或其他娱乐车厢的桌子上。这里有七张可容纳四人的桌子，还有四张可容纳两人的桌子。最右边的角落里放着一张桌子，用来放置调味品和餐具，以及水和果汁的壶。每张桌子上都有一个小铜铃，可以敲响以提供服务。桌子上总是摆放着清爽的亚麻桌布、精致的银器和点燃的蜡烛，以营造气氛。"
									],
									"type": "entries"
								},
								{
									"name": "6. The Gold Coin",
									"page": 23,
									"entries": [
										{
											"type": "image",
											"href": {
												"type": "external",
												"url": "https://raw.githubusercontent.com/TheGiddyLimit/homebrew/master/_img/TSGtTT/Rail-Away/rail_6.png"
											}
										},
										"这辆博彩车被称为 \"金币\"(The Gold Coin)，这一点很贴切；在任何一天，这里的牌桌和骰子桌都会输掉和赢取许多硬币。然而，这里提供的不仅仅是机会游戏。你还可以看到客人们在玩国际象棋、寻路者、围棋、九人莫里斯、敲锣打鼓、跳棋以及狐狸和鹅的游戏。",
										"整个车厢采用开放式设计，周围散布着各种大小的桌子。地板上铺着毛绒绒的地毯。就像它的名字一样，这里的颜色是华丽的金色，当下午的阳光照进窗户时，几乎是闪闪发光。一个柜子里放着游戏和纸牌的供应，尽管客人也可以自己带。然而，由于过去的作弊问题，任何用于赌桌的扑克牌都必须是工作人员提供的。",
										"众所周知，赌徒最常来这家酒馆，要么在这里闲逛，要么在铜钱店闲逛。他总是在靠近一瓶威士忌的地方，当房间里人少的时候，他就用一个小烟斗抽烟。他对聚会的意图异常感兴趣，并给他们提供关于如何玩游戏的建议，他要么在这里闲逛，要么在铜钱馆。他总是在靠近一瓶威士忌的地方，当房间里人少的时候，他就用小烟斗抽烟。他对聚会的意图异常感兴趣，并给他们提供关于如何玩游戏的建议。"
									],
									"type": "entries"
								},
								{
									"name": "7. The Copper Penny",
									"page": 23,
									"entries": [
										{
											"type": "image",
											"href": {
												"type": "external",
												"url": "https://raw.githubusercontent.com/TheGiddyLimit/homebrew/master/_img/TSGtTT/Rail-Away/rail_7.png"
											}
										},
										"被称为 \"铜钱 \"的酒吧车厢是 \"铁路之旅 \"的核心。它有一个长长的木制吧台，具有丰富、光滑的光泽，这是由年龄和不断擦拭洒出的饮料所带来的。舒适的皮制吧椅排在柜台上，这是大多数常客喜欢坐的地方，因为如果你想说服酒保雷沃提供免费或特别的饮料，他们是最好的座位。事实上，在第一次进入铜钱店时，吧台后面的雷沃立刻吸引了所有人的目光，因为他的火焰般的头发让人无法忽视。",
										"这节车厢是迄今为止 \"铁路之路 \"上最受欢迎的车厢，也是会见酒馆任何客人的好地方。车厢里有三张四人座的桌子和四张两人座的桌子，其中一张位于角落里，以保护隐私。与酒吧同侧的车厢是一个开放区域，用于娱乐或跳舞。为便于登车和装卸物资，在舞台区对面还有一个门。"
									],
									"type": "entries"
								},
								{
									"name": "8. The Platinum and the Mithril",
									"page": 24,
									"entries": [
										{
											"type": "image",
											"href": {
												"type": "external",
												"url": "https://raw.githubusercontent.com/TheGiddyLimit/homebrew/master/_img/TSGtTT/Rail-Away/rail_8.png"
											}
										},
										"有两辆豪华住宿卧铺车供富裕的乘客使用。铂金号和米特拉号。每节车厢都有两个套房，每个套房都包括一个私人盥洗室（马桶、水槽和带黄铜配件的淋浴器）、一个大卧室（特大号床、衣柜、书桌和椅子、两把扶手椅和一张小桌子），以及另外一个小卧室（双人床和一个箱子）。小卧室最常被儿童、家臣或仆人使用。许多富裕的游客会租下一整节车厢，这样他们的重要工作人员就在他们身边，而其他人则让他们的下属住在普通的卧铺车厢中。",
										"为了与客人保持一致，这些车厢的布置非常奢华，有舒适的家具和许多小装饰，显示了Rail-Away公司对细节的关注：新鲜的鲜花、睡前服务和免费的巧克力。第一次入住时，客人可以享受到免费的饮料。"
									],
									"type": "entries"
								},
								{
									"name": "9. The Mercury Observatory",
									"page": 25,
									"entries": [
										{
											"type": "image",
											"href": {
												"type": "external",
												"url": "https://raw.githubusercontent.com/TheGiddyLimit/homebrew/master/_img/TSGtTT/Rail-Away/rail_9.png"
											}
										},
										"水星天文台车厢是铁路之旅的亮点之一。一个凸起的露天椭圆形平台占据了整个车厢的后端，周围是带有矛形顶饰的铁栏杆。一个大的黄铜望远镜贴在平台上，为游客提供了一个看星星的机会，或者只是仔细看看火车经过的任何城镇或风景。一些舒适的躺椅和小桌子散布在周围。饮料可以直接向任何路过的工作人员订购，或通过墙上的通信管道订购。",
										"车厢的另一半是封闭的，但它仍然提供了极好的视野，因为它类似于一个有三层楼顶的玻璃温室。这样，即使在恶劣的天气下，客人也可以欣赏到美景。这里有带丰满坐垫的沙发和椅子，还有一些盆栽，这增加了温室的气氛，为深夜的约会带来了隐私感。",
										{
											"type": "image",
											"href": {
												"type": "external",
												"url": "https://raw.githubusercontent.com/TheGiddyLimit/homebrew/master/_img/TSGtTT/Rail-Away/train_no_back.png"
											},
											"title": "Observatory"
										}
									],
									"type": "entries"
								},
								{
									"type": "image",
									"href": {
										"type": "external",
										"url": "https://raw.githubusercontent.com/TheGiddyLimit/homebrew/master/_img/TSGtTT/Rail-Away/rail-away_layout.png"
									},
									"title": "Cart Layout"
								}
							]
						},
						{
							"type": "entries",
							"name": "The Tavern Operators",
							"page": 26,
							"entries": [
								"Rail-Away的员工来自全国各地，但却成功地形成了一个亲密无间的家庭关系。",
								{
									"name": "Tarmo Warberry",
									"page": 26,
									"entries": [
										"塔莫是一名男性高等精灵，担任铁路运输的售票员。塔莫非常喜欢他的工作，尽管大家都知道普利姆才是真正能在铁路上完成工作的人。塔莫更像是一个学者型的人物，他选择把时间花在与酒馆的客人友好地聊天或研究历史和语言上。当有人说一种罕见的语言时，他总是特别兴奋，并喜欢学习新的单词和短语。(他努力知道如何用每一种已知的语言说 \"你好 \"和 \"谢谢\"，并在一本装订成皮的日记中写下了大量的脏话）。他戴着眼镜，从来没有人见过他穿着指挥家的衣服：一件扣上纽扣的正式马甲，有坚硬的翻领，肩上有金色的编织。",
										"塔莫使用（%0%）的统计数据，但也知道（%1%）和（%2%）的法术。作为一个精灵，他不需要睡眠，经常选择在酒吧车厢的一个安静角落里恍惚度过，尽管他在工作人员的卧铺车厢里有一个自己的房间。作为语言的学生，他能自如地讲普通话、精灵语、矮人语、巨人语、半身人语、地精语，甚至还能讲少量的地狱语。他有一个{@item wand of magic missiles}，但只在万不得已时才会使用它。",
										{
											"type": "inset",
											"entries": [
												{
													"name": "Secrets",
													"entries": [
														"他知道Verity的真实形态，但一直保守秘密，部分原因是她是Rail-Away有史以来最好的艺人。他还相信她能在不守规矩的情况下使用她隐藏的能力作为人群控制。她正在教他如何说希尔凡语，但只是比较粗俗的术语。"
													],
													"type": "entries"
												}
											]
										},
										{
											"type": "insetReadaloud",
											"entries": [
												{
													"name": "Bartender Insights",
													"entries": [
														"塔莫知道雷沃讨厌蝙蝠，因为有一次不幸的事件，一只蝙蝠飞到他的头发上，被烧成了灰烬。他还了解到，这个酒保喜欢吃肉桂类的糖食。"
													],
													"type": "entries"
												}
											]
										}
									],
									"type": "entries"
								},
								{
									"name": "Prim, a.k.a. \"Knuckles\"",
									"page": 26,
									"entries": [
										{
											"type": "image",
											"href": {
												"type": "external",
												"url": "https://raw.githubusercontent.com/TheGiddyLimit/homebrew/master/_img/TSGtTT/Rail-Away/prim_knuckles.png"
											},
											"title": "Prim, A.K.A \"Knuckles\""
										},
										"普利姆是一个年轻的女妖精，她既是Rail-Away上的权威人物，又是它的售票员。任何低估 \"Knuckles \"的人都会对他们造成伤害。普利姆身材偏小，再加上铁路公司标准的星光闪闪的制服，她有点像一个从酒馆礼品店买来的儿童玩偶。然而，除了她的钢铁意志，她还带着一套神奇的铜指节，她喜欢把它称为 \"一二拳\"。普利姆可以在Rail-Away的任何一节车厢里找到，因为她会不断地巡视。她的突然出现可能会让一些客人感到惊讶，因为她的步伐非常安静。",
										{
											"type": "inset",
											"entries": [
												{
													"name": "Secrets",
													"entries": [
														"在她被称为Knuckles之前，Prim是Gammon勋爵拥有的一个地精矿的奴隶。有一天，她在挖掘时发现了一个小宝盒，里面有一套神奇的铜指关节和一小袋宝石，这些东西她都带在身上，直到今天。这些东西使她得以逃脱，并一直为她服务。",
														"藏在她的拳击袋中的物品有助于激发她的拳头背后的力量。如果被问及这些东西，她可能会屈服并解释她的一小部分历史。"
													],
													"type": "entries"
												}
											]
										},
										{
											"type": "insetReadaloud",
											"entries": [
												{
													"name": "Bartender Insights",
													"entries": [
														"普利姆知道雷沃觉得人们试图触摸他的头发很烦人，但他几乎是任何形式奉承的受害者。"
													],
													"type": "entries"
												}
											]
										}
									],
									"type": "entries"
								},
								{
									"name": "Brandr Fintan",
									"page": 26,
									"entries": [
										{
											"type": "image",
											"href": {
												"type": "external",
												"url": "https://raw.githubusercontent.com/TheGiddyLimit/homebrew/master/_img/TSGtTT/Rail-Away/brander_fintan.png"
											},
											"title": "Brandr Fintan"
										},
										"布兰德-芬丹是一名接近中年的男性，是 \"铁路之路 \"的工程师。勃兰特是一个高大结实的人，他有满脸的胡须和一头狂野的红发。即使在酷热的机房里，他也穿着厚厚的防护装备，似乎根本不受温度的影响。他是一个少言寡语的人，大部分时间都在机房或酒吧车厢里。他有一个爽朗的笑声，而且他身上有一种磁性，似乎能吸引所有种族和类型的女性。他曾经是一名骄傲的财富战士，在厌倦了雇佣兵的工作后，他在Rail-Away找到了工作。布兰德使用（%0%）的统计数据，但有一个（%1%）。",
										{
											"type": "inset",
											"entries": [
												{
													"name": "Secrets",
													"entries": [
														"布兰德尔有一个{@item ring of fire elemental command}，可以让他控制为引擎提供动力的火元素。此外，他在佩戴戒指时可以说伊格纳语。在最危险的情况下，他将在战斗中使用这个。",
														"他有一个弱点，就是喜欢花哨的沐浴产品，他的房间有火车上唯一的浴缸。"
													],
													"type": "entries"
												}
											]
										},
										{
											"type": "insetReadaloud",
											"entries": [
												{
													"name": "Bartender Insights",
													"entries": [
														"布兰德知道雷沃对有关天气的无聊谈话感到厌烦，但他很喜欢谈论维里蒂可爱的歌声。"
													],
													"type": "entries"
												}
											]
										}
									],
									"type": "entries"
								},
								{
									"name": "Kogan Hamfist",
									"page": 26,
									"entries": [
										"科根-哈姆菲斯特是一个老山矮人，他既是门房主管又是首席服务员。科根是一个不寻常的矮人，他保持着一张干净的脸（需要每天刮两次胡子才能跟上他的胡子生长速度），并且有异常高的魅力。年近古稀，他的智慧甚至超过了他的年龄，知道如何保持自己的意见，这是他工作的理想特点。他负责所有的标准卧铺车厢，还负责管理铜币酒吧车厢和金币游戏车厢。",
										"如果有人质疑他作为一个矮人的骄傲，他会平静地说：\"我就是我自己，而不是你们期望的那样。\" 他只表现得很有礼貌，即使在紧张的情况下也是如此，并迅速提供他和其他搬运工所能提供的任何服务。他使用（%0%）状态块。",
										{
											"type": "insetReadaloud",
											"entries": [
												{
													"name": "Bartender Insights",
													"entries": [
														"科根知道雷沃讨厌有人影射他看起来很邋遢，但他对酒歌情有独钟，会给那些唱得好或唱新歌的人提供免费饮料。"
													],
													"type": "entries"
												}
											]
										}
									],
									"type": "entries"
								},
								{
									"name": "Porters",
									"page": 26,
									"entries": [
										"每个卧铺车厢都有一个搬运工。他们负责确保一切井然有序，保持区域清洁，并满足客人的需求。他们通常会努力避开人们的视线，但如果有客人参与，他们会以友好的方式与客人交谈。搬运工是半身人、地精和人类的混合体。与他们的任何互动都应该是短暂而平和的。"
									],
									"type": "entries"
								},
								{
									"name": "Verity Billett",
									"page": 27,
									"entries": [
										{
											"type": "image",
											"href": {
												"type": "external",
												"url": "https://raw.githubusercontent.com/TheGiddyLimit/homebrew/master/_img/TSGtTT/Rail-Away/verity_billet.png"
											},
											"title": "Verity Billett"
										},
										"维里蒂是一位华丽的精灵音乐家，是铁道部的固定吟游诗人。高挑的身材，黑色的长发一直披在背上，维里蒂通常穿着贴身的裙子，可以说是最适合的晚礼服（甚至是喝她的早晨咖啡）。多年来，她一直是Rail-Away的常驻表演者，导致许多回头客仅仅为了欣赏她的歌声而留下来......也许还有她的特征。她的声音低沉、沙哑，即使在正常交谈时也是如此，人们发现自己会靠过去听她说的每个字。Verity住在红宝石卧铺车厢的一个双人房间里，而不是员工车厢。",
										{
											"type": "inset",
											"entries": [
												{
													"name": "Secrets",
													"entries": [
														"Verity实际上是一个伪装成混沌中立（%0%）的人。多年前，在甘蒙勋爵公开进行犯罪交易期间，维蒂为他工作。她陶醉于吸引大批的人群，而塔夫和他的下属则盲目地抢劫他们。虽然起初她很高兴以这种方式赚取钱财，但一旦甘蒙买下了他的假贵族身份，她就完全被抛弃了。",
														"Verity拥有夜行者的所有普通技能和熟练程度，此外还有以下能力。",
														"{@b {@i Enchanting Song.}}作为一项行动，Verity可以开始唱一段令人神往的旋律。300英尺范围内能听到这首歌的每一个人形生物都必须在DC18智慧救赎中成功，否则就会被迷住，直到歌曲结束。",
														"当以这种方式被魅惑时，目标会完全被表演所迷惑，获得失明和失聪的条件。Verity可以在她的每个回合继续唱这首歌，作为一个额外动作。歌声在1分钟后结束，或者如果她从一次攻击中受到超过10次的伤害，她就不能使用这个能力，直到下一个夜晚。"
													],
													"type": "entries"
												}
											]
										},
										{
											"type": "insetReadaloud",
											"entries": [
												{
													"name": "Bartender Insights",
													"entries": [
														"Verity知道雷沃不喜欢烟斗，但他非常感谢慷慨的小费。"
													],
													"type": "entries"
												}
											]
										}
									],
									"type": "entries"
								},
								{
									"name": "Raivo Sevara",
									"page": 27,
									"entries": [
										{
											"type": "image",
											"href": {
												"type": "external",
												"url": "https://raw.githubusercontent.com/TheGiddyLimit/homebrew/master/_img/TSGtTT/Rail-Away/raivo_sevara.png"
											},
											"title": "Raivo Sevara"
										},
										"雷沃是一个年轻英俊的半精灵，有着突出的特征，他是Rail-Away的酒保。雷沃是个脾气特别暴躁的年轻人，在一次争吵中被一个古老而强大的埃弗里蒂人诅咒了（他已经忘记了争吵的原因，因为他的分歧是如此频繁和无足轻重）。这个诅咒最普遍的影响是雷沃的头发，它像不透明的火。当他心情好的时候，\"火焰 \"是低调的，几乎没有闪烁，但随着他的愤怒的增长，火焰越来越强，获得真正的热量。当他明显愤怒时，触摸他的头发会造成（%0%）的火焰伤害。",
										"作为一个有吸引力和自信的酒吧主持人，火焰般的头发并没有减少他的人气（事实上，很可能在某些人群中增加了人气）。不过，那些熟悉他的人在他看起来特别火爆的情况下还是会进行掩饰。",
										"雷沃使用{@creature gladiator}的统计数据，并有一些额外的能力。他用空瓶子和杯子来代替长矛，用钢制的托盘代替盾牌。雷沃还知道法师之手和小幻术的咒语，这是他从他的精灵母亲那里学到的。他精通草药学、酿酒学和炼金术，所有这些都有助于他创造出有时具有魔力的鸡尾酒。",
										"伊夫里提给他的诅咒是如此强大，以至于它不能被普通的（%0%）法术所消除。对他施放消除诅咒的咒语反而会产生反弹效果，雷沃和施法者在接下来的24小时内都会感到闷热，遭受到无法用魔法手段消除的疲惫程度。有传言说{@spell greater restoration}的咒语会起作用，但雷沃担心可能的反诅咒效果，没有尝试。",
										"根据他的愤怒程度，雷沃可以创造不同的特殊鸡尾酒（见鸡尾酒菜单）。然而，有一种危险是，如果被激怒到一定程度，他就会跳过酒吧，进行攻击。他避免直接杀人，但有些酒吧的客人需要被教训一下。",
										{
											"type": "inset",
											"entries": [
												{
													"name": "Secrets",
													"entries": [
														"雷沃和维里特是恋人关系。他知道她的秘密和她的过去，但并不关心。他们在一家酒馆相遇，当时维里蒂用她那首迷人的歌曲把他从一场20比1的争吵中救了出来。是他为她争取到了在铁路上的工作。"
													],
													"type": "entries"
												}
											]
										}
									],
									"type": "entries"
								},
								{
									"name": "Alen Trismys",
									"page": 26,
									"entries": [
										"阿伦-特里斯梅斯是一个自命不凡的高等精灵，为最尊贵的客人担任管家。阿伦负责管理豪华车厢，除非有要求，否则很少离开车厢。他认为自己的工作 \"高于 \"铁路-Away的其他员工（除了作为列车长的塔莫），他选择不与任何他认为低于自己的人交往。他体现了 \"高级精灵 \"的缩影，拥有一个长长的水灵灵的鼻子，高高的颧骨，和刺眼的眼睛。他看不起那些住在标准卧铺车厢的客人，而且一般来说，他不太喜欢非精灵，无论其身材如何。阿伦使用{@creature noble}状态块，但缺乏胸甲，而有一个11的AC。",
										{
											"type": "inset",
											"entries": [
												{
													"name": "Secrets",
													"entries": [
														"阿伦其实不是纯血统的高等精灵，因为他的父亲有一半是人类。阿尔曼诺勋爵知道这个潜在的勒索的小道消息，并利用这一点，每当他在铁道部旅行时，就免费住在豪华马车里。阿伦非常想摆脱这个麻烦的客人，但却从未自己动手。"
													],
													"type": "entries"
												}
											]
										},
										{
											"type": "insetReadaloud",
											"entries": [
												{
													"name": "Bartender Insights",
													"entries": [
														"阿伦知道，当有人没有喝完一杯酒时，雷沃会很恼火，但却喜欢有人点满一圈。"
													],
													"type": "entries"
												}
											]
										}
									],
									"type": "entries"
								},
								{
									"name": "Somen Gilrona",
									"page": 27,
									"entries": [
										"Somen Gilrona是一个中年的轻足半身人，是Rail-Away号的主厨。她有一头棕色的头发，有一些雀斑，而且相当丰满（\"永远不要相信一个瘦小的厨师，\"她喜欢说）。虽然苏敏的身高在半身人中属于中等水平，但这让她在标准的厨房里做饭变得有些困难。她用一个由杠杆操作的轨道上的凳子沿着台面来回移动，不知不觉中就能保持一切正常运转。苏敏是个用刀的专家，她把刀放在她专门制作的腰带上，随时带着。她使用{@creature thug}的状态块，而是用匕首攻击（每把造成{@dice 1d4 + 2}的伤害）。",
										"",
										{
											"type": "inset",
											"entries": [
												{
													"name": "Secrets",
													"entries": [
														"苏敏没有自己的孩子，她对铁路局的所有工作人员都有保护意识，但对普利姆特别有母爱，因为她知道这个小妖精的全部历史。如果普利姆受到威胁或指控，苏敏会第一个为她辩护。"
													],
													"type": "entries"
												}
											]
										},
										{
											"type": "insetReadaloud",
											"entries": [
												{
													"name": "Bartender Insights",
													"entries": [
														"苏明知道雷沃不能忍受蘑菇的气味，但他喜欢新切的水果。"
													],
													"type": "entries"
												}
											]
										}
									],
									"type": "entries"
								},
								{
									"name": "Restaurant and Bar Staff",
									"page": 27,
									"entries": [
										"有两名厨房助理，其中一人兼任备用调酒师。另有6名工作人员从事服务工作，在Rail-Away的所有娱乐车厢工作，包括赌博车厢。他们都穿着标准的制服，白色纽扣衬衫、锦缎马甲和合身的长裤。"
									],
									"type": "entries"
								}
							]
						},
						{
							"type": "entries",
							"name": "The Tavern Guests",
							"page": 28,
							"entries": [
								"在 \"铁路之路 \"上，并不是每个人都像他们看起来那样，在很多方面都是如此。铁道上的客人数量在每一站之后都会有所变化，并由GM决定，但下面列出了一些在玩家访问期间可以包括的NPC样本，其中许多都有相应的任务。一些客人和酒馆经营者也是谋杀之谜活动的一个组成部分。指控纷飞。包括该事件的GM应该确保该事件下所列的每个人在事件开始后都在船上。",
								{
									"name": "Hammond Axman",
									"page": 28,
									"entries": [
										"哈蒙德-阿克斯曼是一个狡猾的人类，他把时间花在赌博和欺骗其他客人身上。哈蒙德有一头浅色的沙色金发，水汪汪的蓝眼睛。他最明显的特征是一道横跨额头的伤疤。这个不幸的切口角度给了哈蒙德一个滑稽的惊讶表情，而不是赋予他一种饶舌的魅力。他是个惯于撒谎和欺骗的人，只有他的银牙才使他能够生存这么久。他选择的游戏是指环王和扑克。他有一个{@item stone of good luck}(幸运石)。哈蒙德是个{@creature commoner}，基本魅力值为17。",
										{
											"type": "inset",
											"entries": [
												{
													"name": "Secrets",
													"entries": [
														"哈蒙德过去曾为阿尔曼诺勋爵工作过，但已经有好几年没有见到他了。在他放弃了上一份工作之后，他并不热衷于让人注意到自己，尽管他准备在离开Rail-Away之前把他在赌桌上失去的东西赚回来。",
														"如果亚曼诺勋爵在火车上，而《指责飞》的事件正在进行中，必须注意的是，哈蒙德对情况知之甚少。然而，他完全知道亚曼诺勋爵不是一个贵族。如果被逼问，他会试图通过编造谎言和试图让自己听起来比自己知道的更多来摆脱困境。除非通过魔法手段进行说服，否则他要么说他不认识亚曼诺勋爵，要么直截了当地说他是一个 \"受人尊敬的贵族\"。如果他的关系一旦被揭露，哈蒙德会乞求党人对此事保持沉默。"
													],
													"type": "entries"
												}
											]
										}
									],
									"type": "entries"
								},
								{
									"name": "Dretin Dalmura",
									"page": 28,
									"entries": [
										"Dretin Dalmura是一个女性乌鸦，是一个狂热的黑市交易者。德雷丁穿着一件连帽斗篷，可能是为了掩盖她的遗产，不被人窥视，也可能是为了保护自己不受阳光照射。她的身材苗条而纤细，斗篷下的皮甲染成了黑色。她的头发扎成两条辫子。她的嘴角有一个小疤痕，但如果和她说话，她会露出愉快的笑容。她主要呆在红宝石卧铺车的房间里，也在那里吃饭。",
										"如果Dretin被带出来问话，她肯定会把自己的房间锁起来。她的回答很简短，但很诚实，而且应该很清楚，她不想与这场磨难有任何关系。她与甘蒙的业务关系非常疏远，以至于她并不清楚他的身份。她房间里的具体物品由总经理决定，但价值不应超过150金。"
									],
									"type": "entries"
								},
								{
									"name": "Lord Tavarious Gammon",
									"page": 28,
									"entries": [
										"塔瓦里乌斯-金蒙勋爵是一个肥胖的人类（%0%），他的外形隐藏着经验丰富的肌肉。金门勋爵的衣着即使以贵族的标准来看也是非常奢侈的：丝绸、缎子、锦缎，等等。他把头发向后梳理，塞到耳朵后面，使他看起来有点油腻。虽然他的表情是傲慢的，但他的边缘有一些粗糙的东西，值得注意的是他的手和脸上有几道伤疤。他认为自己是个女汉子，如果玩家的聚会中有女性，如果他的妻子和情妇不在身边，他可能会和她调情。他的大部分时间都在酒吧的车里，或者在他的豪华房间里度过。",
										{
											"type": "inset",
											"entries": [
												{
													"name": "Secrets",
													"entries": [
														"甘蒙勋爵不是天生的贵族，几年前从达鲁斯-阿尔曼诺勋爵那里购买了贵族专利。在此之前，他是一个非常成功的罪犯，实施了许多骗局并利用敲诈来操纵受害者。在他的职业生涯中，他从偷窃扩展到更大的赌博。在那些早期的日子里，他被称为塔夫 \"刀子 \"甘蒙。",
														"购买头衔后，他 \"改邪归正\"，也就是说，他只经营有利可图的远期计划，其中一些计划包括黑市交易、私酒、播种奴隶市场，以及资助奸商。他已经为自己积累了一笔龙的财富。"
													],
													"type": "entries"
												}
											]
										},
										{
											"type": "insetReadaloud",
											"entries": [
												{
													"name": "Important Note",
													"entries": [
														"金门勋爵在党员上车后的某一时刻才登上火车，除非GM避开了 \"指控飞 \"的事件。"
													],
													"type": "entries"
												}
											]
										},
										{
											"type": "image",
											"href": {
												"type": "external",
												"url": "https://raw.githubusercontent.com/TheGiddyLimit/homebrew/master/_img/TSGtTT/Rail-Away/rail_lion.png"
											}
										}
									],
									"type": "entries"
								},
								{
									"name": "Lady Ulume Gammon",
									"page": 28,
									"entries": [
										"乌鲁米夫人是一个半精灵（%0%）的女人，是甘蒙勋爵的妻子。她的衣着保守但丰富，喜欢穿深色的长袍。她总是戴着围巾，即使是在温暖的时候，也要把手臂遮住。她的头发是银色的，她把它梳成一个优雅的发型。作为一个贵族的妻子，她没有戴很多明显的珠宝，不过当她走过时，任何注意的人都可能听到明显的硬币叮当声。金门夫人与金门勋爵同时登上了Rail-Away号。",
										{
											"type": "inset",
											"entries": [
												{
													"name": "Secrets",
													"entries": [
														"金蒙夫人是在金蒙勋爵上任后才认识他的。然而，没过多久，她就发现了他的堕落程度、财富......和残忍。他们已经结婚七年了，但他一直滥交。她最近无意中听到他提到他准备 \"摆脱麻烦\"，这样他就可以适当地享受他的倾向。她决心生存下去，并带着一些财富逃走，她联系了她同父异母的姐姐埃斯特恩（甘蒙勋爵从未见过她），制定了一个摆脱他的计划。",
														"由于对丈夫不放心，金门夫人身上总是带着大量的财富：{@dice 2d6}袋黄金和各种宝石，价值1500金，包括一颗价值300金的钻石。"
													],
													"type": "entries"
												}
											]
										}
									],
									"type": "entries"
								},
								{
									"name": "Esthene Moonshadow",
									"page": 29,
									"entries": [
										"埃斯特恩是个相当漂亮的半精灵，总是穿着闪闪发光的合身衣服。她笑得很开心，似乎不知道个人空间，经常把手放在谈话对象的手臂或肩膀上。她有一头银白色的头发，她把头发散开。她的五官很精致，皮肤是灰白色的瓷器颜色。她的脖子上戴着一条带黑色宝石的银色细链。",
										"埃斯特恩可以在甘蒙勋爵之前、期间或之后不久登上火车。任何看到他们在一起的人都应该很快认为他们是熟识的朋友（更多内容见事件：指责飞扬）。",
										{
											"type": "inset",
											"entries": [
												{
													"name": "Secrets",
													"entries": [
														"Esthene是Ulume同父异母的妹妹，并很快成为Gammon勋爵的情妇，尽管她在任何意义上都不爱Gammon勋爵。她和她的妹妹正在操纵甘蒙的习惯，计划在甘蒙杀死乌鲁姆之前用毒药杀死他。具体细节请参考 \"指责飞 \"事件。",
														"她戴的项链是一个{@item periapt of proof against poison}，可以用{@spell identify}的法术发现。{@spell Detect magic}只会显示出占卜的光环。"
													],
													"type": "entries"
												}
											]
										}
									],
									"type": "entries"
								},
								{
									"name": "Lord Darus Almanor",
									"page": 29,
									"entries": [
										"如果孔雀开屏的概念成为化身，那将是阿尔曼诺勋爵。虽然只有平均身高，但这位人类贵族设法让自己看起来更高大，也许是因为他穿着长长的、流动的、毛皮镶边的丝绸披风。他戴着许多华丽的手套，每件衣服都有一副相配。阿尔曼诺勋爵的脖子上缠绕着多条珠光宝气的金链子，他的耳朵上镶嵌着宝石。他的举止高高在上，脸上有一种残酷的切肤之痛，即使在他微笑的时候也是如此，因为他的笑容从未到达他的眼睛。",
										"伟大的阿尔曼诺勋爵总是在寻找方法来欺骗他的同胞，并公开向乘坐铁路-Away的客人提出宏伟的提议。在大多数合同中，他要求提供可疑的个人信息......几乎就像他在寻找手段来勒索与他打交道的每个人。",
										{
											"type": "inset",
											"entries": [
												{
													"name": "Secrets",
													"entries": [
														"达鲁斯-阿尔曼诺实际上是一个伪装的（%0%）。达鲁斯最初把伪造的贵族专利卖给了甘蒙大人。(他自己的贵族身份也是假的，除了他傲慢的态度外，他的一切也是假的)。他通过伪造、不诚实的合同和挪用公款发了财。"
													],
													"type": "entries"
												}
											]
										}
									],
									"type": "entries"
								},
								{
									"name": "Trackle",
									"page": 29,
									"entries": [
										"Trackle是一个明显不幸的（%0%）女孩，为Gammon勋爵和夫人服务。Trackle走起路来一瘸一拐的，除非有人跟她说话，否则不会说话。她用马尾辫束着她的黑发，穿着一件简单但干净的亚麻布衣服，颜色是金门的制服。她的脸通常不透露任何情绪，但如果智慧（洞察力）检查达到14或更高，就会发现她的眼睛里闪烁着怨恨和绝望的光芒。",
										{
											"type": "inset",
											"entries": [
												{
													"name": "Secrets",
													"entries": [
														"Trackle是Prim的表妹，在Gammon夫人要求提供仆人后，她逃出了他们的矿场。虽然甘蒙夫人的待遇比她在矿场工作的时候要好得多，但她对她的 \"雇主 \"都没有爱。Trackle对Gammon夫人的智力抱有强烈的负面看法。由于甘蒙夫人经常在她面前侃侃而谈，Trackle对妇女们逃离甘蒙勋爵的计划的细节了解得很模糊。她选择保持沉默，因为她知道如果甘蒙夫人失败了，她们三个人都会遭殃。",
														"她惊奇地发现普里姆在船上，认为普里姆在她逃跑后不久发生的矿井坍塌中丧生。"
													],
													"type": "entries"
												}
											]
										}
									],
									"type": "entries"
								},
								{
									"name": "Bishel Voss",
									"page": 29,
									"entries": [
										"比谢尔-沃斯是一个平淡无奇的女人（人类（%0%）），是阿尔曼诺大人的直接下属。阿尔曼诺勋爵总是穿着五颜六色的衣服，相比之下，他最亲密的仆人就显得很平淡。比谢尔的衣柜完全由柔和的灰色和棕色的衣服组成，除了一个简单的皮革吊坠外，没有任何珠宝或装饰品。被动感知能力在17以上的人物会注意到在皮革上烙有一个奇怪的符号。",
										"她有那种一转身就被你忘掉的面孔，因她习惯性地低垂着眼睛而更显突出。关注她的人都会注意到，她不说话，但似乎不用她的雇主问，就知道他想要什么。",
										{
											"type": "inset",
											"entries": [
												{
													"name": "Secrets",
													"entries": [
														"她脖子上戴着的吊坠实际上是一个（%0%）（非常稀有的神奇物品，需要调和。当CR1或更小的人形生物佩戴时，它就像一个永久的施法者，可以支配人。此外，它还能让目标和被调和的生物之间产生心灵感应）。Bishel是一个曾经的街头流浪汉，15年前在一次失败的掏口袋行动后被Almanor勋爵绑架了。比谢尔对他的商业交易了如指掌，因为他毫不犹豫地在无法反对的人面前说话。",
														"如果玩家角色在她附近使用{@spell detect magic}的法术或注意到它的符号，他们就会意识到它。然而，他们需要施展{@spell identify}或进行智力({@skill Arcana})检查(DC18)才能弄清它的属性。",
														"如果玩家角色通过施放{@spell remove curse}、摧毁它或杀死亚曼诺勋爵将她从项圈中解救出来，她会宣布自己永远感激，告诉玩家角色她所知道的关于亚曼诺勋爵（和/或他与甘蒙勋爵的交易）的一切，并提出为他们服务作为报答。"
													],
													"type": "entries"
												}
											]
										}
									],
									"type": "entries"
								},
								{
									"name": "Ryman Thorn",
									"page": 29,
									"entries": [
										"Ryman是一个半身人的绅士（{@creature commoner}）。雷曼的生活中，脸上带着欢快的笑容。他比看上去要老，人们往往低估了他。他保持着一头深色的卷发，脸上的胡子刮得很干净。他不止一次被人误认为是人类的孩子。雷曼出生在一个小镇上，他在很小的时候就决定要环游世界。",
										{
											"type": "inset",
											"entries": [
												{
													"name": "Secrets",
													"entries": [
														"雷曼是一个过度兴奋的偷听者。他有在周围看不见的地方活动的天赋，最近他无意中听到了阿尔曼诺勋爵和甘蒙勋爵之间的有趣对话。细节很模糊，但他听到了 \"妖精 \"和 \"另一个山洞 \"这些细节。从那时起，他就试图了解更多，但运气不佳。"
													],
													"type": "entries"
												}
											]
										}
									],
									"type": "entries"
								},
								{
									"name": "Preston Hillmore",
									"page": 29,
									"entries": [
										"普雷斯顿-希尔摩尔是一个粗糙但诚实的半兽人（{@creature commoner}，力量为16）。普雷斯顿并不是棚子里最锋利或最有魅力的工具，但他是认真和勤奋的。他把黑发梳成整齐的男式发髻，穿着干净、破旧的皮革。普雷斯顿是一名金属制品销售员，专门经营铁砧等用品。只要有机会，他就会乘坐Rail-Away，因为他既喜欢游戏车又喜欢酒吧。他对作弊行为不以为然（而且，如果哈蒙德-阿克斯曼在车上，他很有可能在牌桌上输给他）。如果参与谈话，在某些时候他将试图出售铁砧。"
									],
									"type": "entries"
								}
							]
						},
						{
							"name": "Menu",
							"type": "section",
							"page": 30,
							"entries": [
								"The Rail-Away并不吝啬于舒适和奢华，为客人提供适合最好的旅馆的美味佳肴和饮料。菜单通常是季节性的，从沿途不同的站点挑选新鲜的食材。以下是菜单样本，但也可以加入与列车经过的地点有关的其他菜肴，以增加亮点和风味。",
								{
									"name": "Appetizers",
									"entries": [
										{
											"name": "Oysters on Ice - 5 sp",
											"entries": [
												"新鲜的半壳牡蛎配上柠檬马鞭草冰、切碎的小葱和少许辣椒酱。"
											],
											"type": "entries"
										},
										{
											"name": "Devils on Horseback - 5 sp",
											"entries": [
												"酥脆的培根包裹着烤枣，里面塞满了黄油和杏仁混合物。"
											],
											"type": "entries"
										},
										{
											"name": "Toad in the Hole - 5 sp",
											"entries": [
												"用黑胡椒面糊烘烤的一口大小的香肠，配上焦糖红洋葱果酱和苹果酱蘸食。"
											],
											"type": "entries"
										}
									],
									"type": "entries"
								},
								{
									"name": "Entrees",
									"entries": [
										{
											"name": "Roast Beast - 5 gp",
											"entries": [
												"当天的烤红肉肉质鲜美、分量十足，配上满是滚烫的肉汁船和一大堆烤蔬菜。通常是牛肉，但如果Rail-Away的捕牛人抓到了任何更有趣的游戏，Somen厨师会施展她的魔法。",
												{
													"type": "image",
													"href": {
														"type": "external",
														"url": "https://raw.githubusercontent.com/TheGiddyLimit/homebrew/master/_img/TSGtTT/Rail-Away/roast_beast.png"
													},
													"title": "Roast Beast"
												}
											],
											"type": "entries"
										},
										{
											"name": "Glazed Duck Breast - 3 gp",
											"entries": [
												"煎鸭胸脯淋上糖蜜，配上烤无花果和五香米饭。"
											],
											"type": "entries"
										},
										{
											"name": "Jugged Hare - 3 gp",
											"entries": [
												"用新鲜的野兔、红酒、蔬菜和杜松子、大蒜等材料在陶罐中烹制的咸味炖品。"
											],
											"type": "entries"
										},
										{
											"name": "Farmhouse Tart - 1 gp",
											"entries": [
												"一层层慢烤的季节性蔬菜在黄油饼皮中烘烤，并撒上奶酪碎末。包括一份小的新鲜蔬菜沙拉。"
											],
											"type": "entries"
										}
									],
									"type": "entries"
								},
								{
									"name": "Special Brunch Menu",
									"entries": [
										{
											"name": "Afternoon Tea - 4 gp",
											"entries": [
												"厨师精选的手指三明治、茶饼和小甜点，搭配您选择的精灵茶或酒吧的鸡尾酒。"
											],
											"type": "entries"
										}
									],
									"type": "entries"
								},
								{
									"name": "Cocktails",
									"entries": [
										"虽然Rail-Away提供所有标准的啤酒、葡萄酒和蜂蜜酒，你可以在任何酒馆找到，但也有一个特殊的菜单，其中的饮料只能根据雷沃当前的愤怒程度来提供。滚动1d4来决定雷沃的起始态度。",
										"需要注意的是，虽然你可能希望提高雷沃的愤怒程度（利用你从其他工作人员那里了解到的关于他的任何信息）来获得你想要的饮料，但同样重要的是，你不要让他对你生气，否则当他无法控制自己的愤怒时，可能会发生争吵。换句话说：不要把它变成个人问题。",
										{
											"name": "The Misty Morning - 6 sp",
											"entries": [
												"{@b Attitude:} Calm (1)",
												"这是一款宁静的蓝色、只有轻微酒精含量的鸡尾酒，缥缈的早晨很适合作为清肠剂，留下了清爽的薄荷味。",
												"任何喝了这种鸡尾酒的人物都会感到普遍的幸福感，并会失去1级的疲惫感。"
											],
											"type": "entries"
										},
										{
											"name": "The Smoking Gargoyle - 8 sp",
											"entries": [
												"{@b Attitude:} 恼怒 (2)",
												"缕缕蒸汽从这杯旋转的、浑浊的鸡尾酒顶部飘出，里面漂浮着金粉斑点。喝完后，有些人会发现蒸汽从他们的耳朵和鼻子里冒出来。"
											],
											"type": "entries"
										},
										{
											"name": "The Bugbear - 1 gp",
											"entries": [
												"{@b Attitude:} 恼怒 (3)",
												"桶装麦芽谷物烈酒为这杯黑啤酒鸡尾酒提供了基础，并混合了少量的橙汁和苦味剂。用牙签刺穿中心的樱桃是唯一的装饰。"
											],
											"type": "entries"
										},
										{
											"name": "The Steam Engine - 3 gp",
											"entries": [
												"{@b Attitude:} 激动的 (4)",
												"一杯冒着气泡的饮料，热乎乎地装在一个圆形的杯子里，非常适合在寒冷的日子里暖和一下手。Tarmo Warberry最喜欢的鸡尾酒。"
											],
											"type": "entries"
										},
										{
											"name": "The Executioner's Axe - 5 gp",
											"entries": [
												"{@b Attitude:} 愤怒 (5)",
												"作为一种有咬劲的饮料，这种鸡尾酒包含不少于六种不同口味的酒精，以某种方式结合在一起，使其尝起来只有钢铁的尖锐味道。",
												"任何喝了这把斧头的角色都会充满自信，并在接下来的8小时内进行的任何魅力检查中获得+4的效果。"
											],
											"type": "entries"
										},
										{
											"name": "The Flaming Hairy Eyeball - 10 gp",
											"entries": [
												"{@b Attitude:} 炽热的愤怒 (6)",
												"这款鸡尾酒装在高脚杯中，实际上有一个虚幻的、不眨眼的、燃烧着的眼球在上面盘旋，似乎直盯着饮酒者的灵魂。它又热又辣，含有清澈的烈酒、红辣椒糖浆和雷沃的特别配方。",
												"任何成功喝下（并保持在DC12宪法检查下）这种混合物的角色都会充满澎湃的力量并获得+3 AC。这个效果会持续（%0%）小时。",
												{
													"type": "image",
													"href": {
														"type": "external",
														"url": "https://raw.githubusercontent.com/TheGiddyLimit/homebrew/master/_img/TSGtTT/Rail-Away/flaming_hairy_eyeball.png"
													},
													"title": "The Flaming Hairy Eyeball"
												}
											],
											"type": "entries"
										}
									],
									"type": "entries"
								}
							]
						},
						{
							"name": "The Quest Board",
							"type": "section",
							"page": 32,
							"entries": [
								{
									"type": "image",
									"href": {
										"type": "external",
										"url": "https://raw.githubusercontent.com/TheGiddyLimit/homebrew/master/_img/TSGtTT/Rail-Away/rail_questboard.png"
									},
									"title": "Quest Board"
								},
								"一块黑板位于餐车内，上面有一些来自酒馆经营者或客人的潦草的求助信息。有些字迹非常精细、有文化，有些则几乎看不清楚。",
								{
									"name": "The Cheat",
									"entries": [
										"{@i Undercover help wanted. Discretion is a must.}",
										"{@i See Kogan Hamfist for details.}",
										"{@b Quest Giver:}科根-哈姆菲斯特，首席搬运工人",
										"科根-哈姆菲斯特一直收到令人不安的报告，称博彩车可能存在作弊行为，主要是在某些扑克游戏中。虽然作弊在Rail-Away上是绝对不允许的，但他也不想错误地指责任何人。他要求你调查并向他报告。他提供了100金币的奖励，只要问题被悄悄解决，不影响客人。",
										"如果一行人调查了牌桌并玩了几局，他们很快就会发现哈蒙德-阿克斯曼似乎赢的次数多得不成比例，尽管他似乎并没有算牌或与其他人合作。如果他们发现他携带幸运石，这将是科根-哈姆菲斯特将哈蒙德扔下火车的充分证据。如果赌徒在车上，他就会和党员们打赌，有可能告知他们哈蒙德的宝藏。或者，他们可以审问哈蒙德或以其他方式让他认错，或者用自己操纵的游戏为他设下一个陷阱。如果遇到这种情况，哈蒙德会试图说服自己摆脱麻烦。"
									],
									"type": "entries"
								},
								{
									"name": "The Delivery",
									"entries": [
										"{@i Courier needed for a simple delivery job.}",
										"{@i Please see Dretin Dalmura, the Sapphire car.}",
										"{@b Quest Giver:} Dretin Dalmura",
										"{@i {@b Note:}这个任务的目的是要在Rail-Away在地下行驶任何距离时使用，但也可以在一般情况下使用，没有限制。如果火车没有任何地下的目的地，那么看到一个乌鸦在上面旅行就会更奇怪了。｝",
										"如果一行人见到了德雷丁-达尔穆拉，这个乌鸦会解释说她不喜欢在阳光下出门，但需要在下一站送一个重要的包裹。她告诉队伍，需要送去的商店离车站很近。他们将从商人那里得到250金币的报酬，其中德雷丁将提供50金币给他们作为工作的报酬。如果他们接受了这个任务，她告诫他们不要打开包裹，说里面的东西很容易损坏。",
										"如果玩家角色接受了这个任务，他们可以简单地送出包裹，然后按照要求回到火车上，并为他们的麻烦得到报酬。他们要送的商人是一个叫尼布尔-格林福克的人，他看起来很狡猾，但他会及时付钱的，他们回来后德雷丁也会付钱。",
										"然而，如果玩家角色打开盒子，它首先会出现充满蠕动的蜈蚣，但蜈蚣会变成{@dice 2d4+2} {@creature quasit|mm|quasits}。由于类人猿喜欢隐身，不喜欢日光，它们很可能会消失，并试图散开。根据盒子被打开的位置，这可能意味着一小群类人猿被释放到了铁路上，或者释放到了毫无戒心的小镇上。然后，玩家必须通过重新抓捕或杀死quasits来收拾残局。如果被杀的夸父发现了，她就会发动攻击，除非被说服（例如，玩家向她支付所欠的250金币或通过DC16恐吓检查）。"
									],
									"type": "entries"
								},
								{
									"name": "Rusted!",
									"entries": [
										"{@i If you've a weapon handy & don't mind getting your hands dirty, see the engineer. Better yet, know some spells.}",
										"{@b Quest Giver:} Brandr Fintan",
										"如果NPC拜访工程师，他会解释说他被警告说前面的铁轨上有%0%的虫害，他希望得到一些帮助来处理它。他警告他们，虽然锈迹斑斑的怪物单个并不特别难对付，但在没有魔法武器的情况下，他们最好做好准备。",
										"如果党员们接受了这项工作，很快就会有警报声响起，火车会减速停下。前面是{@dice 2d4 + 2}{@creature rust monster|mm|rust monsters}，即将攻击轨道。党有(2%)个回合来处理这些害虫，以免它们破坏轨道，导致维修和延误。如果队伍能及时拯救轨道，布兰德尔将在奖励中增加{@dice 2d8}供应+1弹药。成功完成这个任务还将提供一个与布兰德尔的关系提升，并在与他的任何互动中获得优势。",
										""
									],
									"type": "entries"
								},
								{
									"name": "The Stowaway",
									"entries": [
										"{@i Help Wanted. See Prim.}",
										"{@b Quest Giver:} Prim，又名 \"Knuckles\"，售票员",
										"普利姆为自己的严格管理而自豪，成功偷渡到 \"铁路之路 \"的人相当少见--更常见的情况是被暴打和驱逐。但最近，Knuckles听到了关于食物和移动物品消失的传言。她反复搜查了火车，但一筹莫展。偷渡者在哪里？她需要找到他们，而且是在消息传出之前，她已经失去了她的影响力--她不能对她找不到的人动手。她提供了200金币，如果当事人能解开这个谜团并帮助她赶走偷渡者，如果有的话。",
										"如果玩家进行调查，他们可能会瞥见一个看起来像孩子的人出现在不应该出现的地方（因为火车上可能没有家庭）。在车厢之间移动时，他们可能会注意到（被动感知力为14）从上面传来的声音或在不应该有食物的地方闻到食物的味道。如果他们使用其中一个梯子爬到火车的顶部，他们会发现有人在其中一个卧铺车厢的顶部搭建了一个看起来像是小营地的东西，其中包括一个床单和行李。如果他们设法找到莱曼，或在他的营地等待，他就会投降。",
										"雷曼会恳求党组织允许他留下，保证与他们分享有趣的信息，如果他们给他送饭，他就不再偷吃。他说，他只是想旅行，对任何人都没有恶意。如果甘蒙勋爵和亚曼诺勋爵在火车上，他将表示他知道有非常多汁的事情发生，他不想离开，因为他想知道发生了什么。",
										"如果玩家角色向 \"Knuckles \"告发他并接受奖励，Ryman将被 \"逮捕 \"并在下一站被赶下火车。或者他们可以选择帮助瑞曼，在这种情况下，他将与他们分享信息。在总经理的决定下，瑞曼可能会了解更多的细节来帮助他们，在指控飞。然而，他们需要为 \"Knuckles \"想出一个合理的故事，解释他们为什么没有找到偷渡者（DC 16说服力或欺骗检查）。"
									],
									"type": "entries"
								},
								{
									"name": "Dinner's On You",
									"entries": [
										"{@i Experienced Hunters Needed {@u Immediately!}}",
										"{@i See the Chef before our next stop.}",
										"{@b Quest Giver:} 厨师Somen Gilrona",
										"{@i {@b ImportantNote:}这个任务只有在亚曼诺大人和甘蒙大人上船后才会出现在任务板上，最好是在他们上船后的第二天。玩家角色可能会在与亚曼诺勋爵交谈后目睹半身人厨师在任务板上发布任务。然而，即使GM没有开展 \"指控飞 \"活动，也可以将其作为一项任务，将阿尔曼诺勋爵换成任何一个胃口大的普通贵族。在这个变体下，这个任务可以玩任何次数。｝",
										"苏敏惊慌失措地解释说，达鲁斯-亚曼诺勋爵要求举行一场奢侈的宴会，以一道不寻常的主菜为中心吸引人。",
										"在下面的表格中滚动或选择，以确定Rail-Away接下来要访问的环境。然后，从列表中选择一个你认为适合这次遭遇的怪物，或者从GM选择的另一个大型的、可能食用的生物中选择。",
										{
											"type": "table",
											"colLabels": [
												"Forest",
												"Lake/River",
												"Underground"
											],
											"colStyles": [
												"col-1",
												"col-1",
												"col-1"
											],
											"rows": [
												[
													"{@creature Wyvern}",
													"{@creature Giant Crocodile}",
													"{@creature hell hound|mm|Hellhound}"
												],
												[
													"{@creature Unicorn}",
													"{@creature Giant Scorpion}",
													"{@creature Purple Worm}"
												],
												[
													"{@creature Dire Wolf}",
													"{@dice 2d4+1} {@creature Giant Toad|mm|Giant Toads}",
													"{@creature Minotaur}"
												]
											]
										},
										{
											"type": "table",
											"colLabels": [
												"Forest",
												"Lake/River",
												"Underground"
											],
											"colStyles": [
												"col-1",
												"col-1",
												"col-1"
											],
											"rows": [
												[
													"{@dice 1d4} {@creature Bulette}",
													"{@creature Abominable Yeti}",
													"{@creature Giant Shark}"
												],
												[
													"{@dice 2d4} {@creature Cockatrice|mm|Cockatrices}",
													"{@creature Young Brass Dragon|mm|Young Dragon (any type)}",
													"{@creature Giant Octopus}"
												],
												[
													"{@dice 1d4} {@creature Giant Boar}",
													"{@dice 1d4} {@creature Giant Goat}",
													"{@dice 1d4} {@creature Giant Crab}"
												]
											]
										},
										"如果一行人接受了任务，在下一站，Somen会告诉你在附近可以找到猎物的方向。时间是关键，因为火车将在1小时后再次出发，她必须开始做饭。如果一行人成功带回了游戏，他们将获得300金币的奖励，并被邀请参加宴会，在那里他们将与甘蒙勋爵和夫人一起坐在阿尔曼诺勋爵的餐桌上。"
									],
									"type": "entries"
								}
							]
						},
						{
							"name": "Events",
							"type": "section",
							"page": 34,
							"entries": [
								"某些事件可以由GM决定发生，这些事件要么取决于时间，要么取决于NPC。",
								{
									"name": "Elementally Unsound",
									"entries": [
										"{@i This optional event can occur at any time and is unrelated tothe Accusations Fly event.}",
										"玩家角色被火车的突然停顿惊醒，伴随着的是全力刹车的刺耳声音。这种颠簸足以让玩家角色从床上摔下来，并被撞倒在地，除非他们进行DC14运动能力检查。如果失败，他们将受到坠落的伤害。",
										"火车前部传来混乱和惊慌的喊叫声。如果玩家角色往前走，他们会看到工作人员逃离引擎，其中一个人会尖叫：\"Brandr失去控制了！\" 如果玩家调查蒸汽机，他们会发现发动机的舱门被推开，一个{@creature fire elemental}和{@dice 1d4}{@creature steam mephit|MM|steam mephits}在房间里躺着。工程师Brandr躺在地上不省人事。任何被动感知能力在14以上的人都会注意到地板上躺着一枚镶有红宝石的金戒指（%3%）。",
										"如果队伍成功地遏制或消灭了威胁，他们应该能够使布兰德尔复活，他将要求取回他的戒指，以便使火车重新运行。他对自己的救命之恩（和火车）心存感激，与塔莫-沃贝里和普里姆商讨合适的奖励。他们为党派提供了终身免费乘坐铁路的机会和一枚抗寒戒指。在此事件之后，整个团队将在与火车工作人员的任何基于魅力或智力的互动中享有优势。"
									],
									"type": "entries"
								},
								{
									"name": "Accusations Fly",
									"entries": [
										"下面列出了一个潜在的谋杀之谜，可以由总经理酌情启动。对剧情起关键作用的酒馆经营者和客人（包括红鲱鱼）是：。",
										{
											"type": "list",
											"name": "Guests",
											"columns": 3,
											"items": [
												"Tavarious Gammon勋爵",
												"乌鲁姆-甘蒙女士",
												"艾斯蒂恩",
												"月影",
												"达鲁斯-阿尔曼诺勋爵",
												"苏明-吉罗纳",
												"冯小刚",
												"追踪器",
												"哈蒙德-阿克斯曼",
												"莱曼-索恩(Ryman Thorn)"
											]
										},
										{
											"type": "list",
											"name": "Operators",
											"columns": 3,
											"items": [
												"Prim，又名 \"Knuckles\"",
												"维里蒂-比列特",
												"Raivo Sevara"
											]
										},
										{
											"name": "What Happens...",
											"entries": [
												"根据GM的判断，在玩家角色登上铁路-Away后至少一天，会发生以下情况。",
												"Rail-Away停在一个正常的车站。在乘客上下车的时候，玩家角色会被提醒注意外面的异常骚动。",
												"一个衣着光鲜的贵族、他的妻子和他们的妖精仆人正在与他们的坐骑搏斗，后者拒绝登上牲畜车厢。包括科根、布兰德尔和普里姆在内的几名铁路局工作人员赶来帮助安抚和装载马匹。任何一个被动感知能力在12以上的角色都会注意到，这两个妖精（Prim和Trackle）看到对方时显得很震惊，但很快就继续他们的工作。一个同样属于甘蒙家族的大箱子被装进了货物区，甘蒙大人对此大惊小怪。",
												"观察这对夫妇的人将了解到，他们的名字是金门勋爵和夫人。金门勋爵似乎非常专横，而他的妻子似乎很安静。另外的新乘客也上了船，包括另一个贵族（Almanor勋爵）和他的仆人（Bishel Voss）。",
												"第二位贵族说：\"为什么，我亲爱的甘蒙勋爵，在这里遇到你真好！我一直听说你的各种消息，最近的交易......一直想看看你。我一直听说你的各种消息......最近的交易......一直想来看看你。也许我们可以在旅行中讨论一些业务？\" 甘蒙勋爵带着厌恶的表情回答说：\"这纯粹是一次愉快的旅行，阿尔曼诺勋爵。\"",
												"在火车即将出发的最后一刻，又有一位乘客出现了：一位美丽的半精灵女子（Esthene Moonshadow）。甘蒙勋爵如饥似渴地注视着这位新乘客，而甘蒙夫人则在一旁看着。",
												"火车离站后，玩家角色可以与车上的任何乘客或工作人员正常互动，接受任务，等等。第一天发生了许多事情，玩家角色可能会也可能不会直接观察到这些事情，但可以通过与目击者交谈来了解。"
											],
											"type": "entries"
										},
										{
											"type": "table",
											"caption": "Day 1",
											"colLabels": [
												"Time",
												"Event",
												"Witnesses"
											],
											"colStyles": [
												"col-1 text-center",
												"col-6",
												"col-3"
											],
											"rows": [
												[
													"{@b Morning}",
													"人们看到Prim和Trackle一起交换了拥抱和泪水。",
													"Somen Gilrona, Ryman Thorn, and Kogan Hamfist"
												],
												[
													"",
													"阿尔曼诺勋爵在酒吧的车厢里接近甘蒙勋爵，并进行了简短的对话。听到了 \"如果你不这样做，你会后悔的 \"这句话。",
													"雷沃-塞瓦拉、Trackle和Bishel Voss"
												],
												[
													"{@b Afternoon}",
													"Prim问Tarmo Warberry是否有空间容纳另一名工作人员。",
													"Somen Gilrona和Alen Trismys"
												],
												[
													"{@b Evening}",
													"维里蒂-比勒特走上了她的舞台，在看到观众席上的甘蒙勋爵后明显地退缩了。",
													"雷沃-塞瓦拉、比谢尔-沃斯、阿尔曼诺勋爵、雷曼-索恩和哈蒙德-阿克斯曼"
												],
												[
													"",
													"亚曼诺勋爵将比谢尔-沃斯的纸条送给了维利特。Verity把纸条揉成一团，扔掉了。{@i Ryman Thorn later on picks up the discarded note and keeps it. It reads: I know what you are.}",
													"雷沃-塞瓦拉、塔尔莫-沃伯格和雷曼-索恩。"
												],
												[
													"{@b Night}",
													"甘蒙勋爵在观察车内与艾丝汀-月影会面，进行浪漫的尝试。",
													"Alen Trismys, Ryman Thorn, and Verity Billett"
												],
												[
													"",
													"人们看到雷沃-塞瓦拉进入维里蒂-比列特的房间。",
													"科根-哈姆菲斯特和德雷丁-达尔穆拉"
												]
											]
										},
										{
											"type": "table",
											"caption": "On the second day, a number of things occur:",
											"colLabels": [
												"Time",
												"Event",
												"Witnesses"
											],
											"colStyles": [
												"col-1 text-center",
												"col-6",
												"col-3"
											],
											"rows": [
												[
													"{@b Morning}",
													"阿尔曼诺勋爵请甘蒙勋爵和他一起吃早餐，但甘蒙勋爵拒绝了。",
													"哈蒙德-阿克斯曼、瑞曼-索恩和比谢尔-沃斯"
												],
												[
													"",
													"Almanor勋爵向Somen Gilrona提出了一个昂贵的请求。此后不久，她在任务板上发布了一个通知（见{@b Dinner's On You}任务；它是可选的，如果忽略的话会被删除）。",
													"比谢尔-沃斯、哈蒙德-阿克斯曼和全体餐车工作人员"
												],
												[
													"",
													"Rail-Away号停下来取回Almanor要求的原料。",
													""
												],
												[
													"{@b Afternoon}",
													"阿尔曼诺勋爵向甘蒙勋爵和夫人发出了晚餐邀请，如果他们完成了他的要求，宴会也会有。邀请函上写着 \"只有特权者才能享受的感官享受！\"",
													"冯小刚"
												],
												[
													"",
													"甘蒙夫人和埃斯特恩在观察车中相遇。甘蒙夫人给了她一些东西。",
													"雷曼-索恩，阿伦-特里斯米斯"
												],
												[
													"{@b Early Evening}",
													"埃斯特恩告诉甘蒙勋爵，她很快就要离开了。她腼腆地提到，在那之前她将在自己的房间里休息。",
													"阿伦-特里斯米斯、雷曼-托恩、雷沃-塞瓦拉和科根-哈姆菲斯特"
												],
												[
													"{@b Dinner}",
													"阿尔曼诺勋爵与甘蒙勋爵进行了一次低声交谈，甘蒙似乎一笑置之。如果玩家角色在场，他们会听到 \"不要以为你的秘密是我的 \"和 \"付出的代价很小 \"这两句话。",
													"甘蒙女士、苏门-吉罗纳和比谢尔-沃斯"
												],
												[
													"",
													{
														"type": "entries",
														"entries": [
															"Lord Almanor sends a note to Verity. Verity reads the note, adds to it and returns it via Bishel to Raivo, who throws it away.",
															"{@i If found later in the bar trash, it reads \"I need you to work your magic during dessert. Don't deny me.\" and \"Raivo, can you help? I have to sing.\"}"
														]
													},
													"Hammond Axman, Dretin Dalmura, Bishel Voss, Ryman Thorn, Lord & Lady Gammon and Somen Gilrona"
												],
												[
													"",
													"就在吃甜点之前，雷沃和工作人员给亚曼诺勋爵桌上的每个人都送上了一杯特别的鸡尾酒，除了比谢尔。雷沃说：\"一种特别的饮料，与你的甜点课程相配，\"。",
													"Almanor勋爵、Bishel Voss、Gammon勋爵和Gammon夫人"
												],
												[
													"",
													{
														"type": "entries",
														"entries": [
															"After dessert is served, Lord Almanor makes a toast: \"To old friends and new!\" drinking the cocktail, and encourages everyone to join him in the toast.",
															"{@i {@b IMPORTANT NOTE:} The glasses are protected with Abjuration magic to prevent detection. Everyone drinking suffers disadvantage on Wisdom saving throws.}"
														]
													},
													"Almanor勋爵，Bishel Voss，Gammon勋爵，Gammon夫人"
												],
												[
													"",
													"维里特唱歌。每个人都必须做一个DC18的智慧救赎动作。如果他们失败了，他们会非常享受这首歌。",
													""
												],
												[
													"",
													{
														"type": "entries",
														"entries": [
															"During the song, Lord Almanor removes his glove and pokes the entranced Lord Gammon in the neck. Player characters with a Passive perception of 16 or higher will notice this (DC 15 if they are seated at the table).",
															"{@i Anyone with a Passive Perception of 20 will notice the odd shape of his hand.}"
														]
													},
													"冯小刚"
												],
												[
													"",
													"歌声过后，阿尔曼诺勋爵告诉甘蒙勋爵：\"也许你会重新考虑我的提议......在你睡个好觉之后。\" 虽然很有礼貌，但不知为什么，这听起来像是一种威胁。",
													"比谢尔-沃斯，金蒙勋爵和夫人"
												],
												[
													"{@b After Dinner}",
													"金门勋爵感到疼痛和发烧。金门夫人要求Trackle提供温热的蜂蜜牛奶作为补救措施。",
													"Bishel Voss和Almanor勋爵"
												],
												[
													"",
													"Trackle离开去取它，与Prim进行了简短的互动，后者递给她一些东西。",
													"Somen Gilrona，餐车工作人员和Ryman Thorn"
												],
												[
													"",
													{
														"type": "entries",
														"entries": [
															"Lady Gammon leaves to sleep in the small room of their car.",
															"{@i She says she did so to avoid Lord Gammon's feverish complaining}"
														]
													},
													"Alen Trismys"
												],
												[
													"{@b Late Evening}",
													"埃斯特恩从她的房间爬上梯子，来到屋顶，来到观察车前。",
													"莱曼-索恩(Ryman Thorn)"
												],
												[
													"",
													"如果甘蒙勋爵将公司带入观察车，他们会发现艾丝汀穿着蕾丝睡衣在等待。看到公司，她会直截了当地说：\"我改变主意了，我们明天早上再谈吧。\" 在一个简短但混乱的吻之后，她离开了。",
													""
												],
												[
													"",
													"惊慌失措的甘蒙勋爵会问大家他是否能信任他们（DC14劝说检查）。如果被说服，他将计划在早餐时讨论细节。如果不被说服，他就说他希望独自一人享受他的吻的残余，以及他的蜂蜜牛奶。",
													"莱曼-索恩(Ryman Thorn)"
												],
												[
													"{@b The Next Morning}",
													"甘蒙勋爵被发现死在水星观测车内。死因显然是中毒。",
													""
												]
											]
										},
										{
											"name": "What to Do...",
											"entries": [
												"为了摆脱因谋杀甘蒙勋爵而被指控并被送入监狱的命运，玩家角色必须制定并提出可信的理论，说明甘蒙勋爵是如何死亡的，谁干的，以及为什么会这样。他们必须在下一站的火车上完成这项工作，并被允许询问或与火车上的任何人交谈，不过火车上的工作人员，包括Knuckles，将密切关注他们。",
												"由于金门勋爵实际上是被不同的人袭击的，而且有很多敌人，为了使自己免于被捕，玩家可以提出一些理论。此外，只要他们用自己能够收集到的证据（%0%）提出一个令人信服的理论，他们就可以成功，由GM决定。",
												"如果他们无法拼凑出足够的线索，他们将在下一站被逮捕。",
												"当事人也可以选择以战斗的方式获得自由，这是一个 \"核 \"选项。这个选择将促使普里姆、布兰特-芬丹和塔尔莫-沃贝里与他们战斗。作为一个变种，在GM的判断下，其他乘客或工作人员可以选择加入战斗，这取决于他们目前与党员的关系。",
												"如果党员们之前将比谢尔-沃斯从亚曼诺勋爵的统治项圈中释放出来，她就会站出来说出她所知道的事情，这足以让亚曼诺勋爵受到怀疑并释放党员。"
											],
											"type": "entries"
										},
										{
											"name": "What Really Happened...",
											"entries": [
												"以下是在Rail-Away号上发生的真实情况。"
											],
											"type": "entries"
										},
										{
											"name": "Plot One (Cause of Death)",
											"entries": [
												"Ulume Gammon夫人和她同父异母的妹妹Esthene Moonshadow密谋除掉Gammon勋爵已经有一段时间了。与其在家里谋杀他，他们决定最好是在公开场合实施这个阴谋，确保他们都有不在场证明。他们找来了一些毒药和一个{@item periapt of proof against poison}，等待时机。埃斯特恩确保每个人都看到她与甘蒙勋爵的 \"分手\"，而乌鲁米则在她的卧室里大声打鼾，制造自己的不在场证明。当天晚上，埃斯特恩来到了观察车，通过轨道车的车顶毒死了他。如果玩家角色与甘蒙勋爵一起去，她看到他们在那里会很惊讶，并会迅速吻他（通过她的唇膏沉积毒药，其中含有一种混合了蜡和从粉碎的火甲虫壳中提取的胭脂红染料的缓效（1%）毒药）。然后她通过之前的路线回到了自己的房间（再次由雷曼-索恩见证）。这就是真正杀死甘蒙勋爵的原因。"
											],
											"type": "entries"
										},
										{
											"name": "Plot Two",
											"entries": [
												"Prim和Trackle对重逢感到非常高兴，因为他们都认为对方已经死了。Prim也急于把Trackle从她的奴役中解放出来，甚至和Tarmo Warberry谈起为她的表妹在Rail-Away上找一份工作。Trackle知道Ulume和Esthene在计划着什么，所以她想在事情变得糟糕之前尽快离开。当Trackle去拿蜂蜜牛奶时，Prim给了她一样东西：从她的藏品中拿出一颗宝石，以备Trackle需要一些逃跑资金。这个交易就像一个红色的诱饵，揭示了甘蒙的历史。"
											],
											"type": "entries"
										},
										{
											"name": "Plot Three",
											"entries": [
												"Verity看到她以前不怀好意的老板Gammon勋爵登上Rail-Away号，压力很大，这是可以理解的。她不希望自己的过去被揭露，也不希望被拉进任何进一步的计划。她喜欢和雷沃在火车上的生活。",
												"与此同时，阿尔曼诺勋爵也非常高兴见到甘蒙勋爵。他听说了很多关于他的前客户所积累的财富的事情，并且非常想和他再次做生意。如果甘蒙对合作关系不感兴趣，阿尔曼诺也不排除对他进行敲诈。他多次试图让甘蒙勋爵与他交谈--但都没有成功，并以精心准备的晚宴为借口，知道甘蒙勋爵不可能拒绝它。",
												"前一天，Almanor勋爵饶有兴趣地注意到Verity和Gammon之间的互动，并且凭借他的真实视力，轻易地穿透了她的伪装。当甘蒙再次拒绝他时，阿尔曼诺决定威胁他。他要求Verity唱她的《迷人的歌》。Verity唱了，但在此之前，他请来了Raivo Sevara的帮助，Raivo Sevara用他的技能调制了一种鸡尾酒（%0%），其效果将在第二天的晚餐中详细介绍），希望能确保餐桌上没有人能够抵挡她的歌声。",
												"在她唱歌的时候，阿尔曼诺勋爵对甘蒙勋爵谨慎地使用了他的罗刹爪攻击，诅咒他，并使他的脖子上出现了一小滴血。这个神奇的诅咒是为了在甘蒙睡觉时生效，让他的思想充满可怕的图像和梦境。他的计划是用诅咒迫使甘蒙屈服于他的要求。然而，甘蒙在他能够再次威胁他之前就死了。"
											],
											"type": "entries"
										},
										{
											"type": "inset",
											"name": "Tavern History",
											"entries": [
												"Rail-Away开始时规模不大：只有一台发动机和一节货厢，里面有几张双层床。多年来，它变得越来越大，越来越宏伟。在塔莫-沃伯里的领导下，新的目的地不断增加，新的轨道也不断铺设，以覆盖更多的地区（并了解生活在那里的语言和人们）。他把他所有的可观（继承）财富都投入到火车上，并认为员工是他从未拥有过的家庭，因为他从未结婚。几乎所有 \"铁路之路 \"上的工作人员都是从流浪者、顽童或难民的生活中拯救出来的。",
												"每当 \"探索者 \"访问 \"铁路之路 \"时，他都非常享受，并尽其所能让这个铁皮人尽可能长时间地停留和访问。他们关于另一个世界的不可思议的故事足以吸引塔尔莫，也足以吸引乘客。令他感到无奈的是，\"探索者 \"从不 \"教 \"塔尔莫任何东西，他说：\"学习是浪费时间，为什么不生活呢？\" 当一起接触时，Tarmo说探索者是 \"一个家族的老朋友\"，他是Rail-Away的第一批乘客之一。"
											]
										}
									],
									"type": "entries"
								}
							]
						},
						{
							"type": "entries",
							"name": "Stat Block",
							"page": 37,
							"entries": [
								{
									"type": "list",
									"items": [
										"{@creature Dretin Dalmura|TSGtTT}",
										"{@creature Prim, a.k.a. \"Knuckles\"|TSGtTT}"
									]
								}
							]
						}
					]
				}
			]
		}
	],
	"monster": [
		{
			"name": "Dretin Dalmura",
			"isNamedCreature": true,
			"source": "TSGtTT",
			"page": 37,
			"size": [
				"M"
			],
			"type": {
				"type": "humanoid",
				"tags": [
					"drow"
				]
			},
			"alignment": [
				"N",
				"E"
			],
			"ac": [
				{
					"ac": 15,
					"from": [
						"{@item chain shirt|phb}"
					]
				}
			],
			"hp": {
				"special": "19"
			},
			"speed": {
				"walk": 30
			},
			"str": 10,
			"dex": 14,
			"con": 12,
			"int": 11,
			"wis": 11,
			"cha": 14,
			"skill": {
				"perception": "+2",
				"stealth": "+4",
				"insight": "+4",
				"persuasion": "+4"
			},
			"senses": [
				"darkvision 120 ft."
			],
			"passive": 12,
			"languages": [
				"Common",
				"Undercommon",
				"Elvish"
			],
			"cr": "1",
			"spellcasting": [
				{
					"name": "Innate Spellcasting",
					"headerEntries": [
						"Dretin Dalmura的法术能力是魅力（法术保存（%0%））。她可以天生施展以下法术，不需要任何物质成分。"
					],
					"will": [
						"{@spell dancing lights}"
					],
					"daily": {
						"1e": [
							"{@spell darkness}",
							"{@spell faerie fire}"
						]
					},
					"ability": "cha",
					"type": "spellcasting"
				}
			],
			"trait": [
				{
					"name": "Fey Ancestry",
					"entries": [
						"Dretin Dalmura在对被害人的救赎上有优势（%0%），而且魔法不能使乌鸦入睡。"
					]
				},
				{
					"name": "Sunlight Sensitivity",
					"entries": [
						"在阳光下时，乌鸦在攻击卷轴以及依靠视觉的智慧（感知）检查上都处于劣势。"
					]
				}
			],
			"action": [
				{
					"name": "Gray Bag of Tricks",
					"entries": [
						"Dretin带着一个灰色的袋子，在战斗开始时她会从里面抽出一些招数。"
					]
				},
				{
					"name": "Shortsword",
					"entries": [
						"{@atk mw} {@hit 4}击中，到达5英尺，一个目标。{@h}5 ({@damage 1d6 + 2})穿刺伤害。"
					]
				},
				{
					"name": "Hand Crossbow",
					"entries": [
						"{@atk rw} {@hit 4}击中，范围30/120英尺，一个目标。{@h}5 ({@damage 1d6 + 2})的穿刺伤害，目标必须成功进行{@dc 13}宪法救赎，否则会被{@condition poisoned}1小时。如果蓄力失败5次或更多，目标也会被{@condition unconscious}，同时{@condition poisoned}被这种方式伤害。如果目标受到伤害或其他生物采取行动摇醒它，它就会醒来。"
					]
				},
				{
					"name": "Sneak Attack (1/Turn)",
					"entries": [
						"当Dretin用武器攻击击中目标并在攻击卷轴上有优势时，会造成额外的7（（%0%））伤害。"
					]
				}
			],
			"traitTags": [
				"Fey Ancestry",
				"Sunlight Sensitivity"
			],
			"senseTags": [
				"SD"
			],
			"languageTags": [
				"C",
				"E",
				"U"
			],
			"damageTags": [
				"P"
			],
			"spellcastingTags": [
				"I"
			],
			"miscTags": [
				"MW",
				"RNG",
				"RW",
				"MLW"
			],
			"conditionInflict": [
				"poisoned",
				"unconscious"
			],
			"fluff": {
				"entries": [
					"Dretin Dalmura是一个女性乌鸦，是一个狂热的黑市交易者。德雷丁穿着一件连帽斗篷，可能是为了掩盖她的遗产，不被人窥视，也可能是为了保护自己不受阳光照射。她的身材苗条而纤细，斗篷下的皮甲染成了黑色。她的头发扎成两条辫子。她的嘴角有一个小疤痕，但如果和她说话，她会露出愉快的笑容。她大部分时间都呆在自己的房间里。"
				]
			},
			"attachedItems": [
				"hand crossbow|phb",
				"shortsword|phb"
			],
			"savingThrowForced": [
				"constitution"
			],
			"savingThrowForcedSpell": [
				"dexterity"
			]
		},
		{
			"name": "Prim, a.k.a. \"Knuckles\"",
			"isNamedCreature": true,
			"source": "TSGtTT",
			"page": 37,
			"size": [
				"S"
			],
			"type": {
				"type": "humanoid",
				"tags": [
					"goblinoid"
				]
			},
			"alignment": [
				"L",
				"N"
			],
			"ac": [
				13
			],
			"hp": {
				"average": 84,
				"formula": "14d8 + 28"
			},
			"speed": {
				"walk": 30
			},
			"str": 18,
			"dex": 16,
			"con": 14,
			"int": 11,
			"wis": 16,
			"cha": 12,
			"skill": {
				"stealth": "+6"
			},
			"senses": [
				"darkvision 60 ft."
			],
			"passive": 16,
			"languages": [
				"Common",
				"Goblin",
				"some Elvish"
			],
			"cr": "6",
			"action": [
				{
					"name": "Nimble Escape",
					"entries": [
						"普利姆可以在她的每个回合中采取脱离或隐藏行动作为奖励行动。"
					]
				},
				{
					"name": "Multiattack",
					"entries": [
						"普利姆可以用毒镖攻击一次，然后用 \"One-Two Punch \"攻击两次。"
					]
				},
				{
					"name": "Poisoned Dart",
					"entries": [
						"{@atk rw} {@hit 5}击中，范围30/120英尺，一个生物。{@h}4 ({@damage 1d4 + 2})穿刺伤害，目标必须在{@dc 16}体质救赎中成功，否则会被{@condition poisoned}1分钟。目标可以在其每个回合结束时重复蓄力，如果成功则结束对自己的影响。"
					]
				},
				{
					"name": "One-Two Punch",
					"entries": [
						"{@atk mw} {@hit 7}击中，到达5英尺，一个目标。{@h}6 ({@damage 2d4 + 4})重击伤害，目标必须成功进行{@dc 16}宪法救赎，否则会倒下{@condition prone}。",
						"这套铜指环有6个电荷，在黎明时分可以恢复所有消耗的电荷。在持有并适应这些物品的时候，普利姆可以消耗1个电荷来激活以下属性之一。",
						{
							"type": "list",
							"items": [
								"在自然卷19-20的情况下，Prim可以消耗1个电荷将目标击倒（%0%），持续1分钟。",
								"普利姆在被击中后可以消耗1次冲锋，迫使目标在宪法规定的救赎中成功，或者被击倒{@condition unconscious}，持续{@dice 1d4}回合。"
							]
						}
					]
				}
			],
			"senseTags": [
				"D"
			],
			"actionTags": [
				"Multiattack"
			],
			"languageTags": [
				"C",
				"GO",
				"E"
			],
			"damageTags": [
				"P",
				"B"
			],
			"miscTags": [
				"RW",
				"THW",
				"MW"
			],
			"conditionInflict": [
				"poisoned",
				"unconscious"
			],
			"fluff": {
				"entries": [
					"普利姆是一个年轻的女妖精，既是 \"铁路之路 \"上的权威人物，也是它的售票员。任何低估 \"Knuckles \"的人都会对他们造成伤害。普利姆身材偏小，再加上铁路公司标准的星光闪闪的售票员制服，她有点像人们从酒馆的礼品店买来的儿童玩偶。然而，除了她的钢铁意志，她还带着一套神奇的铜指关节，她喜欢把它称为 \"一二拳\"。普利姆可以在Rail-Away的任何一节车厢里找到她，因为她会不断地进行巡视。她的突然出现可能会让一些客人感到惊讶，因为她的步伐非常安静。"
				]
			},
			"savingThrowForced": [
				"constitution"
			]
		},
		{
			"name": "Prim, a.k.a. \"Knuckles\"",
			"isNamedCreature": true,
			"source": "TSGtTT",
			"page": 37,
			"size": [
				"S"
			],
			"type": {
				"type": "humanoid",
				"tags": [
					"goblinoid"
				]
			},
			"alignment": [
				"L",
				"N"
			],
			"ac": [
				13
			],
			"hp": {
				"average": 84,
				"formula": "14d8 + 28"
			},
			"speed": {
				"walk": 30
			},
			"str": 18,
			"dex": 16,
			"con": 14,
			"int": 11,
			"wis": 16,
			"cha": 12,
			"skill": {
				"stealth": "+6"
			},
			"senses": [
				"darkvision 60 ft."
			],
			"passive": 16,
			"languages": [
				"Common",
				"Goblin",
				"some Elvish"
			],
			"cr": "6",
			"action": [
				{
					"name": "Nimble Escape",
					"entries": [
						"普利姆可以在她的每个回合中采取脱离或隐藏行动作为奖励行动。"
					]
				},
				{
					"name": "Multiattack",
					"entries": [
						"普利姆可以用毒镖攻击一次，然后用 \"One-Two Punch \"攻击两次。"
					]
				},
				{
					"name": "Poisoned Dart",
					"entries": [
						"{@atk rw} {@hit 5}击中，范围30/120英尺，一个生物。{@h}4 ({@damage 1d4 + 2})穿刺伤害，目标必须在{@dc 16}体质救赎中成功，否则会被{@condition poisoned}1分钟。目标可以在其每个回合结束时重复蓄力，如果成功则结束对自己的影响。"
					]
				},
				{
					"name": "One-Two Punch",
					"entries": [
						"{@atk mw} {@hit 7}击中，到达5英尺，一个目标。{@h}6 ({@damage 2d4 + 4})重击伤害，目标必须成功进行{@dc 16}宪法救赎，否则会倒下{@condition prone}。",
						"这套铜指环有6个电荷，在黎明时分可以恢复所有消耗的电荷。在持有并适应这些物品的时候，普利姆可以消耗1个电荷来激活以下属性之一。",
						{
							"type": "list",
							"items": [
								"在自然卷19-20的情况下，Prim可以消耗1个电荷将目标击倒（%0%），持续1分钟。",
								"普利姆在被击中后可以消耗1次冲锋，迫使目标在宪法规定的救赎中成功，或者被击倒{@condition unconscious}，持续{@dice 1d4}回合。"
							]
						}
					]
				}
			],
			"senseTags": [
				"D"
			],
			"actionTags": [
				"Multiattack"
			],
			"languageTags": [
				"C",
				"GO",
				"E"
			],
			"damageTags": [
				"P",
				"B"
			],
			"miscTags": [
				"RW",
				"THW",
				"MW"
			],
			"conditionInflict": [
				"poisoned",
				"unconscious"
			],
			"fluff": {
				"entries": [
					"普利姆是一个年轻的女妖精，既是 \"铁路之路 \"上的权威人物，也是它的售票员。任何低估 \"Knuckles \"的人都会对他们造成伤害。普利姆身材偏小，再加上铁路公司标准的星光闪闪的售票员制服，她有点像人们从酒馆的礼品店买来的儿童玩偶。然而，除了她的钢铁意志，她还带着一套神奇的铜指关节，她喜欢把它称为 \"一二拳\"。普利姆可以在Rail-Away的任何一节车厢里找到她，因为她会不断地进行巡视。她的突然出现可能会让一些客人感到惊讶，因为她的步伐非常安静。"
				],
				"images": [
					{
						"type": "image",
						"href": {
							"type": "external",
							"url": "https://raw.githubusercontent.com/TheGiddyLimit/homebrew/master/_img/TSGtTT/Rail-Away/prim_knuckles.png"
						}
					}
				]
			},
			"tokenUrl": "https://raw.githubusercontent.com/TheGiddyLimit/homebrew/master/_img/TSGtTT/Rail-Away/prim_token.png",
			"savingThrowForced": [
				"constitution"
			]
		}
	]
}
