{
	"_meta": {
		"sources": [
			{
				"json": "MagicalBindTattoos",
				"abbreviation": "TATnB",
				"full": "Magic Binding Tattoos",
				"authors": [
					"ukyo"
				],
				"convertedBy": [
					"Modnar"
				],
				"version": "1.0",
				"url": "https://www.reddit.com/r/UnearthedArcana/comments/6sigtj/magic_binding_tattoos_new_magical_tattoo_system/",
				"targetSchema": "1.0.0"
			}
		],
		"dateAdded": 1572214321,
		"dateLastModified": 1638295463,
		"_dateLastModifiedHash": "c2f421b311"
	},
	"book": [
		{
			"name": "Magic Binding Tattoos",
			"id": "TATnB",
			"source": "MagicalBindTattoos",
			"published": "2017-08-09",
			"group": "homebrew",
			"contents": [
				{
					"name": "Magically Binding Tattoos",
					"headers": [
						"Magically Binding Tattoos",
						"The Power of the Tattoo",
						"Let's Get Inked!",
						"The Tattoo Artist"
					]
				}
			]
		}
	],
	"bookData": [
		{
			"id": "TATnB",
			"source": "MagicalBindTattoos",
			"data": [
				{
					"type": "section",
					"name": "Magically Binding Tattoos",
					"entries": [
						"神奇的纹身是一种罕见的、特殊的控制编织的形式。它将编织的能量折叠束缚在被纹者的皮肤上，时间有限。魔法的力量和稀有性以及接受者的意愿将决定有多少 \"编织 \"能被束缚在肉体上。",
						"神奇的纹身是任何能够忍受束缚的人与编织的临时联系，而不是每个人都可以。有一些人寻求这些纹身的力量，经历了这个过程，无论是从糟糕的材料、仓促的工作还是不熟练的艺术家，纹身过程都会出现灾难性的失败，本来想提高的东西会伤害甚至诅咒，这取决于所追求的力量。",
						"如果纹身是由一个大师级的艺术家用最好的原料制作的墨水涂抹的，那么对 \"编织 \"的约束力就会比预期的更强。",
						"最后，每个纹身都是不同的，取决于各种因素：纹身的大小、墨水原料的稀有程度、试图绑定的咒语或效果的等级，以及接受者的意愿。而且，不管是什么纹身，它无疑会给持有者带来巨大的好处。",
						{
							"type": "section",
							"entries": [
								{
									"type": "section",
									"name": "Tattoo Size",
									"entries": [
										"纹身有三种尺寸：小、中、大。纹身的大小有助于确定有多少编织的id直接与肉体结合。较大的纹身意味着更多的魔法，但也意味着更大的失败机会。",
										{
											"type": "table",
											"caption": "Tattoo Size",
											"colLabels": [
												"Size",
												"Tattooing Check",
												"Charges"
											],
											"colStyles": [
												"col-3 text-center",
												"col-8 text-left ",
												"col-2 text-center"
											],
											"rows": [
												[
													"小型",
													"1 检查",
													4
												],
												[
													"中型",
													"2 支票",
													8
												],
												[
													"大型",
													"3 次检查",
													12
												]
											]
										}
									]
								},
								{
									"type": "section",
									"name": "Tattoo Ink",
									"entries": [
										"任何普通的墨水都不能用来在纹身中绑定织法。从最开始的成分，即所需效果的法术卷轴，到同一法术的组成部分，其所有的总和都直接与织法形成了一种神奇的绑定联系。在创造墨水的过程中，所有部件都被消耗并转化为墨水。成分的质量越高，纹身成功的机会就越大。",
										"咒语卷轴和它的成分只是墨水的基本成分。管理员应该查看所需的法术，并选择基本法术成分之外的附加成分。例如，火球术需要一小团蝙蝠粪便和硫磺。管理员可以决定，另外还需要火元素的精华，以帮助在纹身中把成分和魔法结合起来。",
										"最后，每个纹身都会有一个不同的墨水配方，这将由你的管理员决定。配方从一个法术卷轴和法术成分开始，然后根据你的活动，根据故事和可能的冒险进行调味。卷轴的成本也被用来决定高质量成分的价格，这将直接影响到成功的几率和纹身的用途（见纹身DC表）。纹身的艺术不必直接影响魔法，但如果你要有一个纹身，你应该让它成为一个坏蛋。"
									]
								},
								{
									"type": "section",
									"name": "Tattooing DC",
									"entries": [
										"一旦决定了法术效果的类型和墨水配方，就可以确定将魔法与纹身结合的难度。下面的图表，纹身DC，显示了一个按等级划分的咒语和其可比的卷轴稀有性。随着法术的稀有性或等级的提高，它在连接肉体和织体的直接联系方面的难度也在增加。",
										"例如，一个火球术卷轴是一个不常见的卷轴，因此其纹身DC为15。如果纹身是一个大型的纹身，那么就需要进行三次检查。所有的检查都必须成功，这样才能使纹身束缚住魔法。如果检查失败，组件就会被消耗掉，墨水也会丢失，不会有任何不良影响。",
										"唯一需要注意的是关键性的失败，在这种情况下，纹身会错误地束缚住受术者，使其受到建议的相反效果的诅咒。例如，一个用于增加AC的纹身可能会在战斗中和最糟糕的时候减少AC。由DM来决定对严重失败的纹身检查的惩罚。",
										"反之，关键的成功将使纹身的电荷增加一倍。例如，一个小纹身的基础是4个电荷，但如果掷出20个电荷，小纹身就会被赋予8个电荷。",
										{
											"type": "table",
											"caption": "Tattooing DC",
											"colLabels": [
												"Spell Level",
												"Spell Scroll Rarity",
												"Tattoo DC"
											],
											"colStyles": [
												"col-4 text-center",
												"col-6 text-left ",
												"col-2 text-center"
											],
											"rows": [
												[
													"0-1级",
													"普通",
													"10"
												],
												[
													"2-3级",
													"不常见",
													"15"
												],
												[
													"4-5级",
													"Rare",
													"20"
												],
												[
													"6-8级",
													"非常罕见",
													"25*"
												],
												[
													"第9级",
													"传说中的",
													"30*"
												]
											],
											"footnotes": [
												"* The attempt to bind a high-level spell is a very serious undertaking. Even when successful, the power bound can be more that the recipient can handle. A constitution check by the recipient is needed; very rare DC15; Legendary DC20. Failure does not mean the tattoo did not take, but the mind and body of the recipient paid a heavy toll. This heavy penalty is determined by the DM based upon the magic attempting to be bound"
											]
										}
									]
								}
							]
						}
					]
				},
				{
					"type": "section",
					"name": "The Power of the Tattoo",
					"entries": [
						"每个纹身都是连接编织的桥梁，但不是永久性的。每个纹身都有一定数量的奥术能量与之结合。一旦这种力量被耗尽，纹身就会消失。此外，即使魔法很强，肉体却很弱，可以直接从编织中输送这么多能量。这分解为（%0%）和（%1%）。",
						"纹身的总能量是它的电荷数，这主要由纹身的大小决定。一旦这些电荷消失，纹身就会逐渐消失。",
						"纹身的使用次数，或可以调用魔法的频率，是基于法术效果的强大程度。一个低级的治疗性纹身可能在一天内使用6次，一个高级的治疗性法术可能在短期或长期休息前一天只能使用一次。",
						{
							"type": "section",
							"name": "The Power of the Tattoo",
							"entries": [
								{
									"type": "section",
									"name": "Tattoo Usage",
									"entries": [
										"咒语的等级限制了纹身的魔法可以被引导的频率。一个纹身每天的使用量在长时间休息后会完全恢复。在短暂的休息中，你可以进行一次奥术检查，以恢复当天一半的已用次数。例如，如果你在长时间休息时可以使用你的纹身4次，在短时间休息时，如果奥术检查成功，你会再获得2次使用权。如果纹身在一天内只有一次使用权，那么这个魔法就太强大了，无法在短时休息中恢复，只有长时休息才够用。",
										"纹身效果可以用行动来激活，除非你试图创造的法术效果另有规定，或者你的DM另有决定。",
										{
											"type": "table",
											"caption": "Uses per day by spell level",
											"colLabels": [
												"0",
												"1st",
												"2nd",
												"3rd",
												"4th",
												"5th",
												"6th",
												"7th",
												"8th",
												"9th"
											],
											"colStyles": [
												"col-2 text-center",
												"col-1 text-center",
												"col-1 text-center",
												"col-1 text-center",
												"col-1 text-center",
												"col-1 text-center",
												"col-1 text-center",
												"col-1 text-center",
												"col-1 text-center",
												"col-1 text-center"
											],
											"rows": [
												[
													"无限制",
													"4",
													"3",
													"3",
													"3",
													"3",
													"2",
													"2",
													"1",
													"1"
												]
											]
										}
									]
								},
								{
									"type": "section",
									"name": "Tattoo Charges",
									"entries": [
										"神奇的纹身是与 \"编织 \"的直接而强大的联系，但只是暂时的。一旦所有的费用用完，纹身就不再是了。与普通的纹身不同，每次使用魔法都会消耗和降低艺术的墨水。纹身越大，可以绑定的魔法就越多，但要付出更高的材料成本和失败几率。成分的质量也可以提高墨水的魔法属性。",
										"例如，一个小的纹身可以绑定足够的魔力来进行4次充电，但如果是用强化墨水制作的，还可以绑定一个额外的充电，共5次。",
										{
											"type": "table",
											"caption": "Optional Caption",
											"colLabels": [
												"Size",
												"Base Charge #",
												"Enhanced Ink"
											],
											"colStyles": [
												"col-5 text-left",
												"col-3-5 text-center",
												"col-3-5 text-center"
											],
											"rows": [
												[
													"小型",
													4,
													5
												],
												[
													"中型",
													10,
													11
												],
												[
													"大型",
													15,
													16
												]
											]
										}
									]
								}
							]
						},
						{
							"type": "section",
							"name": "Physical limits of the flesh",
							"entries": [
								"肉体的物理极限 只有这么多的魔法可以与肉体结合。每一个新的编织桥梁都会将身体的物理极限推到超出它们本来的位置。到了第三个纹身，魔法开始对身体造成更严重的伤害，每一个新纹身都需要进行CON DC。失败的意思是身体在这个时候无法坚持魔法。不幸的是，所有的材料和成本都在失败的尝试中损失了。",
								{
									"type": "table",
									"caption": "Tattoo limits",
									"colLabels": [
										"# of Tattoos",
										" Con DC"
									],
									"colStyles": [
										"col-6 text-center",
										"col-6 text-center"
									],
									"rows": [
										[
											"1-2",
											"DC 0"
										],
										[
											"3",
											"DC 5"
										],
										[
											"4",
											"DC 10"
										],
										[
											"5",
											"DC 15"
										],
										[
											"6",
											"DC 20"
										],
										[
											"7",
											"DC 25"
										],
										[
											"8+",
											"DC 30"
										]
									]
								}
							]
						},
						{
							"type": "table",
							"caption": "Spell scroll costs",
							"colLabels": [
								"Spell scroll level",
								"Cost in gp",
								"Rarity"
							],
							"colStyles": [
								"col-6 text-center",
								"col-4-5 text-left",
								"col-1-5"
							],
							"rows": [
								[
									"0级",
									30,
									"普通"
								],
								[
									"第1级",
									60,
									"普通"
								],
								[
									"第2级",
									120,
									"不常见"
								],
								[
									"3级",
									200,
									"不常见"
								],
								[
									"4级",
									320,
									"Rare"
								],
								[
									"5级",
									640,
									"Rare"
								],
								[
									"6级",
									1280,
									"非常罕见"
								],
								[
									"7级",
									2560,
									"非常罕见"
								],
								[
									"8级",
									5120,
									"非常罕见"
								],
								[
									"第9级",
									10240,
									"传说中的"
								]
							],
							"outro": [
								"based on {@book Sane Magical prices|SMIP}"
							]
						},
						{
							"type": "section",
							"name": "Modifying Success and Failure",
							"entries": [
								"以纹身的形式成功绑定魔法是一项强大的努力，因此它不是一项简单的任务。许多事情都会影响结合的过程。材料的质量，艺术家的技能，以及 \"编织 \"的流动性。",
								{
									"type": "section",
									"name": "Ink Quality",
									"entries": [
										"{@b Basic Quality Ink}",
										"如果墨水是由基本成分制成的，相对于法术卷轴的成本，一个DC检查是不利的。",
										"{@b High Quality Ink}",
										"如果墨水是用更高质量的原料制作的，是相对法术卷轴和原料成本的两倍，每一个纹身尺寸都要直接进行DC检查。",
										"{@b Superior Quality Ink}",
										"如果墨水是用上等的材料制作的，是相对法术卷轴和材料成本的3倍，则可以以优势进行一次纹身DC检查。",
										"例如，一个火球术卷轴是一个3级的法术卷轴，卷轴成本为200戈比。为了给一个DC检查带来优势，材料的基本成本是600。如果它是一个小纹身，那么唯一的一次DC检查就会有优势。",
										"{@b Enhanced Ink Ingredients}",
										"用从与法术效果相关的生物中获得的额外材料来加强墨水，将使艺术家在一次纹身检查中获得优势。这些成分必须来自于CR值是相对法术等级两倍的生物，或者加起来是法术等级的两倍。",
										"例如，火球术是一个3级法术。对于纹身师来说，要想在一次DC检查中获得优势，可以将两个火元素（CR5）的精华或材料加入到墨水中。尽管一个火元素只有CR5，但2个火元素的精华却高于所需的CR6。",
										"除了艺术家在一次DC检查中获得优势外，强化墨水还为纹身增加了一项额外的费用。"
									]
								},
								{
									"type": "section",
									"name": "Flux of the Weave",
									"entries": [
										"在DC检查中，如果关键的一卷达到20，就会给予纹身一个额外的指控。",
										"在非优势的DC检查中，1的关键卷会导致关键失败。见失败的纹身。"
									]
								},
								{
									"type": "section",
									"name": "Failed Tattoos",
									"entries": [
										"捆绑魔法的力量非同小可，可以赋予其持有者神奇的力量，但一旦出错，就会变得非常可怕。",
										"最起码，如果奥术能量不能正确地结合和腐蚀，魔法会用腐蚀的力量使血液变质，使接受者的主要能力得分减少1d6，从而诅咒他们，直到使用更大的恢复术来消除诅咒。",
										"另外，DM可以选择在咒语的基础上创造一个独特的诅咒，这也是非常值得鼓励的。在这种情况下，纹身会不正确地束缚诅咒接受者，可能会产生与咒语相反的效果。",
										"例如，一个用于增加AC的纹身可能会在战斗中和最糟糕的时候减少AC。由DM来决定对严重失败的纹身检查的惩罚，它应该是有趣的，但不是报复性的。"
									]
								}
							]
						}
					]
				},
				{
					"type": "section",
					"name": "Let's Get Inked!",
					"entries": [
						"所以你想得到一个甜蜜的屁股纹身？让我们去做吧。",
						"我们勇敢的冒险家Fargrim决定他需要一点额外的东西来帮助他进行下一次远征。他听说过一个巫师，虽然有点疯狂，但却有惊人的天赋，有能力将魔法直接绑定在个人身上。",
						"找到这个巫师本身几乎就是一个任务，但这个任务非常值得法尔格瑞姆花费时间和精力。经过大量的酒和深入的讨论，巫师给了Fargrim一份要收集的各种东西的清单。",
						"法尔格瑞姆希望在遇到困难时能得到一点额外的保护，但如果他穿上更多的盔甲，他就会失去灵巧的奖励。因此，大家同意由巫师设计一个图案，将编织的保护性能量与他的皮肤结合在一起，在他的肩膀上纹上一个小图案。纹身的效果将基于的咒语是（%0%）。",
						"我们说墨水需要银，因为它的纯度和与生俱来的魔法质量，为了追求味道，我们加入了妖怪的灰尘，以获得强度和耐久性。",
						"具体情况如下。",
						{
							"type": "list",
							"style": "list-hang",
							"items": [
								"{@b Spell effect} : 盾牌1级卷轴，普通，60戈比",
								"{@b Small tattoo} : 每卷法术卷轴的基本费用为60gp x2 120gp，用于高质量的材料",
								"{@b Ink ingredients}的100sp和Gargoyle灰尘1盎司",
								"(0％）的普通法术卷轴水平需要1个纹身检查DC 10",
								"没有当前的纹身意味着Con检查DC为0"
							]
						},
						"结果是一个有4次充电的小盾牌纹身，由于Fargrim是一个10级的野蛮人，如果他愿意，他可以在一天内使用所有4次充电。",
						"现在，让我们假设Fargrim知道他要进入一个很深的地下城，并将面对一些相当讨厌的野兽。他知道他需要使用4次以上的盾牌纹身。",
						{
							"type": "list",
							"style": "list-hang",
							"items": [
								"{@b Spell effect} : 盾牌1级卷轴 普通60戈比",
								"{@b Medium tattoo} : 每张咒语卷轴的基本费用为60gp x3 极好的材料为180gp x2 大小为540gp",
								"{@b Ink ingredients}的100sp和妖怪尘埃1盎司x2",
								"{@b Enhancing ink ingredients} : 2个Hulking Crab shell (CR5) 或1个Galeb Duhr (CR6)",
								"(普通法术卷轴等级的0%）需要2个纹身检查DC10，其中一个检查对高级成分有优势。",
								"没有以前的纹身意味着Fargrim需要接受检查"
							]
						},
						"结果是一个中型盾牌纹身，有8+1次充电。Fargrim在一天内最多可以使用4次充电，直到长时间休息。在短暂的休息和成功的奥术检查中，他将重新获得2次使用。"
					]
				},
				{
					"type": "section",
					"name": "The Tattoo Artist",
					"entries": [
						"要把编织的东西捆绑到肉体上，需要相当多的技巧和智力。在少数开始魔法理解之路的人中，很少有人能够超越理解如何将更高层次的魔法与肉体结合的能力，而在这些人中，更少有人能够达到掌握技能以尝试最高层次的魔法结合。这门艺术所涉及的技能和研究使得他们很少有时间去冒险。他们更愿意招揽冒险者来采购稀有和难以获得的资源，而不是自己去冒险。",
						"因此，这些纹身店对于有幸找到的大胆的冒险家来说是一个很好的收入来源。魔法纹身店在低级别的魔法中并不罕见，通常会在魔法丰富且正常的大城市中找到。各区的魔法区和奥术研究区是一个安全的地方，可以开始寻找。虽然这些纹身店很少有艺术家能够绑定比稀有魔法更多的东西。",
						"另一方面，纹身大师的店铺非常罕见，很难找到，要找到一个，本身就是一种探索。这些罕见的大师们往往只使用非常罕见的魔法，不断寻求进一步的理解。他们会派出他们的学徒去寻找最强的冒险者，并提供他们的服务，希望能学会如何将传奇级别的魔法与肉体结合。",
						"纹身师根据她的掌握程度进行纹身DC检查。下面是推荐的商店和艺术家的技能水平及其稀缺性。大师的奖励总数为12，使低级别的纹身法术对他们来说是平凡而无聊的工作。他们如饥似渴地寻找传奇魔法所带来的挑战，但却不屑于与要求简单东西的不太强大的冒险者打交道的烦恼。",
						{
							"type": "table",
							"caption": "Artist mastery/shop Scarcity",
							"colLabels": [
								"Skill Level",
								"Prof Bonus",
								"Int Mod",
								"difficulty locating"
							],
							"colStyles": [
								"col-3 text-center",
								"col-2 text-center",
								"col-2 text-center",
								"col-5 text-center"
							],
							"rows": [
								[
									"新手",
									"+2",
									"+3",
									"Easy"
								],
								[
									"熟练",
									"+3",
									"+3",
									"一些努力"
								],
								[
									"高级",
									"+4",
									"+4",
									"很难找到*。"
								],
								[
									"专家",
									"+5",
									"+5",
									"极度困难**"
								],
								[
									"硕士",
									"+6",
									"+6",
									"由追求只***"
								]
							],
							"footnotes": [
								"* Only about a quater of those who study the art of magical tattoos become advanced enough to bind rare magic to flesh. They tend to have shops open in all cities where magic is available and practed openly. The artists there are eager to push themselves and welcome customers readily.",
								"** One tenth of those who achieve advanced in thier skill are able to break through the secrets of the arcane enough to formulate and control the very rare magic in these inks. Hearsay and rumors will lead you here possibly from stories in taverns or even a minor quest that leads to this artist's shop.",
								"*** Only 1 percent of experts ever achieve the rank of Master. There is little to no chance of stumbling across a master artist. Chances are if you do, he meant for you to find him. Perhaps his apprentice, and expert level artist sent word to him, or through a network of eyes in the various cities, your power drew his attention upon you."
							]
						},
						"第一次接触往往是以寻求收集艺术家所需的稀有部件的形式进行，这样大师就会知道你值得他花费时间和精力。",
						{
							"type": "section",
							"name": "Optional rule of Infection",
							"entries": [
								"并非每个纹身师都是平等的，年轻的纹身师的做法也是如此。",
								"新手与非凡的大师相比，就像天人与魔鬼一样有着巨大的差别。",
								"从墨水的准备方式到你发现它们的商店的清洁度。",
								"有些墨水配方需要你使用感染性和病态的材料，如果准备不当，可能会让你的冒险血液中流淌的不仅仅是魔法。由于这些材料的神奇性质，快速去找当地的牧师可能不会那么快就能解决它们。",
								{
									"type": "table",
									"caption": "Chance of infection",
									"colLabels": [
										"Skill Level",
										"% chance of infection"
									],
									"colStyles": [
										"col-7 text-center",
										"col-5 text-center"
									],
									"rows": [
										[
											"新手",
											20
										],
										[
											"熟练",
											15
										],
										[
											"高级",
											10
										],
										[
											"专家",
											5
										],
										[
											"硕士",
											0
										]
									]
								},
								"如果发生感染，接受者会收到1d6级的疲惫，减去纹身师的熟练度奖励。例如，Fargrim醉醺醺地决定在 \"半兽人的华夫饼和墨水之家 \"打上墨水，结果事情并不那么顺利。",
								"令人惊讶的是，Fargrim得到了感染，并在疲惫等级方面掷出了6分，艺术家的新手等级为-2，总共有4级疲惫。"
							]
						},
						{
							"type": "section",
							"name": "Tattoo Book",
							"entries": [
								"这里有一些带有成本和墨水成分的纹身图案，以及对它们如何工作的描述。大多数是基于《公共卫生手册》的法术列表，也有一些是从以前的D&D版本中提取的。重要的是，在纹身方面要有乐趣和创意。允许你的玩家对他们的设计进行描述。这可以帮助建立一种坏蛋的感觉，并鼓励在你的游戏中进行角色扮演。我将在我自己的游戏中需要更多的纹身时，不时地更新这个部分。",
								"最终，由DM决定什么会或不会起作用，以及每个纹身将如何发挥作用。每个纹身都需要一种非常特殊和不同的墨水。有些会很便宜，也很容易制造，其他的可能会导致令人难以置信的任务，以收集所有的原料和法术成分。",
								"所有墨水的配方都是基于小尺寸的纹身。",
								{
									"type": "section",
									"name": "Light Healing Tattoo",
									"entries": [
										"{@b Based on {@spell Cure Light Wounds|Phb}}",
										{
											"type": "list",
											"style": "list-no-bullets",
											"items": [
												"{@i 1st-level evocation}"
											]
										},
										"{@b Casting Time}: 1次行动",
										"{@b Ink Recipe}: 治愈轻伤的法术卷轴，3滴祭司的血，100磅。",
										"{@b Duration}: 瞬时",
										"{@b Spell Scroll Cost}: 60gp",
										"{@b Tattooing DC}: 10",
										"{@b Enhanced Ink}: 3根巨鹰的羽毛",
										"",
										"这个纹身有一颗心，周围有一个光环星。在光环中的每一个电荷都有一颗微微发亮的星星。",
										"每花一次电荷，就有一颗星失去光芒，你会恢复相当于1d8+你的智慧修正值的命中率。",
										"一旦所有费用用完，该纹身就会完全消失。",
										"你可以一次使用一个以上的电荷。每使用一次电荷，治疗效果增加1d8。"
									]
								},
								{
									"type": "section",
									"name": "Second Chance",
									"entries": [
										"{@b Based on {@spell Death Ward|Phb}}",
										{
											"type": "list",
											"style": "list-no-bullets",
											"items": [
												"{@i 4st-level abjuration}"
											]
										},
										"{@b Casting Time}: 1次行动",
										"{@b Ink Recipe}: 死亡守护法术卷轴，骨纳迦的尾骨，3颗价值50gp的玛瑙宝石，2ep",
										"{@b Duration}: 8小时",
										"{@b Spell Scroll Cost}: 320gp",
										"{@b Tattooing DC}: 20",
										"{@b Enhanced Ink}: 2个影子恶魔（CR4）的精华或1个精神娜迦（CR8）的精华。",
										"",
										"这个纹身是一个背上插着箭的人物，把自己从地上捡起来，手里还拿着剑，眼睛微微发亮，露出捕食者的微笑。",
										"每使用一次电荷，数字后面就会出现一个新的箭头，直到所有电荷用完，这时纹身就会消失。",
										"你获得一定程度的保护，免于死亡。当你第一次因为受到伤害而下降到0点生命值时，你会下降到1点生命值，并且咒语结束。",
										"如果当目标受到一个不造成伤害就能瞬间杀死它的效果时，该咒语仍然有效，该效果反而会对目标否定，并且咒语结束。"
									]
								},
								{
									"type": "section",
									"name": "Look again",
									"entries": [
										"{@b Based on {@spell Blur|PhB}和一个Displacerbeast}。",
										{
											"type": "list",
											"style": "list-no-bullets",
											"items": [
												"{@i 2st-level illusion}"
											]
										},
										"{@b Casting Time}: 1次行动",
										"{@b Ink Recipe}: 模糊法术卷轴, 驱散兽血, 价值100gp的水晶棱镜",
										"{@b Duration}: 1 min",
										"{@b Spell Scroll Cost}: 120gp",
										"{@b Tattooing DC}: 15",
										"{@b Enhanced Ink}: 一个绿色哈格的眼睛",
										"",
										"无论人们盯着它看多久，这个纹身都显得非常模糊。但随着每次冲锋的消耗，图像变得更加清晰，直到最后一次冲锋，图像很容易被看成是一只准备进攻的移位兽。",
										"如果你受到的效果允许你做一个蓄力动作来承受一半的伤害，那么如果你的蓄力动作成功，你就不会受到伤害，如果失败，你就只会受到一半的伤害。",
										"当你的纹身处于激活状态时，你会投射出一个神奇的幻象，使你看起来就像站在你的实际位置附近，导致对你的攻击卷有劣势。",
										"如果你被攻击击中，这个特质就会被破坏，直到你的下一个回合结束。当你丧失能力或速度为0时，这个效果也会被破坏。"
									]
								},
								{
									"type": "section",
									"name": "Immolation",
									"entries": [
										"{@b Based on {@spell Immolation|PHB}}",
										{
											"type": "list",
											"style": "list-no-bullets",
											"items": [
												"{@i 5th-level evocation}"
											]
										},
										"{@b Casting Time}: 1次行动",
										"{@b Ink Recipe}: 焚烧法术卷轴，2颗无暇的红宝石，每颗100gp，2个火元素的精华，红龙鳞。",
										"{@b Duration}: 浓度不超过1分钟",
										"{@b Spell Scroll Cost}: 640gp",
										"{@b Tattooing DC}: 20",
										"{@b Enhanced Ink}: 红龙血1加仑（年轻或更大）或火巨人血1加仑加上火元素精华。",
										"",
										"火焰包围你能看到的范围内的一个生物。目标必须做一个灵巧的蓄力动作。拯救失败时它会受到7d6的火焰伤害，拯救成功时则受到一半的伤害。",
										"如果拯救失败，目标也会在咒语的持续时间内燃烧。燃烧的目标在30英尺范围内发出亮光，在另外30英尺范围内发出暗光。",
										"在它的每个回合结束时，目标会重复拯救动作。拯救失败时它会受到3d6的火焰伤害，拯救成功时咒语结束。这些神奇的火焰无法通过非魔法手段熄灭。",
										"如果该法术的伤害使目标的命中率降至0，则目标会变成灰烬。"
									]
								},
								{
									"type": "inset",
									"name": "Final word to the DMs",
									"entries": [
										"我希望你在上面的页面中阅读并发现有用的东西。最重要的是，我希望你能接受这些并使之成为你自己的。我试图为你建立一个制衡系统，以限制你世界中纹身的权力和数量。",
										"如果你的野蛮人想在背上纹上10个9级法术，你需要一个叙述性的解释，那么纹身师就是你的瓶颈。在你的世界中，纹身的可及性可以是你想要的那样难，也可以是那样容易。",
										"你打开或限制纹身的第二个工具是你的墨水配方。我特意把这个领域留给你来决定。也许那个9级的真正的多面体纹身需要大红龙的血。这将使你获得一个大的背影比走进角落里的纹身店更难。",
										"最重要的是，我鼓励创造力和乐趣。让你的玩家尽情地想办法用新发现的力量来提升他们的角色，因为有什么比冰霜巨人伏击你的队伍更有趣的呢？哦，好吧，活到老学到老......或者TPK"
									]
								}
							]
						},
						{
							"type": "section",
							"name": "Bugs, Issues, Suggestions?",
							"entries": [
								"上述一切主要是建议。采取你认为对你的活动最有效的方法，留下不需要的东西。我试图平衡所有的东西，以便在像我自己这样一个使用大量魔法物品的活动中发挥作用。我只想分享在我的游戏中起作用的东西，希望能让你在你的游戏中使用它。",
								"显然，自己制作是最有趣的。在我的游戏中，9级的纹身愿望是我不允许的，因为随时准备好纹身的愿望实在是太疯狂了，但也许它在你的游戏中会起作用！有了它，就有了乐趣。有了它，就有了乐趣。我希望这对任何人来说都是有用的。",
								"如果你有问题或意见或反馈，请让我知道，我一直在寻求改善这个系统。请将仇恨或爱发给肯，ukyo@ukyo3d.com，希望爱多于恨 :D"
							]
						},
						{
							"type": "section",
							"name": "Legal Junk",
							"entries": [
								"我知道重要的东西应该放在这里，但我不知道是什么。如果你是一个重要的人，请告诉我应该把什么放在这里，这样我就不会有麻烦了，我会很高兴地把它改好！\"。"
							]
						}
					]
				}
			]
		}
	],
	"table": [
		{
			"name": "Tattoo Size",
			"source": "MagicalBindTattoos",
			"caption": "Tattoo Size",
			"colLabels": [
				"Size",
				"Tattooing Check",
				"Charges"
			],
			"colStyles": [
				"col-3 text-center",
				"col-8 text-left ",
				"col-2 text-center"
			],
			"rows": [
				[
					"小型",
					"1 检查",
					4
				],
				[
					"中型",
					"2 支票",
					8
				],
				[
					"大型",
					"3 次检查",
					12
				]
			]
		},
		{
			"name": "Uses per day by spell level",
			"source": "MagicalBindTattoos",
			"caption": "Uses per day by spell level",
			"colLabels": [
				"0",
				"1st",
				"2nd",
				"3rd",
				"4th",
				"5th",
				"6th",
				"7th",
				"8th",
				"9th"
			],
			"colStyles": [
				"col-2 text-center",
				"col-1 text-center",
				"col-1 text-center",
				"col-1 text-center",
				"col-1 text-center",
				"col-1 text-center",
				"col-1 text-center",
				"col-1 text-center",
				"col-1 text-center",
				"col-1 text-center"
			],
			"rows": [
				[
					"无限制",
					"4",
					"3",
					"3",
					"3",
					"3",
					"2",
					"2",
					"1",
					"1"
				]
			]
		},
		{
			"name": "Tattooing DC",
			"source": "MagicalBindTattoos",
			"caption": "Tattooing DC",
			"colLabels": [
				"Spell Level",
				"Spell Scroll Rarity",
				"Tattoo DC"
			],
			"colStyles": [
				"col-4 text-center",
				"col-6 text-right ",
				"col-2 text-center"
			],
			"rows": [
				[
					"0-1级",
					"普通",
					"10"
				],
				[
					"2-3级",
					"不常见",
					"15"
				],
				[
					"4-5级",
					"Rare",
					"20"
				],
				[
					"6-8级",
					"非常罕见",
					"25*"
				],
				[
					"第9级",
					"传说中的",
					"30*"
				]
			],
			"footnotes": [
				"* The attempt to bind a high-level spell is a very serious undertaking. Even when successful, the power bound can be more that the recipient can handle. A constitution check by the recipient is needed; very rare DC15; Legendary DC20. Failure does not mean the tattoo did not take, but the mind and body of the recipient paid a heavy toll. This heavy penalty is determined by the DM based upon the magic attempting to be bound"
			]
		},
		{
			"name": "Tattooing Charges",
			"source": "MagicalBindTattoos",
			"colLabels": [
				"Size",
				"Base Charge #",
				"Enhanced Ink"
			],
			"colStyles": [
				"col-5 text-right",
				"col-3-5 text-center",
				"col-3-5 text-center"
			],
			"rows": [
				[
					"小型",
					4,
					5
				],
				[
					"中型",
					10,
					11
				],
				[
					"大型",
					15,
					16
				]
			]
		},
		{
			"name": "Tattoo limits",
			"source": "MagicalBindTattoos",
			"caption": "Tattoo limits",
			"colLabels": [
				"# of Tattoos",
				"Con DC"
			],
			"colStyles": [
				"col-6 text-center",
				"col-6 text-center"
			],
			"rows": [
				[
					"1-2",
					"DC 0"
				],
				[
					"3",
					"DC 5"
				],
				[
					"4",
					"DC 10"
				],
				[
					"5",
					"DC 15"
				],
				[
					"6",
					"DC 20"
				],
				[
					"7",
					"DC 25"
				],
				[
					"8+",
					"DC 30"
				]
			]
		},
		{
			"name": "Artist mastery/shop Scarcity",
			"source": "MagicalBindTattoos",
			"caption": "Artist mastery/shop Scarcity",
			"colLabels": [
				"Skill Level",
				"Prof Bonus",
				"Int Mod",
				"difficulty locating"
			],
			"colStyles": [
				"col-3 text-center",
				"col-2 text-center",
				"col-2 text-center",
				"col-5 text-center"
			],
			"rows": [
				[
					"新手",
					"+2",
					"+3",
					"Easy"
				],
				[
					"熟练",
					"+3",
					"+3",
					"一些努力"
				],
				[
					"高级",
					"+4",
					"+4",
					"很难找到*。"
				],
				[
					"专家",
					"+5",
					"+5",
					"极度困难**"
				],
				[
					"硕士",
					"+6",
					"+6",
					"由追求只***"
				]
			],
			"footnotes": [
				"* Only about a quater of those who study the art of magical tattoos become advanced enough to bind rare magic to flesh. They tend to have shops open in all cities where magic is available and practed openly. The artists there are eager to push themselves and welcome customers readily.",
				"** One tenth of those who achieve advanced in thier skill are able to break through the secrets of the arcane enough to formulate and control the very rare magic in these inks. Hearsay and rumors will lead you here possibly from stories in taverns or even a minor quest that leads to this artist's shop.",
				"*** Only 1 percent of experts ever achieve the rank of Master. There is little to no chance of stumbling across a master artist. Chances are if you do, he meant for you to find him. Perhaps his apprentice, and expert level artist sent word to him, or through a network of eyes in the various cities, your power drew his attention upon you."
			]
		},
		{
			"name": "Chance of infection",
			"source": "MagicalBindTattoos",
			"caption": "Chance of infection",
			"colLabels": [
				"Skill Level",
				"% chance of infection"
			],
			"colStyles": [
				"col-7 text-center",
				"col-5 text-center"
			],
			"rows": [
				[
					"新手",
					20
				],
				[
					"熟练",
					15
				],
				[
					"高级",
					10
				],
				[
					"专家",
					5
				],
				[
					"硕士",
					0
				]
			]
		}
	]
}
