{
	"_meta": {
		"sources": [
			{
				"json": "Spelljammerfore",
				"abbreviation": "SJ5e",
				"full": "Spelljammer for 5e",
				"url": "https://homebrewery.naturalcrit.com/edit/IjnQphizLD",
				"authors": [
					"angryweinerchamp"
				],
				"convertedBy": [
					"angryweinerchamp"
				],
				"version": "1.0.0"
			}
		],
		"dateAdded": 1599081260,
		"dateLastModified": 1673562612,
		"_dateLastModifiedHash": "95c478d2b1"
	},
	"spell": [
		{
			"name": "Black Hole",
			"source": "Spelljammerfore",
			"level": 8,
			"school": "T",
			"time": [
				{
					"number": 1,
					"unit": "action"
				}
			],
			"range": {
				"type": "point",
				"distance": {
					"type": "feet",
					"amount": 60
				}
			},
			"components": {
				"v": true,
				"s": true
			},
			"duration": [
				{
					"type": "timed",
					"duration": {
						"type": "minute",
						"amount": 1
					},
					"concentration": true
				}
			],
			"entries": [
				"你在法术范围内你能看到的地方将重力凝聚成一个密度无法估量的球体。这个球体在它周围10英尺半径的范围内充满了黑暗，任何光线，不管是魔法还是普通的，都无法照亮它。",
				"当生物第一次进入球体的30英尺范围内或在那里开始它的回合时，它必须做一个力量救赎动作，否则会被拉向球体10英尺。当一个生物在一个回合中第一次进入球体的5英尺范围内，或者在那里开始它的回合，它必须做一个宪法救赎，如果救赎失败会受到{@damage 10d10}重击伤害，如果救赎成功会受到一半的重击。",
				"球体的引力使得远离它变得异常困难。当在球体的10英尺范围内，一个生物远离球体时，每移动1英尺必须花费4英尺的移动距离。当在球体的30英尺范围内时，离开球体的生物每移动1英尺就必须花费2英尺的移动距离。",
				"此外，完全在效果范围内的无担保物体会被自动拉入球体。靠近球体5英尺以内的非魔法小型物体会被立即摧毁。"
			],
			"damageInflict": [
				"bludgeoning"
			],
			"savingThrow": [
				"constitution"
			],
			"areaTags": [
				"S"
			],
			"classes": {
				"fromClassList": [
					{
						"name": "Wizard",
						"source": "PHB"
					},
					{
						"name": "Druid",
						"source": "PHB"
					},
					{
						"name": "Sorcerer",
						"source": "PHB"
					},
					{
						"name": "Warlock",
						"source": "PHB"
					}
				]
			},
			"miscTags": [
				"FMV",
				"SGT"
			]
		},
		{
			"name": "Celestial Pyre",
			"source": "Spelljammerfore",
			"level": 4,
			"school": "N",
			"time": [
				{
					"number": 1,
					"unit": "hour"
				}
			],
			"range": {
				"type": "point",
				"distance": {
					"type": "touch"
				}
			},
			"components": {
				"v": true,
				"s": true,
				"m": {
					"text": "100 lbs of firewood",
					"consume": true,
					"cost": 150
				}
			},
			"duration": [
				{
					"type": "instant"
				}
			],
			"meta": {
				"ritual": true
			},
			"entries": [
				"你只能在夜间或在黑暗的虚空或星海中施展这个法术。你纪念你所接触的死亡生物，将其变成一个星座，只要它的死亡时间不超过1天。目标的身体会溶解成星尘并升入天空。",
				"这个法术有效地延长了使目标人物起死回生的时间限制，因为在这个法术影响下的日子并不计入诸如起死回生等法术的时间限制。一个以死者为目标但通常需要尸体的法术可以以这个星座为目标来施展，只要该法术是在夜间施展，并且施法者能看到目标的星座。如果这个法术的目标被恢复了生命，这个法术就会结束，而这个星座也会消失。"
			],
			"classes": {
				"fromClassList": [
					{
						"name": "Paladin",
						"source": "PHB"
					},
					{
						"name": "Bard",
						"source": "PHB"
					},
					{
						"name": "Cleric",
						"source": "PHB"
					},
					{
						"name": "Druid",
						"source": "PHB"
					}
				]
			}
		},
		{
			"name": "Contact Home Power",
			"source": "Spelljammerfore",
			"level": 2,
			"school": "D",
			"time": [
				{
					"number": 1,
					"unit": "minute"
				}
			],
			"range": {
				"type": "point",
				"distance": {
					"type": "unlimited"
				}
			},
			"components": {
				"v": true,
				"s": true,
				"m": "a small horn that must be blown"
			},
			"duration": [
				{
					"type": "timed",
					"duration": {
						"type": "week",
						"amount": 1
					}
				}
			],
			"entries": [
				"这个咒语的使用者通过星海在他现在的位置和他们所敬仰的力量之间建立了一个脆弱的联系。这种联系允许牧师重新获得他的法术，就像神在球体中被认可和敬仰一样。距离对牧师试图联系家乡的力量没有影响，但维度之门、反幻想领域和驱散魔法的效果会阻止该咒语的使用。此外，该咒语在该力量被特别放逐的区域（无论是由于化身的死亡、放逐还是神的某些自愿行为）不会发挥作用。",
				"试图在这种地方与他的力量联接的牧师将通过咒语被告知，与他的神的这种接触是禁止的。牧师不会被告知原因，因为神明显不愿意解释他们为什么不能发挥他们的力量，而是更愿意在他们的崇拜者面前显得无所不能。",
				"咒语的持续时间是一个星期，只要教士仍然在他施法的那个水晶球中。进入另一个位面（甚至是虚无缥缈的位面）会破坏该咒语，正如驱散魔法的效果一样。这个咒语不能在星海中施放。"
			],
			"classes": {
				"fromClassList": [
					{
						"name": "Cleric",
						"source": "PHB"
					},
					{
						"name": "Paladin",
						"source": "PHB"
					}
				]
			}
		},
		{
			"name": "Create/Destroy Air",
			"source": "Spelljammerfore",
			"level": 1,
			"school": "T",
			"time": [
				{
					"number": 1,
					"unit": "action"
				}
			],
			"range": {
				"type": "point",
				"distance": {
					"type": "feet",
					"amount": 120
				}
			},
			"components": {
				"v": true,
				"s": true,
				"r": true,
				"m": "a small stoppered flask"
			},
			"duration": [
				{
					"type": "permanent"
				}
			],
			"entries": [
				"通过这个咒语，牧师可以在人的周围产生一个新鲜的、可以呼吸的空气泡泡。这种空气会驱除人周围的陈旧空气，使其恢复到 \"新鲜 \"状态。在个人在太空中漂流的情况下，这允许生物的空气包络体再持续一分钟。",
				"在一个较大的空气包络中（如飞船的甲板或星球的大气层），被清新的空气会飘走，与现有的空气结合。该法术可以替换可能是陈旧或污浊的空气，包括被云杀法术污染的（%0%）或空气。",
				"这个咒语每超过一级，牧师就可以为另外一个人创造足够的空气。在第二级时，他可以为两个中等身材的人创造空气，在第三级时为三个人创造足够的空气，以此类推。",
				"在一个人周围制造额外的空气并不能创造一个更大的包络；多余的空气会简单地飘走。施法者可以刷新他个人的空气包络以及在咒语范围内的其他人的空气，而不需要接触这些人。",
				"这个咒语的反面，破坏空气，会立即将一个塔克特周围的空气降低为 \"污浊\"，并产生该变化的所有效果。关于这个主题的更多信息，请参见第一章。",
				"如果创造空气的咒语是在重力场内的其他敌对环境中使用（例如在云杀咒语内，它将允许接受者在创造的空气冒出水面之前进行一次干净的呼吸。"
			],
			"classes": {
				"fromClassList": [
					{
						"name": "Wizard",
						"source": "PHB"
					},
					{
						"name": "Druid",
						"source": "PHB"
					},
					{
						"name": "Cleric",
						"source": "PHB"
					},
					{
						"name": "Artificer",
						"source": "TCE"
					}
				]
			}
		},
		{
			"name": "Create Major Helm",
			"source": "Spelljammerfore",
			"level": 7,
			"school": "C",
			"time": [
				{
					"number": 1,
					"unit": "action"
				}
			],
			"range": {
				"type": "point",
				"distance": {
					"type": "touch"
				}
			},
			"components": {
				"v": true,
				"s": true,
				"m": "(a chair, stool, or other seat suitable for helm usage)"
			},
			"duration": [
				{
					"type": "timed",
					"duration": {
						"type": "day",
						"amount": 10
					}
				}
			],
			"entries": [
				"通过施展这个法术，巫师可以将一个普通的椅子或座椅变成一个主要的法术干扰舵，适合为飞船提供穿越太空的动力。这个法术并不能取代船上永久魔法头盔的需要，它主要是作为一个备用系统或在紧急情况下使用。主要头盔可以为一艘吨位不超过施法者等级三倍的飞船提供动力。因此，一个20级的巫师可以创造一个能够为60吨的船提供动力的大舵。",
				"在操作上，以这种方式创建的主要法术干扰头盔与普通的永久性头盔相同，但有一个例外。如果被驱散，这个咒语所创造的头盔将消失，必须重新创造。",
				"创造一个头盔（主要的或次要的）算作施放一个法术，并可能降低施法者当天使用头盔的效果（如果施法者已经使用了他所有剩余的7级法术）。当然，这并不意味着另一个施法者不能作为舵手，使用由他人创造的头盔。",
				"这个咒语的材料成分是一把椅子、凳子或其他适合用作头盔的座位。"
			],
			"classes": {
				"fromClassList": [
					{
						"name": "Wizard",
						"source": "PHB"
					},
					{
						"name": "Cleric",
						"source": "PHB"
					}
				]
			}
		},
		{
			"name": "Create Minor Helm",
			"source": "Spelljammerfore",
			"level": 5,
			"school": "C",
			"time": [
				{
					"number": 1,
					"unit": "action"
				}
			],
			"range": {
				"type": "point",
				"distance": {
					"type": "touch"
				}
			},
			"components": {
				"v": true,
				"s": true,
				"m": "(a chair, stool, or other seat suitable for helm usage) )"
			},
			"duration": [
				{
					"type": "timed",
					"duration": {
						"type": "day",
						"amount": 10
					}
				}
			],
			"entries": [
				"通过施展这个法术，巫师可以将一个普通的椅子或座椅变成一个小型的法术头盔，适合为飞船提供穿越太空的动力。这个法术并不能取代船上永久魔法头盔的需要，它主要是作为一个备用系统或在紧急情况下使用。这个小头盔可以为一艘吨位不超过施法者等级2倍的飞船提供动力。因此，一个20级的巫师可以创造一个能够为40吨的船提供动力的头盔。",
				"在操作上，以这种方式创造的小头盔与普通的、永久的咒语干扰器头盔相同，但有一个例外。如果这个咒语创造的头盔被成功驱散，它就会消失，必须重新创造。"
			],
			"classes": {
				"fromClassList": [
					{
						"name": "Wizard",
						"source": "PHB"
					},
					{
						"name": "Bard",
						"source": "PHB"
					},
					{
						"name": "Cleric",
						"source": "PHB"
					},
					{
						"name": "Druid",
						"source": "PHB"
					},
					{
						"name": "Sorcerer",
						"source": "PHB"
					},
					{
						"name": "Warlock",
						"source": "PHB"
					},
					{
						"name": "Artificer",
						"source": "TCE"
					}
				]
			}
		},
		{
			"name": "Create Portal",
			"source": "Spelljammerfore",
			"level": 5,
			"school": "C",
			"time": [
				{
					"number": 1,
					"unit": "minute"
				}
			],
			"range": {
				"type": "point",
				"distance": {
					"type": "feet",
					"amount": 300
				}
			},
			"components": {
				"v": true,
				"s": true,
				"m": "(a piece of wire wrapped about a bit of amber)"
			},
			"duration": [
				{
					"type": "timed",
					"duration": {
						"type": "minute",
						"amount": 10
					},
					"concentration": true
				}
			],
			"meta": {
				"ritual": true
			},
			"entries": [
				"你以水晶壳上的一个区域为目标，半径为100英尺，使水晶壳的区域暂时变得没有实体和虚无缥缈，允许适当大小的飞船（或其他东西）通过。",
				"该效果最多持续12个回合，在此期间任何其他船只或物品都可以通过。这个开口不会削弱水晶外壳，任何实际停留在外壳上的物体都不会受到入口的影响。",
				"一艘船通过以这种方式打开的传送门只需要一个回合的一小部分时间。由这个法术创造的传送门是神奇的、暂时的，所以它们可以被驱散。在水晶壳中自然产生的传送门可能不会被驱散。创造传送门咒语的物质成分是一块包裹着一点琥珀的金属丝。"
			],
			"classes": {
				"fromClassList": [
					{
						"name": "Wizard",
						"source": "PHB"
					},
					{
						"name": "Bard",
						"source": "PHB"
					},
					{
						"name": "Cleric",
						"source": "PHB"
					},
					{
						"name": "Sorcerer",
						"source": "PHB"
					},
					{
						"name": "Warlock",
						"source": "PHB"
					},
					{
						"name": "Artificer",
						"source": "TCE"
					}
				]
			}
		},
		{
			"name": "Dazzling Gleam",
			"source": "Spelljammerfore",
			"level": 2,
			"school": "V",
			"time": [
				{
					"number": 1,
					"unit": "action"
				}
			],
			"range": {
				"type": "radius",
				"distance": {
					"type": "feet",
					"amount": 30
				}
			},
			"components": {
				"v": true,
				"s": true
			},
			"duration": [
				{
					"type": "instant"
				}
			],
			"entries": [
				"你释放一阵光。在你30英尺范围内的每个生物，如果能看到你，都必须做一个宪法救赎动作。拯救失败时，生物会受到{@damage 3d8}辐射伤害，并且在下一回合结束前会被{@condition blinded}。拯救成功时，它将受到一半的伤害，并且不受（%2%）的影响。"
			],
			"entriesHigherLevel": [
				{
					"type": "entries",
					"name": "At Higher Levels",
					"entries": [
						"当你使用3级以上的法术槽施放此法术时，每超过2级的法术槽等级，伤害会增加（%0%）。"
					]
				}
			],
			"damageInflict": [
				"radiant"
			],
			"conditionInflict": [
				"blinded"
			],
			"savingThrow": [
				"constitution"
			],
			"areaTags": [
				"S"
			],
			"classes": {
				"fromClassList": [
					{
						"name": "Wizard",
						"source": "PHB"
					},
					{
						"name": "Bard",
						"source": "PHB"
					},
					{
						"name": "Paladin",
						"source": "PHB"
					},
					{
						"name": "Sorcerer",
						"source": "PHB"
					},
					{
						"name": "Warlock",
						"source": "PHB"
					}
				]
			}
		},
		{
			"name": "Detect Powers",
			"source": "Spelljammerfore",
			"level": 2,
			"school": "D",
			"time": [
				{
					"number": 1,
					"unit": "round"
				}
			],
			"range": {
				"type": "point",
				"distance": {
					"type": "self"
				}
			},
			"components": {
				"v": true,
				"s": true,
				"m": "a handful of sand thrown out to the crystal shell"
			},
			"duration": [
				{
					"type": "timed",
					"duration": {
						"type": "round",
						"amount": 1
					}
				}
			],
			"meta": {
				"ritual": true
			},
			"entries": [
				"当你在水晶壳外施展这个法术时，允许你确定是否有友好的神灵和/或其他力量，这样你就可以在水晶壳的边界内正常地使用你的神术。",
				"探测能力法术也会显示出牧师所敬重的神灵是否在该范围内受到崇拜。如果该领域是DM已知的，或者是已经设计好主要力量的领域，那么该法术将显示牧师的神灵或与之相关的神灵（要么是同一万神殿的成员，要么具有类似的属性和组合）是否存在。",
				"两个不同的幻想活动中的两个不同的战神可能有足够的相似性来证明 \"相关 \"的地位。然而，在一个没有发达的金属工艺的世界里，一个铁匠之神可能没有平行关系。在这种情况下，献给铁匠之神的教士不会找到一种力量来充实他的法术。",
				"如果这个球体对DM来说是新的（即人物刚刚发现它），而且他不清楚里面有什么，那么就在下面的表格中滚动，看看对这个咒语可能做出的反应。",
				"01-10 -- 这个领域的力量是已知的。牧师可以正常充能法术。",
				"11-50 -- 力量的范围未知，但有相关的力量存在。牧师在与相关神灵的牧师联系后，可以正常恢复法术。",
				"51-90级--力量在球体中是未知的。牧师不能重新获得二级以上的法术，直到与尊贵的力量恢复联系。",
				"91-00 -- 权力在球体中是未知的。有一种相关的力量，但他与教士的力量关系不好。牧师不能重新获得二级以上的法术，除非与他原来的力量恢复联系，或者牧师为新的力量完成了一项伟大的任务。",
				"虽然许多力量会有类似的组合和兴趣领域（战争、治疗、农业、死亡等等），但他们往往处于不同的排列组合。在一个幻想的世界里，战神可能是一个积极的人物，因此是好的和合法的。在另一个世界，战争可能被视为一种破坏性的力量，其神灵是邪恶和混乱的。",
				"牧师可以通过检测力量的法术来判断与他的神灵最接近的力量的排列。接受来自前景相似但方向相反的力量的法术是危险的，任何这样做的牧师都必须重新获得他的主神的青睐（通过探索或赎罪）。 有一些只存在于太空幻想活动中的特殊信仰，包括Polygots、Path & the Way、Ptah和Planar Churches。如果在水晶球中存在任何种类的太空文明，那么这些信仰就会在该系统的某个地方得到体现。"
			],
			"classes": {
				"fromClassList": [
					{
						"name": "Cleric",
						"source": "PHB"
					},
					{
						"name": "Paladin",
						"source": "PHB"
					}
				]
			},
			"miscTags": [
				"HL"
			]
		},
		{
			"name": "Enhance Maneuverability",
			"source": "Spelljammerfore",
			"level": 5,
			"school": "A",
			"time": [
				{
					"number": 1,
					"unit": "round"
				}
			],
			"range": {
				"type": "point",
				"distance": {
					"type": "feet",
					"amount": 30
				}
			},
			"components": {
				"v": true,
				"s": true,
				"m": "a vial of wind from an air world"
			},
			"duration": [
				{
					"type": "timed",
					"duration": {
						"type": "minute",
						"amount": 10
					}
				}
			],
			"entries": [
				"你的目标是30英尺内吨位不超过10倍于你等级的船只来施展此法术。这个法术可以施用于任何船只，以增加或减少其机动性等级（MC）。使用此法术，一艘船的MC只能增加或减少一个等级。无论对其施放多少增加机动性或减少机动性的法术，任何船只都不能使其机动性增加或减少超过其初始机动性的一个等级。"
			],
			"classes": {
				"fromClassList": [
					{
						"name": "Wizard",
						"source": "PHB"
					},
					{
						"name": "Bard",
						"source": "PHB"
					},
					{
						"name": "Druid",
						"source": "PHB"
					},
					{
						"name": "Ranger",
						"source": "PHB"
					},
					{
						"name": "Sorcerer",
						"source": "PHB"
					},
					{
						"name": "Warlock",
						"source": "PHB"
					},
					{
						"name": "Artificer",
						"source": "TCE"
					}
				]
			}
		},
		{
			"name": "Enhance Rating",
			"source": "Spelljammerfore",
			"level": 3,
			"school": "A",
			"time": [
				{
					"number": 1,
					"unit": "round"
				}
			],
			"range": {
				"type": "special"
			},
			"components": {
				"v": true,
				"s": true,
				"m": "a small ivory arrow"
			},
			"duration": [
				{
					"type": "timed",
					"duration": {
						"type": "minute",
						"amount": 10
					}
				}
			],
			"entries": [
				"这个法术只能对使用施法者能看到的大或小咒语头盔的人施放。该法术将在法术持续期间将使用该头盔的船只的SR提高1点。一次只能使用一个提高等级的法术，施法者不能对自己使用。",
				"另外，施法者可以用此法术将干扰头盔和其使用者的SR在法术持续期间减少1点。头盔上的人有机会对该咒语进行智慧救赎，如果救赎成功，效果就会被否定。",
				"当作为5级法术施放时，SR将增加或减少2。"
			],
			"classes": {
				"fromClassList": [
					{
						"name": "Wizard",
						"source": "PHB"
					},
					{
						"name": "Bard",
						"source": "PHB"
					},
					{
						"name": "Druid",
						"source": "PHB"
					},
					{
						"name": "Paladin",
						"source": "PHB"
					},
					{
						"name": "Sorcerer",
						"source": "PHB"
					},
					{
						"name": "Warlock",
						"source": "PHB"
					},
					{
						"name": "Artificer",
						"source": "TCE"
					}
				]
			}
		},
		{
			"name": "Field of Stars",
			"source": "Spelljammerfore",
			"level": 4,
			"school": "C",
			"time": [
				{
					"number": 1,
					"unit": "action"
				}
			],
			"range": {
				"type": "point",
				"distance": {
					"type": "feet",
					"amount": 60
				}
			},
			"components": {
				"v": true,
				"s": true
			},
			"duration": [
				{
					"type": "timed",
					"duration": {
						"type": "minute",
						"amount": 1
					}
				}
			],
			"entries": [
				"你召唤出四颗星光，每颗都在你能看到的范围内无人的空间。每个星光微粒在5英尺的范围内提供昏暗的光线，持续时间或直到它爆炸。",
				"当一个生物在5英尺范围内移动，或者从5英尺范围内的磁铁上移开时，磁铁会爆炸。每个在磁铁5英尺范围内的生物必须做一个灵巧的蓄力动作。蓄力失败时，生物会受到{@damage 2d6}辐射伤害，蓄力成功时，会受到一半的伤害。"
			],
			"entriesHigherLevel": [
				{
					"type": "entries",
					"name": "At Higher Levels",
					"entries": [
						"当你使用五级以上的法术槽施展此法术时，每超过四级的法术槽等级，你就会创造一个额外的摩特。"
					]
				}
			],
			"damageInflict": [
				"radiant"
			],
			"savingThrow": [
				"dexterity"
			],
			"areaTags": [
				"R"
			],
			"classes": {
				"fromClassList": [
					{
						"name": "Bard",
						"source": "PHB"
					},
					{
						"name": "Druid",
						"source": "PHB"
					},
					{
						"name": "Ranger",
						"source": "PHB"
					}
				]
			},
			"miscTags": [
				"SGT"
			]
		},
		{
			"name": "Glassteel",
			"source": "Spelljammerfore",
			"level": 6,
			"school": "T",
			"time": [
				{
					"number": 1,
					"unit": "action"
				}
			],
			"range": {
				"type": "point",
				"distance": {
					"type": "touch"
				}
			},
			"components": {
				"v": true,
				"s": true,
				"m": "an opaque material and a small pane of glass"
			},
			"duration": [
				{
					"type": "permanent",
					"ends": [
						"dispel"
					]
				}
			],
			"entries": [
				"你把一块水晶或玻璃改造成具有钢铁的韧性和复原力。",
				"你可以影响一块窗户大小的透明材料，不超过10英尺高，10英尺宽，一英寸厚。",
				"Glassteel有一个19的AC，27的命中率，以及对非魔法武器的刺穿和切割攻击的抵抗。"
			],
			"classes": {
				"fromClassList": [
					{
						"name": "Druid",
						"source": "PHB"
					},
					{
						"name": "Sorcerer",
						"source": "PHB"
					},
					{
						"name": "Wizard",
						"source": "PHB"
					}
				]
			}
		},
		{
			"name": "Gleam-Eye",
			"source": "Spelljammerfore",
			"level": 2,
			"school": "E",
			"time": [
				{
					"number": 1,
					"unit": "action"
				}
			],
			"range": {
				"type": "point",
				"distance": {
					"type": "self"
				}
			},
			"components": {
				"s": true
			},
			"duration": [
				{
					"type": "timed",
					"duration": {
						"type": "minute",
						"amount": 1
					},
					"concentration": true
				}
			],
			"entries": [
				"你给自己的眼睛注入了可爱的闪烁，即使是最铁石心肠的人也会分心。当你施展这个法术时，你可以在你周围30英尺的范围内瞄准一个你能看到的生物，给它一个明亮的眨眼。目标必须进行智慧救赎，否则在你下一个回合开始前，他们进行的下一次攻击卷或能力检查将处于不利地位。在你的每个回合中，直到咒语结束，你都可以使用你的额外行动来重复这个效果，目标是同一个生物或不同的生物。",
				"看不到你的生物或不能（%0%）的生物不受此法术的影响。"
			],
			"classes": {
				"fromClassList": [
					{
						"name": "Bard",
						"source": "PHB"
					},
					{
						"name": "Paladin",
						"source": "PHB"
					},
					{
						"name": "Sorcerer",
						"source": "PHB"
					},
					{
						"name": "Warlock",
						"source": "PHB"
					}
				]
			},
			"miscTags": [
				"SGT",
				"UBA"
			]
		},
		{
			"name": "Golden Glow",
			"source": "Spelljammerfore",
			"level": 5,
			"school": "V",
			"time": [
				{
					"number": 1,
					"unit": "action"
				}
			],
			"range": {
				"type": "point",
				"distance": {
					"type": "feet",
					"amount": 30
				}
			},
			"components": {
				"v": true,
				"s": true,
				"m": {
					"text": "a golden orb worth 100gp, which the spell consumes",
					"consume": true,
					"cost": 10000
				}
			},
			"duration": [
				{
					"type": "instant"
				}
			],
			"entries": [
				"你指向你周围30英尺内你能看到的地方，一个明亮的阳光球体在那里形成。这个球体在半径20英尺的范围内发出亮光，在另外20英尺的范围内发出暗光，球体会在离地面15英尺的地方盘旋，除非你指的是墙壁或天花板。",
				"当一个生物在一个回合中第一次进入亮光或在那里开始它的回合时，它必须做一个宪法救赎动作。蓄力失败会受到{@damage 6d8}辐射伤害，蓄力成功则受到一半的伤害。",
				"亡灵以劣势进行救赎，并且该法术对其造成最大伤害。"
			],
			"entriesHigherLevel": [
				{
					"type": "entries",
					"name": "At Higher Levels",
					"entries": [
						"当你使用6级或以上的法术槽施放此法术时，法术槽等级每超过5级，就会造成额外的（%0%）伤害。"
					]
				}
			],
			"classes": {
				"fromClassList": [
					{
						"name": "Cleric",
						"source": "PHB"
					},
					{
						"name": "Paladin",
						"source": "PHB"
					}
				]
			},
			"miscTags": [
				"SGT"
			]
		},
		{
			"name": "Gravity Pulse",
			"source": "Spelljammerfore",
			"level": 1,
			"school": "T",
			"time": [
				{
					"number": 1,
					"unit": "action"
				}
			],
			"range": {
				"type": "radius",
				"distance": {
					"type": "feet",
					"amount": 15
				}
			},
			"components": {
				"v": true,
				"s": true
			},
			"duration": [
				{
					"type": "instant"
				}
			],
			"entries": [
				"你将重力集中在你的身体周围。在你周围15英尺范围内的每个生物都必须做一个力量储蓄动作。拯救失败时，生物会受到{@damage 2d8}重击伤害，并被拉向你最多10英尺。拯救成功时，它将受到一半的伤害，并且不会被拉向你。"
			],
			"entriesHigherLevel": [
				{
					"type": "entries",
					"name": "At Higher Levels",
					"entries": [
						"当你使用二级以上的法术槽施放此法术时，每超过一级的法术槽等级，伤害就会增加（%0%）。"
					]
				}
			],
			"damageInflict": [
				"bludgeoning"
			],
			"savingThrow": [
				"strength"
			],
			"classes": {
				"fromClassList": [
					{
						"name": "Wizard",
						"source": "PHB"
					},
					{
						"name": "Sorcerer",
						"source": "PHB"
					},
					{
						"name": "Artificer",
						"source": "TCE"
					}
				]
			},
			"miscTags": [
				"FMV"
			]
		},
		{
			"name": "Guiding Light",
			"source": "Spelljammerfore",
			"level": 3,
			"school": "D",
			"time": [
				{
					"number": 1,
					"unit": "action"
				}
			],
			"range": {
				"type": "special"
			},
			"components": {
				"v": true,
				"s": true,
				"m": {
					"text": "true",
					"consume": true
				}
			},
			"duration": [
				{
					"type": "timed",
					"duration": {
						"type": "hour",
						"amount": 8
					}
				}
			],
			"meta": {
				"ritual": true
			},
			"entries": [
				"你只能在晚上施展这个法术。你说出一个你已知的生物或地点的名字，作为这个法术的目标。目标必须和你在同一个存在平面或水晶壳上，而且不能在超过100英尺的泥土或石头下。一颗闪亮的星星出现在目标地点的高空，只在夜间可见。你对目标的熟悉程度决定了这颗星的位置的准确性。管理员掷骰子{@dice d100}，并查阅表格。",
				"明星位置",
				{
					"type": "table",
					"colLabels": [
						"Target Familiarity",
						"Mishap",
						"Similar Target",
						"Off Target",
						"On Target"
					],
					"rows": [
						[
							"Seen casually",
							"01\u201333",
							"34\u201343",
							"44\u201353",
							"54\u2013100"
						],
						[
							"Very familiar",
							"01\u201305",
							"06\u201313",
							"14\u201324",
							"25\u2013100"
						],
						[
							"Viewed once",
							"01\u201343",
							"44\u201353",
							"54\u201373",
							"74\u2013100"
						],
						[
							"Description",
							"01\u201343",
							"44\u201353",
							"54\u201373",
							"74\u2013100"
						],
						[
							"False description",
							"01\u201350",
							"51\u2013100",
							"\u2014",
							"\u2014"
						]
					]
				},
				"熟悉。\"非常熟悉 \"是指你经常遇到或去过的生物或地方，你仔细研究过的生物或地方，或者你施法时能看到的生物或地方。\"随便看过 \"是指你见过不止一次的人或地方，但你对其并不十分熟悉。\"看过一次 \"是指你见过一次的生物或地方，可能使用了魔法。\"描述 \"是指你通过别人的描述，也许是从地图上知道其位置和外观的生物或地方。",
				"\"虚假的描述 \"是指一个不存在的生物或地方。也许你看到了一个幻觉，或者你试图找到一个熟悉的生物或地点，但它已经不存在了。",
				"在目标上。星星出现在目标位置的正上方。",
				"偏离目标。星星出现在离目标位置一个随机的距离，在一个随机的方向。脱离目标的距离是你和目标之间距离的{@dice 1d10 × 1d10}。例如，如果目标离你有120英里远，而DM在两个{@dice d10}上掷出5和3，那么星星就会偏离目标15%，或者18英里。DM通过掷出{@dice d8}并指定1为北，2为东北，3为东，以此类推，围绕罗盘的各个点，随机地确定偏离目标的方向。",
				"类似目标。星星出现在一个视觉上或主题上与目标相似的不同目标上。一般来说，星星会出现在最近的类似目标上，但由于这个法术没有范围限制，它可以想象到在飞机上的任何地方出现。",
				"意外事件。这颗星出现在你的手中，然后爆炸。每一个在星星30英尺范围内的生物必须做一个灵巧的蓄力动作。拯救失败时，生物会受到{@damage 2d10}的辐射伤害，拯救成功时，会受到一半的伤害。"
			],
			"classes": {
				"fromClassList": [
					{
						"name": "Cleric",
						"source": "PHB"
					},
					{
						"name": "Druid",
						"source": "PHB"
					},
					{
						"name": "Paladin",
						"source": "PHB"
					},
					{
						"name": "Ranger",
						"source": "PHB"
					}
				]
			},
			"miscTags": [
				"SGT"
			]
		},
		{
			"name": "Icy Ring",
			"source": "Spelljammerfore",
			"level": 3,
			"school": "C",
			"time": [
				{
					"number": 1,
					"unit": "action"
				}
			],
			"range": {
				"type": "point",
				"distance": {
					"type": "self"
				}
			},
			"components": {
				"v": true,
				"s": true,
				"m": "a shard of ice or glass of water"
			},
			"duration": [
				{
					"type": "timed",
					"duration": {
						"type": "minute",
						"amount": 1,
						"upTo": true
					},
					"concentration": true
				}
			],
			"entries": [
				"你形成一个5英尺厚的尘埃和冰环，围绕着你，环的外缘离你10英尺远。当一个生物在一个回合中第一次进入该法术的区域或在那里开始它的回合时，它必须做一个灵巧的蓄力动作。如果救赎失败，生物会受到{@damage 3d6}的寒冷伤害，如果救赎成功，则会受到一半的伤害。",
				"作为你回合的额外行动，你可以将戒指的半径从你身上增加或减少5英尺，最大距离为离你20英尺。戒指保留其5英尺的厚度，但其半径会增长或缩小。"
			],
			"entriesHigherLevel": [
				{
					"type": "entries",
					"name": "At Higher Levels",
					"entries": [
						"当你使用四级以上的法术槽施展此法术时，每超过三级的法术槽等级，伤害就会增加（%0%）。"
					]
				}
			],
			"damageInflict": [
				"cold"
			],
			"savingThrow": [
				"dexterity"
			],
			"classes": {
				"fromClassList": [
					{
						"name": "Wizard",
						"source": "PHB"
					},
					{
						"name": "Cleric",
						"source": "PHB"
					},
					{
						"name": "Druid",
						"source": "PHB"
					},
					{
						"name": "Sorcerer",
						"source": "PHB"
					},
					{
						"name": "Warlock",
						"source": "PHB"
					}
				]
			},
			"miscTags": [
				"UBA"
			]
		},
		{
			"name": "Illuminate",
			"source": "Spelljammerfore",
			"level": 0,
			"school": "V",
			"time": [
				{
					"number": 1,
					"unit": "action"
				}
			],
			"range": {
				"type": "point",
				"distance": {
					"type": "feet",
					"amount": 10
				}
			},
			"components": {
				"v": true,
				"s": true
			},
			"duration": [
				{
					"type": "instant"
				}
			],
			"entries": [
				"你向范围内你能看到的生物释放一团闪亮的气体。该生物必须在宪法救赎中成功，否则会受到（%0%）辐射伤害，并且在灵巧（隐身）检查中处于劣势，在你下一回合开始前不能从（%1%）中获益。"
			],
			"entriesHigherLevel": [
				{
					"type": "entries",
					"name": "At Higher Levels",
					"entries": [
						"当你达到5级（{@dice 2d8}）、11级（{@dice 3d8}）和17级（{@dice 4d8}）时，该法术的伤害增加{@dice 1d8}。"
					]
				}
			],
			"damageInflict": [
				"radiant"
			],
			"conditionInflict": [
				"invisible"
			],
			"savingThrow": [
				"constitution"
			],
			"classes": {
				"fromClassList": [
					{
						"name": "Wizard",
						"source": "PHB"
					},
					{
						"name": "Cleric",
						"source": "PHB"
					},
					{
						"name": "Druid",
						"source": "PHB"
					},
					{
						"name": "Sorcerer",
						"source": "PHB"
					},
					{
						"name": "Warlock",
						"source": "PHB"
					},
					{
						"name": "Artificer",
						"source": "TCE"
					}
				]
			},
			"races": [
				{
					"name": "Elf (High)",
					"source": "PHB",
					"baseName": "Elf",
					"baseSource": "PHB"
				}
			],
			"miscTags": [
				"SCL",
				"SGT"
			]
		},
		{
			"name": "Intensify Gravity",
			"source": "Spelljammerfore",
			"level": 6,
			"school": "T",
			"time": [
				{
					"number": 1,
					"unit": "action"
				}
			],
			"range": {
				"type": "point",
				"distance": {
					"type": "feet",
					"amount": 100
				}
			},
			"components": {
				"v": true,
				"s": true,
				"m": "a lead weight"
			},
			"duration": [
				{
					"type": "timed",
					"duration": {
						"type": "minute",
						"amount": 1,
						"upTo": true
					},
					"concentration": true
				}
			],
			"entries": [
				"这个咒语放大了以范围内的重力平面上的一个点为中心，半径30英尺，高100英尺的圆柱体内的重力平面的引力。在咒语的持续时间内，咒语范围内的所有东西都会变重10倍。如果一个生物的重量增加超过其力量值的15倍，它在每个回合开始时都会受到{@damage 1d6}重击伤害，其速度下降20英尺，并且在使用力量、灵巧或体质的能力检查、攻击卷和蓄力时有劣势。",
				"进入该法术区域的箭、炮弹和其他普通弹丸会掉到地上并自动失手。"
			],
			"damageInflict": [
				"bludgeoning"
			],
			"classes": {
				"fromClassList": [
					{
						"name": "Wizard",
						"source": "PHB"
					},
					{
						"name": "Bard",
						"source": "PHB"
					},
					{
						"name": "Druid",
						"source": "PHB"
					},
					{
						"name": "Sorcerer",
						"source": "PHB"
					},
					{
						"name": "Warlock",
						"source": "PHB"
					}
				]
			}
		},
		{
			"name": "Ionizing Wind",
			"source": "Spelljammerfore",
			"level": 4,
			"school": "V",
			"time": [
				{
					"number": 1,
					"unit": "action"
				}
			],
			"range": {
				"type": "point",
				"distance": {
					"type": "feet",
					"amount": 40
				}
			},
			"components": {
				"v": true,
				"s": true
			},
			"duration": [
				{
					"type": "instant"
				}
			],
			"entries": [
				"一股电化风从你手中爆发出来。40英尺范围内的每个生物都必须做一个力量救赎动作。拯救失败时，生物会受到{@damage 6d8}雷电伤害，并被推离你10英尺远。拯救成功时，该生物会受到一半的伤害，并且不会被推开。"
			],
			"entriesHigherLevel": [
				{
					"type": "entries",
					"name": "At Higher Levels",
					"entries": [
						"当你使用5级以上的法术槽施放此法术时，每超过4级的法术槽等级，伤害就会增加（%0%）。"
					]
				}
			],
			"damageInflict": [
				"lightning"
			],
			"savingThrow": [
				"strength"
			],
			"classes": {
				"fromClassList": [
					{
						"name": "Cleric",
						"source": "PHB"
					},
					{
						"name": "Druid",
						"source": "PHB"
					},
					{
						"name": "Ranger",
						"source": "PHB"
					},
					{
						"name": "Sorcerer",
						"source": "PHB"
					},
					{
						"name": "Warlock",
						"source": "PHB"
					},
					{
						"name": "Wizard",
						"source": "PHB"
					}
				]
			},
			"miscTags": [
				"FMV"
			]
		},
		{
			"name": "Locate Portal",
			"source": "Spelljammerfore",
			"level": 2,
			"school": "D",
			"time": [
				{
					"number": 1,
					"unit": "minute"
				}
			],
			"range": {
				"type": "point",
				"distance": {
					"type": "miles",
					"amount": 1
				}
			},
			"components": {
				"v": true,
				"s": true,
				"m": "a conch shell"
			},
			"duration": [
				{
					"type": "timed",
					"duration": {
						"type": "hour",
						"amount": 8
					}
				}
			],
			"entries": [
				"地域传送门法术的施法者可以通过水晶壳找到最近的传送门，无论是进入或离开星海的。咒语会指出方向和距离（以英里为单位或以旅行时间为单位，如果教士知道他自己的船的具体情况）。",
				"一般来说，从水晶壳上的任何一点出发，正常大小的飞船的传送门离任何地点都有（%0%）天的距离。在主持人的选择下，可能会有比正常情况下更多的传送门，更少的，或者根本就没有。这要由主持人来决定。"
			],
			"classes": {
				"fromClassList": [
					{
						"name": "Wizard",
						"source": "PHB"
					},
					{
						"name": "Bard",
						"source": "PHB"
					},
					{
						"name": "Druid",
						"source": "PHB"
					},
					{
						"name": "Ranger",
						"source": "PHB"
					},
					{
						"name": "Sorcerer",
						"source": "PHB"
					}
				]
			}
		},
		{
			"name": "Lucky Stars",
			"source": "Spelljammerfore",
			"level": 3,
			"school": "D",
			"time": [
				{
					"number": 1,
					"unit": "action"
				}
			],
			"range": {
				"type": "point",
				"distance": {
					"type": "self"
				}
			},
			"components": {
				"v": true,
				"s": true,
				"m": "A rabbit's foot or other lucky charm"
			},
			"duration": [
				{
					"type": "timed",
					"duration": {
						"type": "minute",
						"amount": 1
					},
					"concentration": true
				}
			],
			"entries": [
				"你创造了三颗小星星，围绕着你的头部转。每当你进行攻击卷、能力检查或蓄力投掷时，你可以花费一颗星来进行额外的（%0%）卷。你可以选择在掷骰子之后，但在决定结果之前消耗你的一颗星。你可以选择使用哪一颗星来进行攻击卷、能力检查或自救动作。",
				"当有人对你进行攻击卷时，你也可以消耗一颗星。掷一个{@dice d20}，然后选择攻击是使用攻击者的卷轴还是你的。"
			],
			"entriesHigherLevel": [
				{
					"type": "entries",
					"name": "At Higher Levels",
					"entries": [
						"当你使用四级或更高等级的法术槽施展此法术时，每超过三级的法术槽等级，你会创造一个额外的星星。"
					]
				}
			],
			"classes": {
				"fromClassList": [
					{
						"name": "Wizard",
						"source": "PHB"
					},
					{
						"name": "Bard",
						"source": "PHB"
					},
					{
						"name": "Sorcerer",
						"source": "PHB"
					}
				]
			}
		},
		{
			"name": "Meteor Strike",
			"source": "Spelljammerfore",
			"level": 1,
			"school": "V",
			"time": [
				{
					"number": 1,
					"unit": "bonus"
				}
			],
			"range": {
				"type": "point",
				"distance": {
					"type": "self"
				}
			},
			"components": {
				"v": true
			},
			"duration": [
				{
					"type": "timed",
					"duration": {
						"type": "minute",
						"amount": 1
					},
					"concentration": true
				}
			],
			"entries": [
				"在法术持续期间，当你下次用武器攻击击中一个生物时，你的武器会以流星的气势攻击。攻击会造成额外的{@damage 1d6}火力伤害，目标必须在力量救赎中成功，否则会被击倒{@condition prone}或被推离你5英尺（由你选择）。大型或更大的生物在这个蓄力动作上有优势。"
			],
			"entriesHigherLevel": [
				{
					"type": "entries",
					"name": "At Higher Levels",
					"entries": [
						"当你使用二级以上的法术槽施放此法术时，每超过一级的法术槽等级，额外的伤害就会增加（%0%）。"
					]
				}
			],
			"damageInflict": [
				"fire"
			],
			"conditionInflict": [
				"prone"
			],
			"savingThrow": [
				"strength"
			],
			"classes": {
				"fromClassList": [
					{
						"name": "Paladin",
						"source": "PHB"
					},
					{
						"name": "Ranger",
						"source": "PHB"
					}
				]
			},
			"miscTags": [
				"FMV"
			]
		},
		{
			"name": "Moonfall",
			"source": "Spelljammerfore",
			"level": 1,
			"school": "A",
			"time": [
				{
					"number": 1,
					"unit": "action"
				}
			],
			"range": {
				"type": "point",
				"distance": {
					"type": "feet",
					"amount": 500
				}
			},
			"components": {
				"v": true,
				"s": true
			},
			"duration": [
				{
					"type": "instant"
				}
			],
			"entries": [
				"你将一个小月亮从它在星空中的位置实体化，作为厄运的工具来使用。一个半径为100英尺的大石月亮出现在你能看到的范围内的1500英尺上方。如果你在空中看不到月亮可能出现的点，或者你没有清晰的天空视野，那么这个咒语就会失效。",
				"在你每个回合开始时，月亮会下降500英尺。在月亮坠落的路径上的每个生物都必须做一个灵巧的救赎动作。拯救失败时，生物会受到{@damage 6d6}重击伤害，并在下一回合结束前受到{@condition grappled}的伤害，被月亮钉住。拯救成功时，生物会受到一半的伤害，并被推离月亮的轨道，最多可以离月亮100英尺远。",
				"一旦月亮与地面相撞，碰撞点周围100英尺内的每个生物都会受到{@damage 12d12}的重击伤害。该法术对建筑物造成的伤害最大。然后月球破裂成碎片，留下一个半径为100英尺的撞击坑，在清除之前，该坑会成为困难的地形，每个直径为5英尺的部分需要至少1分钟才能用手清除。"
			],
			"damageInflict": [
				"bludgeoning"
			],
			"conditionInflict": [
				"grappled"
			],
			"savingThrow": [
				"dexterity"
			],
			"classes": {
				"fromClassList": [
					{
						"name": "Cleric",
						"source": "PHB"
					},
					{
						"name": "Druid",
						"source": "PHB"
					},
					{
						"name": "Sorcerer",
						"source": "PHB"
					},
					{
						"name": "Warlock",
						"source": "PHB"
					},
					{
						"name": "Wizard",
						"source": "PHB"
					}
				]
			},
			"miscTags": [
				"FMV",
				"SGT"
			]
		},
		{
			"name": "Night Sky",
			"source": "Spelljammerfore",
			"level": 9,
			"school": "I",
			"time": [
				{
					"number": 1,
					"unit": "action"
				}
			],
			"range": {
				"type": "radius",
				"distance": {
					"type": "miles",
					"amount": 1
				}
			},
			"components": {
				"s": true
			},
			"duration": [
				{
					"type": "timed",
					"duration": {
						"type": "hour",
						"amount": 1
					}
				}
			],
			"entries": [
				"随着你的手一挥，你迫使你上方的天空变得晴朗，成为夜晚，半径为1英里。在该法术的范围内，只有在夜间才能施展的法术（如创造亡灵）可以不受白天时间的限制。",
				"当你施展这个法术时，选择下列效果之一。在你的每个回合中，直到法术结束，你都可以用你的行动来选择一个效果，选择相同的效果或不同的效果。",
				"梦境。咒语区域内的地形会按照你的愿望来塑造。地形的触觉特征不变，所以进入该区域的生物可能会看穿幻象。如果触觉上的差异不明显，仔细检查幻象的生物可以尝试用智力（调查）检查来对抗你的法术保全系数，从而不相信它。辨别出幻觉的生物会看到它是叠加在地形上的一个模糊的图像。你可以在你的回合中以行动方式结束这个效果。",
				"狰狞。你将虚假的生命注入你在咒语范围内可以看到的尸体。如果你选择的是一堆骨头，它就会变成一具骷髅，如果你选择的是一具肉质的尸体，它就会变成僵尸。在你的每个回合中，如果你用这个法术制造的任何生物在法术区域内，你可以使用一个行动在精神上命令该生物（如果你控制多个生物，你可以同时命令任何或所有生物，对每个生物发出相同的命令）。你决定该生物在下一回合将采取什么行动以及在哪里移动，或者你可以发出一个一般性的命令，比如说守卫一个特定的房间或走廊。如果你不发出任何命令，该生物只对敌对的生物进行自我防御。一旦下达了命令，该生物就会继续遵循它，直到它的任务完成。咒语结束时，该生物会恢复成一具尸体或一堆骨头。",
				"流星。一颗星星划过天空。你选择的一个能看到这颗星的生物会获得25个临时命中率。当该生物拥有这些命中率时，它对恐惧免疫。",
				"沉睡。你对咒语范围内你选择的一个生物造成昏睡。如果目标的命中率低于50，它就会倒下（%0%），直到法术结束，它受到伤害，或者有人使用行动将它摇醒或拍醒。",
				"星星风暴。十颗星星从天而降。每颗星都击中法术范围内你选择的一个生物。每颗星对其目标造成{@damage 1d4 + 1}武力伤害(为每颗星单独计算伤害)。这些星星都是同时攻击的，你可以指挥它们攻击一个或多个生物。每次你使用这个效果时，天空会变得更暗。在第10次使用后，上方的天空变得完全黑暗，你不能再使用这个效果。"
			],
			"damageInflict": [
				"force"
			],
			"savingThrow": [
				"intelligence"
			],
			"miscTags": [
				"SGT",
				"THP"
			],
			"classes": {
				"fromClassList": [
					{
						"name": "Wizard",
						"source": "PHB"
					},
					{
						"name": "Bard",
						"source": "PHB"
					},
					{
						"name": "Cleric",
						"source": "PHB"
					},
					{
						"name": "Druid",
						"source": "PHB"
					},
					{
						"name": "Sorcerer",
						"source": "PHB"
					},
					{
						"name": "Warlock",
						"source": "PHB"
					}
				]
			}
		},
		{
			"name": "Quasar",
			"source": "Spelljammerfore",
			"level": 6,
			"school": "V",
			"time": [
				{
					"number": 1,
					"unit": "action"
				}
			],
			"range": {
				"type": "line",
				"distance": {
					"type": "feet",
					"amount": 100
				}
			},
			"components": {
				"v": true,
				"s": true
			},
			"duration": [
				{
					"type": "instant"
				}
			],
			"entries": [
				"你在一条线上产生一束光芒，长100英尺，宽5英尺。线上的每个生物都必须做一个灵巧的蓄力动作。目标会受到{@damage 10d8}的辐射伤害，如果救赎失败，会在1分钟内受到{@condition blinded}的伤害，如果救赎成功，则会受到一半的伤害，不会受到{@condition blinded}的伤害。",
				"被此咒语影响的生物（%0%）在其每个回合结束时进行一次体质拯救。拯救成功后，它将不再是（%1%）。"
			],
			"entriesHigherLevel": [
				{
					"type": "entries",
					"name": "At Higher Levels",
					"entries": [
						"当你使用7级以上的法术槽施放此法术时，每超过6级的法术槽等级，伤害会增加（%0%）。"
					]
				}
			],
			"damageInflict": [
				"radiant"
			],
			"conditionInflict": [
				"blinded"
			],
			"savingThrow": [
				"dexterity",
				"constitution"
			],
			"classes": {
				"fromClassList": [
					{
						"name": "Wizard",
						"source": "PHB"
					},
					{
						"name": "Cleric",
						"source": "PHB"
					},
					{
						"name": "Sorcerer",
						"source": "PHB"
					}
				]
			}
		},
		{
			"name": "Softwood",
			"source": "Spelljammerfore",
			"level": 4,
			"school": "A",
			"time": [
				{
					"number": 1,
					"unit": "action"
				}
			],
			"range": {
				"type": "point",
				"distance": {
					"type": "touch"
				}
			},
			"components": {
				"v": true,
				"s": true,
				"m": "a bit of bark"
			},
			"duration": [
				{
					"type": "timed",
					"duration": {
						"type": "turn",
						"amount": 3
					}
				},
				{
					"type": "permanent",
					"ends": [
						"dispel"
					]
				}
			],
			"entries": [
				"接受软木法术的人，其身体立即被柔软的海绵状木头所包围，类似于腐烂的树桩。软木是一个生命体，栖息在个人的空气包络中，以低于正常水平的方式维持该人的生命。当人物倒下时（%0%），无论是由于暴露在致命的空气中还是由于受到伤害，这个人都会被置于悬浮状态，其方式类似于在星海中窒息的人。",
				"围绕着身体的软木对热和冷有极强的抵抗力，虽然里面的形态是（%0%），但它不能被伤害。处于软木茧中的人物可以坠落到地上，坠落的热量和冲击力会被法术吸收。",
				"软木在开放的空气中溶解。如果一个角色进入并停留在一个新的新鲜空气包围圈中超过三个回合，软木就会溶解，让个人的HP值为1。在露天环境中施展的软木法术将在三个回合内有效，并在施法者的第四回合开始时消散。",
				"软木法术是作为一种防御措施而创造的，以保护那些在太空中漂流的人。富有进取心的施法者已经把这个法术变成了一种遏制敌人的方便方法，也是一种把敌人和叛变的朋友送入荒野空间（和离开他们的飞船）而无需杀死他们的方法。"
			],
			"entriesHigherLevel": [
				{
					"type": "entries",
					"name": "At Higher Levels",
					"entries": [
						"当作为更高等级的法术施放时，施法者可以在施放法术的每一个4级以上的法术槽中针对一个额外的目标。"
					]
				}
			],
			"classes": {
				"fromClassList": [
					{
						"name": "Wizard",
						"source": "PHB"
					},
					{
						"name": "Cleric",
						"source": "PHB"
					},
					{
						"name": "Druid",
						"source": "PHB"
					},
					{
						"name": "Ranger",
						"source": "PHB"
					},
					{
						"name": "Artificer",
						"source": "TCE"
					}
				]
			}
		},
		{
			"name": "Starcrossed Binding",
			"source": "Spelljammerfore",
			"level": 7,
			"school": "A",
			"time": [
				{
					"number": 1,
					"unit": "hour"
				}
			],
			"range": {
				"type": "point",
				"distance": {
					"type": "feet",
					"amount": 10
				}
			},
			"components": {
				"v": true,
				"s": true,
				"m": {
					"text": "two stone rings made from the same meteorite and a diamond worth at least 3000 gp",
					"cost": 300000
				}
			},
			"duration": [
				{
					"type": "permanent",
					"ends": [
						"dispel"
					]
				}
			],
			"entries": [
				"你在范围内装饰两个愿意的生物，将他们跨越时间和空间结合在一起。只要这两个生物保持在同一个平面上，每一个生物都会获得+1的额外攻击力和蓄力，并且对{@condition charmed}的状况免疫。此外，每个目标都知道对方的方向和距离，如果他们中的一个人旅行或被传送到不同的平面，另一个人也知道他们去了哪个平面。",
				"如果其中一个生物被杀，该咒语就会结束。一个生物在其一生中只能从这个法术中受益一次。",
				"这个咒语只能被愿望咒语所驱散。"
			],
			"miscTags": [
				"MAC",
				"PRM"
			],
			"classes": {
				"fromClassList": [
					{
						"name": "Wizard",
						"source": "PHB"
					},
					{
						"name": "Bard",
						"source": "PHB"
					},
					{
						"name": "Cleric",
						"source": "PHB"
					}
				]
			}
		},
		{
			"name": "Starlight Shroud",
			"source": "Spelljammerfore",
			"level": 1,
			"school": "A",
			"time": [
				{
					"number": 1,
					"unit": "action"
				}
			],
			"range": {
				"type": "point",
				"distance": {
					"type": "self"
				}
			},
			"components": {
				"v": true,
				"s": true
			},
			"duration": [
				{
					"type": "timed",
					"duration": {
						"type": "minute",
						"amount": 10
					}
				}
			],
			"entries": [
				"幽灵般的星光围绕着你的身体，在10英尺范围内投射出明亮的光线，在另外10英尺范围内投射出昏暗的光线。在你施展此法术后第一次受到伤害时，星光会向外爆炸，法术结束。在你周围10英尺范围内的每个生物，除了你之外，都必须做一个灵巧的蓄力动作，如果蓄力失败，会受到（%0%）辐射伤害，如果蓄力成功，则会受到一半的伤害。"
			],
			"entriesHigherLevel": [
				{
					"type": "entries",
					"name": "At Higher Levels",
					"entries": [
						"当你使用二级以上的法术槽施放此法术时，每超过一级的法术槽等级，伤害就会增加（%0%）。"
					]
				}
			],
			"damageInflict": [
				"radiant"
			],
			"savingThrow": [
				"dexterity"
			],
			"classes": {
				"fromClassList": [
					{
						"name": "Wizard",
						"source": "PHB"
					},
					{
						"name": "Bard",
						"source": "PHB"
					},
					{
						"name": "Cleric",
						"source": "PHB"
					},
					{
						"name": "Druid",
						"source": "PHB"
					},
					{
						"name": "Paladin",
						"source": "PHB"
					},
					{
						"name": "Ranger",
						"source": "PHB"
					},
					{
						"name": "Sorcerer",
						"source": "PHB"
					},
					{
						"name": "Warlock",
						"source": "PHB"
					},
					{
						"name": "Artificer",
						"source": "TCE"
					}
				]
			}
		},
		{
			"name": "Starlight Spear",
			"source": "Spelljammerfore",
			"level": 2,
			"school": "C",
			"time": [
				{
					"number": 1,
					"unit": "bonus"
				}
			],
			"range": {
				"type": "point",
				"distance": {
					"type": "self"
				}
			},
			"components": {
				"v": true,
				"s": true
			},
			"duration": [
				{
					"type": "timed",
					"duration": {
						"type": "minute",
						"amount": 1
					},
					"concentration": true
				}
			],
			"entries": [
				"凝固的光在你手中。这个魔法长矛一直持续到咒语结束。它算作是你精通的简单近战武器。它在命中时造成{@damage 2d12}的辐射伤害，并具有伸手和投掷(20/60ft.)的特性。此外，如果你向一个目标移动了至少20英尺，你用这个武器的下一次攻击会造成额外的（%1%）辐射伤害。",
				"如果你丢掉武器或扔掉它，它将在回合结束时消散。此后，当咒语持续存在时，你可以使用一个额外的动作来使长矛重新出现在你的手中。"
			],
			"entriesHigherLevel": [
				{
					"type": "entries",
					"name": "At Higher Levels",
					"entries": [
						"当你使用三阶或四阶的法术槽施展此法术时，伤害增加到（%0%）。当你使用五级或六级的法术槽施放时，伤害增加到（%1%）。当你使用第七级或更高级别的法术槽施放它时，伤害增加到（%2%）。"
					]
				}
			],
			"damageInflict": [
				"radiant"
			],
			"classes": {
				"fromClassList": [
					{
						"name": "Wizard",
						"source": "PHB"
					},
					{
						"name": "Cleric",
						"source": "PHB"
					},
					{
						"name": "Paladin",
						"source": "PHB"
					},
					{
						"name": "Sorcerer",
						"source": "PHB"
					},
					{
						"name": "Artificer",
						"source": "TCE"
					}
				]
			},
			"miscTags": [
				"UBA"
			]
		},
		{
			"name": "Twinkle",
			"source": "Spelljammerfore",
			"level": 0,
			"school": "V",
			"time": [
				{
					"number": 1,
					"unit": "action"
				}
			],
			"range": {
				"type": "point",
				"distance": {
					"type": "feet",
					"amount": 10
				}
			},
			"components": {
				"v": true,
				"s": true
			},
			"duration": [
				{
					"type": "instant"
				}
			],
			"entries": [
				"你创造或操纵你能在范围内看到的、适合在5英尺立方体内的灯光。",
				"1. 你创造一个小的光爆，在5英尺范围内提供亮光，在另外5英尺范围内提供暗光，直到你下一个回合开始。",
				"2. 你使一个非魔法之光变暗，直到你下一回合开始。一个通常施放暗光的物体不再施放光线，而一个施放亮光的物体现在施放暗光。",
				"3. 你改变一盏灯的颜色，持续1分钟。",
				"如果你多次施展这个法术，你最多可以有三个由它创造的非瞬时效果同时激活，而且你可以把这样的效果作为一个行动来解除。"
			],
			"classes": {
				"fromClassList": [
					{
						"name": "Wizard",
						"source": "PHB"
					},
					{
						"name": "Bard",
						"source": "PHB"
					},
					{
						"name": "Cleric",
						"source": "PHB"
					},
					{
						"name": "Druid",
						"source": "PHB"
					},
					{
						"name": "Sorcerer",
						"source": "PHB"
					}
				]
			},
			"races": [
				{
					"name": "Elf (High)",
					"source": "PHB",
					"baseName": "Elf",
					"baseSource": "PHB"
				}
			],
			"miscTags": [
				"SGT"
			]
		},
		{
			"name": "Ultraviolet Pulse",
			"source": "Spelljammerfore",
			"level": 2,
			"school": "V",
			"time": [
				{
					"number": 1,
					"unit": "action"
				}
			],
			"range": {
				"type": "point",
				"distance": {
					"type": "feet",
					"amount": 120
				}
			},
			"components": {
				"s": true
			},
			"duration": [
				{
					"type": "instant"
				}
			],
			"entries": [
				"你向范围内的一个生物投掷一个发光的紫罗兰能量球，该球在撞击时迸发出（%0%）的辐射脉冲。对目标进行一次范围性的法术攻击。一旦命中，它将受到{@damage 5d6}的辐射伤害，并且必须进行宪法救赎，否则将在1分钟内受到{@condition poisoned}。目标可以在它的每个回合结束时重复这个救赎，如果成功则结束该效果。"
			],
			"entriesHigherLevel": [
				{
					"type": "entries",
					"name": "At Higher Levels",
					"entries": [
						"当你使用3级以上的法术槽施放此法术时，每超过2级的法术槽等级，伤害会增加（%0%）。"
					]
				}
			],
			"damageInflict": [
				"radiant"
			],
			"savingThrow": [
				"constitution"
			],
			"classes": {
				"fromClassList": [
					{
						"name": "Wizard",
						"source": "PHB"
					},
					{
						"name": "Cleric",
						"source": "PHB"
					},
					{
						"name": "Druid",
						"source": "PHB"
					},
					{
						"name": "Ranger",
						"source": "PHB"
					},
					{
						"name": "Sorcerer",
						"source": "PHB"
					},
					{
						"name": "Warlock",
						"source": "PHB"
					}
				]
			}
		},
		{
			"name": "Vacuum",
			"source": "Spelljammerfore",
			"level": 5,
			"school": "C",
			"time": [
				{
					"number": 1,
					"unit": "action"
				}
			],
			"range": {
				"type": "point",
				"distance": {
					"type": "feet",
					"amount": 30
				}
			},
			"components": {
				"s": true,
				"m": "a sealed container"
			},
			"duration": [
				{
					"type": "instant"
				}
			],
			"entries": [
				"你把范围内一个生物的空气全部抽走。目标必须做一个宪法救赎的动作。拯救失败时，它会受到{@damage 8d6}重击伤害并开始窒息。成功的话，它将受到一半的伤害，并且不会开始窒息。",
				"目标可以在它的每个回合结束时重复蓄力，如果成功则结束该咒语。"
			],
			"classes": {
				"fromClassList": [
					{
						"name": "Bard",
						"source": "PHB"
					},
					{
						"name": "Cleric",
						"source": "PHB"
					},
					{
						"name": "Druid",
						"source": "PHB"
					},
					{
						"name": "Ranger",
						"source": "PHB"
					},
					{
						"name": "Sorcerer",
						"source": "PHB"
					},
					{
						"name": "Warlock",
						"source": "PHB"
					},
					{
						"name": "Artificer",
						"source": "TCE"
					}
				]
			}
		}
	]
}
