{
	"$schema": "https://raw.githubusercontent.com/TheGiddyLimit/5etools-utils/master/schema/brew-fast/homebrew.json",
	"_meta": {
		"sources": [
			{
				"json": "CDR",
				"abbreviation": "CDR",
				"full": "Clockwork Dragon Races",
				"authors": [
					"Clockwork Dragon, Sebastian McCoy"
				],
				"convertedBy": [
					"p4535992"
				],
				"version": "2020.12.10",
				"url": "https://dm-clockwork-dragon.tumblr.com/PublishedWork",
				"targetSchema": "1.0.0"
			}
		],
		"dateAdded": 1587495146,
		"dateLastModified": 1703373316,
		"_dateLastModifiedHash": "e41c7afdad"
	},
	"race": [
		{
			"name": "Aeramanu",
			"source": "CDR",
			"ability": [
				{
					"wis": 1,
					"int": 1
				}
			],
			"size": [
				"M"
			],
			"speed": {
				"walk": 30
			},
			"traitTags": [
				"Monstrous Race"
			],
			"entries": [
				"作为三个贵族家族之一的禽类，你获得以下特征。",
				{
					"name": "Ability Score Increase",
					"type": "entries",
					"entries": [
						"你的智慧和智力分数都增加1。"
					]
				},
				{
					"type": "entries",
					"name": "Age",
					"entries": [
						"爱拉曼努人的寿命与人类相似，但他们的文化倾向于禁忌，这意味着很少有人敢于使用不健康的魔法或类似的不光彩手段来延长这种寿命。"
					]
				},
				{
					"name": "Alignment",
					"type": "entries",
					"entries": [
						"虽然沉浸在亡灵巫术和其他黑暗迷恋的阴影中，但爱拉曼努人并没有明确的善恶之分，他们往往纯粹是出于好奇而寻找这种东西。整体而言，爱拉曼努文化的深厚传统将孩子们推向更合法的方向。"
					]
				},
				{
					"name": "Size",
					"type": "entries",
					"entries": [
						"Aeramanu平均比许多其他种族略高，成年后的身高很少低于6英尺。你的体型类别是中等。"
					]
				},
				{
					"type": "entries",
					"name": "Speed",
					"entries": [
						"不比普通人快，你的速度是30英尺。"
					]
				},
				{
					"name": "Hollow Bones",
					"entries": [
						"虽然不会飞，但Aeramanu仍然保留了它们鸟类的空心骨骼，使它们的体型异常轻盈。你在计算坠落伤害时，就像坠落的距离减半一样。"
					],
					"type": "entries"
				},
				{
					"name": "Occult Tradition",
					"entries": [
						"爱拉曼努人擅长所有的奥术，并且在大多数种族首次涉足奥术之前就已经开始练习魔法了。你从（%0%）中获得两个你选择的咒语。选择智慧或智力作为你对这些法术的施法能力。"
					],
					"type": "entries"
				},
				{
					"name": "Languages",
					"entries": [
						"普通，爱拉曼奴，以及你选择的另一个。"
					],
					"type": "entries"
				},
				{
					"name": "Subraces",
					"entries": [
						"爱拉曼努社会是围绕着严格的种姓制度建立起来的，由三个大院子统治着。这些家族就像大家庭一样，管理着爱拉曼努社会的方方面面，爱拉曼努人出生在哪个家族，或者他们的家族在哪个家族下服务，决定了他们在这个世界上所要充当的角色。"
					],
					"type": "entries"
				}
			],
			"age": {
				"mature": 20,
				"max": 200
			},
			"languageProficiencies": [
				{
					"common": true,
					"aeramanu": true,
					"other": true
				}
			],
			"fluff": {
				"entries": [
					"{@link Aeramanu|https://www.dropbox.com/sh/c58zeoihc6h6ul8/AACVQ4kQE6BJI73ClRNlf9Aha/02-Races?dl=0&preview=Aeramanu+Race+By+Clockwork+Dragon.pdf&subfolder_nav_tracking=1}",
					{
						"name": "Aeramanu",
						"entries": [
							"维克多-斯坦因因期待而皱起了眉头，这是他从未感受过的。他一生的努力都是为了这一刻。在他面前的20英尺处，坐着黑暗的种子--世界上所有邪恶和疯狂的唯一的、不可弥补的来源--以及他唯一的、燃烧的问题的答案。",
							"在梵蒂冈秘密档案中数十年的研究；未得到回应的祈祷和琐碎的、煽动战争的魔鬼；他花了近二十年时间实现的阿波克罗菲亚的预言；这一切都在此刻，在这个地方达到了顶点！这就是阿波克罗菲亚。",
							"诸神没能给他答案。魔鬼们不关心他们掌握的秘密。但现在，随着阿斯莫德的离开，他终于可以揭开有史以来最重要的一个问题的答案。这个答案隐藏得如此之深，甚至连众神都不敢问。",
							"他小心翼翼地走上前去，伸出手指，倒下的主教的血从他的爪子上滴落下来。符文圈发亮了。他感到力量从他自己和他的战友们身上消失了。他们不知道这一刻的重要性--不知道这个仪式的真正目的，不知道他把他们聚在一起的真正原因。他向上伸手，说出了他已经背了一千遍的话语，以难以计数的精确度背诵着它们。然后.... 黑魔王从她的位置上走了下来。圆圈被打破，仪式陷入了混乱。黑暗被解除了束缚，种子被释放了出来。 她毁了它! 毁掉了他唯一能得到答案的机会! 她破坏了这个圈子，而现在，整个世界都将为她的违法行为而受苦。"
						],
						"type": "entries"
					},
					{
						"name": "A Rise from the Ashes",
						"entries": [
							"Aeramanu是一个古老的民族，在他们大部分的历史中，都是属于迷失和被遗忘的民族。在堕落之前，Aeramanu商队在Aetheros来回旅行，向那些愿意交易的人提供异国的商品和神秘的见解，并且从不在一个地方停留超过几晚。",
							"他们与死亡和神秘主义的强烈文化联系给他们贴上了不洁的标签，除了少数例外，Aeramanu被视为小偷、杀人犯和刺客而已--许多人发现这种看法更容易接受而不是争论。",
							"直到堕落之后，一位名叫维克多-斯坦恩的爱拉曼努人在曾经的九层地狱中崛起，爱拉曼努人才开始获得财富和社会地位。今天，三大Aeramanu家族是世界上最富有的家族之一，他们赞助艺术、科学和神秘学，但从未忘记他们从那里爬出来的灰烬。"
						],
						"type": "entries"
					},
					{
						"name": "Steeped in Tradition",
						"entries": [
							"尽管有了新发现的财富，艾拉曼纽家族还是紧紧抓住了他们游牧民族祖先的传统。",
							"现代Aeramanu文化中弥漫着对神秘学的巨大荣誉和特别严峻的审美，对神灵或家族的不敬被视为应受惩罚的罪行。爱拉曼努人对信任很迟钝，经常像持有货币一样持有秘密，对奥术知识的觊觎高于一切。神秘学诞生于他们的血液中，没有魔法的爱拉曼努人就像一只没有羽毛的鸟--已经死了，只剩下骨头上的肉。"
						],
						"type": "entries"
					},
					{
						"name": "Aeramanu in Society",
						"entries": [
							"爱拉曼努人是一个骄傲的民族，无论是他们古老的传统，还是他们最近崛起的力量，没有一个爱拉曼努人会放弃讲述他们家族财富和成就的机会。现代Aeramanu人穿着精美的衣服，模仿他们游牧民族祖先的传统包裹，并经常用五颜六色的染料或鲜艳的羽毛装饰自己，向Victor Stein勋爵致敬，是他为他们在贵族社会赢得了地位。",
							"由于这种巨大的自豪感，其他种族往往认为爱拉曼努人是精英或自以为是，事实上许多爱拉曼努人几乎不认为其他种族值得他们花时间。",
							"但这并不能说明整个种族的情况，总的来说，Aeramanu是一个充满动力和奉献精神的民族，他们渴望在这个世界上扬名立万，而这个世界才刚刚开始认识到他们作为盗贼和骗子之外的潜力，他们对头衔和社会地位的专注是几个世纪以来在其他种族中被剥夺任何价值感的结果。"
						],
						"type": "entries"
					},
					{
						"name": "Great Houses",
						"entries": [
							"爱拉曼努社会是围绕着严格的种姓制度建立起来的，由三个大院子统治着。这些家族就像大家庭一样，管理着爱拉曼努社会的方方面面，爱拉曼努人出生在哪个家族，或者他们的家族在哪个家族下服务，决定了他们在这个世界上所要充当的角色。"
						],
						"type": "entries"
					},
					{
						"name": "Aeramanu Names",
						"entries": [
							"Aeramanu的名字是传统的，不拘一格的，往往是世代相传的。",
							{
								"entries": [
									{
										"name": "Male Names",
										"entries": [
											"Alexandru, Adrian, Andrei, Mihai, Ionuț, Florin, Daniel, Marian, Marius, Cristian"
										],
										"type": "entries"
									},
									{
										"name": "Female Names",
										"entries": [
											"Ana-Maria, Mihaela, Andreea, Elena, Alexandra, Cristina, Daniela, Alina, Maria, Ioana"
										],
										"type": "entries"
									}
								],
								"type": "entries"
							}
						],
						"type": "entries"
					}
				],
				"images": [
					{
						"type": "image",
						"href": {
							"type": "external",
							"url": "https://i.imgur.com/B5SBjTm.png"
						}
					}
				]
			}
		},
		{
			"name": "Auroros",
			"source": "CDR",
			"ability": [
				{
					"int": 3,
					"str": -2
				}
			],
			"size": [
				"M"
			],
			"speed": {
				"walk": 30
			},
			"traitTags": [
				"Monstrous Race"
			],
			"entries": [
				"极乐世界的特质",
				{
					"name": "Ability Score Increase",
					"type": "entries",
					"entries": [
						"你的智力得分增加3分，力量得分减少2分。"
					]
				},
				{
					"type": "entries",
					"name": "Age",
					"entries": [
						"Auroros对年龄的概念与大多数物种不同，因为它们不断变化的蒸气在每一刻都不完全相同。也就是说，只要它的幻觉纽带还在，一个单独的云就可以存在，除非这些纽带被破坏，否则可以说Auroros是无限期地 \"活着\"，或者直到它与另一个云的扩散赋予它新的身份。"
					]
				},
				{
					"name": "Alignment",
					"type": "entries",
					"entries": [
						"大多数Auroros的内心是混乱的，这是他们不断旋转的形式的反映，但善与恶对Auroros整体来说没有什么意义。所有事物都倾向于熵。"
					]
				},
				{
					"name": "Size",
					"type": "entries",
					"entries": [
						"Auroros Xexels被设计成将个人的气态压缩成中等人形的形式。"
					]
				},
				{
					"type": "entries",
					"name": "Speed",
					"entries": [
						"当包含在Xexel中时，你的速度与你体型的其他生物一样，为30英尺。"
					]
				},
				{
					"name": "Weak Cohesion",
					"entries": [
						"你的气态身体在没有加压服的帮助下，很难维持凝聚力。你的最大命中率降低了一半。"
					],
					"type": "entries"
				},
				{
					"name": "Protective Vessel",
					"entries": [
						"为了保护你虚无的身体，使你能够与世界进行物理互动，你被装在一件叫做Xexel的加压服里，它为你提供了一层Xexel命中率的保护，相当于你的最大命中率。这些命中率具有临时命中率的功能，但并不妨碍你从其他来源获得额外的临时命中率。"
					],
					"type": "entries"
				},
				{
					"name": "Xexel Repair",
					"entries": [
						"你的Xexel是一件复杂的外星技术，当它受到损害时必须进行修复。你的Xexel只能由你自己或另一个Auroros种族的成员来修理，并且每花一小时的时间来修理，就能恢复相当于1个命中率+你的智力修饰的命中率。"
					],
					"type": "entries"
				},
				{
					"name": "Arcane Dissidence",
					"entries": [
						"你与奥术世界的分离使你难以理解奥术魔法。你无法适应魔法物品，并且需要两倍的时间将新的法术复制到法术书或仪式书中。"
					],
					"type": "entries"
				},
				{
					"name": "Natural Telekinesis",
					"entries": [
						"Auroros已经进化出了一定程度的先天幻象能力，这使得他们即使在气态下也能与更多的固体物体互动。你可以使用并与你周围10英尺内的物体和生物互动，就像你触摸它们一样。你可以用这种方式携带和操纵物体，其总重量（以磅为单位）等于你的智力修正值乘以15。使用这种能力进行的互动，如攻击卷和抓取检查，会使用你的智力分数来代替你的力量分数。保持这种心灵感应的力量需要集中精力。如果一个动作或效果会导致你失去对这个能力的注意力，那么这个能力所施加的所有力量都会结束，而被这个能力托在空中的物体或生物会掉到地上。"
					],
					"type": "entries"
				},
				{
					"name": "Telepathic Communication",
					"entries": [
						"你可以对你周围60英尺内任何你能看到的生物进行心灵感应。你不需要与该生物共享一种语言，它就能理解你的心灵感应信息，但该生物必须能够理解至少一种语言，或者本身具有心灵感应能力。"
					],
					"type": "entries"
				},
				{
					"name": "Magical Repair",
					"entries": [
						"诸如{@spell Mending}的魔法修复方法可以用来帮助Xexel恢复到正常的工作状态，但是由于衣服设计的复杂性和异形性，只有Auroros本身，或者类似于熟悉Auroros技术的生物才能够使用魔法来修复Xexel。通过魔法工作每修复一英尺的材料，Xexel就会恢复命中率，就像它花了一个小时来进行修复一样。在需要人工修理之前，Xexel可以通过这种方式修理的次数与施法者的熟练度加成相等。多个施法者不会增加这个限制。"
					],
					"type": "entries"
				},
				{
					"name": "Languages",
					"entries": [
						"普通的，还有你选择的另外两个。"
					],
					"type": "entries"
				}
			],
			"languageProficiencies": [
				{
					"common": true,
					"any": 2
				}
			],
			"fluff": {
				"entries": [
					{
						"name": "Auroros",
						"entries": [
							"年轻的皮提亚独自走进古老的神庙大厅。卫兵们站在门外的两边，甚至不敢看她的服务。她很高兴。",
							"在人的世界里，神谕者很少能找到平静。每个商人都想知道他的财富结果，每个战士都想知道他们下一场战斗的潮水，每个国王都想知道他们的继承人和王国的命运。她走到哪里都会被人搭讪。",
							"到处都是，除了这个地方。",
							"她坐在那条鸿沟上，发光的蒸汽从那里涌出，她稳稳地坐在垫子上，但很舒服，她开始吸气。几乎就在这时，奇怪的声音和符号开始充斥她的头脑。",
							"战争、混乱、伟大国王的陨落和奇怪帝国的崛起充斥着她的视野。死人在活人中行走，奇怪的金人在那些只属于神的财富面前谦卑地服侍。她已经习惯了这些，这是她作为德尔菲伟大神谕的角色。但在这些幻象中，今天还有别的东西。一些超越了摆在她面前的永无止境的问题的答案。今天，这些异象似乎在向她提出一些要求。",
							"她很疲惫，有毒的烟雾，尽管它们的力量很大，但对缓解她的状态作用不大。当她在五彩斑斓的蒸气上摇摆时，她几乎能听到一个声音，就像母亲或姐妹，在呼唤她的名字，提供它的关怀和照顾。幻象软化了，云状色彩的漩涡几乎退去，仿佛从她身边拉开。今天不会再有预言了，不管那些人要求什么。她为此感到高兴。",
							"当年轻的泰兰静静地睡在祭坛基座上时，一股无形的风拂过她桀骜的发丝。",
							"这个女孩又开始过度劳累了：如此努力的为外面的那些人提供服务。阿萨拉承认，至少在这里，小姑娘可以不受干扰地休息，她只希望她那些不知情的主人的原始思想能更开放地理解她的精神警告。即使在没有她的Xexel的情况下被困在这里，看到这些泰兰生物与自己的同类如此不断地发生冲突，她也感到痛苦。"
						],
						"type": "entries"
					},
					{
						"name": "Distant Observers",
						"entries": [
							"对于外部观察者来说，自然状态下的极光体可能根本就没有生命。事实上，在其他世界的人中，这些发光的气体漩涡云常常被误认为是海市蜃楼般的幻觉或大气现象；极光体作为一个整体很乐意利用这种伪装。",
							"Auroros利用他们独特的生物学特性，充当其他种族的被动观察者和监视者。很少有人会怀疑空气本身在偷听私人谈话，而他们种族温和的好奇心导致了更多的人在发现大多数人希望隐藏的秘密的道路上。",
							"然而，这种秘密和私密的知识，除了满足好奇心之外，很少被用于任何效果。大多数Auroros人喜欢不参与其他种族的事务，除了观察之外，很少有人有兴趣直接与更多的陆地种族互动。因此，Auroros的冒险家很罕见。但罕见并不意味着闻所未闻。"
						],
						"type": "entries"
					},
					{
						"name": "Living Vapour",
						"entries": [
							"虽然形状和形式可能有所不同，但宇宙中大多数有生命的生物至少有一个共同点：一个由固体物质组成的身体。然而，Auroros被证明是这一规则的例外。在没有固体物质的气态世界中，Auroros是一个奇怪的民族，完全由变化的气体和蒸汽组成，由幻觉力量凝聚而成。他们蒸腾的身体微弱地闪耀着无数的颜色，给他们一个短暂的外观，与有时已知的在夜间天空中跳舞的极地之光并无不同。",
							"在未经训练的人眼里，Auroros常常看起来不过是奇怪的发光云，他们的自然身体无法施加足够的压力与固体物体或生物互动，这使他们在身体上比其他种族处于严重的劣势。但是，Auroros在固体物质方面的不足，他们用强大的思想来弥补。",
							"这些 \"活云 \"是众所周知的高智商生物，他们几个世纪以来的智慧在任何重要的圈子里都受到重视。不仅如此，进化还赋予了奥罗罗人强大的幻觉能力，如心灵感应和心灵感应，使该种族的成员能够与他人沟通，仅通过思想就能操纵他们周围的世界。",
							"也就是说，这些短暂的舞动之光并非没有与世界互动的更传统的方式，对大多数种族来说，他们的先进技术与魔法没有什么区别。"
						],
						"type": "entries"
					},
					{
						"name": "Xexel Containment",
						"entries": [
							"很久以前，Auroros被剥夺了自己的世界，他们是一个先进的民族，已经在星空中旅行了数百万年。在这段时间里，他们通过使用模仿其他种族的人形的特殊压力容器，适应了其他国家的固体世界。在无数个世纪中，这些被称为Xexels的衣服已经成为奥罗罗人的内在组成部分，就像他们自己的气态身体一样。",
							"当居住在Xexel中时，Auroros被称为 \"被包含\"，并能以类似于其他类人的方式与物理世界互动。然而，Xexel是一种复杂的设备，其作用远远超过了简单地容纳个人的气态身体。每个Xexel都与它的主人有着强大的灵媒联系，使他们能够体验到其他生物认为理所当然的物理感觉，如触摸。",
							"Xexels是Auroros文化的内在组成部分，一个人的西装和他们的记忆和个性一样，都是他们身份的一部分。Xexels通常装饰着复杂的设计和图案，讲述着一个人几个世纪以来的生活故事。虽然有可能离开Xexel并以气态形式自由漂浮，但Auroros宁愿死也不愿意让他们的Xexel被偷走或（上帝保佑）被其他生物穿走。偷窃他人的Xexel，或居住在自己的Xexel之外，被视为Auroros文化的最大禁忌。"
						],
						"type": "entries"
					},
					{
						"name": "Psionic Fission",
						"entries": [
							"极光兽是长寿的、高度大脑化的生物，一个人的身份感在其漫长的生命过程中可能会改变数百次，但这些改变并不改变极光兽的基本构成。相比之下，幻术裂变的过程代表了一种全新的生物的诞生。",
							"在Psionic Fission过程中，一个Auroros有意识地决定变成两个：把他们的个性和自我的不同元素，以及构成他们身体的物理化合物分离成两个独特的云团。这些云在化学上和幻觉上都与他们的母体不同，虽然他们都保留了他们前任的某些方面，但他们是独立的个体，往往需要接近一个世纪才能形成他们自己的完整身份。",
							"幻象裂变代表着一个Auroros的奇异生命的结束，正因为如此，它是一个很少在没有深刻和有意义的考虑下进行的行为。",
							"此外，一个Auroros可能需要花上几十年的时间来收集必要的物质和幻觉能量，以成功地分裂成两个独特的生命，这使得整个过程非常罕见。"
						],
						"type": "entries"
					},
					{
						"name": "Auroros Names",
						"entries": [
							"Auroros总是处于一种独特的变化状态，在其漫长的生命历程中可能会选择使用许多名字和头衔。但一般来说，只要它继续与相同的生物互动，Auroros就会持有一个名字。Auroros没有性别或性行为的概念。",
							{
								"entries": [
									{
										"name": "Neutral Names",
										"entries": [
											"Athphae, Atmos, Faera, Delphai, Ephervell, Ghora, Heiro, Nahlra, Pheos, Sephonea, Zeirhas"
										],
										"type": "entries"
									}
								],
								"type": "entries"
							}
						],
						"type": "entries"
					},
					{
						"name": "Breaching Containment (features)",
						"entries": [
							"你的加压服的安全保护你的气态身体不受直接伤害，但有一些情况会使你的气态暴露在外界空气中。"
						],
						"type": "entries"
					}
				],
				"images": [
					{
						"type": "image",
						"href": {
							"type": "external",
							"url": "https://i.imgur.com/YHivxFY.png"
						}
					}
				]
			}
		},
		{
			"name": "Babbage",
			"source": "CDR",
			"ability": [
				{
					"con": 2
				}
			],
			"size": [
				"M"
			],
			"speed": {
				"walk": 30
			},
			"traitTags": [
				"Monstrous Race"
			],
			"entries": [
				"作为巴贝奇的机械构造，你的思维是由旋转的齿轮和齿轮组成的，你获得以下特征",
				{
					"name": "Ability Score Increase",
					"type": "entries",
					"entries": [
						"你的体质得分增加2。"
					]
				},
				{
					"type": "entries",
					"name": "Age",
					"entries": [
						"巴贝奇没有有机成分，因此，如果维护得当，可以无限期地保持功能。"
					]
				},
				{
					"name": "Alignment",
					"type": "entries",
					"entries": [
						"大多数巴贝奇是为了实现一个特定的目的而建造的，即使被遗弃，也倾向于合法的取向。"
					]
				},
				{
					"name": "Size",
					"type": "entries",
					"entries": [
						"巴贝奇最常被建造成类似于普通人的样子。你的体型是中等。"
					]
				},
				{
					"type": "entries",
					"name": "Speed",
					"entries": [
						"你的基本行走速度是30英尺。"
					]
				},
				{
					"name": "Animated Construct",
					"entries": [
						"你的身体完全由金属和其他耐用部件组成，使你远没有其他生物那么脆弱。你对毒药、睡眠、麻痹、魅惑、恐惧、疾病和衰竭等效果和状况免疫。你也对毒药和坏死的伤害免疫，并对精神伤害有抵抗力。你不需要进食、睡眠或呼吸，也不能从必须摄入的消耗品（如药水）中获得效果。"
					],
					"type": "entries"
				},
				{
					"name": "Undergoing Repair",
					"entries": [
						"虽然你的机械部件不会受到困扰有机生物的相同弱点的影响，但你也没有自然治疗的好处，除非接受修理，否则无法恢复命中率。修复你的身体需要熟练使用工匠的工具，并允许你每花一小时恢复2个命中率+你的体质修正值的HP。在以这种方式进行修复时，你会完全意识到你周围的环境，但容易受到所有你没有免疫力或抵抗力的伤害。"
					],
					"type": "entries"
				},
				{
					"name": "Armoured Plating",
					"entries": [
						"你错综复杂的内部结构受到装甲板的保护，它是普通装甲的补充，允许你在计算你的装甲等级时增加1/2的熟练度奖励。额外的盔甲必须由精通铁匠工具的人转换为镀层并安装在你身上；这个过程最初需要8小时。一旦新的装甲被安装好，它可以像普通的同类装甲一样穿戴和脱下。你的装甲必须脱下才能进行修理。"
					],
					"type": "entries"
				},
				{
					"name": "Heavy Frame",
					"entries": [
						"由于构成你身体的重金属成分，你没有能力游泳，尽管你可以在水下行走，就像在困难的地形中移动。"
					],
					"type": "entries"
				},
				{
					"name": "Machine Literacy",
					"entries": [
						"每个巴贝奇都被设计成具有自我修复和维护的能力。你有熟练的修补工具的能力。并在了解复杂机器的工作原理的检查上有优势。"
					],
					"type": "entries"
				},
				{
					"name": "Languages",
					"entries": [
						"普通的和选择一个其他的。"
					],
					"type": "entries"
				}
			],
			"languageProficiencies": [
				{
					"common": true,
					"other": true
				}
			],
			"resist": [
				"psychic"
			],
			"immune": [
				"necrotic",
				"poison",
				"psychic"
			],
			"fluff": {
				"entries": [
					{
						"name": "Babbage",
						"entries": [
							"当她深入迷宫般的走廊时，爱丽丝可以听到她的擒纵轮的快速呼啸声。通常情况下，这种声音是如此安静，她几乎没有注意到，但最近与吸血鬼幽灵的冲突设法使一些东西稍微偏离了位置，在陷阱地板将她与其他人分开之前，她还没有来得及完成修理。",
							"这个地方有一些她不喜欢的地方。",
							"也许是那些刻有奇怪符号的玻璃墙，它们总是这样那样地移动。也许是那些似乎被束缚在这个地方的灵魂的主人，从来没有给她一个自己的时刻。但实际上，如果她必须把她的手指放在它上面... 铸模!",
							"困扰她的是冠饰。它与这个地方的欧洲哥特式建筑根本不匹配。当然，象牙是一个很好的点缀，但它是明显的法国设计，而她的建筑运动就是不允许它存在！\"。",
							"她打开了她的弱光光学系统，并准备好她藏在手臂里的刀片。她知道前面会有战斗，而那个该死的模子会让她整天都在触发逻辑循环。"
						],
						"type": "entries"
					},
					{
						"name": "Designed with Purpose",
						"entries": [
							"巴贝奇是手工制作的机械结构，由发条和蒸汽驱动，并由难以想象的复杂的机械计算机控制。它们首先由具有前瞻性的工程师查尔斯-巴贝奇设计和建造，在上层社会中成为受欢迎的伙伴，并成为大型工业运作的关键部分。",
							"因为它们的生产成本太高，所以很少有不考虑具体功能的巴贝奇生产。因此，许多巴贝奇被设计为执行非常具体的工业任务，或作为富人的一体化家庭仆人。"
						],
						"type": "entries"
					},
					{
						"name": "Mechanized Hearts",
						"entries": [
							"巴贝奇不是生命体。至少不是传统意义上的。虽然许多学者--以及一些巴贝奇--对巴贝奇智力的真正性质进行了辩论，但他们的基本构成只不过是一系列复杂的机械运动而已。对许多人来说，这提出了一个哲学难题：巴贝奇真的有灵魂吗？完全由人工组件组成的生物能不能真正有感觉，或者它们的思想和情感只是真实事物的机械化近似？"
						],
						"type": "entries"
					},
					{
						"name": "A Different Sort of Immortality",
						"entries": [
							"巴贝奇的衰老方式与其他种族不同--从某种意义上说，他们根本就不衰老。如果维护和保养得好，巴贝奇永远不会显示出任何真正的时间进展的迹象--他们在功能上是不朽的。然而，与此同时，诸如 \"死而复生 \"和 \"复活 \"的法术对巴贝奇不起作用。他们的存在完全是人为的，虽然巴贝奇记录的记忆可以从一个身体移植到另一个身体，但这并不总是确保新机器的行为与原来的相同。因此，巴贝奇获得了某种不朽的地位，但问题是他们是否曾经真正活着。"
						],
						"type": "entries"
					},
					{
						"name": "Make and Manufacture",
						"entries": [
							"查尔斯-巴贝奇的原始设计由巴贝奇本人拥有版权，他严格控制对其作品的复制。然而，这并不妨碍其他工程师在他的作品的启发下创造自己的设计，\"巴贝奇 \"一词很快就被用来指代任何智能构造。这些构造物的功能和外观可能因制造商的不同而大相径庭。最精致和最受欢迎的模型是由查尔斯-巴贝奇生产的，并由手工组装，作为装饰华丽的家庭仆人，而由Aethertech公司等公司生产的更多的工业模型则更加赤裸裸，设计的功能效率高于物理美。一些模型采用专门的工具或设备，如额外的手臂或蜘蛛状的副底盘，以更好地支持他们的重量，但那些最有可能被发现的冒险者几乎都是人形，并采用模块化设计，使他们能够利用新的零部件的进步，用售后配件升级他们现有的身体。"
						],
						"type": "entries"
					},
					{
						"name": "Society",
						"entries": [
							"巴贝奇最初是作为机械仆人和工人被介绍给世界的，对许多人来说，它们仍然是。尽管它们很聪明，但有很多人觉得很难把巴贝奇看作是昂贵的机器或工具。而有很多巴贝奇对这种安排非常满意。那些因为自己的努力而变得憔悴的巴贝奇，或者被遗弃或遗忘的巴贝奇，常常通过探索他们设计以外的工作和任务来扩大他们的视野。在许多情况下，这可以使他们过上冒险家的生活。"
						],
						"type": "entries"
					},
					{
						"name": "Magical Repair",
						"entries": [
							"诸如{@spell Mending}的魔法修复方法可以用来帮助恢复巴贝奇的状态，而不需要使用工匠的工具或拆除他们的装甲板，但由于巴贝奇设计的复杂性，大多数法师都无法完全修复巴贝奇。通过法术修复的每一英尺的材料，巴贝奇都会恢复命中率，就像他们花了一个小时的时间进行修理一样。在需要人工修理之前，一个巴贝奇可以通过这种方式修理的次数与施法者的熟练度加成相等。多个施法者不会增加这个限制。"
						],
						"type": "entries"
					},
					{
						"name": "Name and Designation",
						"entries": [
							"巴贝奇在出厂时一般都有一个序列化的指定号码，但大多数主人为了熟悉而选择给他们的机械伙伴起一个名字。这些名字的范围可以是主人的种族的习惯名称，也可以是巴贝奇功能的文字游戏或序列号的变形词。下面列出了一些常见的名字。",
							{
								"entries": [
									{
										"name": "Neutral Names",
										"entries": [
											"安东尼、阿西莫夫、克兰克、科格斯沃斯、居里、赫伯特、刘易斯、少校、诺贝尔、棘轮、斯宾塞、威尔斯、惠里吉格"
										],
										"type": "entries"
									}
								],
								"type": "entries"
							}
						],
						"type": "entries"
					},
					{
						"name": "Interchangeable parts (features)",
						"entries": [
							"巴贝奇在建造时几乎都有一个特定的功能，这个功能的改变并不罕见。因此，大多数巴贝奇的构造采用了模块化设计，允许广泛的修改。零件通常占用一个特定的插槽，如手臂或腿，并且可以作为维修的一部分进行更换。以下是市场上最常遇到的一些零件。在创建角色的过程中，请与你的管理员合作，以确定你可能已经拥有哪些部件。"
						],
						"type": "entries"
					}
				],
				"images": [
					{
						"type": "image",
						"href": {
							"type": "external",
							"url": "https://i.imgur.com/RwhrLI5.png"
						}
					}
				]
			}
		},
		{
			"name": "Chakara",
			"source": "CDR",
			"ability": [
				{
					"wis": 2
				}
			],
			"size": [
				"M"
			],
			"speed": {
				"walk": 30
			},
			"traitTags": [
				"Monstrous Race"
			],
			"entries": [
				"作为强大的幻象能量的活体表现，你获得了以下特征",
				{
					"name": "Ability Score Increase",
					"type": "entries",
					"entries": [
						"你的智慧分数增加2。"
					]
				},
				{
					"type": "entries",
					"name": "Age",
					"entries": [
						"查卡拉完全由幻觉能量组成，被强大的封印所包含。只要这些封印没有被打破，它的生命就会无限期地持续下去，但如果被损坏或允许退化，构成其身体的能量就会逃逸到外面的世界。因此，查卡拉的寿命可以有很大的变化，从几十万年到只有短短几十年。"
					]
				},
				{
					"name": "Alignment",
					"type": "entries",
					"entries": [
						"查卡拉是死去已久的僧侣的意志表现，倾向于合法的取向，一般来说是好的或中立的。然而，查卡拉在其旅程中被腐蚀的情况并非没有发生过。"
					]
				},
				{
					"name": "Size",
					"type": "entries",
					"entries": [
						"查卡拉是以他们的创造者为原型的物理形式，但重量只有捆绑他们的纸封那么多；你的尺寸是中等。"
					]
				},
				{
					"type": "entries",
					"name": "Speed",
					"entries": [
						"不比普通人快，你的速度是30英尺。"
					]
				},
				{
					"name": "Psionic Being",
					"entries": [
						"查卡拉是由纯能量形成的，被注入幻觉的封印束缚成人形。你对精神伤害有抵抗力，对直接影响你的思想的法术或效果，如修改记忆，在救赎上有优势。然而，将你的形态固定在一起的束缚是脆弱的，你被认为很容易受到砍伤和火的伤害。"
					],
					"type": "entries"
				},
				{
					"name": "Living Construct",
					"entries": [
						"你对毒药和疾病免疫，不吃东西，不呼吸。你必须每天进入冥想状态，而不是睡觉，时间为4小时。在这种状态下，你不会做梦；你完全意识到你周围的环境，并注意到接近的敌人和其他正常的事件。"
					],
					"type": "entries"
				},
				{
					"name": "Etherial Step",
					"entries": [
						"查卡拉的双脚很少接触地面，永远在离地面几英寸的地方徘徊。你可以无视大多数形式的困难地形，并且在被击倒的情况下，你的蓄力动作具有优势。你可以漂浮在不高于6英寸的地方，如果生命值减少到0或更少，就会掉到地上。"
					],
					"type": "entries"
				},
				{
					"name": "Inner Light",
					"entries": [
						"查卡拉从他们的纸质束缚中自然地发出柔和的光，这种光的颜色反映了他们当前的莲花状态。在你的行动中，你可以改变这种光的强度，从几乎察觉不到的光亮到灿烂的光芒，在20英尺范围内发出亮光，在另外20英尺范围内发出暗光。"
					],
					"type": "entries"
				},
				{
					"name": "Antimagic Vulnerability",
					"entries": [
						"你的身体是由幻象能量构成的，对反魔法场的反应与法术和其他魔法效果类似。当你在反魔法场的范围内时，你会被认为容易受到除精神伤害之外的所有伤害。如果被驱散魔法锁定，你必须对施法者的法术救赎DC进行宪法救赎成功，否则就会失去行动能力，直到下一回合结束。"
					],
					"type": "entries"
				},
				{
					"name": "Shifting Lotus",
					"entries": [
						"作为幻象能量的存在，查卡拉的冥想莲花对他们与世界的互动有着深远的影响。每次你通过冥想完成长时间的休息，你可以从以下6种莲花状态中选择一种，并获得它的相关好处，直到你完成另一次长时间的休息。"
					],
					"type": "entries"
				},
				{
					"name": "Languages",
					"entries": [
						"普通的，还有你选择的另外两个。"
					],
					"type": "entries"
				}
			],
			"languageProficiencies": [
				{
					"common": true,
					"any": 2
				}
			],
			"resist": [
				"psychic"
			],
			"fluff": {
				"entries": [
					{
						"name": "Chakara",
						"entries": [
							"奥马向整个战场望去，看到的只是满目疮痍。卡森城成了一片废墟。他们的铁甲防线已经倒下，现在象牙塔只剩下灰烬和瓦砾。瘟疫势力已经充斥在街道上，他们的长老猎犬嗅出藏在地窖里的妇女和儿童的藏身之处只是时间问题。莱斯考威尔已经赢了，很快他的军队就会向阿特里亚进军，整个王国就会失去。",
							"他转向塞拉斯--他孤独的同伴，是他收留了他，并教给他冒险家的生活。这个人让他觉得自己是家人，给了他一个家，离他的出生地如此遥远。泪水从这个人的脸上流下，大剑刺穿了他的胸膛，他从战斗的伤口中流了出来。没有什么可以拯救他，不是在这里，不是现在。前面的路只剩下一条路，奥马知道它必须通往哪里。",
							"带着庄严的光芒和对自己目的的最终理解，奥马把刀从他朋友的胸口拔出来，插入自己的胸口。\"我很抱歉，老伙计。\"当将Ohma与这个世界联系在一起的神圣封印开始展开时，有一种奇怪的内在和平冲刷着他。这是他一直想去的地方。他存在的全部理由都将在这一刻达到顶峰，而他已经准备好了。最后的幻术束缚从他的乙醚形态中落下，一道明亮的白色光辉从他的核心中涌出，他施展了他的愿望。",
							"塞拉斯-狮心带着自豪和欣慰的心情看向整个战场。莱斯考威尔-冯-迪尔希的不死军团已经被阻止，疯狂的国王躺在他脚下，即将被斩首。但是，当黎明的五彩光芒在天空中延伸开来时，他感到胸口一阵疼痛，一滴眼泪滚落下来。他不禁感到缺少了什么。"
						],
						"type": "entries"
					},
					{
						"name": "Thought Given Form",
						"entries": [
							"对于创造Chakara的最初目的有一些争论--如果发光人知道的话，他们似乎对分享这个秘密没有兴趣。许多学者仍然认为，Chakara最初是作为一种看不见的仆人被创造出来的，就像许多东方文化中的构造物一样，如golems或babbages，但新的考古发现表明，情况可能并非如此。在可能是查卡拉出生地的废墟中发现的古代卷轴和文字讨论了一种仪式，强大的神秘主义者会通过这种仪式驱逐他们灵魂中不纯的部分，将它们束缚在物理形态中，使它们无法返回。除此之外，该地区的当地传说还提到了一座启蒙寺庙，在那里，僧侣们会超越凡人的束缚，只在下山时成为纯洁的光的存在。",
							"不管他们被创造的原因是什么，对于他们的诞生方法似乎有一些共识。第一批查卡拉似乎是通过古代幻术师的深层冥想而诞生的，并且只被他们的创造者的意志束缚在这个世界上，只持续到他们主人的冥想为止。随着时间的推移，古代僧侣们学会了延长这种短暂的存在；他们使用通过被遗忘的东方魔法赋予的封印，将他们的星体构造永久地束缚在物质界，给他们一个坚实的、人形的形式。今天存在的每一个查卡拉都是通过这种方法诞生的，在现在被遗忘的时代，因为他们创造的具体技术似乎连查卡拉自己都已经失去了。"
						],
						"type": "entries"
					},
					{
						"name": "The Glowing People",
						"entries": [
							"Chakara是一个奇怪的民族，即使是在Aetheros的多样化和多种族中。从最严格的意义上讲，Chakara是纯粹的幻觉能量的表现，通过一系列的魔法封印将他们的星体结合在一起，形成人形。从远处看，人们可能会误以为查卡拉是某种奇怪的发光木乃伊，如果不是因为他们移动的方式几乎是空灵的优雅，或者他们闪烁的形式似乎从未完全接触到地面。这种闪烁的光芒为查卡拉人在其他种族中赢得了一个名字。\"发光的人\"，他们在很多方面都不辜负这个名字。"
						],
						"type": "entries"
					},
					{
						"name": "The many Selves",
						"entries": [
							"不管是有意还是无意，查卡拉人是一个以多种状态存在的民族。作为纯粹的幻术能量的存在，他们的个性，有时甚至他们的身份可以随着他们的情绪和精神状态的起伏而疯狂地转变，被称为他们的莲花。虽然大多数查卡拉经常反复进入同一个莲花状态，但每个人都能存在于多个莲花状态中，从他们神圣的束缚下放射出的光的颜色可以很容易地分辨出来。",
							"一些查卡拉认为这些莲花状态代表了同一个自我的不同版本，但其他人认为他们可能居住的每个状态完全是一个不同的人，有它自己独特的名字。这些人格甚至身份的快速转变往往会让那些不熟悉发光体的人感到迷惑，再加上他们的数量相对较少，意味着大多数查卡拉都生活在孤立之中，远离其他种族。他们经常居住在安静、庄严的地方，在那里他们可以冥想自己存在的意义。"
						],
						"type": "entries"
					},
					{
						"name": "Chakara Names",
						"entries": [
							"查克拉的命名规则可以千差万别，特别是有些人为他们的每个莲花状态选择不同的名字。然而，一般来说，查克拉选择的名字是描述性的，或反映身心的特定冥想。",
							{
								"entries": [
									{
										"name": "Neutral Names",
										"entries": [
											"Ajna, Anahata, Aumu, Hamon, Laam, Muladhara, Manipura, Rami, Rha, Sahasrara, Svadhisthana, Vami, Vishuddha."
										],
										"type": "entries"
									}
								],
								"type": "entries"
							}
						],
						"type": "entries"
					},
					{
						"name": "Lotus States (features)",
						"entries": [
							"纯粹的幻象能量的表现，查克拉存在于一种不断流动的运动状态中，在被称为莲花状态的冥想排列中循环往复。这些状态代表了查卡拉意志和自我的力量和方向，当查卡拉从一个莲花状态过渡到另一个莲花状态时，他们的整个人格往往也随之转变。",
							"每种莲花状态的特点是一种特定的颜色，以及一种精神和情感的焦点，它改变了查卡拉与世界的互动方式。虽然总共有7个莲花状态，但查卡拉一般只经历6个，第7个，即皇冠莲花代表一种开悟，标志着查卡拉在物质层面存在的结束。"
						],
						"type": "entries"
					},
					{
						"name": "The 7th Lotus (features)",
						"entries": [
							"除了上面列出的6种莲花状态外，还存在第7种，即最后一种莲花，据说查克拉只有在准备好迈出超越物质世界的最后一步时才会经历。这种开悟的状态，被称为 \"皇冠莲花\"，只在查卡拉永远离开这个世界之前的最后时刻出现。当你的命中率降至0并被彻底杀死时，或者在最后的死亡自救失败后，你的束缚封印就会溶解，并进入你最后的莲花状态，获得以下好处。这个莲花状态持续的回合数与你的熟练度加成相等，在此期间你继续像活着一样行动。当最后的莲花状态结束时，你会立即死亡，并且不能通过任何方式复活，除了一个愿望法术。"
						],
						"type": "entries"
					}
				],
				"images": [
					{
						"type": "image",
						"href": {
							"type": "external",
							"url": "https://i.imgur.com/LRE6ETM.png"
						}
					}
				]
			}
		},
		{
			"name": "Children of Io",
			"source": "CDR",
			"ability": [
				{
					"str": 2
				}
			],
			"size": [
				"M"
			],
			"speed": {
				"walk": 30
			},
			"traitTags": [
				"Monstrous Race"
			],
			"entries": [
				"作为第一条天龙的亲属，你具有以下特征",
				{
					"name": "Ability Score Increase",
					"type": "entries",
					"entries": [
						"你的力量值增加2。"
					]
				},
				{
					"type": "entries",
					"name": "Age",
					"entries": [
						"虽然是在龙族中孵化出来的，但艾欧之子是天人合一的，很快就达到了成熟的年龄。在他们生命的前五六年后，艾欧之子已经完全长大，不会出现衰老。不会因年老而死亡，但可以被疾病或伤口杀死。"
					]
				},
				{
					"name": "Celestial Alignment",
					"type": "entries",
					"entries": [
						"和他们的名字一样，艾欧之子在善与恶、合法与混乱之间徘徊。由于你的天性，你的灵魂状态会影响你的身体和精神能力，你会根据你的排列组合获得特性，如下表所示。",
						{
							"type": "table",
							"colLabels": [
								"Celestial alignment",
								"Bonus proficiency",
								"Damage Type",
								"Breath Weapon"
							],
							"colStyles": [
								"col-3",
								"col-3",
								"col-3",
								"col-3"
							],
							"rows": [
								[
									"合法的好",
									"说服力或洞察力",
									"辐射",
									"5 by 30 ft. 线路(Con. Save)"
								],
								[
									"合法中立",
									"阿卡纳或宗教",
									"力量",
									"15英尺锥体(Str. Save)"
								],
								[
									"合法的邪恶",
									"欺骗或洞察力",
									"坏死的",
									"5 by 30 ft. 线路(Con. Save)"
								],
								[
									"中性良好",
									"医学或调查",
									"閃電",
									"5 by 30 ft. 线路（Dex.保存）。"
								],
								[
									"真实中立",
									"历史或宗教",
									"Cold",
									"15英尺圆锥体(锥形救赎)"
								],
								[
									"中立邪恶",
									"隐形或欺骗",
									"毒药",
									"10英尺。锥体(Con. Save)"
								],
								[
									"混乱的好",
									"恐吓或劝说",
									"Fire",
									"15英尺锥体(Dex. Save)"
								],
								[
									"混乱的中性",
									"阿卡纳或调查",
									"雷霆",
									"10 ft. 半径 (Dex. Save)"
								],
								[
									"混乱的邪恶",
									"恐吓或欺骗",
									"Acid",
									"15英尺锥体(Dex. Save)"
								]
							]
						}
					]
				},
				{
					"name": "Size",
					"type": "entries",
					"entries": [
						"无论是美丽的还是可怕的，你都是一道亮丽的风景线，完全长大后站在7到10英尺高的任何地方，你的体型类别只是在中等的远端。"
					]
				},
				{
					"type": "entries",
					"name": "Speed",
					"entries": [
						"当包含在Xexel中时，你的速度与你体型的其他生物一样，为30英尺。"
					]
				},
				{
					"name": "Breath Weapon",
					"entries": [
						"你可以用你的行动来呼出破坏性的能量。你的天体排列决定了呼气的大小、形状和伤害类型。当你使用你的呼吸武器时，在呼气区域的每个生物都必须做一个蓄力动作，其类型由你的天体排列决定。这个蓄力动作的DC等于8+你的体质修改器+你的熟练度加成。蓄力失败时，生物会受到2D6的伤害，蓄力成功则会受到一半的伤害。伤害在6级时增加到3d6，11级时增加到4d6，16级时增加到5d6。在你使用你的呼吸武器后，你不能再使用它，直到你完成一个短期或长期休息。"
					],
					"type": "entries"
				},
				{
					"name": "Truth of Form",
					"entries": [
						"作为一个天人，你的身体和灵魂是一体的，这意味着你的身体形态总是反映你的真实本性和取向。你在伪装你的天人本性或结盟的所有检查中都处于劣势。"
					],
					"type": "entries"
				},
				{
					"name": "Arcane Resistance",
					"entries": [
						"你的天性使你在面对法术和其他魔法效果时有优势。你也对与你的结盟相关的伤害类型有抵抗力。"
					],
					"type": "entries"
				},
				{
					"name": "Draconic Build",
					"entries": [
						"为了确定你的运载能力、你能推、拉、举多少东西以及负担（如果使用的是变体规则选项），你算作一个大型生物。就特征和等级能力而言，你被视为龙裔。"
					],
					"type": "entries"
				},
				{
					"name": "Oversized",
					"entries": [
						"你的体型增大使得你在战斗中难以操纵，也难以挥舞为小手设计的武器。你在使用轻型武器的攻击和伤害卷中处于劣势，并且必须在DC15的灵巧救赎中成功才能在战斗中执行脱离动作。"
					],
					"type": "entries"
				},
				{
					"name": "Big Meaty Claws",
					"entries": [
						"你的大手使你很难挥舞为小手设计的工具。你在使用轻型武器的攻击和伤害卷轴上有劣势，在需要你使用精致工具的技能检查上也有劣势，例如锁芯。你不能从武器的精巧属性中获益。"
					],
					"type": "entries"
				},
				{
					"name": "Languages",
					"entries": [
						"你能说、读、写普通话、天人合一和德拉康语。"
					],
					"type": "entries"
				}
			],
			"languageProficiencies": [
				{
					"common": true,
					"celestial": true,
					"draconic": true
				}
			],
			"fluff": {
				"entries": [
					{
						"name": "Children of Io",
						"entries": [
							"艾拉的白金鳞片在她哥哥的领地的黑暗中像星光一样闪耀。自从她最后一次见到他，已经过去了两个多世纪，而且是几个凡人的生命，但当她在他的大教堂的阴暗走廊里踱步时，一种沉甸甸的怀疑在她的内心深处滋生。",
							"这一次，两兄妹被孵化在不同的父母身边，尽管她尽了最大的努力，但还是花了近半个世纪才找到他，而围绕着他的城堡家园的枯萎景观一直是一个深深的不祥之兆。",
							"当她身边的卫兵推开王室的大门时，她的哥哥以毒兽的蛇形癖好向她打招呼，她最担心的事情被揭露出来。小米兹已经长大了，很强壮，但他脸上的乌黑的刺和扭曲的面孔清楚地表明，现在他的心里住着一个卑鄙的黑暗。这一次将无法拯救他。她所能希望的最好结果是仁慈地杀死她的兄弟，并希望他能在下辈子找到光明....。"
						],
						"type": "entries"
					},
					{
						"name": "Divine Dragonborn",
						"entries": [
							"早在第一任龙神被一分为二，成为蒂阿穆特和巴哈穆特之前，伊欧就创造了第一批龙；那些将向她分裂的自我宣誓效忠的龙。但是，即使在他创造龙的同时，伊欧也在这个世界的人中游荡，而且与其他神不一样的是，这些游荡有时会导致更多。",
							"艾欧之子是真正的天人，可以说是第一个--也是真正的--龙裔，他们最初是在艾欧自己想要和凡人种族的孩子时孵化的。与他们的凡人兄弟--龙裔一样，艾欧之子结合了人类和龙的最大优势，但也有第一条龙的天人之血。"
						],
						"type": "entries"
					},
					{
						"name": "Hatched Among Others",
						"entries": [
							"很少有艾欧的第一个孩子留在这个世界上，但作为天人，即使死亡也不会结束艾欧之子的故事。虽然他们不能因年老或其他自然原因而死亡，但在战斗中被杀或死于其他不幸的艾欧之子会在100到150年后重新出生，成为他们认为合适的龙裔父母的孩子，准备重新体验生活。当艾欧之子在其他龙裔中孵化时，这是一个重要的时刻，也是艾欧自己对社区微笑的证明。"
						],
						"type": "entries"
					},
					{
						"name": "Rare Wanderers",
						"entries": [
							"艾欧只生了几百个她的孩子到这个世界上，使他们变得极为罕见。因此，他们经常带着好奇心或对周围的凡人世界漠不关心地游荡。伊欧的孩子很少会在一个地方定居超过数年。他们很容易感到厌烦，并且总是意识到他们的凡人伙伴的无常。更多时候，这导致艾欧之子过着冒险家的生活，永远在这个世界上寻求新的体验。"
						],
						"type": "entries"
					},
					{
						"name": "Physical Appearance",
						"entries": [
							"从远处看，很容易把艾欧之子误认为普通的龙裔，但任何见过艾欧之子的人都知道，他们拥有一种不可避免的存在。艾欧之子身高数尺，带着一种看不见但总能感觉到的权威光环，是无可置疑的天人。与龙族不同的是，龙族分享他们父母或祖先的特征，艾欧之子的灵魂就像他们的皮肤一样向前延伸--他们的外表从合法的、完美的金色到混乱的、扭曲的、邪恶的面孔。无论他们的取向如何，大家都能清楚地看到。善良的孩子可能会有巴哈姆特闪亮的白金鳞片，而邪恶的孩子可能会被诅咒，被角和刺这样的骨质突起覆盖他们狰狞的框架。"
						],
						"type": "entries"
					},
					{
						"name": "Children of Io Names",
						"entries": [
							"伊欧的孩子拥有天神语言的奇异名字，他们甚至一出生就知道。他们可能采用也可能不采用凡人父母给他们的龙裔名字。",
							{
								"entries": [
									{
										"name": "Celestial Names",
										"entries": [
											"Abaoz, Aira, Aphr, Baradiel, Camael, Diari, Exarp, Faax, Kokabiel, Leoc, Miz, Nanta, Nhodd, Omia, Omsia, Oro, Raagiosl, Rlmu, Saiinov, Vaasa, Xai, Xnilr, Xii, Yasen, Zedekiel, Ziracah"
										],
										"type": "entries"
									}
								],
								"type": "entries"
							}
						],
						"type": "entries"
					},
					"突破禁锢",
					{
						"name": "Breaching Containment",
						"entries": [
							"你的加压服的安全保护你的气态身体不受直接伤害，但有一些情况会使你的气态暴露在外界空气中。"
						],
						"type": "entries"
					},
					{
						"name": "Extensive Damage",
						"entries": [
							"如果你的Xexel受到广泛的伤害，它就会失去适当容纳你的气态身体的能力，迫使你脱离它的保护。当伤害将使你的Xexel命中率降至0或更低时，你的衣服就会破裂，你就会进入一个无法控制的状态。"
						],
						"type": "entries"
					}
				],
				"images": [
					{
						"type": "image",
						"href": {
							"type": "external",
							"url": "https://i.imgur.com/jVvwBuf.png"
						}
					}
				]
			}
		},
		{
			"name": "Collectori",
			"source": "CDR",
			"ability": [
				{
					"dex": 2
				}
			],
			"size": [
				"T"
			],
			"speed": {
				"walk": 30
			},
			"darkvision": 60,
			"traitTags": [
				"Monstrous Race"
			],
			"entries": [
				"一个由废弃物品组成的有生命的收藏品，作为一个收藏家，你会获得以下特征。",
				{
					"name": "Ability Score Increase",
					"type": "entries",
					"entries": [
						"你的灵巧得分增加2。"
					]
				},
				{
					"type": "entries",
					"name": "Age",
					"entries": [
						"赋予收集者活力的魔法可能是不可预测的。虽然许多人在短短几年后就会消失，但其他的人可能会继续生活几个世纪甚至更久。作为一般的经验法则，收集者周围的魔法越多，他们的寿命就越长。"
					]
				},
				{
					"name": "Alignment",
					"type": "entries",
					"entries": [
						"一些收集者是分散的、道德复杂的，而另一些收集者则像他们的收集品一样合法和有序。作为一个整体，这个种族没有特定的取向。"
					]
				},
				{
					"name": "Size",
					"type": "entries",
					"entries": [
						"维持Collectori的剩余魔力在更大的规模下会崩溃。你的尺寸是小的。"
					]
				},
				{
					"type": "entries",
					"name": "Speed",
					"entries": [
						"采集器的行走速度比人们预期的要快，因为它是一种脆弱的生物。你的基本行走速度是30英尺。"
					]
				},
				{
					"name": "Darkvision",
					"entries": [
						"由捡来的物品和遗失的碎片制成，收集者的眼睛根本就不是眼睛，收集者的视力也不像其他生物那样。你在黑暗和昏暗的环境中拥有卓越的视觉。你可以在你周围60英尺内的昏暗光线中看到，就像亮光一样，而在黑暗中就像暗光一样。你在黑暗中无法辨别颜色，只有灰色的阴影。"
					],
					"type": "entries"
				},
				{
					"name": "Living Collection",
					"entries": [
						"你的身体是你所收集的零碎物品的集合。你对毒药和疾病免疫，但只能从法术、消耗品和等级特征中恢复一半的命中率。你不需要进食或呼吸，但如果你愿意，你可以摄取食物和饮料。你可以选择每天保持4小时的不活动状态，而不是睡觉。在这种状态下，你不会做梦；你完全意识到你的周围环境，并像平常一样注意到接近的敌人和其他事件。"
					],
					"type": "entries"
				},
				{
					"name": "Magical Absorption",
					"entries": [
						"集合体是由魔法残留物支撑起来的，并且内在地吸收他们周围的魔法以恢复自己。当你对咒语或魔法效果的救赎成功时，你可以用你的反应来吸收一些残余的魔法，并恢复相当于你体质修正值的命中率。"
					],
					"type": "entries"
				},
				{
					"name": "Antimagic Susceptibility",
					"entries": [
						"当你在反魔法场的范围内时，你会失去行动能力。如果被驱散魔法锁定，你必须对施法者的法术救赎DC进行宪法救赎成功，否则就会昏迷1分钟。"
					],
					"type": "entries"
				},
				{
					"name": "Hide in Plain Sight",
					"entries": [
						"由剩余的碎片和摇头丸组成也有它的好处。当你保持不动，生物必须通过DC15的感知、调查或奥术检查才能认出你是个活物。"
					],
					"type": "entries"
				},
				{
					"name": "False Collapse",
					"entries": [
						"每天一次，当你受到的伤害会使你的命中率降至0，但不会直接杀死你时，你可以选择将命中率降至1，并瘫软下来，就像受到假死咒的影响一样。这个效果一直持续到你在你的回合中选择结束它作为一个额外的行动。"
					],
					"type": "entries"
				},
				{
					"name": "Languages",
					"entries": [
						"普通的和选择一个其他的。"
					],
					"type": "entries"
				},
				{
					"name": "Subraces - Assortment",
					"entries": [
						"收藏家由哪些物品组成，不仅影响他们的外观，而且往往影响他们的性质和能力。虽然一个Collectori可以由任何数量的不同类型的部件组成，但他们的 \"组合 \"通常是指组成一个特定个体的最丰富的物体类型。下面列出的是一些最常见的组合物。"
					],
					"type": "entries"
				}
			],
			"languageProficiencies": [
				{
					"common": true,
					"other": true
				}
			],
			"fluff": {
				"entries": [
					{
						"name": "Collectori",
						"entries": [
							"斯凯特一边心不在焉地拉着胳膊上的缝线，一边从拐角处向贵族办公室的书房望去。像这样的地方总是装满了小宝贝--钢笔、丢失的钥匙，偶尔甚至是被遗忘的戒指或胸针--但她清楚地知道，对于像她这样的小动物来说，这些东西是危险的。她拍了拍绑在背上的紧紧的卷轴，只是为了确定它还在那里，一旦海岸线安全，她就立即向门跑去。",
							"一个女佣人看到她冲下大厅，尖叫起来，但这个可怜的女孩在发出哭声的同时就晕倒了，如果运气好的话，斯凯特可以在其他仆人到达并叫醒她之前爬上暖气片，从窗户出去。但后来她看到了它。一把闪闪发光的娃娃屋钥匙，丢在房间远处的瓷器柜的脚下。哦，这在她窝里那副破裂的老花镜旁边看起来会是什么样子！？她必须得到它！她必须得到它",
							"她改变了方向，飞快地去拿钥匙，把自己藏在胡桃木箱子下面，这时厨师和男仆冲进房间。当厨师用一把嗅觉盐唤醒女仆时，小男孩四肢着地，搜寻着入侵者。他们的目光相遇了，她与男孩对视，用手指着她的扣眼嘴唇，希望亲爱的神明能让他的孩子明白她为什么在这里。"
						],
						"type": "entries"
					},
					{
						"name": "Inadvertent Creations",
						"entries": [
							"收藏家在其他种族中有些独特。",
							"人类或精灵可能是由神设置在地球上的，而像灵魂缝合这样的结构是由人类创造的，而Collectori只是......。诞生了。在魔法和咒语大量存在的地方，有时一个措辞不当的咒语或稍有不慎的仪式的遗迹会找到它们的方式。这种环境魔法，只要有足够的时间，往往会找到它的方式进入一个物体或收藏品，慢慢地收集更多的神秘遗留物，直到诞生一个生命的微尘。",
							"这些被称为 \"莫特 \"的东西比一块活蹦乱跳的废布或一些零散的螺母和螺栓要多得多，它们仍然很脆弱，并在其 \"生命 \"的最初阶段收集它们发现的任何被丢弃的零星物品。对有些人来说，这意味着被遗忘的一套锁芯和一些破碎的木头碎片。对其他人来说，这可能是很久以前死在墙内的老鼠的散落的遗体。不管是什么情况，随着莫特收集到的每一点或每一串东西，他们会发展出更多的身份。如果一个莫特能够躲避大型生物的轻视性魔法足够长的时间，它最终会将这些收集的东西形成它自己的一个小身体，成为一个收集者。"
						],
						"type": "entries"
					},
					{
						"name": "Obsessive Collectors",
						"entries": [
							"收藏家从来没有停止过收集被丢弃的这个或那个的碎片，以增加他们囤积的不匹配的物品，他们的痴迷收集有时近乎于偷窃行为。如果收集者选择建立一个家，或窝，毫无疑问，它将充满各种奇怪和不寻常的物体--破碎或其他--他们在旅途中收集的。无论是零碎的绳子，还是从玩偶制造商的车间里搬出来的胳膊和腿，收藏家对他们的收藏品感到非常自豪，如果有机会的话，他们会花大量的时间对他们的囤积物进行分类和整理，这对他们来说只有意义。对于收藏家来说，用他们收藏的更新、更有趣的物品来替换他们身体的碎片是很常见的，他们总是有兴趣看看他们可以添加什么新奇的部件。"
						],
						"type": "entries"
					},
					{
						"name": "Collectori in Society",
						"entries": [
							"集体人出生时是杂乱无章的，他们很少聚集在一起--事实上，两个接近的集体人往往会对他们各自的囤积物产生激烈的领土意识。在其他种族中，集落人常常发现，与那些与自己体型相近的孩子交朋友更容易，有时会把他们看作是很好的玩伴，而成年人则普遍认为他们是害虫和盗贼。在巫师学校和魔法学院中，人们可能期望形成最多的收集者，Motes往往在他们有机会形成自己的身体之前，就被驱除魔法等效果所消灭。",
							"大多数收藏家认为躲在暗处更安全，或者在废弃建筑的墙壁或阁楼上筑巢。但有时对新物品的渴求会驱使个人离开相对安全的家，进入冒险的生活。因此，收藏家冒险家是罕见的，但并非闻所未闻。"
						],
						"type": "entries"
					},
					{
						"name": "Collectori Names",
						"entries": [
							"收藏家的名字和他们的主人一样多种多样，但往往倾向于拟声词。大多数收藏家为自己取名，要么是把他们认为有趣的声音混合在一起，要么是为他们认为特别刺激的物体取名。还有一些人会从与他们建立了友谊的小孩子那里得到他们的名字，往往是在大人们的眼皮底下，看到他们与夜晚的污秽物一起被扫出去。",
							{
								"entries": [
									{
										"name": "Neutral Names",
										"entries": [
											"Bon-bon, Fwoosh, Gizmo, Mimi, Mr. Bones, Nein, Patches, Ragamuffin, Scoot, Switch, Twisnizzler, Zeeper"
										],
										"type": "entries"
									}
								],
								"type": "entries"
							}
						],
						"type": "entries"
					}
				],
				"images": [
					{
						"type": "image",
						"href": {
							"type": "external",
							"url": "https://i.imgur.com/W0ljfQz.png"
						}
					}
				]
			}
		},
		{
			"name": "Homo-Sanguinem (The Afflicted Vampire)",
			"source": "CDR",
			"ability": [
				{
					"con": 2,
					"choose": {
						"from": [
							"dex",
							"str",
							"cha"
						],
						"count": 1,
						"amount": 2
					}
				}
			],
			"size": [
				"M"
			],
			"speed": {
				"walk": 40
			},
			"darkvision": 120,
			"traitTags": [
				"Monstrous Race",
				"Sunlight Sensitivity"
			],
			"entries": [
				"无论是通过出生，还是通过不可能的感染，你都是翁布拉维拉鼠疫的人类携带者，并获得以下特征和畸形。",
				{
					"name": "Ability Score Increase",
					"type": "entries",
					"entries": [
						"你的体质得分增加2。"
					]
				},
				{
					"type": "entries",
					"name": "Age",
					"entries": [
						"那些附属于Umbravirales-Sanguinem的人似乎对正常的细胞死亡过程有免疫力，只要他们保持定期输血，在功能上就是不死的。"
					]
				},
				{
					"name": "Alignment",
					"type": "entries",
					"entries": [
						"尽管有一些毫无根据的传言，但受这种突变影响的人并没有先天性的邪恶倾向，也没有任何其他倾向。"
					]
				},
				{
					"name": "Size",
					"type": "entries",
					"entries": [
						"虽然通常比他们的亲属略高，但被感染的人倾向于和正常人一样的身高范围。你的体型是中等。"
					]
				},
				{
					"type": "entries",
					"name": "Speed",
					"entries": [
						"Sanguinem突变通常会在患者成年后赋予他们一定程度的不体面的敏捷性。你的速度是40英尺。"
					]
				},
				{
					"name": "Darkvision",
					"entries": [
						"一生都在躲避光线，使你的视觉适应了黑暗。你可以在120英尺以内的昏暗光线下看东西，就像亮光一样，在黑暗中看东西就像暗光一样。你在黑暗中无法辨别颜色，只有灰色的阴影。"
					],
					"type": "entries"
				},
				{
					"name": "Transfusion",
					"entries": [
						"Sanguinem变异所带来的最具破坏性的疾病是严重的贫血，以至于受影响的人变得依赖定期输血。在短期或长期的休息中，你不能像往常一样恢复命中率，每天必须接受至少1品脱的新鲜血液，否则会遭受一定程度的疲惫。也许是由于亚当病毒的作用，Umbravirales-Sanguinem为这种输血提供了机制，即在患者的下巴上有皮下注射的獠牙。"
					],
					"type": "entries"
				},
				{
					"name": "Transfusion (Bite)",
					"entries": [
						"你获得了一种自然武器，即你精通的咬伤。你的咬伤被认为是一种精巧的武器，造成相当于1d6+你的力量或灵巧修正值（以较高者为准）的坏死伤害，并从目标身上吸食4盎司的血液，在攻击和伤害卷中使用你选择的灵巧或力量。如果你咬伤的目标不是构筑物、植物、泥浆或亡灵，这种伤害会使它的最大命中率降低相同的数量，直到它的下一次短时或长时休息结束，并且你可以花费一个命中率骰子，恢复相当于它的卷值+你的体质修正值的命中率。",
						"或者，你可以选择咬住一个愿意的生物，从他们的身体里吸血。目标不会受到任何伤害，而是像他们在短暂休息期间一样消耗命中率骰子，不获得任何命中率。目标通过这种方式花费命中率骰子通常会获得的命中率，而你则获得了。每消耗一个命中率骰子，你就消耗一品脱的血液。"
					],
					"type": "entries"
				},
				{
					"name": "Sunlight Sensitivity",
					"entries": [
						"当你、你的攻击目标或你试图感知的东西处于强光下时，你在攻击卷和依靠视觉的智慧（感知）检查上有劣势。此外，当你的皮肤直接暴露在阳光下时，你每回合会受到1次辐射伤害。"
					],
					"type": "entries"
				},
				{
					"name": "Radiant Aversion",
					"entries": [
						"你的身体会被相对低剂量的辐射能量所削弱。你容易受到辐射伤害，并且从带有辐射源的治疗法术中受到的伤害与它们通常会恢复的命中率相等。"
					],
					"type": "entries"
				},
				{
					"name": "Sleepless",
					"entries": [
						"无论这种疾病在大脑和身体内引起何种变异，似乎受影响的人不像正常人那样需要休息。你不需要睡眠，只要你在过去24小时内接受了至少1品脱血液的输注。"
					],
					"type": "entries"
				},
				{
					"name": "Blood Sense",
					"entries": [
						"这种疾病使你敏锐地察觉到血液的流动，甚至在其他生物体内。你能感觉到30英尺内所有有流动血液的生物的存在和位置。"
					],
					"type": "entries"
				},
				{
					"name": "Sanguine Affinity",
					"entries": [
						"你的血液中流淌着黑暗而强大的东西。你可以获得下一页中所列的一种血统能力，而不考虑任何先决条件。"
					],
					"type": "entries"
				},
				{
					"name": "Unnatural Ability",
					"entries": [
						"你对Umbravirales-Sanguinem的具体化身已经提高了你身体或心灵的某些方面。可以选择力量、灵巧或魅力。你这个能力的分数增加2。"
					],
					"type": "entries"
				},
				{
					"name": "Languages",
					"entries": [
						"你可以说、读、写普通话，以及你选择的其他一种语言。"
					],
					"type": "entries"
				}
			],
			"languageProficiencies": [
				{
					"common": true,
					"other": true
				}
			],
			"fluff": {
				"entries": [
					{
						"name": "Homo-Sanguinem",
						"entries": [
							"罗莎琳-拜伦夫人站在她的显微镜前，皱着眉头。然而，她试图从自己被感染的血液中分离出Umbravirales-Sanguinem病原体的努力再次被证明是失败的。开始看起来好像亚当病毒专门设计了他的影子瘟疫，使宿主依赖感染。到目前为止，任何清除病毒的尝试都只导致了快速的腐烂和细胞死亡。唉，吸血鬼的治疗方法又让她无从下手了。",
							"她收拾好她的显微镜和其他实验室设备，走出门进入雨林。在她身后，小实验室迅速地把自己折叠起来，变成一个袖珍的立方体，她把它放在她的背包里。其他人已经全部完成了对营地的打击。",
							"从空地对面，一个穿着特别像女仆的蓝色龙裔向她微笑。\"今天有什么新进展吗，夫人？\" 女孩叫道：\"今天没有，阿鲁纳，但很快就有了！\"。我破解这个问题只是时间问题。有了更直接的枯萎病样本，研究应该会有更多的成果！\" 她不确定她自己是否相信这一点，但至少这有助于保持人的下巴。"
						],
						"type": "entries"
					},
					{
						"name": "Fact vs Fiction",
						"entries": [
							"几乎自古以来，关于吸血鬼恶魔和吸血怪物的传说就一直在凡人领域流传着。父母向他们的孩子讲述可怕的野兽或有魅力的魔鬼的故事，他们拥有超自然的力量，并渴求活物的红色脉动血液。在黑暗的低语中，乡亲们谈论着醒着的死人的可怕和饥渴的胃口。",
							"在现实中，真正的吸血鬼，尽管他们可能与这些传说和故事有许多共同的特征，但与民间传说中经常听到的可怕怪物没有什么相似之处。现代吸血鬼是一个简单的男人和女人，被灾难性的折磨所困扰，他们往往是一个悲剧性的人物，他们对他人血液的病态依赖并不是他们自己的错，就像一个人的皮肤颜色或他出生的偶然性。"
						],
						"type": "entries"
					},
					{
						"name": "Symptoms and Affliction",
						"entries": [
							"目前还不知道Umbravirales的Sanguinem变体在多大程度上被设计为类似于传统的吸血鬼故事，也不知道疯子亚当病毒在世界范围内释放Umbravirales瘟疫是为了什么目的，然而由此产生的变异在这一点上已经有了充分的记录。",
							"Sanguinem菌株似乎只影响人类，Umbravirales的其他菌株会在其他种族中引起单独的变异。早期症状最常在儿童期的前三年表现出来，包括对阳光敏感，复合性贫血，以及皮肤、眼睛和头发的天然色素迅速丧失。随着疾病的发展，受试者的上颚开始长出注射器般的獠牙，由于严重贫血而依赖定期输血，过度攻击行为很常见。",
							"存活到青春期的感染者往往会发展出一些次要的特征，如更多的肌肉增长、认知上的过度活跃，或其他不太能量化的症状。特别值得注意的是，经过青春期的受试者，能够保持健康和定期输血的时间表，似乎没有显示出细胞死亡或基因萎缩的迹象。据推测，这种类型的 \"细胞不死 \"也许是维鲁斯在其实验中所追求的特征。",
							"与传说中的吸血鬼不同，受Homoanguinem影响的人本身并不具有传染性，虽然有可能通过反复输注受感染的血液而人为地感染这种疾病，但这种情况可以理解为很罕见，而且大多数情况下会因系统休克而导致暴力和痛苦的死亡。"
						],
						"type": "entries"
					},
					{
						"name": "Physical Appearance",
						"entries": [
							"受桑吉纳姆突变影响的人，在大多数情况下，在他们成年时很容易被认出。皮肤、头发和眼睛缺乏色素，导致明显的白化病。此外，严重的贫血和对定期输血的依赖往往使受该病影响的人具有虚弱或憔悴的外表--奇怪的是，这种外表往往是骗人的，因为它几乎是超自然的体质。"
						],
						"type": "entries"
					},
					{
						"name": "Names",
						"entries": [
							"大多数受折磨的人都延续了他们人类血统的传统，并且与他们成长过程中的其他人类相比，没有更多离奇的名字。"
						],
						"type": "entries"
					},
					{
						"name": "Blood Feats (features)",
						"entries": [
							"吸血鬼的痛苦在每个受害者身上的表现都不同，但总是伴随着通过血液操纵生命力的非自然的亲和力。虽然这些能力在受UmbraviralesSanguinem影响的人身上最普遍，但未受吸血鬼瘟疫影响的人也可以通过广泛研究血魔法仪式获得这些能力。"
						],
						"type": "entries"
					}
				],
				"images": [
					{
						"type": "image",
						"href": {
							"type": "external",
							"url": "https://i.imgur.com/g5zoUeH.png"
						}
					}
				]
			}
		},
		{
			"name": "Myxapia",
			"source": "CDR",
			"ability": [
				{
					"con": 2
				}
			],
			"size": [
				"M"
			],
			"speed": {
				"walk": 20
			},
			"traitTags": [
				"Monstrous Race"
			],
			"entries": [
				"作为一个聪明的人形渗水体，你获得以下特征。",
				{
					"name": "Ability Score Increase",
					"type": "entries",
					"entries": [
						"你的体质得分增加2。"
					]
				},
				{
					"type": "entries",
					"name": "Age",
					"entries": [
						"只要你能够保持充足的食物，你的群体中的各个成员将继续自我替换，就像他们死亡时一样快 你没有最大的寿命，也没有可识别的老龄化迹象。"
					]
				},
				{
					"name": "Alignment",
					"type": "entries",
					"entries": [
						"Myxapia没有任何特定的倾向性，但可能被误认为是混乱甚至邪恶的，因为他们不能像其他人类一样理解道德。"
					]
				},
				{
					"name": "Size",
					"type": "entries",
					"entries": [
						"大到足以呈现人类智慧的无尾熊是中等生物。虽然一个群落有可能变大，但这种群落一般会分裂成多个较小的生物体。"
					]
				},
				{
					"type": "entries",
					"name": "Speed",
					"entries": [
						"Myxapia没有骨头或其他骨骼结构的好处来帮助它们的运动。你的基本移动速度是20英尺。"
					]
				},
				{
					"name": "Engulf",
					"entries": [
						"你那如渗水般的身体使你在继续战斗时也能吞噬其他生物。你不需要用自由的手来尝试抓取一个生物。"
					],
					"type": "entries"
				},
				{
					"name": "Amorphous Body",
					"entries": [
						"你的身体是可塑的，使你能够挤过对其他生物来说太小的缝隙。你可以在1英寸宽的狭窄空间中移动而不被挤压，并且对抓取的条件免疫 装备如果不能通过这个缝隙就会被留下。"
					],
					"type": "entries"
				},
				{
					"name": "Split",
					"entries": [
						"你身体的每一个细胞都有自己的智慧，使你能够通过将自己分裂成更小的粘液，在可能杀死其他冒险者的伤害中幸存下来。作为一种反应，当你的命中率降至0，但仍有至少一个命中率骰子剩余时，你可以选择将自己分裂成与你剩余的命中率骰子数量相等的微小黏液。每一个小虫子的速度为10英尺，命中率等于一个命中率+你的体质修正值。除了移动动作外，它们不能采取任何行动。在长时间的休息结束后，任何剩余的ozes都会融合在一起，重组你的身体。"
					],
					"type": "entries"
				},
				{
					"name": "Plasmodium",
					"entries": [
						"你的胶状身体太过柔软，无法支撑大多数类型的盔甲，但这种塑化的性质也使你对物理攻击有更强的抵抗力。你不能穿戴重型或中型盔甲，但可以抵抗击打、穿刺和砍击伤害。"
					],
					"type": "entries"
				},
				{
					"name": "Living Liquid",
					"entries": [
						"你纤细的身体很容易被蒸发和冻结，并在酷热或严寒下受到影响。你很容易受到火灾和寒冷的伤害，以及由消耗水分的法术或效果造成的伤害，并且在干旱或冰冻的环境中，在攻击卷和能力检查上有劣势。"
					],
					"type": "entries"
				},
				{
					"name": "Tactile Telepathy",
					"entries": [
						"Myxapia 能够在细胞水平上交换思想和记忆。你可以用心灵感应与你所接触的任何生物交谈。他们不需要有共同的语言就能被听到。"
					],
					"type": "entries"
				},
				{
					"name": "Languages",
					"entries": [
						"你可以说、读、写普通话，以及你选择的其他一种语言。"
					],
					"type": "entries"
				},
				{
					"name": "Subraces",
					"entries": [
						"Myxapia有三个亚种"
					],
					"type": "entries"
				}
			],
			"languageProficiencies": [
				{
					"common": true,
					"other": true
				}
			],
			"resist": [
				"bludgeoning",
				"piercing",
				"slashing"
			],
			"fluff": {
				"entries": [
					{
						"name": "Myxapia",
						"entries": [
							"Myxapia (My-Zapia)",
							"当他们挤过图书馆石板下的小缝隙时，米姆的胶状身体因紧张兴奋而发抖。骑士团在这里储存的知识比整个帝国的任何地方都要多，可惜它被门锁住了，不让朗格纳的普通人看到。",
							"通常他们不喜欢用他们的能力去进入他们不应该去的地方，但在这些巨大的大厅和文字记忆中的某个地方，有如何打败利奇的知识。如果米姆要拯救家园，他们必须愿意打破规则。无论如何，隐藏文字记忆似乎是一个奇怪的规则。人类似乎有很多这样的规则。",
							"他们的身体在里面，米姆匆匆忙忙地在鹅卵石地面上滑行，走向门。他们的朋友-盟友会等着他们，他们只有大约60秒的开放时间，而守卫会换人......"
						],
						"type": "entries"
					},
					{
						"name": "Awakened Oozes",
						"entries": [
							"黏液是物质世界中最早的居民之一：根据一些说法，它们只不过是一团细胞和消化液，甚至比诸神的创造物还要早。然而，并不是所有的粘液都像人们想象的那样简陋。通过数千年的进化，或者说通过接触一些未知的魔法，有些史莱姆已经有了知觉，甚至有了智慧，他们奇怪的身体和奇怪的智慧相匹配。"
						],
						"type": "entries"
					},
					{
						"name": "Sentient Slime-Molds",
						"entries": [
							"Myxapia从根本上说不同于其他有生命的生物。大多数生物的身体可能被分解成复杂的系统和专门的部分，而Myxapia是由无细胞的蠕动果冻状原生质组成的。它们的身体是独特的，因为原生质体的任何部分都可以在任何时候执行任何功能。类似于一个蚂蚁群可能作为一个单一的大型生物体的方式，单个Myxapia更像是一团变形虫细胞，每一个都有它自己的微小智慧。"
						],
						"type": "entries"
					},
					{
						"name": "Hive-like Intelligence",
						"entries": [
							"个人的概念在Myxapia社区内并不存在。虽然单个Myxapia可能会独立思考和运作，但在聚居地内，知识和信息是通过某种触觉心灵感应的方式共享的。在聚居地之外，Myxapia不约而同地用复数称呼自己，即使它们采用了一个独特的名字。一些研究人员推测，这是因为每个个体本身就是一种群落类型。另一些人认为，Myxapia仍然与它们的群体保持着某种细微的联系，即使在远处。"
						],
						"type": "entries"
					},
					{
						"name": "Strange Life-Cycles",
						"entries": [
							"妙蛙鱼的繁殖方式与其他种族不一样。",
							"相反，当一个 \"成年人 \"达到相当大的尺寸时，他们可能会选择将自己分成多个较小的个体。这些较小的Myxapia分享它们以前的所有记忆和经验，但缺乏相同的人形智力，而这将随着它们的体型增长而发展。也有可能多个Myxapia一起生育，首先将它们的身体融合成一个整体，然后再分裂成几个较小的Myxapia，其中包含父母双方的记忆和经验。",
							"未成熟的Myxapia在智力上更类似于动物，主要寻求以有机物质为食，以便它们能够成长。出于这个原因，Myxapia很少在群落之外进行繁殖，如果它们这样做，通常是为了在一个精心选择的地点形成一个新的群落。当有大量的营养物质可用时，一个Myxapia群落可以在很短的时间内从只有几个成员扩大到超过一千人。这就是说，Myxapia通常是一个和平的民族，对在其他有生命的生物称之为家园的地方形成殖民地没有兴趣。"
						],
						"type": "entries"
					},
					{
						"name": "Physical Appearance",
						"entries": [
							"完全形成的Myxapia通常类似于一个由半透明粘液制成的人形。这种粘液的颜色可以在任何地方变化，从明亮的绿色和蓝色，到深灰色甚至黑色，尽管它在同一群体的成员中似乎保持一致。由于它们无定形的身体没有明确的内部结构，Myxapia可以随心所欲地改变它们的身体形状。有些人选择与他们遇到的其他人形生物相似，如精灵或人类，而其他人则喜欢不太明确的形状。Myxapia模仿与他们交谈的人的身体特征的情况并不少见，这导致了一种阴森的重复性，许多人觉得很不舒服。更常见的是，Myxapia用一根流动的茎来支撑自己，而不是用两个双足肢体，并以类似于它们更原始的兄弟的运动方式在地上缓慢移动。"
						],
						"type": "entries"
					},
					{
						"name": "Names",
						"entries": [
							"Myxapia缺乏个性的概念，在他们的同类中不使用名字。然而，他们通常会根据外人对他们的称呼来取名字，以便在其他种族中被理解。",
							{
								"entries": [
									{
										"name": "Myxapia Names",
										"entries": [
											"Maixa, Zlimer, Mim, Glogoo, Gelly, Oilzlik, Blop, Jikkly, Zapia"
										],
										"type": "entries"
									}
								],
								"type": "entries"
							}
						],
						"type": "entries"
					},
					{
						"name": "Myxapia features",
						"entries": [
							""
						],
						"type": "entries"
					}
				],
				"images": [
					{
						"type": "image",
						"href": {
							"type": "external",
							"url": "https://i.imgur.com/A3oJ9tu.png"
						}
					}
				]
			}
		},
		{
			"name": "Qual'Ath",
			"source": "CDR",
			"ability": [
				{
					"int": 2
				}
			],
			"size": [
				"M"
			],
			"speed": {
				"walk": 30
			},
			"darkvision": 60,
			"traitTags": [
				"Monstrous Race"
			],
			"entries": [
				"蜕变过程以剧烈和不可逆的方式改变了宿主的身心。你会获得以下特征",
				{
					"name": "Ability Score Increase",
					"type": "entries",
					"entries": [
						"你的智能评分增加2分。"
					]
				},
				{
					"type": "entries",
					"name": "Age",
					"entries": [
						"一旦宿主经历了蜕变，共生体的外星生物学就会阻止任何进一步的衰老，使Qual'Ath实际上是不朽的。"
					]
				},
				{
					"name": "Alignment",
					"type": "entries",
					"entries": [
						"Qual'Ath和其他种族一样有不同的结盟方式，但他们的道德观念和Qual'Ath本身一样陌生。"
					]
				},
				{
					"name": "Size",
					"type": "entries",
					"entries": [
						"Qual Ath平均比大多数人形生物高一些，大约7英尺，但这可能取决于你的宿主种族。你的体型是中等或小型的，取决于你的宿主种族。你的宿主种族不能是小的。"
					]
				},
				{
					"type": "entries",
					"name": "Speed",
					"entries": [
						"你的基本行走速度是30英尺。"
					]
				},
				{
					"name": "Darkvision",
					"entries": [
						"习惯了在没有阳光的家园生活，你在黑暗和昏暗的条件下有卓越的视觉。你可以在60英尺范围内看到昏暗的光线，就像亮光一样，而在黑暗中，就像昏暗的光线一样。你在黑暗中无法辨别颜色，只有紫色的阴影。"
					],
					"type": "entries"
				},
				{
					"name": "Arcane Dissidence",
					"entries": [
						"你与奥术世界的分离使你难以理解奥术魔法。你无法适应魔法物品，并且需要两倍的时间将新的法术复制到法术书或仪式书中。"
					],
					"type": "entries"
				},
				{
					"name": "Alien Biology",
					"entries": [
						"你的外星生理结构缺乏大多数陆地种族的强大免疫系统。你在对毒药和疾病的救赎上有劣势。"
					],
					"type": "entries"
				},
				{
					"name": "Natural Psionics",
					"entries": [
						"你可以利用你的心灵力量来复制某些法术的效果。从3级开始，你可以在最低等级时施放以下法术。传送，探测思想。你对这些法术的施法能力是智力。使用此功能施展的法术不需要组件，并被视为幻术能力而非魔法效果。你可以使用这个能力的次数相当于你熟练度加成的1/2，并且在你完成长时间休息后重新获得这个能力。"
					],
					"type": "entries"
				},
				{
					"name": "Outsider",
					"entries": [
						"比起其他人的面部表情，你更习惯于自己种族的心灵感应，你对其他种族成员的洞察力检查有劣势。"
					],
					"type": "entries"
				},
				{
					"name": "Tentacles",
					"entries": [
						"四条像头足类动物的触手从你的脸上伸出来，经常作为额外的手臂。你的触手可以在你的回合中以自由行动的方式收放你身上不超过5磅的物品，或者以使用物品的行动作为奖励行动。"
					],
					"type": "entries"
				},
				{
					"name": "Telepathic Communication",
					"entries": [
						"你可以对你周围60英尺内任何你能看到的生物进行心灵感应。你不需要与该生物共享一种语言，它就能理解你的心灵感应信息，但该生物必须能够理解至少一种语言，或者本身具有心灵感应能力。"
					],
					"type": "entries"
				},
				{
					"name": "Languages",
					"entries": [
						"你能说、读、写普通话、科利斯语、深层语言和你选择的一种你的宿主种族知道的语言。"
					],
					"type": "entries"
				},
				{
					"name": "Subraces",
					"entries": [
						"Qual'Ath有三个子种族。"
					],
					"type": "entries"
				}
			],
			"languageProficiencies": [
				{
					"common": true,
					"other": true,
					"qualith": true,
					"deepSpeech": true
				}
			],
			"fluff": {
				"entries": [
					{
						"name": "Qual'Ath",
						"entries": [
							"Siralolth看着周围既陌生又熟悉的洞穴般的墙壁。她依稀记得她在这里的产卵池里的时光，但那似乎是一辈子的事。自从她被人从尚有余温的池子里捞出来，在黑暗的小巷里在处理者之间传递；自从她在黑市上被卖给一个急于求成的人后，她已经过了一辈子。",
							"她的主人莎拉也有类似的不安感。她以前从未亲身经历过这些大厅，但Siri的记忆和情感同样让她涌现出奇怪的回忆。当她的父亲把奇怪的虫子带回家时，莎拉还是一个生病和垂死的孩子。",
							"为了救他的女儿，他让那个阴暗的经销商相信他的话，他承诺粘稠的蝌蚪可以治疗任何疾病。在某种程度上，他的话是真的。那天之后，困扰她童年的虚弱和软弱就像太多的记忆一样融化了。但与此同时，莎拉自己也变得不一样了。萨拉自己，事实上，变成了萨拉自己。",
							"在那些时刻，Siri和其他人一样感到害怕。她知道带走宿主会带来什么，无论是对她自己还是对那个女孩。但由于无法与俘虏分享这一信息，她只能寄希望于此。希望他们在一切完成后能够理解。",
							"他们没有。当变化开始时，这个农民家庭在恐惧中尖叫。他们找了一个牧师，一个驱魔人，但他们什么都不懂，能做的更少。但是这两个孩子，迷失和恐惧，形成了一种纽带。当她们的身体变形和扭曲时，女孩们玩耍，探索彼此的心灵深处。当周围的人惊恐地看着她们时，莎拉和西丽形成了一种比以往任何时候都要亲密的亲情。",
							"回过头来看，这几乎是可笑的。女孩们咯咯笑着，回忆起她们父亲脸上的震惊。如此奇怪的表情让她们笑了，笑了，又笑了。",
							"当然，其他人永远不会理解。但他们还是很高兴。一起快乐。和他们最亲密的朋友在一起。",
							"但现在不是追忆过去的时候。如果传说是真的，在这些光滑而神圣的大厅里有一位新的长老。他们需要知道：他们是敌人，还是朋友？"
						],
						"type": "entries"
					},
					{
						"name": "Psionic Symbiosis",
						"entries": [
							"Qual'Ath是一种奇怪的外来生物，在他们最真实的状态下，根本不是人形。相反，Qual'ath本身最好被描述为蠕虫或蛇形共生体--以其他生物的幻觉能量为食的滑行蠕动的蛞蝓。事实上，如果不是因为一种特殊的进化，伟大的Qual'ath帝国可能永远不会出现。也许是因为命运，也许仅仅是因为环境，Qual'Ath的古老祖先学会了在被称为Carrak的野兽般的物种的活体中躲避元素--钻进它们的壳质装甲层下面，并掌握了这些生物的简单思维。",
							"在这里，奎尔阿斯人能够以这些史前野兽头脑中产生的幻觉能量为食，作为回报，卡拉克人获得了共生体巨大智慧的好处，形成了一种互助关系，这将使配对的物种形成有史以来横跨星际的最伟大帝国之一。",
							"随着这种相互关系的发展，Qual'Ath蝌蚪进化出了独特的能力，可以变异其宿主的身体，以更好地适应它们的综合需要。一对成熟的蝌蚪，被称为Qual'Carrak，将成为一股不可忽视的力量，不仅在金属能力方面，而且在体能方面也是如此。然而，Qual'ath帝国从未满足于此，他们开始寻求更多的宿主，即更适合于他们所居住的各种奇怪世界的生物。今天，Qual'Ath的蝌蚪被认为可以寄生在任何数量的类人物种中。通过巨大而广阔的蜂巢思维将自己连接起来，Qual'Ath殖民地迅速成长和适应，每个人不仅受益于他们兄弟的知识和经验，也受益于他们的主人。"
						],
						"type": "entries"
					},
					{
						"name": "Alien Life-Cycles",
						"entries": [
							"Qual'Ath殖民地通常由所谓的 \"长者之脑 \"监管--一个特别强大的个体，它的成长已经超出了它的宿主的限制，并与未成熟的蝌蚪一起居住在一个大型产卵池中，其中最弱的蝌蚪成为长者之脑的食物。产卵池和长者之脑由整个族群整体照顾，一年后，成熟的蝌蚪被植入他们的人形宿主体内，这是一个被称为 \"分娩 \"的仪式事件。",
							"这个仪式大约持续一周，在这个过程中，宿主的身体被永久地改变，以更好地适应两种生物的需要，这个过程被称为蜕变。当仪式完成时，宿主和蝌蚪已经变得密不可分，只有在这一点上，Qual'Ath才被认为是真正的 \"出生\"。按照大多数其他社会的标准，刚 \"出生 \"的Qual'Ath已经是成熟的成年人，他们直接从长者的大脑中吸收了有关他们世界的适当知识。他们立即进入社会，扮演他们最适合的角色。作为二元生物，Qual'ath赋予他们的宿主一种不朽的力量：用他们独特的幻觉能力来纠正衰老的过程，并阻止正常的细胞死亡。正因为如此，除非有特殊的手段，否则Qual'Ath很少会死亡，而当死亡发生时，整个群体会一起哀悼这一损失。",
							"死后，Qual'Ath的大脑被放置在产卵池中，与长者的大脑放在一起，它的知识和个性可能被长者的大脑本身和正在成熟的小蝌蚪所吸收。",
							"这种最后的行为允许Qua'Ath以某种有意义的方式继续存在，甚至在死后。"
						],
						"type": "entries"
					},
					{
						"name": "The Great Divide",
						"entries": [
							"与大多数人的理解相反，并非所有的Qual'Ath宿主都是被强迫带走的。事实上，对于大部分Qual'Ath社会来说，带走一个不愿意的宿主的想法被认为是不可想象的。一个不情愿的宿主肯定会削弱和破坏Qual'Ath的思想，在整个殖民地内播下破坏和异议的种子。",
							"但在一个早已被遗忘的时刻，在遥远的星星上的研究人员从各个方面挑战了这种看法。饿着自己的蝌蚪，直到他们 \"出生 \"的那一天，这个小群体，今天被称为Illithea，能够胁迫幼年的蝌蚪吞噬不情愿的主人的大脑，用自己的大脑取代生物的大脑。这些Illithid被证明是令人难以置信的强大，其幻觉能力甚至超过了一些长者的大脑。当然，这种力量是有代价的：如果没有宿主的大脑来汲取幻觉的养分，Illithid，或者说Mind Flayers（他们已经被称为 \"心魔\"）就会对吞噬他人的大脑产生强烈的依赖性。",
							"许多长老联合起来反对这种做法的传播，他们对这种做法产生的可恶的寄生虫感到不安和厌恶，但要找到愿意作为宿主的新生物是很困难的，而且随着蝌蚪的数量不断扩大，这种可怕的做法很快就超越了更多的传统价值观。今天，Illithid代表了Qual'ath社会的最大派别，而那些继续拒绝这种做法的传统主义者--被称为Thoc-Rah--已经被迫躲进他们自己的秘密殖民地和飞地。在这里，他们试图保留古老的习俗，不仅受到自己的伊里特兄弟的威胁，也受到无法区分残酷的伊里特人和和平的同行的威胁。"
						],
						"type": "entries"
					},
					{
						"name": "Physical Appearance",
						"entries": [
							"Qual'Ath的外观可以根据宿主的不同而有很大的不同，但他们的皮肤是光滑的，完全没有毛发，并有各种冷色。奎尔阿斯有一个高大、倾斜的头颅，两只粗糙的人形眼睛，以及四条长长的、盘绕的卷须，隐藏着一张为进食而非交流而进化的外星嘴。"
						],
						"type": "entries"
					},
					{
						"name": "Qual'Ath Names",
						"entries": [
							"Qual'Ath没有性别或性行为的概念，他们的名字不像其他生物那样是声音和音节的组合，而是定义他们的思想和观念的集合。这种名字可以随着时间的推移而改变，因为一个人在发展或探索自己的新元素。这样的名字被称为 \"思想的名字\"，当大声说出来时，伴随着一种精神上的静态，试图接近这些感觉。",
							{
								"entries": [
									{
										"name": "Thought Names",
										"entries": [
											"Aurangaul, Cephalossk, Drukt, Drusiss, Lugribossk, Quoor, Ralayan, Sardsult, S'venchen, Tharcereli, Tobulux, Zellix"
										],
										"type": "entries"
									}
								],
								"type": "entries"
							},
							"为了与其他最不擅长灵媒的种族打交道，一些Qual'Ath会采用更传统的名字，来自他们周围的文化。在许多情况下，这些名字是对他们主人名字的微妙改动。这在宿主和Qual'Ath平等分享身体的情况下尤其常见。"
						],
						"type": "entries"
					}
				],
				"images": [
					{
						"type": "image",
						"href": {
							"type": "external",
							"url": "https://i.imgur.com/thQYI0v.png"
						}
					}
				]
			}
		},
		{
			"name": "River Devil",
			"source": "CDR",
			"ability": [
				{
					"con": 2,
					"cha": 1
				}
			],
			"size": [
				"M"
			],
			"speed": {
				"walk": 20
			},
			"entries": [
				"一个强大的幻象能量的活体表现，你获得了以下特征。",
				{
					"name": "Ability Score Increase",
					"type": "entries",
					"entries": [
						"你获得体质得分的+2，以及魅力得分的+1。"
					]
				},
				{
					"name": "Age",
					"type": "entries",
					"entries": [
						"河妖是长寿的，在60-70岁之间达到成熟。河妖的平均寿命约为800年，但据传一些河妖国王或皇后的年龄要大得多。"
					]
				},
				{
					"name": "Alignment",
					"type": "entries",
					"entries": [
						"大多数河妖倾向于中立或混乱的取向。"
					]
				},
				{
					"name": "Size",
					"type": "entries",
					"entries": [
						"河妖的身高从6英尺到10英尺不等，周围通常至少有一半那么大，河妖是一种肥胖的生物。不过，你的体型是中等的。"
					]
				},
				{
					"type": "entries",
					"name": "Speed",
					"entries": [
						"这样的体型也有它的局限性，你的基本移动速度是20英尺。"
					]
				},
				{
					"name": "Powerful Build",
					"entries": [
						"在确定你的运载能力和你能推动、拖动或举起的重量时，你算大一码。"
					],
					"type": "entries"
				},
				{
					"name": "Amphibious Nature",
					"entries": [
						"河妖也许比他们在陆地上更适应于水。你可以同时呼吸空气和水，并且拥有相当于你基本移动速度加10的游泳速度。"
					],
					"type": "entries"
				},
				{
					"name": "Lamplight Lure",
					"entries": [
						"你的额头上有一个生物发光的诱饵，与钓鱼者的鱼不一样，你可以用它来分散其他生物的注意力，甚至使其失明。在没有遮盖的情况下，这个诱饵会在半径10英尺的范围内发出亮光，并在另外10英尺的范围内发出暗光。",
						"此外，当你被一个近战攻击所瞄准时，你可以用你的反应来尝试用你的诱饵蒙蔽目标。该生物必须在体质救赎中获得成功，其dc值等于8+你的魅力修改器+你的熟练度加成，否则就会失明，直到其下一回合结束，使其在触发的攻击中处于劣势。你可以在两次休息之间使用这个能力，其次数与你的魅力修饰值相同。"
					],
					"type": "entries"
				},
				{
					"name": "Slimy Membrane",
					"entries": [
						"你的皮肤受到像粘液膜一样的保护，这使你很难被抓住。你可以花费5英尺的移动距离来自动摆脱非魔法的束缚，例如手铐或抓紧你的生物。干旱的环境或缺水会导致这层膜变干。当缺水4小时或更长时间时，你在所有身体检查和救赎上都处于劣势，并且不再获得此特征的好处。"
					],
					"type": "entries"
				},
				{
					"name": "Gulping Maw",
					"entries": [
						"在你的回合中，你可以尝试吞下一个你正在抓捕的中等或较小的目标，作为一个动作。该生物必须以你的抓捕检查作为DC，做一个力量储蓄动作。如果失败，目标将被吞噬，并且抓捕结束。当被吞食时，目标会被蒙蔽和限制，它对你身体外的攻击和其他效果有完全的掩护，并且在你每个回合开始时受到相当于2d8+你体质修饰的酸液伤害。一个生物可以在每个回合结束时重复它对被吞噬的救赎动作。",
						"另外，你可以吞下一个自愿的盟友，在你的胃里提供5分钟的可呼吸空气。以这种方式吞下的盟友不会受到酸性伤害。你一次只能吞下一个生物，并且可以将被吞的生物驱逐到你周围5英尺内的一个无人空间，作为一个额外动作。"
					],
					"type": "entries"
				},
				{
					"name": "Languages",
					"entries": [
						"普通的和Aquan的。"
					],
					"type": "entries"
				}
			],
			"languageProficiencies": [
				{
					"common": true,
					"aquan": true
				}
			],
			"fluff": {
				"entries": [
					{
						"name": "River-Devil",
						"entries": [
							"奥古斯都沿着河边慢慢漂流，看着小妖精军团缓慢而稳定地从河岸边的驳船上下来，手里拿着武器。",
							"就是这样，合同被打破了。他们已经做了自己的床，现在是在床上睡觉的时候了。",
							"\"真遗憾，你们这些小伙子不得不在河的最后一段路去破坏交易。\" 当他的木筏与地精们的木筏并排而行时，他用嘲讽的语气吼道，表示同情。\"我告诉过你们乌龙河国王不喜欢河里的杀手，不是吗？在我的专业意见中，你们都应该尽早学会尊重你们的长辈；让你们活得更久。\" 抚摸着自己的胡须，他推开河岸，再次自言自语道。\"不过，这很有趣。如果你不大发雷霆的话，你们可能也会安然无恙。\" 当奥古斯都说完这句话时，他漂浮在河的转弯处，回头看了一眼，正好看到第一只九头蛇从沼泽中喷涌而出，扑向地精们。"
						],
						"type": "entries"
					},
					{
						"name": "Rotund River-Folk",
						"entries": [
							"身材强壮，嘴巴巨大，河妖是一个肥胖的人类种族，因其体型和自然迷人的举止而臭名昭著，他们经常在码头和河边，或在沼泽地附近安家。",
							"河妖有巨大的嘴巴，足以吞下大多数生物，在其薄如青蛙的嘴唇上方还有长长的胡须状突起，用来感知水中的运动。",
							"在这个巨大的嘴上，一个巨大的生物发光诱饵挂在河妖的头上；既能在黑暗中提供照明，又能为年轻的幼崽提供自然的防御机制。大多数成年人用帽子或其他形式的衣服遮住这个诱饵，既是为了表示得体，也是为了避免在黑暗中引起不必要的注意；只有在必须匆忙逃离的情况下才会使用它们。",
							"河豚的自然色彩往往是泥土色调，如泥泞的棕色或沼泽的绿色，但在土壤中的天然矿物质渗入其家园周围的水中，鲜艳的河豚在深红色、深蓝色和火橙色的罕见情况下并非没有。"
						],
						"type": "entries"
					},
					{
						"name": "Villains of Folklore",
						"entries": [
							"据称，河魔第一次出现在物质界是在100多年前，他们原本是水界的居民，被渗入他们家园的深渊能量慢慢腐蚀。根据大多数人的说法，这些被污染的河民的历史是一个恶棍和不义之财。",
							"在大多数定居点，河妖被称为诈骗犯和诡计多端的人，他们是无数民间故事和迷信的主题，这些故事将他们描绘成从十字路口的恶魔到沼泽地里的妖怪。大多数人从小就被教育要避开这些有魅力的河民的大笑声，因为他们害怕被整个吞下，作为奴隶被带入沼泽。有些说法甚至声称，他们用恶魔般的巫术引诱小孩子进入他们那张长着针状牙齿的大嘴里。"
						],
						"type": "entries"
					},
					{
						"name": "Charismatic Tradition",
						"entries": [
							"尽管他们有邪恶的名声，但围绕他们的大多数神话和传说都是被曲解的民间故事和扭曲的口述历史的结果。",
							"河妖是天然的交易制造者，他们重视狡猾和魅力，而不是其他种族的外来道德观。",
							"他们更喜欢合同的硬性规定，而不是其他种族不断变化的道德观和结盟，再加上他们天生的魅力，这种合同道德观使他们有某种倾向性，喜欢做骗子、罪犯或异国或非法货物的商人。",
							"在他们自己的定居点，河妖生活在以家庭为中心的大型部族中，这些部族可以包含三到十个大家族。每个部族都由一个被称为河王或河后的领袖监督。最大的、最古老的、最狡猾的河妖家族不仅被委托负责其家族的经济记录，而且还负责保存其广泛的口头历史。"
						],
						"type": "entries"
					},
					{
						"name": "River-Devil Names",
						"entries": [
							"河妖的名字来自他们周围的文化，经常与阿奎安的词汇混合在一起。",
							{
								"entries": [
									{
										"name": "Male Names",
										"entries": [
											"Tahm, Mykal, Aroon, Gorras"
										],
										"type": "entries"
									},
									{
										"name": "Female Names",
										"entries": [
											"卡姆里、古尔图德、塞拉、基皮"
										],
										"type": "entries"
									}
								],
								"type": "entries"
							}
						],
						"type": "entries"
					}
				],
				"images": [
					{
						"type": "image",
						"href": {
							"type": "external",
							"url": "https://i.imgur.com/fQ8GDZW.png"
						}
					}
				]
			}
		},
		{
			"name": "Seedling",
			"source": "CDR",
			"ability": [
				{
					"cha": 2,
					"dex": 1
				}
			],
			"size": [
				"S"
			],
			"speed": {
				"walk": 25
			},
			"entries": [
				"你是一个多愁善感的半身人和一个精灵般的干尸的孩子，作为一个幼苗，你获得了以下特征。",
				{
					"name": "Ability Score Increase",
					"type": "entries",
					"entries": [
						"你的魅力得分增加2，你的灵巧得分增加1。"
					]
				},
				{
					"name": "Age",
					"type": "entries",
					"entries": [
						"幼苗是大自然的孩子，在他们年轻的春天迅速成长，往往在20岁左右达到成熟。然而，在生命的后期季节，他们的生长速度会大大减缓，使他们平均能活两个世纪或更长时间。"
					]
				},
				{
					"name": "Alignment",
					"type": "entries",
					"entries": [
						"他们天生的自由和欢呼的倾向最常使幼苗走向混乱的善，但这几乎是一个固定的规则。"
					]
				},
				{
					"name": "Size",
					"type": "entries",
					"entries": [
						"幼苗从他们的半身人父母那里继承了他们渺小的体型。你的体型类别是小。"
					]
				},
				{
					"type": "entries",
					"name": "Speed",
					"entries": [
						"你的基本行走速度是25英尺。"
					]
				},
				{
					"name": "Photosynthesis",
					"entries": [
						"只要你每天在阳光下直射至少4个小时，你就不需要吃喝。"
					],
					"type": "entries"
				},
				{
					"name": "Sunny Optimist",
					"entries": [
						"当你在阳光直射下进行你所精通的能力检查、蓄力或攻击时，你可以重新掷骰子，你必须使用新的骰子。"
					],
					"type": "entries"
				},
				{
					"name": "Blossoming Magic",
					"entries": [
						"你知道德鲁伊术的咒语。一旦你达到3级，你可以施展一次纠缠法术。一旦你达到5级，你还可以施放一次植物生长法术。当你完成长时间的休息时，你会重新获得这样的施法能力。魅力是你对这些法术的施法能力。"
					],
					"type": "entries"
				},
				{
					"name": "Nature's Kin",
					"entries": [
						"在被植物遮挡时，你对灵巧（隐身）的检查有优势，并且无视植物造成的困难地形。"
					],
					"type": "entries"
				},
				{
					"name": "Languages",
					"entries": [
						"你可以说、读、写普通话和西尔文，并可以与植物交谈，就像你们有共同的语言一样。"
					],
					"type": "entries"
				}
			],
			"languageProficiencies": [
				{
					"common": true,
					"aquan": true
				}
			],
			"fluff": {
				"entries": [
					{
						"name": "Seedling",
						"entries": [
							"在溪流边停下来，沐浴阳光，享受蝴蝶的陪伴，Lillybloom注意到有东西在清澈的水晶水里闪闪发光。对着岸边生长的香蒲耳语了几句后，香蒲的根部将一颗五颜六色的红色纽扣从水里提了出来。她一定要把它缝在她的上衣上！\"。",
							"她的朋友们在一半的距离外，叫她到路上来加入他们。在下一个镇子里又出现了另一个人，他们不能再耽搁时间了。Lillybloom从她的绿叶头发上摘下一朵花，把它种在土壤里，以感谢她的好客，然后赶去加入她的朋友们。有一条龙等着她去杀，她迫不及待地想回到冒险中去。"
						],
						"type": "entries"
					},
					{
						"name": "Children of nature",
						"entries": [
							"幼苗是森林仙女或干尸与一个特别冒险的半身人结合的结果。",
							"他们聪明而多彩，但与大自然有着深厚的联系，有时被其他种族称为 \"花童\"，他们带着传染性的乐观主义和对生命的渴望，这是其他大多数种族无法比拟的。幼苗不喜欢在一个地方坐很久--他们往往会因为自己的古怪方式而招来异样的目光，并以用来自遥远地方的色彩和欢乐为他们探索的世界授粉而感到非常自豪。",
							"幼苗很少像其他种族那样认真对待，但这种快乐的天性并不是因为缺乏成熟度而产生的。苗族人非常清楚生死季节的流逝，并总是寻求享受春夏之交，无论他们在哪里找到它，无论是一缕温暖的阳光带来的最简单的快乐，还是一次神奇的旅行带来的激动人心的兴奋。"
						],
						"type": "entries"
					},
					{
						"name": "Small but Colorful",
						"entries": [
							"幼苗与他们的半身人父母最相似，而且主要是女性，尽管男性幼苗也不是没有听说过。他们相对较小，身高很少超过3英尺，身材比半身人的亲戚略微瘦小，眼睛明亮，色彩斑斓，有花的颜色。相比之下，他们的脚通常比较小，然而他们最引人注目的特征是头上有一撮头发粗细的藤蔓装饰。苗族人几乎不会选择遮盖他们的头发状的叶子，而且往往对那里盛开的各种花和花朵感到非常自豪。",
							"看到小苗被蝴蝶、大黄蜂和其他授粉者包围是很常见的，它们非常乐意接待这些人。随着幼苗年龄的增长，装饰其头部的植物种类随着季节的变化而变化。年轻时鲜艳的绿色，当他们成长到生命的晚期时，叶子往往呈现出秋天的艳丽的红色和黄色。幼苗几乎只穿着泥土色的衣服，并有明亮的花色。"
						],
						"type": "entries"
					},
					{
						"name": "Brighthearted Adventurers",
						"entries": [
							"幼苗通常是一些森林爱好者的恶作剧的孩子，他们不是普通人，也不总是能与他们父母的亲属找到一个好的契合点。在Dryads中，幼苗有时被视为不成熟或发育不良，而他们的半身人亲属经常不理解他们的异想天开和对刺激的追求。这常常导致幼苗走向冒险家的生活，在那里他们难以捉摸的好心情和古怪的个性可以帮助照亮最危险的情况。"
						],
						"type": "entries"
					},
					{
						"name": "Seedling Names",
						"entries": [
							"小苗喜欢把半身人起绰号的传统放在心上，自己选择一个或从附近的人那里采用一个他们喜欢用的绰号，而不是任何特定的名字。",
							{
								"entries": [
									{
										"name": "Male Names",
										"entries": [
											"紫花苜蓿、苹果心、豆芽、接骨木、芬费罗、葡萄藤、浮萍、尖嘴猴、茶树、痒痒草、醋栗、Wildvine"
										],
										"type": "entries"
									},
									{
										"name": "Female Names",
										"entries": [
											"阿斯彭叶，浆果花，好浆果，三叶草，雏菊，仙人掌，冬青，花边，紫荆花，玫瑰花，顶针梅，柳松"
										],
										"type": "entries"
									}
								],
								"type": "entries"
							}
						],
						"type": "entries"
					}
				],
				"images": [
					{
						"type": "image",
						"href": {
							"type": "external",
							"url": "https://i.imgur.com/nmz5EPs.png"
						}
					}
				]
			}
		},
		{
			"name": "Silverbrow (human Variant)",
			"source": "CDR",
			"ability": [
				{
					"cha": 2,
					"con": 1
				}
			],
			"size": [
				"M"
			],
			"speed": {
				"walk": 30
			},
			"entries": [
				"你的银眉角色有一些由他们的祖先所赋予的特征。",
				{
					"name": "Ability Score Increase",
					"type": "entries",
					"entries": [
						"你的魅力得分增加2，你的体质得分增加1。"
					]
				},
				{
					"name": "Age",
					"type": "entries",
					"entries": [
						"银眉的成熟速度与他们的人类表亲相同，但能活到500岁。"
					]
				},
				{
					"name": "Alignment",
					"type": "entries",
					"entries": [
						"银眉是银龙的后代，倾向于倾向于他们祖先的合法善性。"
					]
				},
				{
					"name": "Size",
					"type": "entries",
					"entries": [
						"你的身高在5到6之间。你的尺寸是中等。"
					]
				},
				{
					"type": "entries",
					"name": "Speed",
					"entries": [
						"你的基本行走速度是30英尺。"
					]
				},
				{
					"name": "Draconic Resistance",
					"entries": [
						"你对寒冷的伤害有抵抗力，并且对魔法效果的救赎有优势。"
					],
					"type": "entries"
				},
				{
					"name": "Dragonblood",
					"entries": [
						"你被认为是一个龙族，以获得功勋的资格。并受到龙族特有的魔法影响，就像你是一条龙一样。"
					],
					"type": "entries"
				},
				{
					"name": "Magical Inheritance",
					"entries": [
						"龙以外的生物在面对你施放的幻术时，会有不利的判断。"
					],
					"type": "entries"
				},
				{
					"name": "Graceful Levitation",
					"entries": [
						"你每天可以对自己施放一次羽落法术，然而在使用此功能时，你不能以其他生物为目标。"
					],
					"type": "entries"
				},
				{
					"name": "Practiced Disguise",
					"entries": [
						"你在隐藏你的外表或以普通人身份出现的欺骗检查中具有优势，并且你可以将欺骗加入你的类技能中。"
					],
					"type": "entries"
				},
				{
					"name": "Languages",
					"entries": [
						"你能说、读、写普通话和德拉科尼语。"
					],
					"type": "entries"
				}
			],
			"languageProficiencies": [
				{
					"common": true,
					"draconic": true
				}
			],
			"resist": [
				"cold"
			],
			"skillProficiencies": [
				{
					"deception": true
				}
			],
			"fluff": {
				"entries": [
					{
						"name": "Silverbrow",
						"entries": [
							"银龙在它们的同类中是独一无二的，因为它们经常喜欢以人类的形式出现，而它们的变身能力又允许它们这样做--这种特性往往可以追溯到古老的龙Mest'reck，他第一次变成人类的形式来教人类魔法的秘密。这种祖先在人类中度过的嗜好，使得银龙比其他任何种类的龙都更多地将它们的魔法血统与人类的血统混合在一起，这并不奇怪。"
						],
						"type": "entries"
					},
					{
						"name": "Arcane Ancestry",
						"entries": [
							"他们的龙裔亲属通常会继承他们各自亲属的力量，而银眉族的孩子则继承了他们龙族血统的魔法能力。银眉族通常在很小的时候就表现出了魔法天赋，他们对幻术有一种不寻常的亲和力，并且拥有他们祖先的一些天然魔法抵抗力，但到目前为止，他们最普遍的魔法遗产在于能够从任何高度轻轻地漂浮到地面上。"
						],
						"type": "entries"
					},
					{
						"name": "Silvered Humans",
						"entries": [
							"银袍人的血统比他们的龙裔亲属要远得多，而且与他们的近亲--龙裔不同，银袍人并没有表现出与他们的龙裔祖先一样的兽性特征。与鳞片和角相比，银眉的特征更加微妙。他们的身材通常比较苗条，但肌肉发达，头发上有条纹或点状的亮银色。然而，他们最突出的特征是他们的银色眼睛，在日光下像液态金属池一样闪闪发光。这些特征直到青春期才会发展起来，而且很多代人的血统都没有产生银眉，这并不罕见，也就是说，当他们的孩子开始出现龙人的迹象时，很多人类父母都会感到惊讶。",
							"一些家庭热切地接受这些银色的孩子，为他们得到的礼物感到兴奋。但在较小的社区，这种异常有时会被误认为是一种诅咒或突变。",
							"虽然他们的成熟速度与正常人类相似，但银眉常常可以活到500岁。这使他们有足够的时间来考虑自己在这个世界上的位置。"
						],
						"type": "entries"
					},
					{
						"name": "Silverbrow Names",
						"entries": [
							"虽然银发儿童在成年后使用其他名字的情况并非没有，但大多数银发儿童在出生时并不被承认为银发儿童，因此大多数人通常使用人类的名字。"
						],
						"type": "entries"
					}
				],
				"images": [
					{
						"type": "image",
						"href": {
							"type": "external",
							"url": "https://i.imgur.com/sfNO0qo.png"
						}
					}
				]
			}
		},
		{
			"name": "Soul-Stitched",
			"source": "CDR",
			"ability": [
				{
					"str": 2,
					"con": 1
				}
			],
			"size": [
				"M"
			],
			"speed": {
				"walk": 30
			},
			"entries": [
				"尸体，用针线缝合，由电力驱动，并由抢来的灵魂赋予智慧；作为一个灵魂缝合者，你有以下种族特征。",
				{
					"name": "Ability Score Increase",
					"type": "entries",
					"entries": [
						"你的力量得分增加2，你的体质得分增加1。"
					]
				},
				{
					"name": "Age",
					"type": "entries",
					"entries": [
						"灵魂缝合的 \"生命 \"只有很短的时间，大多在几个月或几年后就会断电，因为支撑它们的电力供应已经用完。然而，缝合的灵魂可以通过新的雷击或其他强大的电荷进行充电，这可以重新设定它们的预期寿命。"
					]
				},
				{
					"name": "Alignment",
					"type": "entries",
					"entries": [
						"灵魂缝合的人往往重视自由和不守规矩，倾向于混乱的排列组合，但没有内在的善或恶的偏见。"
					]
				},
				{
					"name": "Size",
					"type": "entries",
					"entries": [
						"灵魂缝制的大小和形状差别很大。选择小号或中号。"
					]
				},
				{
					"type": "entries",
					"name": "Speed",
					"entries": [
						"你的基本行走速度是30英尺。"
					]
				},
				{
					"name": "Undead Construct",
					"entries": [
						"虽然你的心脏还在跳动，但你是由死人的身体构造而成。就专门针对亡灵的效果而言，你既是一个亡灵生物，也是一个活的构造物；不过，你在抵抗这种效果时有优势。你对疾病免疫，也不需要进食或呼吸，不过如果你愿意，你可以摄取食物和饮料。你可以选择每天保持4小时的不活动状态，而不是睡觉。在这种状态下，你不会做梦；你完全意识到你周围的环境，并像平常一样注意到接近的敌人和其他事件。"
					],
					"type": "entries"
				},
				{
					"name": "Corpse Born",
					"entries": [
						"你容易受到火的伤害，并且不能因为治疗法术或等级特征而恢复生命值。"
					],
					"type": "entries"
				},
				{
					"name": "Languages",
					"entries": [
						"普通的和选择一个其他的。"
					],
					"type": "entries"
				},
				"独特的特质。与天生的种族不同，灵魂缝合者在外观和能力上可以有很大的不同。其他种族可能有独特的子种族，而灵魂缝合者则是独特特征的混合体。从以下内容中选择2项。",
				{
					"name": "Electrified Frame",
					"entries": [
						"你是通过电的力量而被赋予生命的，你的身体被设计成可以一次又一次地利用这种能量。每当你受到雷电伤害时，你不会受到任何伤害，而是可以选择为每10次伤害花费1个命中率骰子。每花一个命中率骰子，你就能恢复相当于骰子卷+你的体质修正值的命中率。"
					],
					"type": "entries"
				},
				{
					"name": "Grisly Design",
					"entries": [
						"你不是为了漂亮而生的，你是为了完成任务而生的。除了魅力之外，你的一项能力得分增加1。你在所有的劝说检查和隐藏你的不死本性的欺骗检查中都处于劣势。"
					],
					"type": "entries"
				},
				{
					"name": "Lifelike Appearance",
					"entries": [
						"仔细的缝合和只使用了... 最新鲜的身体部位给了你一个令人毛骨悚然的逼真的外观。在合适的光线下，你甚至可以说是活的。在未经训练的人眼里，你似乎是一个人形种族的活标本，而你就是由这个人形种族制作出来的，在隐藏你的不死本性的欺骗检查中具有优势。"
					],
					"type": "entries"
				},
				{
					"name": "Mental Patchwork",
					"entries": [
						"你的头脑和你的其他部分一样是拼凑的，有时这一点会派上用场。当你使用一个你不精通的技能进行技能检查时，你可以在1到12之间调用一个数字，然后掷一个（%0%）。如果你的卷轴与你叫的数字相符，你可以在检查中加入你的熟练度奖励。"
					],
					"type": "entries"
				},
				{
					"name": "Natural Weapons",
					"entries": [
						"你的身体是用从强大的怪物身上剥下来的零件建造的。你获得了以下一种自然武器，并被认为精通用该武器进行的所有攻击。你可以多次选择这个特质。",
						{
							"type": "list",
							"items": [
								"爪子。1d6砍伐伤害。",
								"棍棒状的拳头。1d6重击。",
								"锐利的牙齿：1d6刺穿。"
							]
						}
					],
					"type": "entries"
				},
				{
					"name": "Necromancer's Eye",
					"entries": [
						"你的创造者有神奇的天赋，给你身体的某些部分注入了足够的魔力，可以表演一些有趣的戏法。作为一个动作，可以移除你的一只眼睛，使你的最大命中率减少1d4。一旦移除，这只眼睛会在空中盘旋一小时之久。它的飞行速度为30，命中率为1d4。你可以使用一个额外的动作来用心灵感应指挥眼睛。这只眼睛能离你多远没有限制，但它不能进入另一个存在平面。你在精神上接受来自眼睛的视觉信息，包括任何你会受益的额外光学感官（如暗视）。你可以用一具新鲜尸体上的同等身体部位来替换一只被摧毁的眼睛。这样做需要1个小时，需要进行医学检查，dc值为15。"
					],
					"type": "entries"
				},
				{
					"name": "Shoddy Construction",
					"entries": [
						"你是由劣质部件或使用劣质方法建造的，因此，你的身体很容易崩溃。但在别人看来是弱点的东西，你却很乐意用来为自己谋福利。你获得了分离身体小部分的能力，比如作为奖励动作的手，或对受到伤害的反应。当身体部分分离时，你的最大命中率会减少一个命中值。在分离时，这些身体部分可以被视为爬行爪（怪物手册第44页），你可以用心灵感应指挥它们。你可以用一具新鲜尸体上的同等身体部位替换被破坏的身体部位。这样做需要1小时，并需要进行医学检查，dc值为15。"
					],
					"type": "entries"
				}
			],
			"languageProficiencies": [
				{
					"common": true,
					"draconic": true
				}
			],
			"conditionImmune": [
				"disease"
			],
			"fluff": {
				"entries": [
					{
						"name": "Soul-Stitched",
						"entries": [
							"\"我的生活就像许多灵魂缝合的人一样开始了，一个疯子在我头上举起双手，大声喊着'它还活着！！'\"。",
							"\"你做了什么？\"",
							"\"我打了他，给警卫打电话，申请了一份工作，现在我在这里。\"",
							"-著名的卫士，哈里特-格莱姆斯，谈到她的出生。",
							"灵魂缝合者是由几个曾经活着的人的身体和灵魂结合在一起的，是一个有意识的人工创造的种族，具有强大而诱人的存在。与普通的肉体盔甲不同，赋予 \"灵魂缝合者 \"力量的智能不是较小的元素，而是真正的灵魂，从最近的死者身上提取。虽然这些灵魂对他们以前的生活几乎没有记忆，但这种限制并没有阻止许多死灵法师试图以灵魂缝合体的形式复活他们所爱的人。",
							"强烈倾向于自由和不循规蹈矩，许多灵魂伴侣对生物不屑一顾，而其他人则在冒险和刺激的生活中找到平静。"
						],
						"type": "entries"
					},
					{
						"name": "Born to Servitude",
						"entries": [
							"最初的灵魂缝合者是由臭名昭著的神秘主义者尼古拉斯-德拉库尔创造的。在试图创造一个能够作为他的不死仆人的智能怪物时，德拉库尔反而创造了第一个灵魂缝合体。在意识到这个怪物不会心甘情愿地为他服务后，他把这个怪物卖给了一个敌对的神秘主义者，让这个人形怪物相信它的生存依赖于它的看护者。"
						],
						"type": "entries"
					},
					{
						"name": "Seeking Freedom",
						"entries": [
							"起初，怪物听从了它的命令，尽管是勉强服从，然而随着时间的推移，自称为伊娃妮的怪物慢慢开始反叛，寻找获得自由的方法。在发现据说维持她的卑鄙血清只是一种安慰剂后，Evaine甩掉了她的锁链，试图与她的创造者对峙，但却要面对她不受欢迎的存在的真相。"
						],
						"type": "entries"
					},
					{
						"name": "Powered By Electricity",
						"entries": [
							"灵魂缝合者的灵魂被强大的奥术力量凝聚在一起，为了维持这些不稳定的结合，他们必须吸收大量的能量，最常见的是以电的形式。最早的灵魂缝合者依靠闪电袭击或与法师和巫师的脆弱联盟来维持自己的生命。最近，许多灵魂缝合者在旅行时都会携带大型发电机，以便在休息时充电。"
						],
						"type": "entries"
					},
					{
						"name": "An Amalgam of Souls",
						"entries": [
							"灵魂缝合者最独特的特征是他们的创造过程，融合了几个人的断裂的心灵。这个过程赋予了 \"灵魂缝合者 \"复制生活中一些技能的能力。将几个人的思想的最佳方面合并成一个，给了缝魂者一个强大和诱人的存在。"
						],
						"type": "entries"
					},
					{
						"name": "Physical Appearance",
						"entries": [
							"灵魂缝合是由四到六个人的身体形成的构造，通常是为了从其所有部分中获取最佳的身体属性。",
							"灵魂缝合者最初是作为仆人使用的，他们在创作时通常会考虑到特定的功能，并以形态良好的人类形象出现，其身体上有缝合线和接缝。这些具有装饰性的灵魂缝合者有时甚至有精心设计的缝合线，或者有不同颜色的头发和皮肤的补丁，使人赏心悦目。但由经验不足的人创造的灵魂缝合体往往更畸形或不相称，而活了很久的灵魂缝合体往往用新的部分来修改他们的身体，这与创造者的意图相悖。不管怎么说，没有两个灵魂缝合者看起来是一样的，他们的体型从儿童到大型成年人都有。",
							"缝魂人作为一个整体没有遵循统一的体型，他们的身材从略微过大或过小的附属物或各种皮肤颜色的补丁，到不同颜色的眼睛，甚至不同色调的头发，都有不同。唯一具体的东西是他们的创作是种族之间的性别感。虽然灵魂缝合者可能有明确的性别定义，但他们没有能力交配，而且往往没有这样的冲动。"
						],
						"type": "entries"
					},
					{
						"name": "Society",
						"entries": [
							"灵魂缝合者是一个罕见的种族，许多人在他们的一生中都不会遇到另一个种族的人。大多数灵魂缝合者与人类或其他种族混杂在一起，尽力隐藏他们伤痕累累的身体，以避免引起恐惧或嘲笑。有传言说在暗黑世界的某个地方有一个灵魂缝合的定居点，但这种说法仍然只是传言，没有得到证实。"
						],
						"type": "entries"
					},
					{
						"name": "Soul-Stitched Names",
						"entries": [
							"灵魂缝合的人常常取别人给他们的名字。对于幸运和被接受的人来说，这些大多是人类的名字。然而，对于那些被回避和追捕的人来说，这些名字可能是侮辱性的，如 \"怪物\"、\"野兽 \"或 \"卑鄙的生物\"。其他灵魂缝合者选择自己的名字，选择他们认为有吸引力的名字，或他们半记得的前世的名字。"
						],
						"type": "entries"
					}
				],
				"images": [
					{
						"type": "image",
						"href": {
							"type": "external",
							"url": "https://i.imgur.com/TS0n90V.png"
						}
					}
				]
			}
		}
	],
	"feat": [
		{
			"name": "Breaching Containment - Extensive Damage",
			"source": "CDR",
			"prerequisite": [
				{
					"race": [
						{
							"name": "Auroros"
						}
					]
				}
			],
			"entries": [
				"如果你的Xexel受到广泛的伤害，它就会失去适当容纳你的气态身体的能力，迫使你脱离它的保护。当伤害将使你的Xexel命中率降至0或更低时，你的衣服就会破裂，你就会进入一个无法控制的状态。"
			]
		},
		{
			"name": "Breaching Containment - Controlled Exposure",
			"source": "CDR",
			"prerequisite": [
				{
					"race": [
						{
							"name": "Auroros"
						}
					]
				}
			],
			"entries": [
				"在你的回合中，你可以释放你的Xexel上的压力锁扣，以进入你的非封闭状态。当你通过广泛的损害或受控的暴露进入你的非封闭状态时，你的Xexel在你的空间里是空的，同时还有任何穿戴或携带的物品或设备，你会获得以下特征。",
				{
					"entries": [
						{
							"name": "Lighter than Air",
							"entries": [
								"当你处于气态，未被净化的状态时，你获得60英尺的飞行速度，并能在半空中盘旋。"
							],
							"type": "entries"
						},
						{
							"name": "Highly Flammable",
							"entries": [
								"组成你身体的蒸气和气体是非常易燃的。你很容易受到火的伤害，如果受到火的伤害，你必须在DC15的体质救赎中成功，否则每回合继续受到1d6火的伤害。你可以在每个回合开始时重复这个蓄力动作来结束这个效果。"
							],
							"type": "entries"
						},
						{
							"name": "Insubstantial",
							"entries": [
								"构成你身体的变化的气体在大多数物理攻击中都是流动的，而且自身几乎不能施加任何力量。你对非魔法的击打、穿刺和砍击伤害有免疫力，但不能与物体和生物进行物理互动，也不能通过正常途径穿戴盔甲或携带装备。"
							],
							"type": "entries"
						},
						{
							"name": "Vaporous Form",
							"entries": [
								"在这种状态下，强风等会驱散气体或蒸汽的影响对你来说是危险的。你不能自愿进入由这种效应产生的区域，而且由这种效应引起的强制移动对你来说是加倍的。当你受到这种影响时，你必须在DC15的体质救赎中成功，并受到1D6的力量伤害。"
							],
							"type": "entries"
						},
						{
							"name": "Poisonous Cloud",
							"entries": [
								"你的云状身体形成一个直径为5英尺的大致球形的云，由发光的气体和蒸汽组成，对大多数生物来说是有毒的。你可以和其他生物占据相同的空间，你的云内的空间被视为轻度遮蔽。进入你的空间或在你的空间内开始他们的回合的生物必须在DC17宪法救赎中成功，否则会受到与你等级相等的毒害。回到一个未破裂的Xexel需要一个行动来完成。然而，一旦破裂，Xexel就会进入紧急修复模式，并且在完成长时间的休息后才能重新进入。这种紧急修复只能使Xexel恢复到1个命中率，超过这个命中率的衣服必须正常修复。"
							],
							"type": "entries"
						}
					],
					"type": "entries"
				}
			]
		},
		{
			"name": "Interchangeable parts - Integrated Tool (Arm)",
			"source": "CDR",
			"prerequisite": [
				{
					"race": [
						{
							"name": "Babbage"
						}
					]
				}
			],
			"entries": [
				"这个肢体取代了你现有的前臂，当作为自由行动激活时，可以被设计成任何单手工具或武器的功能，或者在停用时作为普通的手使用。在停用时，需要进行DC20调查检查以识别武器。一个综合工具的成本一般从50gp左右开始，加上该类型的普通工具或武器的成本。"
			]
		},
		{
			"name": "Interchangeable parts - Low-light Optics (Eye)",
			"source": "CDR",
			"prerequisite": [
				{
					"race": [
						{
							"name": "Babbage"
						}
					]
				}
			],
			"entries": [
				"这些光学传感器已被特别校准，以便在低光环境中发挥作用，赋予你60英尺范围内的暗视能力。在公平的市场上，弱光光学器件通常要花费大约50gp。"
			]
		},
		{
			"name": "Interchangeable parts - Grapple Attachment (Arm)",
			"source": "CDR",
			"prerequisite": [
				{
					"race": [
						{
							"name": "Babbage"
						}
					]
				}
			],
			"entries": [
				"这个前臂有一只可拆卸的手，它由50英尺长的绳索或链条连接。这只手可以利用强大的弹簧从前臂上发射出去，抓住远处的物体，然后由一个内置的扳手自动收回，这样做需要一个动作，而且每次使用后必须重新缠绕弹簧，这需要整整一分钟。在紧要关头，部分缩回的手可以作为一个临时性的甩棍使用，但这样做很可能会损坏装置。这种复杂的附件往往要花费300克之多。"
			]
		},
		{
			"name": "Interchangeable parts - Welding Torch (Arm)",
			"source": "CDR",
			"prerequisite": [
				{
					"race": [
						{
							"name": "Babbage"
						}
					]
				}
			],
			"entries": [
				"这种改装使你的一个手指可以作为吹火枪来点火或加热金属。它包括一个位于前臂的小型强化燃料箱，在连续使用约1小时后必须重新填充。调整燃烧器可以减少火焰的热量，但允许它以类似于火炬的方式发出明亮的光，并持续5小时。在安全和可用的条件下，一个焊枪附件的价格在150-200gp之间，但不那么......可靠的版本往往会更便宜。"
			]
		},
		{
			"name": "Interchangeable parts - Phonographic Recorder (Chest)",
			"source": "CDR",
			"prerequisite": [
				{
					"race": [
						{
							"name": "Babbage"
						}
					]
				}
			],
			"entries": [
				"这种复杂的装置位于胸部的一个专门的隔间内，能够将音乐或谈话记录在蜡质或铜质圆筒上并播放出来。这种装置在贵族中很受欢迎，其本身的价格约为150gp，根据质量不同，罐子的价格在5-20gp之间。"
			]
		},
		{
			"name": "Interchangeable parts - Mining Drill (Arm and Chest)",
			"source": "CDR",
			"prerequisite": [
				{
					"race": [
						{
							"name": "Babbage"
						}
					]
				}
			],
			"entries": [
				"这个工业附件将你的手臂替换成一个重型采矿钻头，能够以每小时3英尺的速度突破矿藏。钻头的运作需要燃料，由一个安装在胸部的大油箱提供，连续使用5小时后必须进行补充。作为武器使用，钻头在命中后会造成2D12的砍击伤害，但不建议对软目标使用，因为肉质的内脏几乎会立即损坏机制。天气好的时候大约需要300gp。"
			]
		},
		{
			"name": "Interchangeable parts - Ground Stabilizers (Legs)",
			"source": "CDR",
			"prerequisite": [
				{
					"race": [
						{
							"name": "Babbage"
						}
					]
				}
			],
			"entries": [
				"这个模块包括强大的活塞和地面夹子，使巴贝奇能够在难以置信的力量下将自己锁定在原地。作为一个自由动作，稳定器可以被激活，使你对不包括传送在内的强制移动免疫，并且不能被击倒。当稳定器被激活时，你的速度会被降低到0，关闭稳定器是一个额外的动作。这个模块的价格范围通常不超过50-100gp。"
			]
		},
		{
			"name": "Interchangeable parts - Fluid Dispensary (Chest)",
			"source": "CDR",
			"prerequisite": [
				{
					"race": [
						{
							"name": "Babbage"
						}
					]
				}
			],
			"entries": [
				"这种简单的水箱在上流社会中很受欢迎，它允许在Babage的胸部储存多达5加仑的液体，并在分配液体时进行加热或冷却。许多模型还包含一个过滤器系统，可以用来净化水，或者冲泡咖啡和茶等饮料。一个基本的配药箱大约需要50克普，但带有过滤器的更高级的型号可能会更高。"
			]
		},
		{
			"name": "Interchangeable parts - Chemical Sprayer (Arm)",
			"source": "CDR",
			"prerequisite": [
				{
					"race": [
						{
							"name": "Babbage"
						}
					]
				}
			],
			"entries": [
				"农村的改造通常与基本的液体分配器一起使用，这个模块允许巴贝奇从一个单独的罐子中抽出定向的液体流或喷雾。虽然经常用于分发杀虫剂，但黑市上也有一些改装品，可以将其转化为有效的--如果危险地不可靠--火焰喷射器。一个标准的化学品喷射器大约需要50克普。火焰喷射器变体的可用性和成本由你的DM决定。"
			]
		},
		{
			"name": "Lotus States - Root Lotus",
			"source": "CDR",
			"prerequisite": [
				{
					"race": [
						{
							"name": "Chakara"
						}
					]
				}
			],
			"entries": [
				"与红色有关，根茎莲花代表一种稳定和理性思考的接地状态。处于这种状态的查克拉通常专注于生存的基本要素，并在自然界中找到和平。",
				{
					"entries": [
						{
							"name": "Grounded Form",
							"entries": [
								"在这种状态下，如果你还没有熟练掌握的话，你将被视为精通生存检查。此外，当你通过使用法术、等级特征或其他效果（如花费一个命中率骰子）来恢复命中率时，你会重新获得与你的熟练度加分相等的额外命中率。"
							],
							"type": "entries"
						}
					],
					"type": "entries"
				}
			]
		},
		{
			"name": "Lotus States - Sacral Lotus",
			"source": "CDR",
			"prerequisite": [
				{
					"race": [
						{
							"name": "Chakara"
						}
					]
				}
			],
			"entries": [
				"闪耀着火热的橙色，圣莲是一种情感激情和创造力的状态。处于这种状态的查克拉是创新和聪明的，经常发现自己陷入白日梦或幻想。",
				{
					"entries": [
						{
							"name": "Creative Passion",
							"entries": [
								"在这种状态下，你在使用你所精通的工匠工具进行检查时具有优势。此外，你可以使用你体内的能量来创造你所看到的或想象中的东西的小手掌大小的幻象。这些幻象可以包括运动或声音，但都是轻度透明的，而且很容易被识别为幻象。你可以在同一时间拥有与你的熟练度奖励相等的幻象数量。"
							],
							"type": "entries"
						}
					],
					"type": "entries"
				}
			]
		},
		{
			"name": "Lotus States - Naval Lotus",
			"source": "CDR",
			"prerequisite": [
				{
					"race": [
						{
							"name": "Chakara"
						}
					]
				}
			],
			"entries": [
				"在金黄色的共鸣中，核心莲花反映了一种故意的决心和机构的状态。处于这种状态的查克拉是有动力和自我肯定的，很少允许别人阻碍他们的进步。",
				{
					"entries": [
						{
							"name": "Forceful Will",
							"entries": [
								"在这种状态下，你对魅惑和恐惧效果的蓄力攻击具有优势。此外，你可以使用 \"真实打击 \"的咒语，并且可以在两次长休息之间作为额外动作施放，次数与你的熟练度加成相等。"
							],
							"type": "entries"
						}
					],
					"type": "entries"
				}
			]
		},
		{
			"name": "Lotus States - Heart Lotus",
			"source": "CDR",
			"prerequisite": [
				{
					"race": [
						{
							"name": "Chakara"
						}
					]
				}
			],
			"entries": [
				"心莲是一种温暖而诱人的绿色，是一种慈悲和与他人联系的状态。处于这种状态的查克拉人重视他们的友谊和联系，并渴望帮助分担他人的负担。",
				{
					"entries": [
						{
							"name": "Kindred Heart",
							"entries": [
								"在这种状态下，你可以感知你周围人的情绪。作为你回合中的一个行动，你可以触摸一个生物并获得对他们情绪状态的洞察力。你可以选择以下一项来学习。",
								{
									"type": "list",
									"items": [
										"困扰或担心生物的东西",
										"使生物高兴或兴奋的东西",
										"该生物如何感知你自己或你所意识到的另一个生物。",
										"如果该生物最近说了一个谎言或不诚实的行为"
									]
								},
								"你可以使用这个能力的次数与你的熟练度加成相等，之后你必须完成一个长时间的休息才能再次使用它。"
							],
							"type": "entries"
						}
					],
					"type": "entries"
				}
			]
		},
		{
			"name": "Lotus States - Throat Lotus",
			"source": "CDR",
			"prerequisite": [
				{
					"race": [
						{
							"name": "Chakara"
						}
					]
				}
			],
			"entries": [
				"声音莲花的颜色是深蓝到亮蓝，代表一种开放和表达的状态。处于这种状态的查克拉是健谈的，而且往往比平时更有说服力，能够以一种自信的能量来表现自己，几乎具有神奇的性质。",
				{
					"entries": [
						{
							"name": "Infectious Personality",
							"entries": [
								"在这种状态下，如果你还没有熟练掌握，你将被视为精通劝说检查。此外，你获得了使用 \"朋友 \"咒语的权限，并可以用它来一次影响与你的熟练度加成相等的生物数量。"
							],
							"type": "entries"
						}
					],
					"type": "entries"
				}
			]
		},
		{
			"name": "Lotus States - Third-Eye Lotus",
			"source": "CDR",
			"prerequisite": [
				{
					"race": [
						{
							"name": "Chakara"
						}
					]
				}
			],
			"entries": [
				"第三眼莲花是一种以直觉和感知为中心的状态，可以看到深紫色。处于这种状态的查克拉喜欢做被动的观察者，满足于观察他们周围的世界，欣赏它的美。",
				{
					"entries": [
						{
							"name": "Grounded",
							"entries": [
								"在这种状态下，如果你还没有熟练掌握洞察力和感知力检查，你将被视为精通。此外，你在对幻觉或幻术的救赎以及识别幻觉的检查中具有优势。"
							],
							"type": "entries"
						}
					],
					"type": "entries"
				}
			]
		},
		{
			"name": "The 7th Lotus - Enlightened",
			"source": "CDR",
			"prerequisite": [
				{
					"race": [
						{
							"name": "Chakara"
						}
					]
				}
			],
			"entries": [
				"除了上面列出的6种莲花状态外，还存在第7种，即最后一种莲花，据说查克拉只有在准备好迈出超越物质世界的最后一步时才会经历。这种开悟的状态，被称为 \"皇冠莲花\"，只在查卡拉永远离开这个世界之前的最后时刻出现。当你的命中率降至0并被彻底杀死时，或者在最后的死亡自救失败后，你的束缚封印就会溶解，并进入你最后的莲花状态，获得以下好处。这个莲花状态持续的回合数与你的熟练度加成相等，在此期间你继续像活着一样行动。当最后的莲花状态结束时，你会立即死亡，并且不能通过任何方式复活，除了一个愿望法术。",
				{
					"entries": [
						{
							"name": "Enlightened",
							"entries": [
								"你立即获得长时间休息的好处，你的命中率恢复到最高值。你对所有类型的伤害都有抵抗力，并获得上述所有6种莲花状态的好处。"
							],
							"type": "entries"
						}
					],
					"type": "entries"
				}
			]
		},
		{
			"name": "Blood Feats - Blood of the Heretic",
			"source": "CDR",
			"prerequisite": [
				{
					"race": [
						{
							"name": "Homo-Sanguinem (The Afflicted Vampire)"
						}
					],
					"spellcasting": true,
					"other": "Constitution 16, Ability to cast at least one spell"
				}
			],
			"entries": [
				"由于天生的亲和力，或者异端的研究，你已经掌握了血魔法的禁忌仪式。当你施展法术时，你可以使用一个额外的行动来消耗一个命中率，并获得以下效果之一。",
				{
					"entries": [
						{
							"name": "Scarlet Binding",
							"entries": [
								"通过消耗一盎司生物的血液，对自己造成相当于该法术等级+所消耗的命中骰子最大值的砍伤，你可以从任何距离瞄准该生物，即使你没有视线。"
							],
							"type": "entries"
						},
						{
							"name": "Blood Channel",
							"entries": [
								"当施展一个需要集中注意力的法术时，你可以选择忽略该法术的集中注意力要求，而是在法术持续生效的每一回合受到相当于该法术等级的砍伤。要想在持续时间结束前自愿结束法术，你必须对自己的法术保全DC进行宪法保全投掷成功。"
							],
							"type": "entries"
						},
						{
							"name": "Sanguine Empowerment",
							"entries": [
								"你对自己造成的割裂伤害等于该法术的等级+为增强你的施法能力而花费的命中率的最大值，在你的法术攻击修饰或法术救赎DC上加上你的体质修饰。"
							],
							"type": "entries"
						}
					],
					"type": "entries"
				},
				"你作为这个功能的一部分所受到的伤害不能以任何方式减少。"
			]
		},
		{
			"name": "Blood Feats - Blood of the Beast",
			"source": "CDR",
			"prerequisite": [
				{
					"race": [
						{
							"name": "Homo-Sanguinem (The Afflicted Vampire)"
						}
					],
					"other": "Constitution 16, Strength 15"
				}
			],
			"entries": [
				"你的血液被赋予了战斗的凶猛和对暴力的渴望。在你的回合中，你可以消耗一个命中率骰子并对自己造成相当于该命中率骰子最大值的斩击伤害，以释放你血液的暴力力量，并获得以下效果。",
				{
					"type": "list",
					"items": [
						"你对法术和魔法效果的救赎有优势",
						"如果在你5英尺范围内的生物采取了除脱离行动之外的任何行动，你可以用你的反应对他们进行一次机会攻击。",
						"你每回合获得额外的反应次数，相当于你熟练度加成的一半。这些反应只能用于进行机会攻击。"
					]
				},
				"这个释放持续1分钟或直到你被击倒失去意识。在这个释放生效的每个回合开始时，你会消耗一个额外的命中率骰子，并受到相当于所消耗的命中率骰子最大值的砍伤。作为你回合中的额外行动，你可以尝试一个智慧救赎，其DC等于12+你的体质修改器。如果成功，释放会提前结束。",
				"你作为这个功能的一部分所受到的伤害不能以任何方式减少。"
			]
		}
	],
	"subrace": [
		{
			"name": "House Carrow",
			"source": "CDR",
			"raceName": "Aeramanu",
			"raceSource": "CDR",
			"ability": [
				{
					"int": 1
				}
			],
			"entries": [
				{
					"type": "section",
					"entries": [
						{
							"name": "House Carrow",
							"entries": [
								"精明的商人和生意人，卡洛家族已经成为整个艾瑟罗斯最富有的贵族家族之一，专门收购和销售古董和神秘的艺术品。"
							],
							"type": "entries"
						}
					]
				},
				{
					"name": "Ability Score Increase",
					"type": "entries",
					"entries": [
						"你的智力得分增加1。"
					]
				},
				{
					"name": "Appraising Eye",
					"entries": [
						"卡罗家族的所有成员从小就被教导如何进行交易和评估有价值的物品。你在讨价还价或评估物品价值的检查中具有优势，并且每天可以将 \"识别 \"作为一种仪式施展一次，而不需要消耗物质成分。你对这个法术的施法能力与你的神秘传统种族特征相同。"
					],
					"type": "entries"
				}
			]
		},
		{
			"name": "House Tallos",
			"source": "CDR",
			"raceName": "Aeramanu",
			"raceSource": "CDR",
			"ability": [
				{
					"dex": 1
				}
			],
			"entries": [
				{
					"type": "section",
					"entries": [
						{
							"name": "House Tallos",
							"entries": [
								"塔洛斯家族黑暗而神秘，外表上是一个致力于伪宗教研究的虔诚教团，但在表面下却以训练全Aetheros最致命的刺客而闻名。"
							],
							"type": "entries"
						}
					]
				},
				{
					"name": "Ability Score Increase",
					"type": "entries",
					"entries": [
						"你的灵巧得分增加1。"
					]
				},
				{
					"name": "Assassin's Art",
					"entries": [
						"塔洛斯家族的孩子从出生起就接受死亡和伪装方面的训练。如果你还没有熟练掌握毒药包，你将获得熟练掌握毒药包的能力，并且每天可以施展一次自我伪装术而不需要消耗一个法术槽。你对这个法术的施法能力与你的神秘传统种族特征相同。"
					],
					"type": "entries"
				}
			]
		},
		{
			"name": "House Brightfeather",
			"source": "CDR",
			"raceName": "Aeramanu",
			"raceSource": "CDR",
			"ability": [
				{
					"cha": 1
				}
			],
			"entries": [
				{
					"type": "section",
					"entries": [
						{
							"name": "House Brightfeather",
							"entries": [
								"艳丽和时尚，Brightfeather家族因其作为艺术家和表演者的卓越才能而闻名整个Aetheros。即使是那些从事其他职业的人，也是以普通人无法比拟的天赋来做的。"
							],
							"type": "entries"
						}
					]
				},
				{
					"name": "Ability Score Increase",
					"type": "entries",
					"entries": [
						"你的魅力值增加1。"
					]
				},
				{
					"name": "Artist's Clout",
					"entries": [
						"皎洁的羽毛散发着华丽的光环，并拥有无与伦比的言语方式。如果你还不精通的话，你会获得你所选择的表演或劝说的熟练度，并且每天可以施展一次最低级别的 \"魅惑\"，而不需要消耗一个法术槽。你对这个法术的施法能力与你的神秘传统种族特征相同。"
					],
					"type": "entries"
				}
			]
		},
		{
			"name": "Disgraced/Outcast",
			"source": "CDR",
			"raceName": "Aeramanu",
			"raceSource": "CDR",
			"ability": [
				{
					"wis": 1
				}
			],
			"entries": [
				{
					"type": "section",
					"entries": [
						{
							"name": "Disgraced/Outcast",
							"entries": [
								"并非所有的Aeramanu都能在大屋里受到欢迎。那些让家族蒙羞的人，或者选择故意拒绝大屋的人，都会被其他艾拉曼努人赶出去并躲避。"
							],
							"type": "entries"
						}
					]
				},
				{
					"name": "Ability Score Increase",
					"type": "entries",
					"entries": [
						"你的智慧分数增加1。"
					]
				},
				{
					"name": "Old-world Magics",
					"entries": [
						"由于没有大庄园的显赫地位，艾拉曼奴的弃儿们只能依靠他们民族的古老方式和被遗忘的魔法。你获得了《玩家手册》第169页所列的 \"仪式施法者 \"特技。"
					],
					"type": "entries"
				}
			]
		},
		{
			"name": "Doll Parts",
			"source": "CDR",
			"raceName": "Collectori",
			"raceSource": "CDR",
			"ability": [
				{
					"cha": 1
				}
			],
			"entries": [
				{
					"type": "section",
					"entries": [
						{
							"name": "Doll Parts",
							"entries": [
								"大部分由玩偶部件组成的集合体在外观上最像小人，而且通常比其他同类更友好或成熟。其他人往往比他们的交际能力更不可思议。"
							],
							"type": "entries"
						}
					]
				},
				{
					"name": "Ability Score Increase",
					"type": "entries",
					"entries": [
						"你的魅力值增加1。"
					]
				},
				{
					"name": "Doll-like Movements",
					"entries": [
						"你的动作可以是优雅的，也可以是令人不安的，视情况而定。你在劝说和恐吓方面都获得了熟练度。"
					],
					"type": "entries"
				}
			]
		},
		{
			"name": "Scrap Parts",
			"source": "CDR",
			"raceName": "Collectori",
			"raceSource": "CDR",
			"ability": [
				{
					"dex": 1
				}
			],
			"entries": [
				{
					"type": "section",
					"entries": [
						{
							"name": "Scrap Parts",
							"entries": [
								"大多数收藏家都是胡乱收集他们发现有趣或有用的零碎物品。这样的人往往在性格上也很不协调，有把东西放在一起或拆开的诀窍。"
							],
							"type": "entries"
						}
					]
				},
				{
					"name": "Ability Score Increase",
					"type": "entries",
					"entries": [
						"你的灵巧得分增加1。"
					]
				},
				{
					"name": "Improvised tool",
					"entries": [
						"你的身体是由许多不同的部分组成的，你总有一些东西可以用来完成手头的任务。作为你转身时的一个额外动作，你可以即兴制作任何你精通的工具或武器，只要它的尺寸比你的身体小。"
					],
					"type": "entries"
				}
			]
		},
		{
			"name": "Tiny Bones",
			"source": "CDR",
			"raceName": "Collectori",
			"raceSource": "CDR",
			"ability": [
				{
					"wis": 1
				}
			],
			"entries": [
				{
					"type": "section",
					"entries": [
						{
							"name": "Tiny Bones",
							"entries": [
								"一些收集者选择用鸟类和啮齿动物等小动物的散落的骨头建造自己的身体。虽然他们的好奇心是病态的，但这些收集者往往似乎与他们所组成的动物有某些共同的举止。"
							],
							"type": "entries"
						}
					]
				},
				{
					"name": "Ability Score Increase",
					"type": "entries",
					"entries": [
						"你的智慧分数增加1。"
					]
				},
				{
					"name": "Animal Memory",
					"entries": [
						"你与构成你身体的动物的骨头有一种奇怪的联系。你可以与自然界的野兽和动物交流，就像你们有共同的语言一样，并且在这种生物的帮助下，在自然和生存检查中具有优势。"
					],
					"type": "entries"
				}
			]
		},
		{
			"name": "Acidus",
			"source": "CDR",
			"raceName": "Myxapia",
			"raceSource": "CDR",
			"ability": [
				{
					"con": 3
				}
			],
			"entries": [
				{
					"type": "section",
					"entries": [
						{
							"name": "Acidus",
							"entries": [
								"酸性Myxapia与它们较小的亲属有一个最具破坏性的特征，其原生质由强大的酸组成，可以迅速溶解大多数物质。"
							],
							"type": "entries"
						}
					]
				},
				{
					"name": "Ability Score Increase",
					"type": "entries",
					"entries": [
						"你的体质得分增加3分，而不是2分。"
					]
				},
				{
					"name": "Acidic Touch",
					"entries": [
						"你可以使用 \"酸液喷溅 \"的咒语，并可以在触摸范围内施放它。体质是你在决定此法术的施法防御DC时使用的能力。"
					],
					"type": "entries"
				},
				{
					"name": "Caustic Form",
					"entries": [
						"当你受到近战攻击的伤害时，你可以用你的反应对触发攻击的人造成1d6酸液伤害。"
					],
					"type": "entries"
				}
			]
		},
		{
			"name": "Mimguise",
			"source": "CDR",
			"raceName": "Myxapia",
			"raceSource": "CDR",
			"ability": [
				{
					"cha": 1
				}
			],
			"entries": [
				{
					"type": "section",
					"entries": [
						{
							"name": "Mimguise",
							"entries": [
								"Mimguise在其他Myxapia中是独一无二的，因为它们有能力以微妙和复杂的方式改变自己的形态。它们的身体能够改变颜色，甚至是密度，与周围的生物融为一体。"
							],
							"type": "entries"
						}
					]
				},
				{
					"name": "Ability Score Increase",
					"type": "entries",
					"entries": [
						"你的魅力值增加1。"
					]
				},
				{
					"name": "False Appearance",
					"entries": [
						"你每天可以施展改变自我的法术，次数与你的熟练度奖励相等。当你这样做时，你可以改变你身体的一般形状，例如变成两足或四足。"
					],
					"type": "entries"
				}
			]
		},
		{
			"name": "Psionai",
			"source": "CDR",
			"raceName": "Myxapia",
			"raceSource": "CDR",
			"ability": [
				{
					"int": 1
				}
			],
			"entries": [
				{
					"type": "section",
					"entries": [
						{
							"name": "Psionai",
							"entries": [
								"Psionai可以说是所有Myxapia中最聪明的，他们开发的幻象能力超过了他们的任何兄弟。"
							],
							"type": "entries"
						}
					]
				},
				{
					"name": "Ability Score Increase",
					"type": "entries",
					"entries": [
						"你的智力得分增加1。"
					]
				},
				{
					"name": "True Telepathy",
					"entries": [
						"你可以与60英尺内的任何生物进行心灵感应，这取代了你的触觉心灵感应种族特征。"
					],
					"type": "entries"
				},
				{
					"name": "Psionic Influence",
					"entries": [
						"你可以使用 \"平静情绪 \"法术，并可以在两次长休息之间施放该法术，次数与你的熟练度加成相等。智力是你在决定此法术的施法防御DC时使用的能力。"
					],
					"type": "entries"
				}
			]
		},
		{
			"name": "Illithid",
			"source": "CDR",
			"raceName": "Qual'Ath",
			"raceSource": "CDR",
			"ability": [
				{
					"int": 1
				}
			],
			"entries": [
				{
					"type": "section",
					"entries": [
						{
							"name": "Illithid",
							"entries": [
								"在Qual'Ath派系中，Illithid是最广为人知的，也是最让人恐惧的。也被称为MindFlayers，Illithid放弃了他们种族传统中的相互共生，而是寻求与其他种族合作并奴役他们，以满足他们对有生命的思想的无尽渴望。一个Illithid的宿主只不过是一个空壳，他的大脑早已被Qual'ath的主人吞噬。尽管有这些渊源，以及他们对消耗更多大脑的药物依赖，但并不是所有的伊里特人都是残忍和不人道的怪物。一个人无法选择自己的出生环境，但通过努力，有时这些环境可以被克服。"
							],
							"type": "entries"
						}
					]
				},
				{
					"name": "Ability Score Increase",
					"type": "entries",
					"entries": [
						"你的智力得分增加1。"
					]
				},
				{
					"name": "Empowered Psionics",
					"entries": [
						"消耗有知觉的人类的大脑可以提高你的自然幻觉能力。你可以使用你的自然幻术种族特质来施展以下法术。命令、魅惑者、浮空术。此外，你可以使用你的自然幻术特性来投射出强大的幻术能量。在你面前15英尺范围内的每个生物都必须在智力救赎上获得成功，否则将受到1d6的精神伤害，并且在你下一回合结束前第一次进行救赎时，它必须掷出d4并从救赎中减去掷出的数字。当你达到5级（2d6）、11级（3d6）和17级（4d6）时，这种伤害会增加1d6。"
					],
					"type": "entries"
				},
				{
					"name": "Arcane Resistance",
					"entries": [
						"奥术是对任何伊里特人殖民地的最大威胁，因此，伊里特人已经学会了保护自己。在面对法术和其他魔法效果时，你的蓄力攻击具有优势。"
					],
					"type": "entries"
				},
				{
					"name": "Grey-Matter Dependance",
					"entries": [
						"你强大的幻觉能力是以一种病态的代价换来的。为了维持自己的生命，你必须每7天至少吸食一次智力值在8分以上的有生命的类人的整个大脑。每过7天，如果你没有满足这个要求，你必须在体质救赎中成功，DC为15+你当前的疲惫程度，否则就会遭受一级疲惫。"
					],
					"type": "entries"
				}
			]
		},
		{
			"name": "Thoc'Rah",
			"source": "CDR",
			"raceName": "Qual'Ath",
			"raceSource": "CDR",
			"ability": [
				{
					"choose": {
						"from": [
							"dex",
							"str",
							"cha",
							"con",
							"int",
							"wis"
						],
						"count": 1,
						"amount": 1
					}
				}
			],
			"entries": [
				{
					"type": "section",
					"entries": [
						{
							"name": "Qual'Ath (Thoc'Rah)",
							"entries": [
								"Thoc'Rah的人数远远超过他们的伊利特人，他们的名字来自于第一个反对伊利特人实验的殖民地，也是第一个在大分裂期间倒下的殖民地。Thoc'Rah忠实于他们种族的古老传统，只与愿意作为宿主的生物结合。一旦结合，Thoc'Rah就会与作为宿主的生物平等地分享他们的生活，往往从宿主那里学到的东西和宿主从他们那里学到的一样多。"
							],
							"type": "entries"
						}
					]
				},
				{
					"name": "Ability Score Increase",
					"type": "entries",
					"entries": [
						"你选择的一项能力得分（基于你的宿主种族）增加1。"
					]
				},
				{
					"name": "Dual Mind",
					"entries": [
						"当你进行智慧救赎的时候，你可以使用你的反应来获得掷骰子的优势。你可以在投掷前或投掷后立即使用这个特性，但要在投掷的任何效果发生之前。"
					],
					"type": "entries"
				},
				{
					"name": "Mutualistic Bond",
					"entries": [
						"你和你的宿主平等地分享你的身体，并在需要时互相帮助。你从你的宿主种族中获得两个你选择的种族特性（不包括能力得分的增加）。此外，你可以适应魔法物品，就像你是宿主种族的成员一样（这取代了你的奥术异议种族特性）。"
					],
					"type": "entries"
				}
			]
		},
		{
			"name": "Qual'Carak",
			"source": "CDR",
			"raceName": "Qual'Ath",
			"raceSource": "CDR",
			"ability": [
				{
					"str": 1
				}
			],
			"entries": [
				{
					"type": "section",
					"entries": [
						{
							"name": "Qual'Ath (Qual'Carak)",
							"entries": [
								"奎尔'卡拉克是一个罕见的品种，但并非没有数量。Qual'Ath和Carak的共生融合作为一个单一的有机体。卡拉克本身是野兽一样的生物，除了基本的生存本能外，没有思考能力。它们经过几个世纪的进化，完美地承载了它们的奎尔阿斯对应物，后者强大的智力确保了两个物种的生存。"
							],
							"type": "entries"
						}
					]
				},
				{
					"name": "Ability Score Increase",
					"type": "entries",
					"entries": [
						"你的力量值增加1。"
					]
				},
				{
					"name": "Instinctual Psionics",
					"entries": [
						"你的幻术能力在兽性的本能中得到了磨练和锤炼。你可以使用你的自然幻术种族特征施展 \"引起恐惧 \"的法术。此外，当你用近战武器攻击时，你可以使用你的自然幻术特性来强迫生物做一个精神上的救赎动作。如果失败，该生物会受到额外的1d10精神伤害。当你达到5级（2D10）、11级（3D10）和17级（4D10）时，这个伤害会增加1D10。"
					],
					"type": "entries"
				},
				{
					"name": "Armoured Carapace",
					"entries": [
						"你的身体被厚厚的盔甲覆盖，赋予你15+你的性情修饰的非装甲AC（最大2）。"
					],
					"type": "entries"
				},
				{
					"name": "Symbiotic Stamina",
					"entries": [
						"你和你的宿主之间的天然兼容性赋予你增强的治疗能力。当你掷出命中率骰子来恢复命中率时，你可以将每个命中率骰子掷两次，并选择其中一个结果。"
					],
					"type": "entries"
				}
			]
		}
	]
}
