{
	"$schema": "https://raw.githubusercontent.com/TheGiddyLimit/5etools-utils/master/schema/brew-fast/homebrew.json",
	"_meta": {
		"sources": [
			{
				"json": "DogFolkRace",
				"abbreviation": "DogFolkRace",
				"full": "Dogfolk - 5e Dog Race with breed group subraces",
				"authors": [
					"StrayChowChow"
				],
				"convertedBy": [
					"p4535992"
				],
				"version": "2.0",
				"color": "a39853",
				"url": "https://www.gmbinder.com/share/-MP7bpfRrZR1trGaUoGf",
				"targetSchema": "1.7.0"
			}
		],
		"optionalFeatureTypes": {
			"RACE:DOG": "Race Dogfolk"
		},
		"dateAdded": 1659384262,
		"dateLastModified": 1703373316,
		"_dateLastModifiedHash": "28f0937207"
	},
	"race": [
		{
			"name": "Dogfolk",
			"source": "DogFolkRace",
			"ability": [
				{
					"dex": 1
				}
			],
			"size": [
				"M"
			],
			"speed": {
				"walk": 30
			},
			"entries": [
				"你的dogfolk角色与所有其他狗都有一些共同的特征",
				{
					"name": "Ability Score Increase",
					"type": "entries",
					"entries": [
						"你的灵巧得分增加1。"
					]
				},
				{
					"name": "Age",
					"type": "entries",
					"entries": [
						"狗人的寿命比人类短，很少能超过30岁。然而，他们在1或2年内迅速成熟。"
					]
				},
				{
					"name": "Alignment",
					"type": "entries",
					"entries": [
						"狗人渴望取悦于人，因此倾向于合法和善良的取向，但如果在虐待或忽视的情况下长大，则容易出现混乱和邪恶的取向。"
					]
				},
				{
					"name": "Size",
					"type": "entries",
					"entries": [
						"犬类的身高从玩具品种的3英尺到工人和警卫品种的近7英尺不等。你的尺寸由你的品种亚种决定。"
					]
				},
				{
					"type": "entries",
					"name": "Speed",
					"entries": [
						"你的基本行走速度是30英尺。"
					]
				},
				{
					"name": "Keen Sense ",
					"entries": [
						"你在涉及听觉或嗅觉的智慧（感知）和智慧（生存）检查上有优势。"
					],
					"type": "entries"
				},
				{
					"name": "Bark",
					"entries": [
						"当你掷出主动权时，你可以立即使用你的反应来吠叫（如果你能够使用你的反应的话）。吠叫使盟友准备好应对即将到来的战斗，消除任何能够听到你吠叫的盟友的惊讶状态。此外，30英尺范围内能听到你的每个敌人都必须做一个智慧救赎动作，否则就会被你吓到，直到他们的回合结束。判断力等于（%0%）。"
					],
					"type": "entries"
				},
				{
					"name": "Languages",
					"entries": [
						"你可以说、读、写普通话，你也可以说Doggish，这是一种口头语言。"
					],
					"type": "entries"
				},
				{
					"name": "Breed (Subraces)",
					"entries": [
						"狗民的基因极其多样化，有许多不同的品种。选择你的狗民所属的这些品种组中的一个。"
					],
					"type": "entries"
				}
			],
			"languageProficiencies": [
				{
					"common": true,
					"doggish": true
				}
			],
			"age": {
				"mature": 2,
				"max": 30
			},
			"traitTags": [
				"Uncommon Race"
			],
			"fluff": {
				"entries": [
					"顾名思义，Dogfolk是一个双足狗的种族。他们在生理和行为上与四条腿的兄弟有着不可思议的相似之处，但没有人很确定Dogfolk是否是狗的后代，或者他们到底是怎样的关系。Dogfolk生活在当下，这样的历史已经被时间所遗忘。Dogfolk保持着其亲属的多样性，他们将其成功的社会归功于Dogfolk拥有的广泛的技能、天赋和能力。如果有一项工作需要完成，就有一只狗可以做。他们形成了强大的群体纽带，通常是在家庭之间，但狗往往不在乎他们群体的遗产，许多人在其他狗族甚至其他种族中选择他们的群体。",
					{
						"type": "inset",
						"name": "Dogfolk Breeds",
						"entries": [
							"所列举的犬种类别是模糊的，许多犬种可以归入一个以上的类别。例如，家畜守护犬可以归入哨兵类别或牧羊犬类别。不要觉得自己被限制在某些类别中，特别是由于品种或团体名称。所列的品种只是建议。选择你认为最能代表你的个人狗友的传统或优势的类别。",
							"不要忘了，你可以使用塔莎的万能锅来定制你的起源，通过对不同能力分数的增加来更好地适应你的品种。例如，将能力分值增加改为增加力量而不是灵巧的梗犬可用于制造非常坚韧和硬朗的獒犬。"
						]
					},
					"Dogfolk的种族是基于资源的（%0%）。如果你在其他地方转贴，请注明。"
				],
				"images": [
					{
						"type": "image",
						"href": {
							"type": "external",
							"url": "https://5etools-mirror-1.github.io/img/blank.png"
						}
					}
				]
			}
		}
	],
	"subrace": [
		{
			"name": "Guard Dog",
			"source": "DogFolkRace",
			"raceName": "Dogfolk",
			"raceSource": "DogFolkRace",
			"ability": [
				{
					"str": 2
				}
			],
			"size": [
				"M"
			],
			"entries": [
				{
					"type": "section",
					"entries": [
						{
							"name": "Guard Dog",
							"entries": [
								"警卫犬具有保护性和警惕性，能够注意到、化解和吓退威胁。这使它们在战斗中表现出色，通常是伟大的战士、野蛮人，甚至是圣骑士。倾向于属于这一类的犬种包括但不限于罗威纳犬、阿基塔犬、藏獒、拳师犬、多伯曼松狮犬、秋田犬和大丹犬。"
							],
							"type": "entries"
						}
					]
				},
				{
					"name": "Ability Score Increase",
					"type": "entries",
					"entries": [
						"你的力量值增加2。"
					]
				},
				{
					"name": "Size",
					"entries": [
						"你的尺寸是中号。"
					],
					"type": "entries"
				},
				{
					"name": "Threatening",
					"entries": [
						"你获得恐吓技能的熟练度。"
					],
					"type": "entries"
				},
				{
					"name": "Vigilant Watchdog",
					"entries": [
						"在你有意识的时候，你不能感到惊讶。"
					],
					"type": "entries"
				}
			],
			"skillProficiencies": [
				{
					"intimidation": true
				}
			],
			"traitTags": [
				"Uncommon Race"
			],
			"fluff": {
				"entries": [
					"",
					{
						"name": "Credits",
						"entries": [
							"Dogfolk的种族是基于资源的（%0%）。如果你在其他地方转贴，请注明。"
						],
						"type": "entries"
					}
				],
				"images": [
					{
						"type": "image",
						"href": {
							"type": "external",
							"url": "https://5etools-mirror-1.github.io/img/blank.png"
						}
					}
				]
			}
		},
		{
			"name": "Hunting Dog",
			"source": "DogFolkRace",
			"raceName": "Dogfolk",
			"raceSource": "DogFolkRace",
			"ability": [
				{
					"dex": 2,
					"wis": 1
				}
			],
			"size": [
				"M"
			],
			"entries": [
				{
					"type": "section",
					"entries": [
						{
							"name": "Hunting Dog",
							"entries": [
								"猎犬在野外是最自在的，它们可以追踪、打猎和捡拾野味。它们的注意力高度集中，感官敏锐，而且非常灵活，能在崎岖的地形上跟上猎物。不出所料，它们是优秀的护林员和德鲁伊。猎犬、寻回犬、尖头犬、拉布拉多犬、西班牙犬、小猎犬等通常都被认为是猎犬。"
							],
							"type": "entries"
						}
					]
				},
				{
					"name": "Ability Score Increase",
					"type": "entries",
					"entries": [
						"你的灵巧得分增加1，你的智慧得分增加1。"
					]
				},
				{
					"name": "Size",
					"entries": [
						"你的尺寸是中号。"
					],
					"type": "entries"
				},
				{
					"name": "Adept Tracker",
					"entries": [
						"当你进行智慧（生存）检查以追踪一个生物、动物、物体或地点时，你会被视为精通该技能，并加上双倍的熟练度加分，而不是你正常的熟练度加分。"
					],
					"type": "entries"
				},
				{
					"name": "Wild Agility",
					"entries": [
						"你可以在非魔法的困难地形上移动，而不需要耗费额外的移动。"
					],
					"type": "entries"
				}
			],
			"traitTags": [
				"Uncommon Race"
			],
			"fluff": {
				"entries": [
					"",
					{
						"name": "Credits",
						"entries": [
							"Dogfolk的种族是基于资源的（%0%）。如果你在其他地方转贴，请注明。"
						],
						"type": "entries"
					}
				],
				"images": [
					{
						"type": "image",
						"href": {
							"type": "external",
							"url": "https://5etools-mirror-1.github.io/img/blank.png"
						}
					}
				]
			}
		},
		{
			"name": "Shepherd Dog",
			"source": "DogFolkRace",
			"raceName": "Dogfolk",
			"raceSource": "DogFolkRace",
			"ability": [
				{
					"wis": 2
				}
			],
			"entries": [
				{
					"type": "section",
					"entries": [
						{
							"name": "Shepherd Dog",
							"entries": [
								"牧羊犬擅长保护、引导和带领群体--最常见的是牲畜或寻求精神指导的人。这些犬种往往被吸引成为神职人员、僧侣和德鲁伊。许多牧羊犬都是牧羊人，如柯利犬、高跟鞋、柯基犬和牧牛犬，但许多活体牲畜守护犬种，如大蟒蛇、牧羊犬、牧羊犬和一些藏獒也可能属于这一类别。"
							],
							"type": "entries"
						}
					]
				},
				{
					"name": "Ability Score Increase",
					"type": "entries",
					"entries": [
						"你的智慧分数增加2。"
					]
				},
				{
					"name": "Size",
					"entries": [
						"你的尺寸是中号。"
					],
					"type": "entries"
				},
				{
					"name": "Shepherd of the Flock",
					"entries": [
						"你获得对动物处理或宗教技能的熟练度。"
					],
					"type": "entries"
				},
				{
					"name": "Herding Instinct",
					"entries": [
						"当一个生物挑起你的机会攻击时，你可以选择强迫该生物做一个智慧救赎动作，而不是攻击。智慧值是8+你的熟练度加成+你的魅力修正值。如果失败，该生物会尽可能地利用它的剩余速度离开你。该生物不会因为使用这个动作而危及自己，例如它所知道的环境危险或陷阱。对（%0%）条件免疫的生物对这个效果免疫。"
					],
					"type": "entries"
				}
			],
			"skillProficiencies": [
				{
					"choose": {
						"from": [
							"animal handling",
							"religion"
						]
					}
				}
			],
			"traitTags": [
				"Uncommon Race"
			],
			"fluff": {
				"entries": [
					"",
					{
						"name": "Credits",
						"entries": [
							"Dogfolk的种族是基于资源的（%0%）。如果你在其他地方转贴，请注明。"
						],
						"type": "entries"
					}
				],
				"images": [
					{
						"type": "image",
						"href": {
							"type": "external",
							"url": "https://5etools-mirror-1.github.io/img/blank.png"
						}
					}
				]
			}
		},
		{
			"name": "Terrier",
			"source": "DogFolkRace",
			"raceName": "Dogfolk",
			"raceSource": "DogFolkRace",
			"ability": [
				{
					"dex": 2,
					"con": 1
				}
			],
			"size": [
				"S",
				"M"
			],
			"entries": [
				{
					"type": "section",
					"entries": [
						{
							"name": "Terrier",
							"entries": [
								"梗犬是一种异常顽强和有活力的动物，尽管受到威胁或实际受到严重伤害，但仍能坚持不懈。这种品质通常被称为 \"游戏 \"或 \"游戏性\"。它们是冒险者，倾向于选择不太合法、暴力或危险的生活方式。当然，名字中带有梗的犬种通常属于这个群体，但它也包括容易与护卫犬混淆的公牛型梗。例如，斗牛犬和比特犬也属于梗犬类，腊肠犬也是如此。"
							],
							"type": "entries"
						}
					]
				},
				{
					"name": "Ability Score Increase",
					"type": "entries",
					"entries": [
						"你的灵巧得分增加1，体质得分增加1。"
					]
				},
				{
					"name": "Size",
					"entries": [
						"虽然公牛梗的体型往往偏大，但一些梗犬品种的体型与玩具犬相当。你的体型是中型或小型，取决于你的具体品种。你在获得这个亚种时选择大小。"
					],
					"type": "entries"
				},
				{
					"name": "Gamebred",
					"entries": [
						"当你的命中率降至0但未被彻底杀死时，你可以降至1的命中率。在你完成长时间的休息之前，你不能再次使用这个功能。"
					],
					"type": "entries"
				},
				{
					"name": "Got Gameness",
					"entries": [
						"你在对人的救赎上有优势（%0%）。"
					],
					"type": "entries"
				}
			],
			"traitTags": [
				"Uncommon Race"
			],
			"fluff": {
				"entries": [
					"",
					{
						"name": "Credits",
						"entries": [
							"Dogfolk的种族是基于资源的（%0%）。如果你在其他地方转贴，请注明。"
						],
						"type": "entries"
					}
				],
				"images": [
					{
						"type": "image",
						"href": {
							"type": "external",
							"url": "https://5etools-mirror-1.github.io/img/blank.png"
						}
					}
				]
			}
		},
		{
			"name": "Toy Dog",
			"source": "DogFolkRace",
			"raceName": "Dogfolk",
			"raceSource": "DogFolkRace",
			"ability": [
				{
					"cha": 2
				}
			],
			"size": [
				"S"
			],
			"speed": {
				"walk": 25
			},
			"entries": [
				{
					"type": "section",
					"entries": [
						{
							"name": "Toy Dog",
							"entries": [
								"尽管是最小的狗族，但玩具狗可以说具有最大的个性，是熟练的领导者、吟游诗人和施法者。玩具狗包括巴哥犬、博美犬、吉娃娃、马耳他犬、比熊犬和中国冠毛犬等品种，但通常任何身材矮小的犬类都可以被视为玩具狗。"
							],
							"type": "entries"
						}
					]
				},
				{
					"name": "Ability Score Increase",
					"type": "entries",
					"entries": [
						"你的魅力值增加2。"
					]
				},
				{
					"name": "Size",
					"entries": [
						"你的尺寸是小号，而不是像其他大多数狗友那样的中号。"
					],
					"type": "entries"
				},
				{
					"name": "Speed",
					"entries": [
						"由于你身材矮小，你的行走速度为25英尺。"
					],
					"type": "entries"
				},
				{
					"name": "Puppy Dog Eyes",
					"entries": [
						"当你依靠表现出可爱或其他非威胁性时，你在魅力检查上有优势。"
					],
					"type": "entries"
				},
				{
					"name": "Calming Companion",
					"entries": [
						"你可以施展（%0%）的法术。当你施法时，该法术以你为中心。一旦你施展了这个法术，你就不能再使用这个特质施展它，直到你完成一个长时间的休息。魅力是你对这个法术的施法能力。"
					],
					"type": "entries"
				}
			],
			"additionalSpells": [
				{
					"known": {
						"1": [
							"calm Emotions#2"
						]
					},
					"ability": {
						"choose": [
							"cha"
						]
					}
				}
			],
			"traitTags": [
				"Uncommon Race"
			],
			"fluff": {
				"entries": [
					"",
					{
						"name": "Credits",
						"entries": [
							"Dogfolk的种族是基于资源的（%0%）。如果你在其他地方转贴，请注明。"
						],
						"type": "entries"
					}
				],
				"images": [
					{
						"type": "image",
						"href": {
							"type": "external",
							"url": "https://5etools-mirror-1.github.io/img/blank.png"
						}
					}
				]
			}
		},
		{
			"name": "Working Dog",
			"source": "DogFolkRace",
			"raceName": "Dogfolk",
			"raceSource": "DogFolkRace",
			"ability": [
				{
					"con": 1,
					"str": 1
				}
			],
			"entries": [
				{
					"type": "section",
					"entries": [
						{
							"name": "Working Dog",
							"entries": [
								"工作犬是一些最大和最强壮的犬族，通常是劳动者或战士。通常情况下，狗民们会让工作犬拉车或雪橇等交通工具，而不是训练动物。此外，这些犬种非常适用于搜索和救援以及快递等任务。工作犬、护卫犬和牧羊犬品种之间通常有相当多的重叠，工作犬品种被认为是他们的后代。斯皮茨犬种、马拉穆特犬、哈士奇犬、山地犬、圣伯纳犬、纽芬兰犬以及一些较大的藏獒和牧羊犬通常被视为工作犬。"
							],
							"type": "entries"
						}
					]
				},
				{
					"name": "Ability Score Increase",
					"type": "entries",
					"entries": [
						"你的力量得分增加1，你的体质得分增加1。"
					]
				},
				{
					"name": "Size",
					"entries": [
						"你的尺寸是中号。"
					],
					"type": "entries"
				},
				{
					"name": "Hard Worker's Endurance",
					"entries": [
						"你在体质检查和针对疲惫的自救动作上有优势。"
					],
					"type": "entries"
				},
				{
					"name": "Physical Laborer",
					"entries": [
						"你有熟练的田径技能。"
					],
					"type": "entries"
				},
				{
					"name": "Powerful Build",
					"entries": [
						"在确定你的运载能力和你可以推、拉、拖、举的重量时，你算大一码。"
					],
					"type": "entries"
				}
			],
			"traitTags": [
				"Uncommon Race",
				"Powerful Build"
			],
			"skillProficiencies": [
				{
					"athletics": true
				}
			],
			"fluff": {
				"entries": [
					"",
					{
						"name": "Credits",
						"entries": [
							"Dogfolk的种族是基于资源的（%0%）。如果你在其他地方转贴，请注明。"
						],
						"type": "entries"
					}
				],
				"images": [
					{
						"type": "image",
						"href": {
							"type": "external",
							"url": "https://5etools-mirror-1.github.io/img/blank.png"
						}
					}
				]
			}
		},
		{
			"name": "Mutt",
			"source": "DogFolkRace",
			"raceName": "Dogfolk",
			"raceSource": "DogFolkRace",
			"ability": [
				{
					"choose": {
						"from": [
							"str",
							"dex",
							"con",
							"int",
							"wis"
						],
						"count": 2
					}
				}
			],
			"size": [
				"S",
				"M"
			],
			"entries": [
				{
					"type": "section",
					"entries": [
						{
							"name": "Mutts",
							"entries": [
								"杂交犬、杂种犬或混血儿是指由于杂交而难以确定或定义的犬类。虽然犬类的基因多种多样，但它们可以成功地与任何其他犬类进行繁殖，而不考虑品种。由于希望保持不同品种的存在，混合品种曾经是一种禁忌，但在狗文化中，杂交已经变得更容易被接受。"
							],
							"type": "entries"
						}
					]
				},
				{
					"name": "Ability Score Increase",
					"type": "entries",
					"entries": [
						"你选择的两个不同的能力分数增加1。"
					]
				},
				{
					"name": "Size",
					"entries": [
						"你的体型是中型或小型，取决于你的混合血统。你在获得这个亚种时选择大小。"
					],
					"type": "entries"
				},
				{
					"name": "Diverse Skillset",
					"entries": [
						"你获得你选择的两个技能的熟练度。动物搬运、运动、恐吓、劝说或生存。"
					],
					"type": "entries"
				},
				{
					"name": "Genetic Fortitude",
					"entries": [
						"与纯种狗相比，杂种狗的遗传多样性倾向于产生更强壮、更健康的狗族。你对疾病的拯救有优势。"
					],
					"type": "entries"
				}
			],
			"traitTags": [
				"Uncommon Race"
			],
			"skillProficiencies": [
				{
					"choose": {
						"from": [
							"animal handling",
							"athletics",
							"intimidation",
							"persuasion",
							"survival"
						],
						"count": 2
					}
				}
			],
			"fluff": {
				"entries": [
					"",
					{
						"name": "Credits",
						"entries": [
							"Dogfolk的种族是基于资源的（%0%）。如果你在其他地方转贴，请注明。"
						],
						"type": "entries"
					}
				],
				"images": [
					{
						"type": "image",
						"href": {
							"type": "external",
							"url": "https://5etools-mirror-1.github.io/img/blank.png"
						}
					}
				]
			}
		}
	]
}
