{
	"$schema": "https://raw.githubusercontent.com/TheGiddyLimit/5etools-utils/master/schema/brew-fast/homebrew.json",
	"_meta": {
		"sources": [
			{
				"json": "WHFAR",
				"abbreviation": "WHFAR",
				"full": "Warlock Homebrew Faerie Race",
				"authors": [
					"Warlock Homebrew"
				],
				"convertedBy": [
					"p4535992"
				],
				"version": "2020.03.07",
				"url": "https://www.dmsguild.com/product/262305/WH-Faeries-A-tiny-fey-race-of-enchanting-nobles-bold-warriors-and-whimsical-travelers",
				"targetSchema": "1.9.2"
			}
		],
		"dateAdded": 1537874753,
		"dateLastModified": 1703373316,
		"_dateLastModifiedHash": "7f68c3705b"
	},
	"race": [
		{
			"name": "Faerie",
			"source": "WHFAR",
			"ability": [
				{
					"dex": 2
				}
			],
			"size": [
				"T"
			],
			"speed": {
				"walk": 15,
				"fly": 30
			},
			"darkvision": 60,
			"traitTags": [
				"Monstrous Race"
			],
			"entries": [
				"精灵的特征",
				{
					"name": "Ability Score Increase",
					"type": "entries",
					"entries": [
						"你的灵巧得分增加2。"
					]
				},
				{
					"name": "Alignment",
					"type": "entries",
					"entries": [
						"小精灵调皮但心地善良，是典型的好人，但却羞于成为合法的人。"
					]
				},
				{
					"name": "Size",
					"type": "entries",
					"entries": [
						"你有近一英尺高。你是小尺寸。"
					]
				},
				{
					"type": "entries",
					"name": "Speed",
					"entries": [
						"你的基本行走速度是15英尺，你的飞行速度是30英尺。当使用这个来源的飞行速度时，你不能在固体表面以上5英尺处结束你的回合，如果你再高一点，就以每回合60英尺的速度轻轻下降到这个距离。在5级时，这个距离增加到离地面10英尺。在第11级时，你可以在任何高度结束你的回合，没有限制。"
					]
				},
				{
					"name": "Darkvision",
					"entries": [
						"你可以在你周围60英尺内的昏暗光线下看东西，就像亮光一样，在黑暗中看东西，就像暗光一样。你在黑暗中无法辨别颜色，只有灰色的阴影。"
					],
					"type": "entries"
				},
				{
					"name": "Petite",
					"entries": [
						" 你在打破、推、拉或举起中等或更大的物体或生物的力量检查中处于劣势。"
					],
					"type": "entries"
				},
				{
					"name": "Fey Nature",
					"entries": [
						"你是一个拥有翡冷翠魔法的生物。你有两种生物类型：人形和翡冷翠。如果一个法术或能力对你的任何一种生物类型有效，你就可以受到它的影响。"
					],
					"type": "entries"
				},
				{
					"name": "Shrink Object",
					"entries": [
						"当你与一个中型生物可以用一只手握住或举起的50磅或以下的无人看管的物体互动时，你可以神奇地将该物体缩小到适合你使用的大小。该物体变得与你相称，并且可以被你使用，就像你是一个中等体型的生物在与该物体的正常比例互动一样。其他关于体型小的规则仍然适用于使用这个物体。缩小一个物体并不减少它的重量。精灵可以使用这个能力来穿戴盔甲或使用为其他种族制造的武器或物品。如果受此能力影响的物品离开你的身体，它在恢复到全尺寸之前会保持收缩1轮。如果没有足够的空间让物品变大，它首先会被分流到最近的可用空间，使其恢复到全尺寸。"
					],
					"type": "entries"
				},
				{
					"name": "Unobtrusive",
					"entries": [
						"你对隐身术有熟练的掌握。"
					],
					"type": "entries"
				},
				{
					"name": "Languages",
					"entries": [
						"你能说、读、写普通话和希尔文。"
					],
					"type": "entries"
				},
				{
					"name": "Subraces",
					"entries": [
						"小精灵有几个品种，其中有三个品种可以作为子种族。小精灵、精灵和精灵。从这些子种族中选择一个。"
					],
					"type": "entries"
				}
			],
			"skillProficiencies": [
				{
					"stealth": true
				}
			],
			"languageProficiencies": [
				{
					"common": true,
					"sylvan": true
				}
			],
			"fluff": {
				"entries": [
					{
						"type": "quote",
						"entries": [
							"'是这样的，我发誓！'",
							"加夫斯滕对半身人的坚持表示抱怨。矮人习惯于等待，而且他通常发现，南普特，他的半身人旅行伙伴，把他最好的一面展现出来。但在这里，在林地里，被开放的空气、野生动物和如此多的树木所包围，他总是感到紧张不安，仿佛精灵或更坏的东西随时都会从林中出来。",
							"'我们已经找了几个小时了，什么都没有，'他咕哝着，盯着他的同伴，'那可恶的太阳越来越低了。即使我们找到了那只猫头鹰藏身的地方，我们也不可能在天黑前赶回来。",
							"我们有露营装备！\"半身人插话说，带着绝望的、恳求的积极性，\"我们可以生火，扎营，唱歌。",
							"'而且，'一个窃窃私语的小声音说，'做老文豪的夜宵吧！'",
							"矮人发现他手中的十字弓上了膛，半身人发现她手中的两把匕首，因为他们",
							"转动方向盘，面对一个漂浮的小身影，不到一英尺高，用格桑花的翅膀在他们头顶上盘旋。",
							"身着剪裁合身的翡翠叶子的飘逸短袍，用琥珀色的宝石装饰，突出了他们的",
							"黄色的眼睛对着深色树皮的皮肤，这个生物对旅行者的反应发出了鸟鸣般的笑声。",
							"'哦，当然，'他们说，因为矮人和半身人交换了一个眼神，'我们知道所有关于如何",
							"月荷一直在狼吞虎咽地吃人。现在是交配季节，她一定非常饿。",
							"通常她吃鹿就可以了，还有，'这个人物的表情变暗了，'偶尔吃点我的亲戚。",
							"努佩特以熟练的动作将刀片入鞘，尽管侏儒仍然表示",
							"不情愿。'你知道猫头鹰熊吗？'她问道，'你知道它在哪里栖息吗？",
							"'是的！是的！'。当然了! 我会给你看的！'小精灵感叹道，在两人上方转圈，'而且",
							"我很庆幸能找到你。你们看起来当然很有能力! 至少你们中的一个可能会活下来！'",
							"这个......东西需要付费吗？\"矮人战战兢兢地问道，用他的弩箭指向小精灵探测。",
							"'我是一个人! 谢谢你！'他们反驳道，'而我唯一的报酬是我必须和你一起去。",
							"暂停了一下，旅行者们警惕地齐声问道：\"为什么......？",
							"'哦，复仇，'小精灵在飞行途中突然停了下来，目光炯炯有神，甚至让人觉得不可思议。",
							"加夫斯滕后退，'为了我爱的人。月荷今晚死了，我将帮助你做这件事。",
							"精灵是魔法和野地的孩子，他们居住在远离大多数其他文明的地方，在树木和悬崖边上安家。小精灵擅长在他们希望的时候保持隐蔽，也擅长对那些值得他们这样做的人耍花招。虽然精灵可能很小，但只有傻瓜才会低估他们的灵巧和魔法天赋。"
						],
						"by": ""
					},
					"能力",
					{
						"name": "The Wee Fair Folk",
						"entries": [
							"精灵的比例与任何人类或精灵相同，但明显较小，有广泛的皮肤色调。",
							"小精灵可以拥有人类可以拥有的任何颜色，此外还有苍白、森林绿、冰蓝、石板灰或深土红褐色。",
							"一个典型的小精灵有半英尺到1英尺高，体重约1-4磅。",
							"大多数小精灵穿的衣服都是捡来的材料，如植物部分、蜘蛛丝或空气中的碎布。",
							"这些东西可以是华丽的、美丽的，也可以是呆板的、简陋的，优秀的精灵工匠因其产品的质量和对细节的关注而闻名。"
						],
						"type": "entries"
					},
					{
						"name": "Passion and Exuberance",
						"entries": [
							"小精灵容易产生怪异的想法和极端的情绪，对任何事情都没有半点感觉。",
							"如果一个小精灵感到冒险，他们会立即离开并旅行。",
							"一个快乐的小精灵会用他们的整个身体来庆祝，用一种很少有人能捕捉到的能量来跳舞和大笑。而如果一个小精灵是严厉的或悲伤的，所有人都能立即感受到他们举止的冰冷深度。",
							"许多小精灵不把事情想清楚，宁愿凭直觉行事，而不是仔细计划。",
							"其他人，通常是精灵，拒绝这种心态，拥有一种有条不紊的狡猾，其他精灵对其保持距离。",
							"不管怎么说，几乎所有的小精灵都在某种程度上受他们的情绪支配，并且有一种强烈的愿望，一旦感觉到什么，就立即采取行动。"
						],
						"type": "entries"
					},
					{
						"name": "Wanderers and Free Spirits",
						"entries": [
							"小精灵很少需要一个流浪的理由，尽管他们有很多理由。仙女们拥有天生的好奇心和对几乎所有事物的兴趣，她们总是向同伴提问，询问她们遇到的奇怪事物是做什么的，以及它们是如何工作的。",
							"尽管对他们来说，小精灵家以外的世界很危险，但这很少能阻止他们。",
							"对小精灵来说，危险只是他们必须探索的一部分，这样他们就能更多地了解到底是什么在威胁着他们。",
							"许多人认为，这种态度就是为什么很少有小精灵从旅行中回来的原因，但大多数小精灵并不这么看。"
						],
						"type": "entries"
					},
					{
						"type": "inset",
						"name": "Faeries in Ravnica",
						"entries": [
							"这里介绍的法师对大多数环境都是准确的。然而，在Ravnica，精灵是有些不同的。",
							"首先，小精灵在拉夫尼卡没有强烈的种族划分，他们的子种族代表了他们能力的多样化，而不是独特的文化。",
							"作为蓝色法力的生物，小精灵在伊泽特和迪米尔中最为自在。",
							"迪米尔小精灵倾向于成为间谍、刺客和猎人，在难以捉摸的秘密或生物之后出击。",
							"然而，即使是迪米尔小精灵也倾向于社交，而迪米尔人在实践中并不相信他们有必须保守的秘密。",
							"另一方面，伊泽特的小精灵则忠实于公会的创造性狂躁特征。",
							"他们被称为 \"棘轮法师\"，擅长使用小型仪器，许多伊泽特法师直接协助研究飞行的本质。"
						]
					},
					{
						"name": "Faerie Names",
						"entries": [
							"小精灵是大自然的孩子，他们常常把植物、自然现象或元素的名字作为自己的名字。大多数精灵只有在成熟后或经历了改变生活、决定性格的事件后才会取名。一个小精灵对名字的选择通常在某种程度上说明了他们的态度和对生活的总体看法。",
							{
								"entries": [
									{
										"name": "Male Names",
										"entries": [
											"Applebow, Basil, Boreas, Chillbreeze, Cornflower, Hawkfeather, Nettle, Nighthour, Oaken, Ragweed, Spark, Sprig, Ursa, Zephyrus"
										],
										"type": "entries"
									},
									{
										"name": "Female Names",
										"entries": [
											"Cobweb, Ember, Flicker, Flurry, Gale, Ginger, Ivy, Larksong, Lilly, Nightshade, Peasblossom, Rosebloom, Snowdust, Starlight"
										],
										"type": "entries"
									},
									{
										"name": "Neutral Names",
										"entries": [
											"Ashen, Dawn, Garlick, Gossamer, Mapleseed, Mote, Petrichor, Polestar, Puck, Rainbow, Sciron, Snowfall, Stormwind, Thyme"
										],
										"type": "entries"
									}
								],
								"type": "entries"
							}
						],
						"type": "entries"
					},
					{
						"type": "inset",
						"name": "Rules for Tiny Characters",
						"entries": [
							"在《玩家手册》和类似资料中介绍的种族都被定为中型或小型。",
							"Tiny大小的角色有额外的规则，这里介绍一下。",
							{
								"type": "list",
								"items": [
									"{@b Armor.} 矮小的角色不能使用重装甲。",
									"{@b Weapons.}某些武器属性对一个微小的角色意味着不同的东西，详见下文。",
									"{@b Heavy.} 小巧的角色不能使用具有此属性的武器。",
									"{@b Light.}一个小人物必须用两只手握住任何缺乏此属性的近战武器。",
									"{@b Two-Handed.}一个小人物在使用具有此属性的近战武器进行攻击时有劣势。",
									"{@b Versatile.}细小的字符不能使用此属性。"
								]
							}
						]
					}
				],
				"images": [
					{
						"type": "image",
						"href": {
							"type": "external",
							"url": "https://i.imgur.com/VD2mzEs.jpg"
						}
					}
				]
			}
		}
	],
	"feat": [
		{
			"name": "Fey Shroud",
			"source": "WHFAR",
			"prerequisite": [
				{
					"race": [
						{
							"name": "Faerie"
						}
					]
				}
			],
			"entries": [
				"费氏防护罩",
				{
					"type": "list",
					"items": [
						"你可以在你的回合中使用一个额外的行动，并开始集中精力，就像施展法术一样，以淡出人们的视线。",
						"你和你身上的任何物体都会变得不可见，直到你失去注意力、休息、攻击或施法，或使用另一个额外行动来解除这个效果。",
						"一旦你使用这个能力，你需要短暂或长时间的休息才能再次使用它。"
					]
				}
			]
		},
		{
			"name": "Friend of the Winds",
			"source": "WHFAR",
			"prerequisite": [
				{
					"race": [
						{
							"name": "Sylph"
						}
					]
				}
			],
			"entries": [
				"风的朋友",
				{
					"type": "list",
					"items": [
						"你与空气元素界的联系允许你从它那里拉出一个守护者，在你需要的时候保护你（）。",
						"你可以使用一个动作并开始集中注意力，就像施法一样，在你能看到的30英尺范围内的一个点上召唤出一个空气守护者（这里包括了它的统计数据）。",
						"这个守护者对你和你的同伴很友好，按主动权顺序在自己的回合中行动，在其最大命中率上增加你的总角色等级的一半，在其攻击和伤害卷上增加你的熟练度奖励3，并服从你给它的任何口头命令。",
						"这个守护者在一分钟后消失，如果你失去注意力，或者它的命中率达到0。",
						"你可以召唤这个守护者两次，并且在你完成长期休息时恢复这个能力的所有消耗。"
					]
				}
			]
		},
		{
			"name": "Pixie Grand Magic",
			"source": "WHFAR",
			"prerequisite": [
				{
					"race": [
						{
							"name": "Pixie"
						}
					]
				}
			],
			"entries": [
				"小精灵大魔法",
				{
					"type": "list",
					"items": [
						"你对你的同类所拥有的自然的精灵魔法有更大的控制力。",
						"你可以用这个能力施展以下每个法术一次：睡眠、幻影之力和纠缠。在8级的时候，你还可以用这个能力施展一次多形体。",
						"魅力是你对这些法术的施法能力。",
						"睡眠是作为二阶法术施放的，任何其他以该能力获得的法术都以其最低的法术等级施放。",
						"在8级时，睡眠被作为3级法术施放，在12级时成为4级法术，在16级时成为5级法术，在20级时成为6级法术。",
						"当你完成长时间的休息时，你会重新获得施放此特技所提供的任何法术的能力。"
					]
				}
			]
		},
		{
			"name": "Sleeping Poison",
			"source": "WHFAR",
			"prerequisite": [
				{
					"race": [
						{
							"name": "Sprite"
						}
					]
				}
			],
			"entries": [
				"睡觉的毒药",
				{
					"type": "list",
					"items": [
						"使你的灵巧或体质得分增加1，最高为20。",
						"在短暂或长时间的休息中，你可以变出一种妖怪的毒药，你可以用 \"使用物品 \"动作将其用于一件武器或最多10件弹药。",
						"你在任何时候都只能有一个这样施展的毒药。一旦应用，这种毒药会持续1小时。",
						"在一个生物受到涂有这种毒药的武器或弹药的伤害后，如果该生物的剩余命中率小于或等于5+你的总角色等级，该生物会立即陷入昏迷。",
						"对中毒状况免疫的生物会忽略这个效果。",
						"以这种方式昏迷的生物可以保持长达1小时，或者直到邻近的生物使用行动唤醒他们。"
					]
				}
			]
		},
		{
			"name": "Sylph Grand Magic",
			"source": "WHFAR",
			"prerequisite": [
				{
					"race": [
						{
							"name": "Sylph"
						}
					]
				}
			],
			"entries": [
				"西尔弗大魔法",
				{
					"type": "list",
					"items": [
						"你乘风而行，使你对风有了本能的控制。",
						"你可以用这个能力施展以下每个法术一次：（%0%）（XGtE第154页，EEPC第17页），雾云，和守护风（XGtE第170页，EEPC第23页）。",
						"智力是你对这些法术的施法能力，它们都是以最低的法术等级施放的。",
						"当你完成长时间的休息时，你会重新获得施放此特技所提供的任何法术的能力。",
						"8级时，{@spell dust devil|XGE}作为3级法术施放，12级时成为4级法术，16级时成为5级法术，20级时成为6级法术。"
					]
				}
			]
		}
	],
	"subrace": [
		{
			"name": "Pixie",
			"source": "WHFAR",
			"raceName": "Faerie",
			"raceSource": "WHFAR",
			"ability": [
				{
					"cha": 1
				}
			],
			"entries": [
				{
					"type": "section",
					"entries": [
						{
							"name": "Pixie",
							"entries": [
								"好奇、神奇、无忧无虑，小精灵总是开朗而友好，尽管对外人来说有些羞涩。穿着用森林材料制作的精美礼服，小精灵是精灵贵族的缩影，和任何高级精灵或精灵一样神奇和迷人。小精灵有一双蝴蝶般的翅膀，当别人欣赏他们的美丽时，他们会很高兴。"
							],
							"type": "entries"
						}
					]
				},
				{
					"name": "Ability Score Increase",
					"type": "entries",
					"entries": [
						"你的魅力值增加1。"
					]
				},
				{
					"name": "Delightful",
					"entries": [
						"你对劝说术很精通。"
					],
					"type": "entries"
				},
				{
					"name": "Pixie Magic",
					"entries": [
						"你知道 \"德鲁伊之术 \"和 \"舞动之光 \"的咒语。魅力是你对这些咒语的施法能力。"
					],
					"type": "entries"
				},
				{
					"name": "Pixie Dust",
					"entries": [
						"作为你回合中的额外行动，你可以接触一个生物。该生物获得30英尺的飞行速度，直到其下一回合结束。一旦你使用这个特性，你需要短暂或长时间的休息才能再次使用它。在11级时，你所接触的生物反而会获得1分钟的飞行速度。"
					],
					"type": "entries"
				}
			],
			"skillProficiencies": [
				{
					"persuasion": true
				}
			],
			"fluff": {
				"entries": [
					{
						"name": "Pixie",
						"entries": [
							"好奇、神奇、无忧无虑，小精灵总是开朗而友好，尽管对外人来说有些羞涩。穿着用森林材料制作的精美礼服，小精灵是精灵贵族的缩影，和任何高级精灵或精灵一样神奇和迷人。小精灵有一双蝴蝶般的翅膀，当别人欣赏他们的美丽时，他们会很高兴。"
						],
						"type": "entries"
					}
				],
				"images": [
					{
						"type": "image",
						"href": {
							"type": "external",
							"url": "https://i.imgur.com/M7ouFhN.jpg"
						}
					}
				]
			}
		},
		{
			"name": "Sprite",
			"source": "WHFAR",
			"raceName": "Faerie",
			"raceSource": "WHFAR",
			"ability": [
				{
					"wis": 1
				}
			],
			"entries": [
				{
					"type": "section",
					"entries": [
						{
							"name": "Sprite",
							"entries": [
								"在古树或树人的枝桠上建造城市，精灵们发誓要保卫林地。",
								"尽管他们身材高大，但他们是凶猛的战士，训练有素，精通战斗战术，可以挫败比他们大很多倍的生物。",
								"雪人往往出奇地严厉和严肃，以一种严峻的决心来维护森林的安全，而其他精灵往往对此视而不见。",
								"然而，当问题出现时，一队准备好的精灵就像精灵士兵一样受到重视，而且完全是致命的。"
							],
							"type": "entries"
						}
					]
				},
				{
					"name": "Ability Score Increase",
					"type": "entries",
					"entries": [
						"你的智慧分数增加1。"
					]
				},
				{
					"name": "Languages",
					"entries": [
						"你可以说、读、写精灵语。"
					],
					"type": "entries"
				},
				{
					"name": "Sprite Weapon Training",
					"entries": [
						"你精通长剑、短剑和短弓。"
					],
					"type": "entries"
				},
				{
					"name": "Heart Sight",
					"entries": [
						"使用一个动作，你可以触摸一个生物，并立即知道这个生物是否关心、对其有抵触情绪、试图操纵、或希望毁灭你和你的盟友。",
						"你不知道这个生物的具体意图，只知道它对你和你的盟友的态度的总体感觉。",
						"一旦你使用这个特性，你需要经过短暂或长时间的休息才能再次使用它。"
					],
					"type": "entries"
				}
			],
			"weaponProficiencies": [
				{
					"longsword|phb": true,
					"shortsword|phb": true,
					"shortbow|phb": true
				}
			],
			"languageProficiencies": [
				{
					"elvish": true
				}
			],
			"fluff": {
				"entries": [
					{
						"name": "Sprite",
						"entries": [
							"在古树或树人的枝桠上建造城市，精灵们发誓要保卫林地。",
							"尽管他们身材高大，但他们是凶猛的战士，训练有素，精通战斗战术，可以挫败比他们大很多倍的生物。",
							"雪人往往出奇地严厉和严肃，以一种严峻的决心来维护森林的安全，而其他精灵往往对此视而不见。",
							"然而，当问题出现时，一队准备好的精灵就像精灵士兵一样受到重视，而且完全是致命的。"
						],
						"type": "entries"
					}
				],
				"images": [
					{
						"type": "image",
						"href": {
							"type": "external",
							"url": "https://i.imgur.com/ZQEJsM6.jpg"
						}
					}
				]
			}
		},
		{
			"name": "Sylph",
			"source": "WHFAR",
			"raceName": "Faerie",
			"raceSource": "WHFAR",
			"ability": [
				{
					"int": 1
				}
			],
			"entries": [
				{
					"type": "section",
					"entries": [
						{
							"name": "Sylph",
							"entries": [
								"幽灵原产于空气元素界，但它们还是进入了主物质界，居住在空气中的山顶和悬崖上，在大风中跳舞。",
								"自然的冒险家，精灵们随风而去，喜欢旅行，有机会认识新的人，看到新的土地。",
								"像他们一样远道而来的精灵，是最常遇到的精灵类型。",
								"然而，它们仍然相当罕见，而且在不想被发现时非常善于保持隐蔽。"
							],
							"type": "entries"
						}
					]
				},
				{
					"name": "Ability Score Increase",
					"type": "entries",
					"entries": [
						"你的智力得分增加1。"
					]
				},
				{
					"name": "Languages",
					"entries": [
						"你可以说、读、写奥兰语，这是一种原始社会的方言。"
					],
					"type": "entries"
				},
				{
					"name": "Swift",
					"entries": [
						"你的飞行速度增加到35英尺。"
					],
					"type": "entries"
				},
				{
					"name": "Sylph Magic",
					"entries": [
						"你知道阵风咒语（XGtE第157页，EEPC第19页）。在3级时，你学会了阵风咒语，并且可以在不消耗法术槽的情况下施放它。一旦你以这种方式施展它，你必须在完成短暂或长时间的休息后才能再次施展。智力是你对这两个法术的施法能力。"
					],
					"type": "entries"
				}
			],
			"fluff": {
				"entries": [
					{
						"name": "Sylph",
						"entries": [
							"幽灵原产于空气元素界，但它们还是进入了主物质界，居住在空气中的山顶和悬崖上，在大风中跳舞。",
							"自然的冒险家，精灵们随风而去，喜欢旅行，有机会认识新的人，看到新的土地。",
							"像他们一样远道而来的精灵，是最常遇到的精灵类型。",
							"然而，它们仍然相当罕见，而且在不想被发现时非常善于保持隐蔽。"
						],
						"type": "entries"
					}
				],
				"images": [
					{
						"type": "image",
						"href": {
							"type": "external",
							"url": "https://i.imgur.com/yLkqSwl.jpg"
						}
					}
				]
			}
		}
	]
}
