{
	"_meta": {
		"sources": [
			{
				"json": "COK",
				"abbreviation": "COK",
				"full": "Crypts of Kelemvor",
				"authors": [
					"Thomas Foss",
					"Scott Fitzgerald Gray"
				],
				"convertedBy": [
					"Surge"
				],
				"version": "1.0.0",
				"url": "https://media.wizards.com/2018/dnd/dragon/18/DRA18_CryptsKelemvor.pdf",
				"targetSchema": "1.0.0"
			}
		],
		"dateAdded": 1600868694,
		"dateLastModified": 1705266948,
		"_dateLastModifiedHash": "d7fe3ba896"
	},
	"adventure": [
		{
			"name": "Crypts of Kelemvor",
			"id": "COK",
			"source": "COK",
			"group": "other",
			"contents": [
				{
					"name": "Introduction",
					"headers": [
						"Running the Adventure"
					]
				},
				{
					"name": "Ebon Downs",
					"headers": [
						"Adventure Hook"
					]
				},
				{
					"name": "Sealing the Crypts of Kelemvor",
					"headers": [
						"Features of the Crypts",
						"Area 1: Entry Chamber",
						"Area 2: Central Intersection",
						"Area 3: Main Crypt",
						"Area 4: Trapped Tomb",
						"Area 5: Wight Tomb",
						"Area 6: Double Doors",
						"Area 7: Side Crypt",
						"Area 8: Chapel",
						"Area 9: Dark Stairs",
						"Area 10: Warded Hall",
						"Area 11: Faintly Lit Stairs",
						"Area 12: Warded Chamber",
						"Area 13: Final Crypt",
						"Epilogue"
					]
				}
			],
			"level": {
				"start": 3,
				"end": 5
			},
			"published": "2018-02-26",
			"cover": {
				"type": "external",
				"url": "https://raw.githubusercontent.com/TheGiddyLimit/homebrew/master/_img/COK/COK-cover.webp"
			},
			"storyline": "Dragon+"
		}
	],
	"adventureData": [
		{
			"id": "COK",
			"source": "COK",
			"data": [
				{
					"type": "section",
					"name": "Introduction",
					"id": "Introduction",
					"entries": [
						"{@i The Crypts of Kelemvor}是一次龙与地下城的冒险，适合3到5级的角色，改编自《永夜》在线的一个任务。在这个场景中，冒险者们被赋予了一个重要的任务，那就是收集一些破碎的魔法封印，并点燃一些魔法火炉，这些都是曾经保护凯勒莫尔地下墓穴的东西。在这样做的时候，他们可以帮助平息一场毁灭性的亡灵起义--由一个名叫伊德里斯的强大巫师组织的，意在摧毁永夜城的起义。",
						{
							"type": "image",
							"href": {
								"type": "external",
								"url": "https://raw.githubusercontent.com/TheGiddyLimit/homebrew/master/_img/COK/COK-temple.webp"
							},
							"title": "Temple of Kelemvor"
						},
						{
							"type": "section",
							"name": "Running the Adventure",
							"id": "Running the Adventure",
							"entries": [
								"这是一个经典的地下城探索，但有一些MMORPG的扭曲。人物的任务是寻找和收集物品，但也必须在探索过程中 \"点击 \"环境中的某些部分--火炉，其神奇的光线是亡灵的噩梦。除了冒险家们在与地窖中的亡灵对峙时可以使用的正常技巧外，神圣的火炉之光也可以作为一种武器使用。此外，在剧情的最后，角色们有机会与另一个冒险队伍--一个被称为 \"盗墓者 \"的队伍进行互动。",
								"{@b Sacred Braziers of Balance.} When one of these magical braziers is lit, its fire bursts forth in a bright blue flame that fills a 25-foot-radius area with bright blue-white light. For the first 3 rounds after a brazier is lit, any undead creature that starts its turn within the brazier's light takes 16 ({@dice 3d10}) radiant damage--presenting a significant threat to such creatures. The length of time it takes to light the braziers is the wild card. A character adjacent to a brazier must use an action to light it, but doing so requires a special striking rod and stone, as.  well as a successful DC 12 Dexterity check.",
								"{@b The Grave Robbers.} 在剧情结束时的主要BOSS战之前，角色们遇到了一个被称为盗墓者的冒险队伍。这支队伍原来的四名成员中有三名与角色对峙（他们的牧师在地牢的早期部分被发现被吃掉）。你可以把盗墓者扮演成贪婪的、渴望战斗的人，也可以把他们描绘成务实的、愿意与人物合作完成对地牢的探索。",
								"{@b Monsters.} 亡灵和墓穴中的其他怪物的统计块出现在冒险结束时的附录中。"
							]
						}
					]
				},
				{
					"type": "section",
					"name": "Ebon Downs",
					"id": "Ebon Downs",
					"entries": [
						"在南部公路旁的银色沼泽深处，有一个被称为伊本-唐斯的墓地。 在这里，许多世代的当地人已经安息，被埋葬在荒冢、墓穴和坟墓中。",
						{
							"type": "image",
							"href": {
								"type": "external",
								"url": "https://raw.githubusercontent.com/TheGiddyLimit/homebrew/master/_img/COK/COK-region.webp"
							},
							"title": "Map of the Region",
							"imageType": "map"
						},
						"格里姆霍尔的村民们多年来一直守护着这片土地，每一代人都把职责传给他们的孩子。在他们的注视下，伊本山庄已经看到了和平。",
						"但有一天晚上，这种平静被永远打破了。 不管是由于格里姆霍尔的警戒松懈，还是由于某种未知的力量，死人从墓地中强势崛起，袭击了村庄，淹没了它的公民。少数有幸逃脱的人谈到了一种黑暗的魔法，这种魔法使那些在攻击中丧生的人几乎在生命离开他们的身体时就复活为亡灵。",
						"在Ebon Downs，唯一留下的希望灯塔是破旧的Kelemvor堡垒--一座字面上的墙，将现在被沼泽侵占的村庄与大墓穴和墓地隔开。在这里，Kelemvor的祭司们仍在为死人做检查，确保他们不会复活。献给亡灵之神的末日守卫者、神职人员和圣骑士们已经承诺用他们的生命来恢复伊本唐斯的平衡。但他们的人数一天比一天少，并开始向整个法尔丁呼救。",
						{
							"type": "section",
							"name": "Adventure Hook",
							"id": "Adventure Hook",
							"entries": [
								"如果你想把{@i The Crypts of Kelemvor}作为一个更大的冒险中的副线来玩，你可以寻找方法把这个任务与那个冒险结合起来。无论你以何种方式定制它，人物都会被凯勒莫的一个信徒找到，请求对神庙进行援助。",
								"除了免费的旅行和食物之外，还提供20金币的象征性报酬--如果情况不妙，还承诺会进行安葬。但冒险家们更感兴趣的是圣徒的承诺，即在墓穴中发现的任何宝石、魔法或其他财富都可以保留，因为死者不再需要这些东西了。"
							]
						}
					]
				},
				{
					"type": "section",
					"name": "Sealing the Crypts of Kelemvor",
					"id": "Sealing the Crypts of Kelemvor",
					"entries": [
						"当玩家准备好开始冒险时，读或转述以下内容。",
						{
							"type": "insetReadaloud",
							"entries": [
								"当你进入破旧的凯勒莫神庙所剩无几时，你感到一股奇怪的暖流穿过你的身体。"
							]
						},
						"队伍中的任何牧师或圣骑士都会认识到，这些角色刚刚通过了某种保护性的防护罩。",
						{
							"type": "image",
							"href": {
								"type": "external",
								"url": "https://raw.githubusercontent.com/TheGiddyLimit/homebrew/master/_img/COK/COK-doomguide.webp"
							},
							"title": "Doomguide Soulhearth"
						},
						{
							"type": "insetReadaloud",
							"entries": [
								"神庙很小，缺少部分屋顶和一面墙。一位凯勒莫（Kelemvor）的牧师疲惫地站在一旁看守，眺望着远处的荒冢，一位身穿铠甲的教士站在区域中心的篝火旁。 教士看起来很沮丧，直到他看到你，这时他的笑容变得灿烂，向你招手。他自我介绍说他是 \"厄运导引者\"（Doomguide Soulhearth）--发出援助请求的人。",
								"Soulhearth不是最健谈的人，他直奔主题。\"这座凯勒莫神庙，我们的堡垒，是我们对抗伊德里斯巫师和其亡灵大军的堡垒。但它并不像它应该的那样安全。 盗墓者闯入了寺庙下面的墓穴，并打破了几个神秘的封印，以确保埋在那里的人得到安息。",
								"\"我需要你进入地窖，重新点燃能消灭亡灵的神圣火炉，并把破损的封条带回来。然后我可以修复它们，而圣火炉的圣火将阻止任何更多的亡灵进入墓穴。\""
							]
						},
						"通过接受厄运指南Soulhearth的任务，这些人物将帮助重新祭祀凯勒莫神殿下的墓穴。他们的目标是收集所有破损的封印，并重新点燃地窖里的所有火炉。",
						{
							"type": "image",
							"href": {
								"type": "external",
								"url": "https://raw.githubusercontent.com/TheGiddyLimit/homebrew/master/_img/COK/COK-floor1.webp"
							},
							"title": "Crypts of Kelemvor - Floor 1"
						},
						{
							"type": "section",
							"name": "Features of the Crypts",
							"id": "Features of the Crypts",
							"entries": [
								"凯勒莫的墓穴有三层，被分成独立的房间和走廊。各层都有楼梯连接，每层的区域都由舷窗门和石门分开。",
								"墓穴中的关键物品是曾经持有魔法封印的凯雷莫尔的雕像（目前已经破损），（%0%），以及大量的石棺。",
								"{@b Broken Seals.}人物必须收集的每一个破碎的封印都是一块刻有Kelemvor标志的大理石，重约4磅。所有的封印都曾被散落在墓穴中的凯勒莫的雕像所持有。",
								"{@b Doors and Gates.} 墓穴的区域被铁门或石门分开。 舷窗门允许人物透过它们看到外面的区域。大多数门和门都是用门的 \"正面 \"的杠杆神奇地打开的，最靠近地宫的入口。这种设计的目的是为了在需要时允许从外面关闭地下墓穴的一些区域。",
								"拉动一个杠杆来提升或降低一个门或大门是一个动作。一旦打开，门或闸门就会一直开着，直到再次拉动杠杆，或者除非门作为一种安全措施自动关闭。如果角色们担心有人在他们身后关门，那么可以通过在门和相邻的墙壁之间楔入一根钉子或类似的物体来保持门的开启，并成功地进行DC12力量检查。除非另有说明，被关闭的门可以通过DC25力量检查手动打开，也可以通过敲击法术或类似魔法打开。",
								"墓穴中所有的门闩在升起时都会发出吱吱嘎嘎的响声。石门打开时发出巨大的刮擦声。",
								"{@b Ceilings.} 除非另有说明，否则墓室的走廊和房间的天花板都有十英尺高。",
								"{@b Light.}第一层的许多区域是由被注入{@spell continual flame}的魔法火把照亮的。在其他区域（包括两层的低层），除了人物带来的东西外，没有任何光线。",
								"{@b Sarcophagi.}在整个墓室里有许多石棺。除非另有说明，否则都是封闭的。任何封闭的石棺都可以通过成功的DC20力量检查来打开，但里面只有发霉的骨头。"
							]
						},
						{
							"type": "section",
							"name": "Area 1: Entry Chamber",
							"id": "Area 1: Entry Chamber",
							"entries": [
								"当人物进入墓穴时，请阅读或转述以下内容。",
								{
									"type": "insetReadaloud",
									"entries": [
										"一条陡峭的楼梯通向神庙东面的60英尺处，来到一扇木门前，一位凯勒莫里特牧师正在那里等候。他打开门锁，向你招手，递上一盏小蜡烛灯、一块沉重的敲击石和一根大匕首般大小的钢棒。\"只有这根棒子和石头的火花才能点燃（%0%），\"他恭敬地说。\"愿凯勒莫和塞拉娜保护你。\"",
										"当你们这群人中的最后一个人通过门时，门在你们身后响亮地关上了，另一边的锁被转动的声音很不祥。你们站在一条短短的走廊里。南面，一扇厚重的金属舷窗门已经生锈关闭，只露出外面一条黑暗的走廊。向北，走廊通向一个小房间。",
										"房间东侧有一堆被烧毁的篝火，说明这里曾经是某种守卫的地方。火堆旁边有一个布袋，里面装着曾经在这里站岗的牧师留下的财宝。",
										"北面矗立着一扇没有把手的大石门，旁边的墙上有一个大的铜质杠杆。拉动杠杆时，响起了令人不安的巨大刮擦声。当厚厚的石门向上滑动时，尘土飞扬，露出了门外的区域。走廊拐角处的一个魔法火把照亮了前进的道路。"
									]
								},
								{
									"type": "entries",
									"name": "Treasure",
									"entries": [
										"在背包里，人物发现了一个有白兰地香味的（%0%）。"
									]
								}
							]
						},
						{
							"type": "section",
							"name": "Area 2: Central Intersection",
							"id": "Area 2: Central Intersection",
							"entries": [
								"两扇门和一条开放的走廊让人物可以从这个区域选择方向。",
								{
									"type": "insetReadaloud",
									"entries": [
										"你的前面有两扇门--西边的金属舷窗门和北边的石门。 透过舷窗看去，另一条走廊延伸了约20英尺，然后是一个T形交叉口。在西面墙上的舷窗旁有一个铜质杠杆。"
									]
								},
								"在通道向东打开的地方，既可以看到前面一个更大的房间，也可以看到凯勒莫尔神的雕像，它的双手张开，似乎在拿着什么。雕像脚下的地板上摆放着一块大理石雕刻品。雕像的对面是一个小凹槽，里面摆放着一堆人形骨头。",
								"拉动杠杆可以使吱吱作响的门楣升起，但没有迹象表明石门有什么装置。人物没有任何行动或魔法可以打开这扇门，任何搜索或打开它的能力检查都会失败。(这扇门在人物转动一把特殊的钥匙后会自动打开（%0%）。",
								"这些骨头是盗墓者最近路过这里时，破坏的亡灵骨架的残余。",
								"{@b Broken Seal.} 雕像脚下的那块大理石雕刻是墓室中第一个被打破的封印。"
							]
						},
						{
							"type": "section",
							"name": "Area 3: Main Crypt",
							"id": "Area 3: Main Crypt",
							"entries": [
								{
									"type": "insetReadaloud",
									"entries": [
										"这个巨大的房间由拱形的柱子支撑，天花板有十英尺高。沿着远处的墙壁矗立着三具华丽的石棺，其中一具石棺的盖子已被取下。沿着侧墙的两个火把使房间里充满了神奇的光线，露出了南北两面墙上的开门。",
										"在房间的中央，一个齐腰高的大理石火炉上刻着凯勒莫的标志--在它面前躺着一具残缺不全的尸体。木头堆积在一起，准备在炉子里点燃，表明这具尸体可能是一个试图点燃它的圣徒。尸体旁边的地板上放着一个卷轴。"
									]
								},
								"如果成功通过DC13智慧（感知）检查，角色会注意到石棺之间的阴影空间里有一些蹲着的人在等待。",
								{
									"type": "image",
									"href": {
										"type": "external",
										"url": "https://raw.githubusercontent.com/TheGiddyLimit/homebrew/master/_img/COK/COK-brazier.webp"
									},
									"title": "Brazier"
								},
								{
									"type": "entries",
									"name": "Zombie Horde",
									"entries": [
										"只要任何角色走过最靠近门口的柱子，就会有八个（%0%）从阴影中升起并发动攻击。对于第四级的队伍，使用11个僵尸。对于第五级的队伍，使用15个僵尸。",
										{
											"type": "image",
											"href": {
												"type": "external",
												"url": "https://raw.githubusercontent.com/TheGiddyLimit/homebrew/master/_img/COK/COK-horde.webp"
											},
											"title": "Zombie Horde"
										},
										"玩家应该本能地认识到这是一群潜在的压倒性的敌人--并且应该记住，专注于点燃火炉将有助于他们打败亡灵。",
										"僵尸们不够聪明，没有认识到火炉的破坏潜力，他们试图在火炉的光线中战斗，甚至在光线摧毁他们的时候。"
									]
								},
								{
									"type": "entries",
									"name": "Doors",
									"entries": [
										"石门通向4号和5号区域，都已经升起。每扇门旁边都有一个杠杆，可以用来降低和提高它。"
									]
								},
								{
									"type": "entries",
									"name": "Treasure",
									"entries": [
										"角色可以索取圣徒掉落的法术（%0%）}。此外，在搜索圣徒的身体时，会发现一个额外的敲击石和钢棒，让两个角色试图同时点燃一个火炉。"
									]
								}
							]
						},
						{
							"type": "section",
							"name": "Area 4: Trapped Tomb",
							"id": "Area 4: Trapped Tomb",
							"entries": [
								"这个房间里的压力板（在地图上标记为三角形）和一个无法使用的陷阱并不构成威胁，但希望能让人物在探索时感到紧张。这个房间里没有什么有价值的东西。",
								{
									"type": "insetReadaloud",
									"entries": [
										"这个小房间里有一具石棺，比大墓室里的石棺更加华丽。一个被毁坏的僵尸躺在石棺的脚下，它被打碎的头骨几乎被某个巨大的物体移走。",
										"在你面前，你看到了那个东西--一根长矛从墙上的两个洞中的一个出来，它一定曾经是守卫这一地区的陷阱的一部分。"
									]
								}
							]
						},
						{
							"type": "section",
							"name": "Area 5: Wight Tomb",
							"id": "Area 5: Wight Tomb",
							"entries": [
								{
									"type": "insetReadaloud",
									"entries": [
										"这个密室的特点是沿墙有华丽的浮雕，显示了凯勒莫的符号和神奇的铭文。同样的铭文覆盖了靠远处墙壁的石棺，它比主墓室中的石棺要华丽得多。石棺的盖子下面镶嵌着大型红色宝石。"
									]
								},
								"一个{@spell detect magic}的法术或类似的魔法显示出密室内存在着守护和束缚的法术。",
								"如果任何角色触碰石棺，它的盖子会突然爆开。任何在石棺5英尺范围内的角色都必须在DC14的灵巧救赎中成功，否则就会受到3({@dice 1d6})的重击伤害，并在石棺盖子摔到地上时被击倒在地。",
								{
									"type": "entries",
									"name": "Wight Attack",
									"entries": [
										"当石棺的盖子脱落时，一个穿着闪亮的骑士盔甲的{@creature wight}人站在里面并跃起攻击。同时，房间里的魔法防护装置使该区域充满了病态的、脉冲式的红光--并导致门被关上，除非它被钉住。 巫师被房间里的防护法术削弱了，在它的攻击卷中处于不利地位。防护罩还将它的命中率降低到3级队伍的25点，或4级队伍的35点。如果面对的是第五级的队伍，则给它全额命中率。"
									]
								},
								{
									"type": "entries",
									"name": "Wards",
									"entries": [
										"魔法护栏对角色来说是个福音，但它们的脉冲光会让人分心。任何在房间里开始它的回合的生物必须在DC10智力救赎上成功，否则在攻击卷轴上有劣势，直到它的下一个回合开始。"
									]
								},
								{
									"type": "entries",
									"name": "Dealing with the Door",
									"entries": [
										"当门倒下时，任何站在这个区域入口处的角色都必须决定移动到门的哪一边。该角色还必须在DC12的灵巧救赎中获得成功，否则将受到5({@dice 1d10})的重击伤害并被击倒在地。",
										"当门倒下时，任何留在{@area 3|Area 3: Main Crypt}的角色都可以拉动杠杆来打开门，并加入战斗。如果所有的角色都在{@area 5|Area 5: Wight Tomb}里，门可以手动打开（见上面的 \"墓穴的特点\"）。",
										"在战斗结束后，可以通过成功的DC13智力（调查）检查来检查门的装置，并找到一个隐藏的门闩，从里面打开门。这个检查不能在战斗中进行。"
									]
								},
								{
									"type": "entries",
									"name": "Treasure",
									"entries": [
										"石棺上镶嵌着四颗大的沙丁鱼宝石，每颗价值10gp，都可以轻易撬出。"
									]
								}
							]
						},
						{
							"type": "section",
							"name": "Area 6: Double Doors",
							"id": "Area 6: Double Doors",
							"entries": [
								{
									"type": "insetReadaloud",
									"entries": [
										"走廊的交汇处有两扇石门，中间有一个杠杆，凹槽里有一具石棺，还有一尊凯勒莫的雕像，手里拿着一个破碎的印章。"
									]
								},
								"没有什么能阻碍人物轻松地获得这个封印--除非他们先打开门。拉动控制杆可以同时打开两扇门，露出通往{@area 7|Area 7: Side Crypt}的入口以及这个区域--一个充满网络的房间，里面的人不喜欢被打扰。",
								{
									"type": "entries",
									"name": "Spider Hunt",
									"entries": [
										"侧室是三个{@creature giant wolf spider|mm|giant wolf spiders}的巢穴，它们都会同时攻击。",
										"对于第四级的队伍，给每只蜘蛛18点生命值。对于第五级的队伍，给每只蜘蛛23点生命值。",
										"如果任何一只蜘蛛被降低到5点或更少的命中率，它就会争先恐后地跑到侧室的后面，沿着几条粗糙、狭窄的隧道消失，通向表面上的生物狩猎场。"
									]
								},
								{
									"type": "entries",
									"name": "Treasure",
									"entries": [
										"在蜘蛛巢穴的网中搜索，发现了一个装着15戈比的钱包，以及一把银质手柄和银质刀鞘的精美短剑，可能是乌鸦制造的，价值20戈比。"
									]
								}
							]
						},
						{
							"type": "section",
							"name": "Area 7: Side Crypt",
							"id": "Area 7: Side Crypt",
							"entries": [
								{
									"type": "image",
									"href": {
										"type": "external",
										"url": "https://raw.githubusercontent.com/TheGiddyLimit/homebrew/master/_img/COK/COK-banner.webp"
									},
									"title": "Tattered Banner"
								},
								{
									"type": "insetReadaloud",
									"entries": [
										"东墙立着一尊脚下有破损印章的凯勒莫雕像，西墙立着一个火炉。一面印有凯勒莫标志的破旧旗帜挂在火炉上方的墙上。",
										"四座华丽的石棺矗立在房间的四角，以及靠近入口处的凹槽中。远处角落里的石棺似乎已经断成了两半。"
									]
								},
								"成功通过DC15智慧（感知）检查，就能发现破碎石棺内的活动。",
								{
									"type": "entries",
									"name": "Raging Zombie",
									"entries": [
										"当任何角色进入房间超过一半时，一个被激怒的僵尸就会从破碎的石棺中跳出来，发出饥饿的嚎叫，并向角色奔去。",
										"对这个更高级的敌人使用{@creature ogre zombie}的统计数据，但僵尸是一个中型生物。对于四级的队伍，将僵尸的护甲等级提高到9。对于第五级的队伍，将僵尸的装甲等级提高到10。"
									]
								},
								{
									"type": "entries",
									"name": "Treasure",
									"entries": [
										"残破的石棺里有三张破烂的虔诚卷轴（对寺庙来说总价值10GP），以及一条带有托尔姆标志的银项链（50GP）。"
									]
								}
							]
						},
						{
							"type": "section",
							"name": "Area 8: Chapel",
							"id": "Area 8: Chapel",
							"entries": [
								"人物有可能在两个阶段看到这个区域，被与小教堂的骷髅守护者的战斗打断。",
								{
									"type": "insetReadaloud",
									"entries": [
										"走廊通向一个大房间，看起来像个小教堂。它的拱形天花板高达三十英尺，神奇的光线从北方照射过来。",
										"密室的西南角有七个普通的石棺，石棺之间堆放着木质的棺材，其中许多已经腐烂，并被打破了。一根大的支撑柱旁边有一尊凯勒莫的雕像，脚下是一个破碎的印章。骨头散落一地，但更直接的问题是那些从柱子后面走出来的骷髅，它们竞相向前攻击。"
									]
								},
								{
									"type": "entries",
									"name": "Wandering Skeletons",
									"entries": [
										"房间初始部分的六个人（%0%）会攻击他们能看到的任何生物，并且应该会干扰人物试图索取破损的封印或推进到更远的房间。",
										"第四级的聚会，使用八个骷髅。对于第五级的队伍，使用十四个骷髅。"
									]
								},
								{
									"type": "entries",
									"name": "Getting to the Brazier",
									"entries": [
										"在房间里走得足够远，看到台子上的火炉的人，很可能会想到在骷髅面前冲向那个区域，然后在亡灵靠近的时候点燃火炉。不过有两样东西挡住了他们的去路--西边凹室里的僵尸，以及台阶顶端的一个钉子陷阱（在地图上标出的那个方块）。"
									]
								},
								{
									"type": "entries",
									"name": "Further Exploration",
									"entries": [
										"当人物向房间里走得更远时（无论是在骷髅战斗中还是在战斗结束后），揭示小教堂其他地方的细节。根据人物的去向，你可以只读或转述以下文字的部分内容。",
										{
											"type": "image",
											"href": {
												"type": "external",
												"url": "https://raw.githubusercontent.com/TheGiddyLimit/homebrew/master/_img/COK/COK-statue.webp"
											},
											"title": "Statue"
										},
										{
											"type": "insetReadaloud",
											"entries": [
												"台子前宽阔的凹槽里各摆放着一具石棺，并由魔法火炬照明。西边的凹槽被僵尸占据，他们蜷缩在地板上的东西中间，似乎对你的存在视而不见。",
												"站在一对柱子之间，另一尊雕像手里拿着一枚破裂的印章。北面有一个十英尺深的台子，高出地面六英尺，由魔法火炬照亮，通过一段短的台阶到达。一个火炉矗立在台子的中央，上面雕刻着一组凯勒莫的鳞片的浮雕。奇怪的是，天平是向左倾斜的，而凯勒莫的符号通常显示它们是平衡的。符号下方的墙上镶嵌着一把大铜钥匙。"
											]
										}
									]
								},
								{
									"type": "entries",
									"name": "Zombie Diners",
									"entries": [
										"有了新鲜的大餐在前，这两只（%0%）无视派对与骷髅的战斗，直到第一个角色接近到最北边的雕像10英尺以内，或者他们先被攻击，才会发动攻击。对于第四级的队伍，使用四个僵尸。对于第五级的队伍，使用六个僵尸。"
									]
								},
								{
									"type": "entries",
									"name": "Stair Trap",
									"entries": [
										"在楼梯的顶端，一个隐藏的压力板触发了一个机械陷阱。任何踩到陷阱的生物都会有一簇尖刺射入他们的脚下，并且必须做一个DC14的灵巧救赎。如果救赎失败，该生物将受到9（248）的穿刺伤害，如果救赎成功，将受到一半的伤害。",
										"搜查楼梯和台阶的角色在成功通过DC13智慧（感知）检查后会注意到这个陷阱，并且可以轻松地绕过它。在没有搜索的情况下爬楼梯的角色只有在他或她的被动感知力达到18或更高时才会发现这个陷阱。以速度爬上楼梯的角色没有机会发现陷阱。",
										{
											"type": "image",
											"href": {
												"type": "external",
												"url": "https://raw.githubusercontent.com/TheGiddyLimit/homebrew/master/_img/COK/COK-dias.webp"
											},
											"title": "Dias"
										}
									]
								},
								{
									"type": "entries",
									"name": "Unfortunate Visitor",
									"entries": [
										"被僵尸啃食的尸体穿着牧师的盔甲和礼服，但已被肢解得面目全非。(角色们后来可以知道，这是一个盗墓者。他是最后一个爬到这个区域的人，在他的攀登绳索断裂时被杀死了）。",
										"任何搜索房间北端的人物都会注意到地面上有一堆碎瓦片和石头，旁边有30英尺长的绳子，末端已经磨损。这堆东西上方的天花板上有个洞，连接着通往地上的一条粗糙的隧道，在岩石支座上绑着的地方可以看到一小段磨损的绳子。"
									]
								},
								{
									"type": "entries",
									"name": "Turning the Key",
									"entries": [
										"这把大铜钥匙被神奇地安装在凯勒莫符号浮雕下面的钥匙孔里，无法被移除。当任何一个角色转动钥匙时，浮雕上的刻度会神奇地摆正，角色们会听到远处传来石门磨开的微弱声音，回到入口处。 (这是人物进入{@area 9|Area 9: Dark Stairs}和下面各层的方法。)",
										"把钥匙转回另一个方向会使天平再次失去平衡，并关闭进入9区的门。否则，一小时后，钥匙神奇地转回来，天平再次失去平衡，通往第9区的门自动关闭。",
										"(盗墓者在通过天花板上的洞进入小教堂之前就知道了钥匙的作用。他们迅速转动了钥匙，然后从这个区域逃走，以避免与这里的亡灵战斗）。"
									]
								},
								{
									"type": "entries",
									"name": "Treasure",
									"entries": [
										"死去的教士穿着一件胸甲，状况良好，但很需要清洗。如果把尸体翻过来，人物会发现一个袋子，里面有一个破碎的药水瓶，但尸体上的武器和背包都不见了（在盗墓者逃离这片区域时，很快就被他们抓走了）。"
									]
								}
							]
						},
						{
							"type": "section",
							"name": "Area 9: Dark Stairs",
							"id": "Area 9: Dark Stairs",
							"entries": [
								"当冒险者在{@area 8|Area 8: Chapel}的台子上转动钥匙后，回到中央路口({@area 2|Area 2: Central Intersection})，他们会看到北边的石门已经因此而打开。",
								{
									"type": "insetReadaloud",
									"entries": [
										"门外站着一个小房间，在另一扇石门旁边有一个杠杆，已经打开。在那扇门外，有一组陡峭的楼梯通向黑暗中。"
									]
								},
								"一个角色成功地进行了DC12智慧（感知）检查，注意到第二扇门被楔入了一根钉子以保持它的开启。2号区域的门也同样被钉住了，但是当门神奇地关闭时，钉子被打碎了。成功通过DC13智慧（感知）检查发现了一个隐藏的门闩，可以从这个区域内打开通往2区的门。",
								{
									"type": "image",
									"href": {
										"type": "external",
										"url": "https://raw.githubusercontent.com/TheGiddyLimit/homebrew/master/_img/COK/COK-floor23.webp"
									},
									"title": "Crypts of Kelemvor - Floors 2 and 3"
								}
							]
						},
						{
							"type": "section",
							"name": "Area 10: Warded Hall",
							"id": "Area 10: Warded Hall",
							"entries": [
								{
									"type": "insetReadaloud",
									"entries": [
										"这个区域最初的密室只有一对石柱，但一条黑暗的走廊向北通向一个T型交叉口和一条东西向的走廊。"
									]
								},
								"成功通过DC11智慧（感知）检查，可以注意到在西南面的柱子和最初房间的南墙周围有许多破碎的弩箭。这可能为玩家提供了一个提示，让他们知道后面的陷阱。",
								{
									"type": "entries",
									"name": "Crossbow Trap",
									"entries": [
										"北面的走廊在地板上设置了一系列的压力板，就在地图上出现的三角形之间的区域。这些压板是由铁制成的，隐藏在多年的灰尘和瓦砾之下，可以通过DC15智慧（感知）检查来发现。没有发现陷阱的人物会踩到压板，导致四支弩箭从北墙的孔中射出。任何在走廊或初始室东部的角色都会被陷阱的四次攻击随机分到。命中率+4，5（（%0%））穿刺伤害。",
										"弩箭飞过走廊的长度，如果没有击中任何人，就会击中西南的柱子和南墙。如果人物绕过这个区域，安全到达T型路口，他们可以很容易地看到墙上的洞，弩箭就是从那里飞出来的。"
									]
								},
								{
									"type": "entries",
									"name": "Moving On",
									"entries": [
										"交叉口的东边通向一段坍塌的走廊，无法挖出。西边是一个舷窗和一个杠杆，后面可以看到楼梯。闸门已经打开。任何检查都会发现它被一个钉子楔住了，所以无法关闭。"
									]
								}
							]
						},
						{
							"type": "section",
							"name": "Area 11: Faintly Lit Stairs",
							"id": "Area 11: Faintly Lit Stairs",
							"entries": [
								{
									"type": "insetReadaloud",
									"entries": [
										"一组石阶通向一个平台，然后向北转。从转弯处，一束微弱的升起的闪烁的光线断断续续地在墙上飞舞。"
									]
								},
								"在楼梯底部的一个入口室里，有一个雕像拿着一个破碎的封条，旁边是一扇打开的石门。 可以很容易地注意到，这扇门是用尖刺打开的。",
								"任何到达楼梯底部的角色，只要成功通过DC11智慧（感知）检查，就能听到遥远的声音。",
								{
									"type": "insetReadaloud",
									"entries": [
										"前面的声音响起，似乎在争论，但距离太远，无法听到任何谈话的细节。"
									]
								},
								"更多信息见下一个区域。"
							]
						},
						{
							"type": "section",
							"name": "Area 12: Warded Chamber",
							"id": "Area 12: Warded Chamber",
							"entries": [
								"从{@area 11|Area 11: Faintly Lit Stairs}的入口房间，人物可以通过打开的门看到这个房间的一些细节，由你决定。",
								{
									"type": "insetReadaloud",
									"entries": [
										"这个长方形密室的地板在门的正前方被一个倒塌的陷阱打破了--一个宽15英尺、左右各近25英尺的带钉坑。两边狭窄的壁架看起来似乎应该允许绕过坑洞的通道。在这个20英尺高的密室的中心，一个平衡的火炉没有点燃。一具密封的石棺被放在一边。"
									]
								},
								"需要成功地进行DC10灵巧检查才能绕过尖刺坑。如果检查失败，角色就会掉进坑里，必须做一个DC 12的灵巧保护动作。如果救赎成功，角色会设法落在尖刺之间，只受到尖刺边缘的3({@dice 1d6})切割伤害。如果救赎失败，角色就会摔倒在钉子上，受到10{@dice 3d6}的穿刺伤害。如果有角色掉进坑里，房间对面的盗墓者（见下文）会听到并过来调查。根据需要调整以下部分的遭遇。",
								{
									"type": "entries",
									"name": "The Grave Robbers",
									"entries": [
										"当人物穿过敞开的门，完全看到房间时，添加以下细节。",
										{
											"type": "insetReadaloud",
											"entries": [
												"在房间的远处，一扇超大的石门关闭着。在阴影的光线下，两个人在门和门把手前踱步，其中一个人拿着一把巨大的剑。他们沙哑的争吵声传遍了整个房间。"
											]
										},
										"需要成功地进行DC12智慧（感知）检查，才能听到被称为盗墓者的冒险者之间争论的细节。如果没有一个角色能听到对话，请转述以下行动。",
										{
											"type": "image",
											"href": {
												"type": "external",
												"url": "https://raw.githubusercontent.com/TheGiddyLimit/homebrew/master/_img/COK/COK-robbers.webp"
											},
											"title": "Grave Robbers"
										},
										{
											"type": "insetReadaloud",
											"entries": [
												"拿着剑的人似乎不耐烦了，他咕哝道：\"你要在那里呆一整天？还是现在就把它砸开？\"",
												"一个离门更近的身影咆哮着回道：\"我是法师，不是流氓。这扇门有很强的防护措施和强大的魔法，可以保持密封。\"",
												"\"那么你就试试吧，\"战士对一个看不见的人说。",
												"\"我告诉过你，这是个魔法封印，\"第三个声音说。\"不是我的东西... 等等...那是什么？\"",
												"突然，第三个身影从一根柱子后面走出来--一个拉着弓的弓箭手。\"我们有同伴了，\"她对她的同伴们说。"
											]
										},
										"无论是发现人物的光线还是听到他们的动作声，盗墓贼的流氓都会在人物靠近时意识到他们的存在。"
									]
								},
								{
									"type": "entries",
									"name": "Friend or Foe?",
									"entries": [
										"这个遭遇可以有很多不同的方式，取决于人物是否试图与盗墓者结盟，试图看到他们因亵渎墓穴而受到惩罚，或者将他们视为直接威胁并试图直接杀死他们。",
										"如果这些角色试图与这群人达成交易，请使用角色扮演和DC14魅力（说服力）检查来确定他们的成功。盗墓者是机会主义者，但也很诚实，他们很乐意与角色合作，通过下一个密室，以换取在那里发现的任何财宝的公平分配。",
										"如果人物决定与盗墓者作战--或者如果他们在劝说中严重失败或者试图恐吓NPC--这三个人就是一个强大的威胁。",
										"如果角色想让盗墓者受到惩罚，可以在击败NPC后使其失去意识，然后在冒险结束后将其捆绑起来送到Soulhearth。"
									]
								},
								{
									"type": "entries",
									"name": "Warded Door",
									"entries": [
										"只要有强大的魔法屏障将门关上，拉动这个房间的石门杠杆就没有任何效果。一个{@spell detect magic}的法术或类似的效果，或者成功地进行DC15智力（阿卡纳）检查，就会发现有两个独立的魔法屏障封住了这扇门。通过成功的DC30力量检查可以强行打开这扇门，或者通过两个{@spell knock}的法术可以解开它的护栏。",
										"一个研究这扇门的人物，如果在DC13智力（调查）检查中成功，就会感觉到它的魔力以某种方式进入房间--这是一条线索，表明点燃火炉也能解开这扇门的魔法锁。当钎子被点燃时，门上的光脉冲宣布防护装置已被禁用。拉动杠杆就可以打开门。"
									]
								},
								{
									"type": "entries",
									"name": "Treasure",
									"entries": [
										"如果人物与盗墓贼战斗并击败了他们，他们就可以得到他们的装备和财宝--普通的武器和盔甲、三个治疗药水、价值45gp的硬币和宝石，以及一个你选择的不常用的消耗性魔法物品。",
										{
											"type": "inset",
											"name": "The Grave Robbers",
											"entries": [
												"如果人物决定对盗墓者下手，他们将面临一场艰苦的战斗。",
												"- {@b {@creature illusionist|vgm|Samulkin Farcaster}}是一个盗贼法师，也是这个团体的领导者，当他觉得自己的处境有点不妙时，就会用夸张的手法来掩饰。对萨穆尔金使用{@creature illusionist|vgm}的统计资料。",
												"- {@b {@creature knight|mm|Gromlik Three-Teeth}}是一个带着剑和盾牌的全副武装的战士。大多数人认为他是个侏儒，但没有人真正愿意问。用{@creature knight}的统计数字来衡量格罗米克。",
												"- {@b {@creature scout|mm|Cailyassa Forgedawn}}是一个拥有短弓的半精灵游荡者--和一个脾气暴躁的人。对Cailyassa使用{@creature scout}统计。",
												"他们的经验和智慧使盗墓者即使对S级队伍也是一个挑战。对于低级别的角色，请对萨穆尔金和格罗姆利克的属性做如下调整。",
												"- 对于{@b 3rd-level party}，萨穆尔金已经消耗了他的第三级和第四级法术槽，只有19点命中率。格罗姆利克只有26点命中率，不能使用他的领导能力。",
												"- 对于{@b 4th-level party}，萨穆尔金已经消耗了他的四级法术槽，只有28点命中。格罗姆利克只有35点命中率。"
											]
										}
									]
								}
							]
						},
						{
							"type": "section",
							"name": "Area 13: Final Crypt",
							"id": "Area 13: Final Crypt",
							"entries": [
								{
									"type": "insetReadaloud",
									"entries": [
										"在一个低矮的房间里，东北角有一尊凯勒莫的雕像，雕像前有一个大箱子，脚下有一个破碎的印章。西边矗立着一具华丽的石棺，周围四个小基座中的一个上放着一本尘封的开本。一具尸体躺在石棺前，石棺的侧面有骷髅头，石棺上的雕刻带着一种神秘的味道，这在以前的墓室中是看不到的。"
									]
								},
								"在成功通过DC13智力（阿卡纳或历史）检查的情况下，一个角色可以认出石棺上的铭文是泰伊族的性质。一个有泰族背景的角色会自动知道这一点。",
								"基座上的书是凯勒莫里特人留在这里的一本布满灰尘的祈祷书，对一个寺庙来说价值10金币。 尸体是一名圣徒，在早先的一次亡灵崛起中死在这里。",
								{
									"type": "entries",
									"name": "Vengeful Undead",
									"entries": [
										{
											"type": "image",
											"href": {
												"type": "external",
												"url": "https://raw.githubusercontent.com/TheGiddyLimit/homebrew/master/_img/COK/COK-sarcophagus.webp"
											},
											"title": "Sarcophagus"
										},
										"石棺里一个死去多年的法师被提升为{@creature flameskull}，并因进入这个区域的门的打开而从其不死的沉睡中醒来。为了寻求自由，它开始敲打它的棺材盖。 如果角色抬起石棺盖，火骷髅就会立即攻击。如果他们不这样做，它就施展（1%）（它已经准备好了，而不是（2%）），在攻击前把石棺炸开。任何在石棺10英尺范围内的角色都必须在DC12的灵巧救赎中成功，否则会被碎石击中，造成10（%3%）的伤害。其他角色可能会 \"意外地 \"被卷入盲射的队伍中（%4%），这是你认为合适的。",
										"如果盗墓者已经陪同角色进入这个区域，让他们加入战斗，把他们的统计块给三个玩家。在这种情况下，火焰骷髅有80点命中率，可以用它的多重攻击特性使用四次火雷。每一次攻击都要随机掷骰子，以确定火焰骷髅的目标是玩家角色还是NPC。",
										"如果角色能在{@area 12|Area 12: Warded Chamber}内引诱火焰牛进入燃烧的钎子的光线中，它将在撤退和攻击范围之前只受到一次来自钎子光线的伤害。"
									]
								},
								{
									"type": "entries",
									"name": "Back Door",
									"entries": [
										"人物（和任何幸存的盗墓者）如果没有理由重新回到地牢的路线，可以使用（%0%）的门离开墓室。 然而，这扇门没有杠杆，这意味着它必须手动或用魔法打开。",
										"楼梯爬了60英尺，然后从凯勒莫尔神庙附近的陵墓中的一个隐蔽的门出来。(Soulhearth和他的圣徒伙伴们并不知道这个早已被遗忘的进入墓穴的第二个入口，他们很感谢这些人物让他们注意到这一点，以便他们能够关闭它。)"
									]
								},
								{
									"type": "entries",
									"name": "Treasure",
									"entries": [
										"石棺里只有腐烂的长袍。箱子里有给凯勒莫的信物和供品，其中大部分都不值钱--但包括总价值为200金币的宝石和硬币。",
										"如果盗墓贼和角色们一起打到了这个区域，那么就增加宝藏的数量，使角色们的平分量达到上述总数，并添加一个你选择的不常见的可消耗魔法物品。盗墓者对现金更感兴趣，允许人物按你认为合适的方式为魔法讨价还价。"
									]
								}
							]
						},
						{
							"type": "section",
							"name": "Epilogue",
							"id": "Epilogue",
							"entries": [
								"如果人物与盗墓者并肩作战，NPC们一旦上了地面就会努力拍脚，不想向Kelemvorites解释他们在墓穴中的存在。如果人物抓住了NPC，他们可以把他们和破碎的封印一起交给Soulhearth。他给了角色们承诺的20金币，同时也表示感谢。"
							]
						}
					]
				}
			]
		}
	]
}
