{
	"_meta": {
		"sources": [
			{
				"json": "BloodAboveBloodBelow",
				"abbreviation": "DDEP3",
				"full": "Blood Above, Blood Below",
				"url": "https://github.com/TheGiddyLimit/homebrew",
				"authors": [
					"Will Doyle",
					"Claire Hoffman",
					"Chris Tulach",
					"Travis Woodall",
					"Adam Lee",
					"Chris Lindsay",
					"Matt Sernett"
				],
				"convertedBy": [
					"Demonlemontcotl"
				],
				"version": "unknown"
			}
		],
		"dateAdded": 1656791472,
		"dateLastModified": 1690651615,
		"_dateLastModifiedHash": "461c78efa7"
	},
	"monster": [
		{
			"name": "Beholder Eye of Flame",
			"group": [
				"Beholders"
			],
			"source": "BloodAboveBloodBelow",
			"page": 72,
			"size": [
				"L"
			],
			"type": "aberration",
			"alignment": [
				"L",
				"E"
			],
			"ac": [
				{
					"ac": 18,
					"from": [
						"{@item plate armor|phb}"
					]
				}
			],
			"hp": {
				"average": 180,
				"formula": "19d10 + 76"
			},
			"speed": {
				"walk": 0,
				"fly": {
					"number": 20,
					"condition": "(hover)"
				},
				"canHover": true
			},
			"str": 10,
			"dex": 14,
			"con": 18,
			"int": 17,
			"wis": 15,
			"cha": 17,
			"save": {
				"int": "+8",
				"wis": "+7",
				"cha": "+8"
			},
			"skill": {
				"perception": "+12"
			},
			"senses": [
				"darkvision 120 ft."
			],
			"passive": 22,
			"conditionImmune": [
				"prone"
			],
			"languages": [
				"Deep Speech",
				"Undercommon"
			],
			"cr": "13",
			"trait": [
				{
					"name": "Vulnerability Cone",
					"entries": [
						"观察者的中央眼睛在150英尺的范围内形成一个易受火灾伤害的区域。圆锥内的所有生物都会获得对火的脆弱性。在每个回合开始时，观察者决定圆锥体的方向以及圆锥体是否处于活动状态。"
					]
				},
				{
					"name": "Heated Body",
					"entries": [
						"在5英尺范围内的生物接触到看守者或用近身攻击击中它时，会受到7（（%0%））的火焰伤害。"
					]
				}
			],
			"action": [
				{
					"name": "Bite",
					"entries": [
						"{@atk mw} {@hit 5}击中，到达5英尺，一个目标。{@h}14 ({@damage 4d6})穿刺伤害加上14 ({@damage 4d6})火焰伤害"
					]
				},
				{
					"name": "Eye Rays",
					"entries": [
						"观察者随机发射以下三种魔眼射线（重选重复的，火焰射线除外），选择120英尺内它能看到的一至三个目标。",
						"1-2. 火焰射线。目标生物必须做一个{@dc 16}灵巧的蓄力动作，否则会受到44({@damage 8d10})的火焰伤害。",
						"3. 恐惧射线。目标生物必须在智慧救赎中获得成功，否则将在1分钟内受到{@condition frightened}的伤害。目标可以在其每个回合结束时重复蓄力，如果成功则结束对自己的影响。",
						"4. 心灵感应射线。如果目标是一个生物，它必须在一个{@dc 16}的力量投掷中成功，否则持咒者会将它向任何方向移动最多30英尺。它将被射线的心灵感应所控制，直到持证人下一回合开始或持证人处于{@condition incapacitated}。",
						"如果目标是一个重量为300磅或以下的物体，并且没有被佩戴或携带，那么它可以在任何方向上移动30英尺。观察者还可以用这种射线对物体进行精细控制，例如操纵一个简单的工具或打开一扇门或一个容器。"
					]
				}
			],
			"legendaryHeader": [
				"The beholder can take 3 legendary actions, using the Eye Ray option below. It can take only one legendary action at a time and only at the end of another creature's turn. The beholder regains spent legendary actions at the start of its turn."
			],
			"legendary": [
				{
					"name": "Eye Ray",
					"entries": [
						"观察者使用一个随机的眼睛射线。"
					]
				}
			],
			"senseTags": [
				"SD"
			],
			"languageTags": [
				"DS",
				"U"
			],
			"damageTags": [
				"F",
				"P"
			],
			"miscTags": [
				"MW",
				"AOE"
			],
			"conditionInflict": [
				"frightened"
			],
			"conditionInflictLegendary": [
				"grappled"
			],
			"hasFluff": true,
			"hasFluffImages": true,
			"immune": [
				"fire"
			],
			"savingThrowForced": [
				"dexterity",
				"strength",
				"wisdom"
			]
		},
		{
			"name": "Jumping Spider",
			"source": "BloodAboveBloodBelow",
			"page": 77,
			"size": [
				"L"
			],
			"type": "beast",
			"alignment": [
				"U"
			],
			"ac": [
				{
					"ac": 14,
					"from": [
						"natural armor"
					]
				}
			],
			"hp": {
				"formula": "8d10 + 8",
				"average": 52
			},
			"speed": {
				"walk": 30,
				"climb": 30
			},
			"str": 14,
			"dex": 16,
			"con": 12,
			"int": 2,
			"wis": 11,
			"cha": 4,
			"skill": {
				"stealth": "+7"
			},
			"senses": [
				"blindsight 10 ft.",
				"darkvision 60 ft."
			],
			"passive": 10,
			"trait": [
				{
					"name": "Spider Climb",
					"entries": [
						"蜘蛛可以爬上困难的表面，包括倒立在天花板上，而不需要进行能力检查。"
					]
				},
				{
					"name": "Web Sense",
					"entries": [
						"当接触到一张网时，蜘蛛知道与同一张网接触的任何其他生物的确切位置。"
					]
				},
				{
					"name": "Web Walker",
					"entries": [
						"蜘蛛无视由网状物造成的移动限制。"
					]
				}
			],
			"traitTags": [
				"Spider Climb",
				"Web Sense",
				"Web Walker"
			],
			"senseTags": [
				"B",
				"D"
			],
			"damageTags": [
				"I"
			],
			"hasFluff": true,
			"hasFluffImages": true,
			"bonus": [
				{
					"name": "Jump",
					"entries": [
						"蜘蛛的跳远高度可达40英尺，当它有一个跑步的起点时，其跳高高度可达20英尺。"
					]
				}
			]
		},
		{
			"name": "Spitting Spider",
			"source": "BloodAboveBloodBelow",
			"page": 77,
			"size": [
				"L"
			],
			"type": "beast",
			"alignment": [
				"U"
			],
			"ac": [
				{
					"ac": 14,
					"from": [
						"natural armor"
					]
				}
			],
			"hp": {
				"formula": "8d10 + 8",
				"average": 52
			},
			"speed": {
				"walk": 30,
				"climb": 30
			},
			"str": 14,
			"dex": 16,
			"con": 12,
			"int": 2,
			"wis": 11,
			"cha": 4,
			"skill": {
				"stealth": "+7"
			},
			"senses": [
				"blindsight 10 ft.",
				"darkvision 60 ft."
			],
			"passive": 10,
			"trait": [
				{
					"name": "Spider Climb",
					"entries": [
						"蜘蛛可以爬上困难的表面，包括倒立在天花板上，而不需要进行能力检查。"
					]
				},
				{
					"name": "Web Sense",
					"entries": [
						"当接触到一张网时，蜘蛛知道与同一张网接触的任何其他生物的确切位置。"
					]
				},
				{
					"name": "Web Walker",
					"entries": [
						"蜘蛛无视由网状物造成的移动限制。"
					]
				}
			],
			"traitTags": [
				"Spider Climb",
				"Web Sense",
				"Web Walker"
			],
			"senseTags": [
				"B",
				"D"
			],
			"damageTags": [
				"I"
			],
			"hasFluff": true,
			"hasFluffImages": true,
			"bonus": [
				{
					"name": "Spit Venom {@recharge 5}",
					"entries": [
						"作为你回合的额外行动，蜘蛛向一个敌人吐出毒液。{@atk rw} {@hit 5}击中，范围30/60英尺，一个生物。{@h}11 ({@damage 3d6})毒液伤害"
					]
				}
			],
			"miscTags": [
				"RW"
			]
		},
		{
			"name": "Thug Spider",
			"source": "BloodAboveBloodBelow",
			"page": 77,
			"size": [
				"L"
			],
			"type": "beast",
			"alignment": [
				"U"
			],
			"ac": [
				{
					"ac": 14,
					"from": [
						"natural armor"
					]
				}
			],
			"hp": {
				"formula": "12d10 + 12",
				"average": 78
			},
			"speed": {
				"walk": 30,
				"climb": 30
			},
			"str": 14,
			"dex": 16,
			"con": 12,
			"int": 2,
			"wis": 11,
			"cha": 4,
			"skill": {
				"stealth": "+7"
			},
			"senses": [
				"blindsight 10 ft.",
				"darkvision 60 ft."
			],
			"passive": 10,
			"trait": [
				{
					"name": "Spider Climb",
					"entries": [
						"蜘蛛可以爬上困难的表面，包括倒立在天花板上，而不需要进行能力检查。"
					]
				},
				{
					"name": "Web Sense",
					"entries": [
						"当接触到一张网时，蜘蛛知道与同一张网接触的任何其他生物的确切位置。"
					]
				},
				{
					"name": "Web Walker",
					"entries": [
						"蜘蛛无视由网状物造成的移动限制。"
					]
				}
			],
			"traitTags": [
				"Spider Climb",
				"Web Sense",
				"Web Walker"
			],
			"senseTags": [
				"B",
				"D"
			],
			"damageTags": [
				"I"
			],
			"hasFluff": true,
			"hasFluffImages": true,
			"reaction": [
				{
					"name": "Shield",
					"entries": [
						"你可以用你的反应让蜘蛛保护你或10英尺内的盟友免受攻击。如果是这样，蜘蛛会受到攻击的一半伤害。"
					]
				}
			]
		}
	]
}
