{
	"_meta": {
		"sources": [
			{
				"json": "BeGr",
				"abbreviation": "BeGr",
				"full": "Better Greatwyrms",
				"url": "https://www.gmbinder.com/share/-Mp2jJc9U6-iX7yheWyE",
				"authors": [
					"badooga"
				],
				"convertedBy": [
					"badooga"
				],
				"color": "c9c900",
				"version": "1.0.0"
			}
		],
		"dateAdded": 1641853270,
		"dateLastModified": 1707671387,
		"_dateLastModifiedHash": "bf4d9aa1fa"
	},
	"monster": [
		{
			"name": "White Greatwyrm",
			"shortName": "greatwyrm",
			"group": [
				"Chromatic Dragon"
			],
			"source": "BeGr",
			"size": [
				"G"
			],
			"type": {
				"type": "dragon",
				"tags": [
					"chromatic"
				]
			},
			"alignment": [
				"C",
				"E"
			],
			"ac": [
				{
					"ac": 22,
					"from": [
						"natural armor"
					]
				}
			],
			"hp": {
				"formula": "25d20 + 225",
				"average": 487
			},
			"speed": {
				"walk": 60,
				"burrow": 60,
				"fly": 120,
				"swim": 60
			},
			"str": 30,
			"dex": 12,
			"con": 28,
			"int": 18,
			"wis": 22,
			"cha": 17,
			"save": {
				"dex": "+9",
				"con": "+17",
				"wis": "+14",
				"cha": "+11"
			},
			"skill": {
				"perception": "+22",
				"stealth": "+9",
				"intimidation": "+19"
			},
			"senses": [
				"truesight 120 ft."
			],
			"passive": 32,
			"immune": [
				"cold"
			],
			"languages": [
				"Common",
				"Draconic"
			],
			"cr": "25",
			"trait": [
				{
					"name": "Ice Walk",
					"entries": [
						"大巫师可以在冰面上移动和攀爬，而不需要进行能力检查。此外，由冰或雪组成的困难地形也不需要花费它额外的时间。"
					]
				},
				{
					"name": "Draconic Might",
					"entries": [
						"大魔王的武器攻击具有魔力，对物体和结构造成四倍的伤害。当它用近战攻击击中目标时，如果攻击卷满足或超过目标的被动力量（（%0%））得分，大巫师可以将其推到10英尺以外，如果其神话特性处于激活状态，则可以推到20英尺以外。"
					]
				},
				{
					"name": "Absolute Zero (Mythic Trait; Once Per Rest)",
					"entries": [
						"如果大巫师的命中率会降至0，它反而会恢复到最大命中率，而且它可以对自己结束任何它选择的法术。然后，它在120英尺的范围内释放出一股寒冷的元素。该区域内的每个生物都必须在宪法规定的投掷中获得成功，否则就会在龙的下一个回合结束前受到1%的影响。"
					]
				},
				{
					"name": "Brutish Durability",
					"entries": [
						"每当大巫师进行救赎时，它可以掷出一个{@dice d10}，并将结果加入总数。"
					]
				},
				{
					"name": "Indomitable (3/Day)",
					"entries": [
						"大巫师可以重新掷出它失败的蓄力。它必须使用新的投票。"
					]
				}
			],
			"action": [
				{
					"name": "Multiattack",
					"entries": [
						"大巫师可以使用它的 \"恐怖存在\"。然后它进行三次攻击：一次是咬，两次是爪子。"
					]
				},
				{
					"name": "Bite",
					"entries": [
						"{@atk mw} {@hit 18}击中，到达15英尺，一个目标。{@h}21 ({@damage 2d10 + 10})的穿刺伤害加上13 ({@damage 2d12})的寒冷伤害，并且目标的速度降低10英尺，直到其下一回合结束。"
					]
				},
				{
					"name": "Claw",
					"entries": [
						"{@atk mw} {@hit 18}击中，到达10英尺，一个目标。{@h}19 ({@damage 2d8 + 10})砍击伤害。如果目标是巨大或较小的生物，则是{@condition grappled}(逃跑{@dc 20})和{@condition restrained}，直到这个抓捕结束。大巫师一次只能让一个生物（%7%）这样。"
					]
				},
				{
					"name": "Tail",
					"entries": [
						"{@atk mw} {@hit 18}击中，到达20英尺，一个目标。{@h}19 ({@damage 2d8 + 10})重击伤害。如果目标是一个生物，它必须在一个{@dc 26}的力量投掷中成功，或者被击倒{@condition prone}。"
					]
				},
				{
					"name": "Frightful Presence",
					"entries": [
						"每个大巫师选择的生物，如果在龙的1英里范围内并且意识到它，必须在一个{@dc 19}智慧救赎上成功，否则就会变成{@condition frightened}，持续1分钟。一个生物可以在它的每个回合结束时重复蓄力，如果成功，则结束对它的影响。如果一个生物的自救成功或者效果结束，该生物在接下来的24小时内对大巫师的恐怖存在免疫。"
					]
				},
				{
					"name": "Frost Breath {@recharge 5}",
					"entries": [
						"大巫师在300英尺的范围内呼出一个冰冷的爆炸声。该区域内的每个生物和物体都会受到88({@damage 16d10})的冰冷伤害({@dc 25}宪法救赎为一半)。该区域内受损的表面会变成{@hazard slippery ice}(DMG 110)，直到被清除。"
					]
				}
			],
			"reaction": [
				{
					"name": "Vicious Reprisal",
					"entries": [
						"在受到伤害时，大魔王会对它周围5英尺内的一个随机生物进行一次咬合攻击。如果没有生物在它的范围内，大巫师可以攻击一个物体，或者它可以以一半的速度向它能看到的敌人移动，而不会引起机会攻击。"
					]
				}
			],
			"legendary": [
				{
					"name": "Tail Attack",
					"entries": [
						"大魔王会进行两次尾部攻击，其中一次必须针对一个物体。"
					]
				},
				{
					"name": "Savage (Costs 2 Actions)",
					"entries": [
						"大虫对它周围10英尺内的每个生物和物体进行一次爪击。"
					]
				},
				{
					"name": "Wing Attack (Costs 2 Actions)",
					"entries": [
						"大魔王拍打它的翅膀。每个在大巫师10英尺范围内的生物都必须在一个{@dc 26}灵巧的蓄力动作上成功，否则会受到17({@damage 2d6 + 10})的重击伤害并被击倒{@condition prone}。然后，大魔王可以飞到其飞行速度的一半。"
					]
				}
			],
			"legendaryGroup": {
				"name": "White Dragon",
				"source": "MM"
			},
			"fluff": {
				"_monsterFluff": {
					"name": "Chromatic Greatwyrms",
					"source": "BeGr"
				},
				"images": [
					{
						"type": "image",
						"href": {
							"type": "internal",
							"path": "bestiary/MM/White%20Dragon.webp"
						}
					}
				]
			},
			"dragonCastingColor": "white",
			"token": {
				"name": "Adult White Dragon",
				"source": "MM"
			},
			"senseTags": [
				"U"
			],
			"actionTags": [
				"Breath Weapon",
				"Frightful Presence",
				"Multiattack",
				"Shapechanger"
			],
			"languageTags": [
				"C",
				"DR"
			],
			"damageTags": [
				"P",
				"C",
				"S",
				"B"
			],
			"miscTags": [
				"MW",
				"RCH",
				"AOE"
			],
			"conditionInflict": [
				"frightened",
				"grappled",
				"prone",
				"restrained"
			],
			"mythicHeader": [
				"If the greatwyrm's mythic trait has activated in the last hour, it can use the options below as legendary actions."
			],
			"conditionImmune": [
				"charmed",
				"exhaustion",
				"frightened"
			],
			"mythic": [
				{
					"name": "Fling",
					"entries": [
						"大巫师持有的一个巨大或较小的物体或生物（%0%）被抛向一个随机方向，最多30英尺，并被击倒（%1%）。如果被抛出的目标撞击到坚固的表面，那么目标每被抛出10英尺就会受到3（%2%）的重击伤害。如果目标被抛向另一个生物，该生物必须成功进行{@dc 20}灵巧救赎，否则会受到同样的伤害并被击倒{@condition prone}。"
					]
				},
				{
					"name": "Icicle Impale",
					"entries": [
						"{@atk rs} {@hit 17}击中，范围60英尺，一个目标。{@h} 19 ({@damage 3d6 + 9})穿刺伤害，并且目标的速度降低10英尺，直到下一回合结束。"
					]
				},
				{
					"name": "Ice Shards (Costs 2 Actions)",
					"entries": [
						"大巫师使冰的碎片从它周围120英尺内的任何冰上迸发出来。每个在冰层5英尺范围内的生物都会受到9({@damage 2d8})的穿刺伤害和9({@damage 2d8})的寒冷伤害（{@dc 25}灵巧救赎为一半）。如果救赎失败5次或更多，目标也只对使用力量的武器攻击造成一半的伤害，直到其下一回合结束。"
					]
				}
			],
			"bonus": [
				{
					"name": "Snowstorm (1/Day)",
					"entries": [
						"大巫师在方圆1英里内释放魔法暴风雪，持续1小时。使用{@hazard blizzard|IDRotF}(IDRotF 10)或{@hazard heavy precipitation}(DMG 110)条目来表示其效果。大魔王无视暴风雪造成的所有影响。"
					]
				}
			],
			"variant": [
				{
					"type": "inset",
					"name": "Customizing Dragons",
					"source": "FTD",
					"page": 33,
					"entries": [
						"你可以自定义任何龙的状态块，以反映龙的独特性格。像下面这样的小改动是很容易做到的，而且对龙的挑战等级没有影响。",
						{
							"type": "entries",
							"name": "Languages",
							"entries": [
								"大多数龙喜欢说龙语，但为了与盟友和爪牙打交道而学习普通话。但鉴于它们的高智力和长寿命，龙可以很容易地学习其他语言。你可以将语言添加到龙的状态块中。"
							]
						},
						{
							"type": "entries",
							"name": "Skills",
							"entries": [
								"大多数龙都精通{@skill Perception}和{@skill Stealth}的技能，许多龙还有额外的技能精通能力。与语言一样，你可以定制龙的技能列表（甚至将他们对某些技能的熟练度奖励翻倍），以反映特定的兴趣和活动。你也可以给龙提供工具能力，特别是如果龙花时间在人形上。"
							]
						},
						{
							"type": "entries",
							"name": "Spells",
							"entries": [
								"{@note See the \"Variant: Dragons as Innate Spellcasters\" inset(s), below.}"
							]
						},
						{
							"type": "entries",
							"name": "Other Traits and Actions",
							"entries": [
								"你可以借用其他怪物的特性和行动来为龙增加独特的味道。考虑一下这些例子。",
								{
									"type": "list",
									"style": "list-hang-notitle",
									"items": [
										{
											"type": "item",
											"name": "Change Shape.",
											"entries": [
												"你可以决定让龙在比平时更小的年龄获得这个动作，特别是如果你想在你的活动中以人形的龙为特色。",
												"龙会神奇地多态化为一个挑战等级不高于它自己的人或野兽，或者回到它的真实形态。如果它死了，它就会恢复到它的真实形态。它所穿戴或携带的任何装备都会被新形态吸收或承担（由龙选择）。",
												"在一个新的形态中，龙保留了它的排列组合、命中率、命中率、说话的能力、专长、传奇抵抗、巢穴行动、智力、智慧和魅力的分数，以及这个行动。它的统计数据和能力被新的形态所取代，但该形态的任何等级特征或传奇行动除外。"
											]
										},
										{
											"type": "item",
											"name": "Flyby,",
											"entries": [
												"龙是一种灵活的飞行器，能迅速飞出敌人的范围。",
												"当龙飞出敌人的范围时，不会引发机会攻击。"
											]
										},
										{
											"type": "item",
											"name": "Mimicry.",
											"entries": [
												"冒充人物或其盟友可能是狡猾的龙的一个有趣的技巧。",
												"龙可以模仿它所听到的任何声音，包括声音。听到这些声音的生物可以通过成功的{@dc 13}智慧({@skill Insight})检查来判断它们是模仿的。"
											]
										},
										{
											"type": "item",
											"name": "Rejuvenation.",
											"entries": [
												"你可以决定，在你的战役中，龙作为物质世界的重要组成部分，几乎不可能被摧毁。龙的生命精华可能被保存在它最初出现的蛋里、它的囤积物里，或者世界中心的一个洞穴大厅里，就像巫师的精华被藏在法器里一样。",
												"如果它有一个保存精华的物体，被摧毁的龙会在{@dice 1d10}天内获得一个新的身体，恢复它所有的命中率并再次变得活跃。新的身体会出现在该物体的5英尺范围内。"
											]
										},
										{
											"type": "item",
											"name": "Special Senses.",
											"entries": [
												"大多数龙有（%0%）和（%1%）。你可能会将{@sense blindsight}升级为{@sense truesight}，或者你可以给一条有钻洞速度的龙{@sense tremorsense|MM}。"
											]
										}
									]
								}
							]
						}
					]
				}
			],
			"dragonAge": "greatwyrm",
			"damageTagsLegendary": [
				"C",
				"P"
			],
			"hasFluff": true,
			"savingThrowForced": [
				"constitution",
				"dexterity",
				"strength",
				"wisdom"
			],
			"savingThrowForcedLegendary": [
				"constitution"
			]
		},
		{
			"name": "Black Greatwyrm",
			"shortName": "greatwyrm",
			"group": [
				"Chromatic Dragon"
			],
			"source": "BeGr",
			"size": [
				"G"
			],
			"type": {
				"type": "dragon",
				"tags": [
					"chromatic"
				]
			},
			"alignment": [
				"C",
				"E"
			],
			"ac": [
				{
					"ac": 22,
					"from": [
						"natural armor"
					]
				}
			],
			"hp": {
				"formula": "26d20 + 234",
				"average": 507
			},
			"speed": {
				"walk": 60,
				"burrow": 60,
				"fly": 120,
				"swim": 60
			},
			"str": 30,
			"dex": 14,
			"con": 28,
			"int": 22,
			"wis": 21,
			"cha": 24,
			"save": {
				"dex": "+10",
				"con": "+17",
				"wis": "+13",
				"cha": "+15"
			},
			"skill": {
				"perception": "+21",
				"stealth": "+10",
				"intimidation": "+23"
			},
			"senses": [
				"truesight 120 ft."
			],
			"passive": 31,
			"immune": [
				"acid"
			],
			"languages": [
				"Common",
				"Draconic"
			],
			"cr": "26",
			"trait": [
				{
					"name": "Draconic Might",
					"entries": [
						"大魔王的武器攻击具有魔力，对物体和结构造成四倍的伤害。当它用近战攻击击中目标时，如果攻击卷满足或超过目标的被动力量（（%0%））得分，大巫师可以将其推到10英尺以外，如果其神话特性处于激活状态，则可以推到20英尺以外。"
					]
				},
				{
					"name": "Feign Weakness (Mythic Trait; Once Per Rest)",
					"entries": [
						"如果大虫死了，它会痛苦地尖叫，因为它的身体会融化成一滩酸液和污物。在下一回合开始时，它的身体会从这个水坑中复原，重新设定为最大命中率，结束对自己的任何法术选择，并再次变得活跃。然后，大巫师以它的速度向杀死它的生物移动（不引起机会攻击），如果可能的话，对它进行一次爪击攻击。"
					]
				},
				{
					"name": "Unbreakable",
					"entries": [
						"如果大巫师在其回合开始时是{@condition incapacitated}、{@condition poisoned}或{@condition restrained}，任何造成这些状况的效果都会立即在大巫师身上结束。"
					]
				},
				{
					"name": "Stench",
					"entries": [
						"在大虫的每个回合开始时，在它30英尺范围内的每个生物都必须成功地进行一个{@dc 25}宪法救赎，否则会被{@condition poisoned}，直到下一个回合开始。如果救赎成功，该生物将在24小时内对大巫师的恶臭免疫。"
					]
				}
			],
			"action": [
				{
					"name": "Multiattack",
					"entries": [
						"大巫师可以使用它的 \"恐怖存在\"。然后它进行三次攻击：一次是咬，两次是爪子。"
					]
				},
				{
					"name": "Bite",
					"entries": [
						"{@atk mw} {@hit 18}击中，到达15英尺，一个目标。{@h}21 ({@damage 2d10 + 10})穿刺伤害加上13 ({@damage 2d12})酸液伤害。"
					]
				},
				{
					"name": "Claw",
					"entries": [
						"{@atk mw} {@hit 18}击中，到达10英尺，一个目标。{@h}19 ({@damage 2d8 + 10})砍击伤害。如果目标是巨大或较小的生物，则是{@condition grappled}(逃跑{@dc 20})和{@condition restrained}，直到这个抓捕结束。大巫师一次只能让一个生物（%7%）这样。"
					]
				},
				{
					"name": "Tail",
					"entries": [
						"{@atk mw} {@hit 18}击中，到达20英尺，一个目标。{@h}19 ({@damage 2d8 + 10})重击伤害。如果目标是一个生物，它必须在一个{@dc 26}的力量投掷中成功，或者被击倒{@condition prone}。"
					]
				},
				{
					"name": "Frightful Presence",
					"entries": [
						"每个大巫师选择的生物，如果在龙的1英里范围内并且意识到它，必须在一个{@dc 23}智慧救赎上成功，否则就会变成{@condition frightened}，持续1分钟。一个生物可以在它的每个回合结束时重复蓄力，如果成功，则结束对它的影响。如果一个生物的自救成功或者效果结束，该生物在接下来的24小时内对大巫师的恐怖存在免疫。"
					]
				},
				{
					"name": "Corrosive Breath {@recharge 5}",
					"entries": [
						"大巫师在300英尺的范围内吐出酸液，宽度为20英尺。该区域内的每个生物和物体都会受到88({@damage 16d10})酸的伤害({@dc 25}灵巧救赎为一半)。该区域内受损的表面会变成腐蚀的酸池，直到被清除。任何接触到这些表面的生物或物体都会受到11({@damage 2d10})的酸液伤害；目标每回合不能受到超过一次的伤害。"
					]
				}
			],
			"legendary": [
				{
					"name": "Tail Attack",
					"entries": [
						"大魔王会进行两次尾部攻击，其中一次必须针对一个物体。"
					]
				},
				{
					"name": "Vitriolic Spray",
					"entries": [
						"{@atk rs} {@hit 15}击中，范围90英尺，一个目标。{@h} 14 ({@damage 3d4 + 7})酸液伤害，目标必须在{@dc 23}体质测试中成功，否则会被{@condition blinded}，直到其下一回合结束。"
					]
				},
				{
					"name": "Wing Attack (Costs 2 Actions)",
					"entries": [
						"大魔王拍打它的翅膀。每个在大巫师10英尺范围内的生物都必须在一个{@dc 26}灵巧的蓄力动作上成功，否则会受到17({@damage 2d6 + 10})的重击伤害并被击倒{@condition prone}。然后，大魔王可以飞到其飞行速度的一半。"
					]
				}
			],
			"legendaryGroup": {
				"name": "Black Dragon",
				"source": "MM"
			},
			"fluff": {
				"_monsterFluff": {
					"name": "Chromatic Greatwyrms",
					"source": "BeGr"
				},
				"images": [
					{
						"type": "image",
						"href": {
							"type": "internal",
							"path": "bestiary/MM/Black%20Dragon.webp"
						}
					}
				]
			},
			"dragonCastingColor": "black",
			"token": {
				"name": "Adult Black Dragon",
				"source": "MM"
			},
			"senseTags": [
				"U"
			],
			"actionTags": [
				"Breath Weapon",
				"Frightful Presence",
				"Multiattack",
				"Shapechanger"
			],
			"languageTags": [
				"C",
				"DR"
			],
			"damageTags": [
				"P",
				"A",
				"S",
				"B",
				"C"
			],
			"miscTags": [
				"MW",
				"RCH",
				"AOE"
			],
			"conditionInflict": [
				"blinded",
				"frightened",
				"grappled",
				"poisoned",
				"prone",
				"restrained"
			],
			"mythicHeader": [
				"If the greatwyrm's mythic trait has activated in the last hour, it can use the options below as legendary actions."
			],
			"conditionImmune": [
				"charmed",
				"exhaustion",
				"frightened"
			],
			"mythic": [
				{
					"name": "Fling",
					"entries": [
						"大巫师持有的一个巨大或较小的物体或生物（%0%）被抛向一个随机方向，最多30英尺，并被击倒（%1%）。如果被抛出的目标撞击到坚固的表面，那么目标每被抛出10英尺就会受到3（%2%）的重击伤害。如果目标被抛向另一个生物，该生物必须成功进行{@dc 20}灵巧救赎，否则会受到同样的伤害并被击倒{@condition prone}。"
					]
				},
				{
					"name": "Corrosive Decay (Costs 2 Actions)",
					"entries": [
						"大巫师在一个半径20英尺、高40英尺的圆柱体中释放出一阵腐烂和酸液，以它周围90英尺内的一个点为中心。该区域内的每个生物和物体都会受到22({@damage 4d10})的酸液伤害({@dc 25}灵巧救赎为一半)。该区域内的物体会永久地受到所有的伤害，而且每个受到这种伤害的生物在力量和体质方面都会受到不利的影响，直到大巫师的下一个回合结束。"
					]
				},
				{
					"name": "Summon Shambling Mound (Costs 2 Actions)",
					"entries": [
						"大巫师在它周围30英尺范围内的一个无人空间里神奇地创造了一个（%0%）。晃动的土丘在每轮主动权计数20时轮到它（失去主动权的平局），并尽其所能地执行大巫师的恶意意愿。"
					]
				}
			],
			"bonus": [
				{
					"name": "Rampage",
					"entries": [
						"当大巫师在其回合内以近战攻击将一个生物或巨大物体的命中率降至0时，它可以使用这个额外行动来移动至其速度的一半并进行另一次攻击。"
					]
				},
				{
					"name": "Gas Cloud (1/Day)",
					"entries": [
						"大巫师在1英里范围内释放出一团有毒气体，持续1小时。该气体将能见度降低到120英尺，该半径内的一切都会被轻度遮蔽。在这种气体中，生物会被持续的咳嗽所困扰，并且不能从对酸或毒的抵抗中获益。如果一个生物在气体中死亡，昆虫和污秽物会附在它的尸体上，使它在同一空间内上升为（%0%）。大巫师无视所有由云雾造成的影响。"
					]
				}
			],
			"variant": [
				{
					"type": "inset",
					"name": "Customizing Dragons",
					"source": "FTD",
					"page": 33,
					"entries": [
						"你可以自定义任何龙的状态块，以反映龙的独特性格。像下面这样的小改动是很容易做到的，而且对龙的挑战等级没有影响。",
						{
							"type": "entries",
							"name": "Languages",
							"entries": [
								"大多数龙喜欢说龙语，但为了与盟友和爪牙打交道而学习普通话。但鉴于它们的高智力和长寿命，龙可以很容易地学习其他语言。你可以将语言添加到龙的状态块中。"
							]
						},
						{
							"type": "entries",
							"name": "Skills",
							"entries": [
								"大多数龙都精通{@skill Perception}和{@skill Stealth}的技能，许多龙还有额外的技能精通能力。与语言一样，你可以定制龙的技能列表（甚至将他们对某些技能的熟练度奖励翻倍），以反映特定的兴趣和活动。你也可以给龙提供工具能力，特别是如果龙花时间在人形上。"
							]
						},
						{
							"type": "entries",
							"name": "Spells",
							"entries": [
								"{@note See the \"Variant: Dragons as Innate Spellcasters\" inset(s), below.}"
							]
						},
						{
							"type": "entries",
							"name": "Other Traits and Actions",
							"entries": [
								"你可以借用其他怪物的特性和行动来为龙增加独特的味道。考虑一下这些例子。",
								{
									"type": "list",
									"style": "list-hang-notitle",
									"items": [
										{
											"type": "item",
											"name": "Change Shape.",
											"entries": [
												"你可以决定让龙在比平时更小的年龄获得这个动作，特别是如果你想在你的活动中以人形的龙为特色。",
												"龙会神奇地多态化为一个挑战等级不高于它自己的人或野兽，或者回到它的真实形态。如果它死了，它就会恢复到它的真实形态。它所穿戴或携带的任何装备都会被新形态吸收或承担（由龙选择）。",
												"在一个新的形态中，龙保留了它的排列组合、命中率、命中率、说话的能力、专长、传奇抵抗、巢穴行动、智力、智慧和魅力的分数，以及这个行动。它的统计数据和能力被新的形态所取代，但该形态的任何等级特征或传奇行动除外。"
											]
										},
										{
											"type": "item",
											"name": "Flyby,",
											"entries": [
												"龙是一种灵活的飞行器，能迅速飞出敌人的范围。",
												"当龙飞出敌人的范围时，不会引发机会攻击。"
											]
										},
										{
											"type": "item",
											"name": "Mimicry.",
											"entries": [
												"冒充人物或其盟友可能是狡猾的龙的一个有趣的技巧。",
												"龙可以模仿它所听到的任何声音，包括声音。听到这些声音的生物可以通过成功的{@dc 13}智慧({@skill Insight})检查来判断它们是模仿的。"
											]
										},
										{
											"type": "item",
											"name": "Rejuvenation.",
											"entries": [
												"你可以决定，在你的战役中，龙作为物质世界的重要组成部分，几乎不可能被摧毁。龙的生命精华可能被保存在它最初出现的蛋里、它的囤积物里，或者世界中心的一个洞穴大厅里，就像巫师的精华被藏在法器里一样。",
												"如果它有一个保存精华的物体，被摧毁的龙会在{@dice 1d10}天内获得一个新的身体，恢复它所有的命中率并再次变得活跃。新的身体会出现在该物体的5英尺范围内。"
											]
										},
										{
											"type": "item",
											"name": "Special Senses.",
											"entries": [
												"大多数龙有（%0%）和（%1%）。你可能会将{@sense blindsight}升级为{@sense truesight}，或者你可以给一条有钻洞速度的龙{@sense tremorsense|MM}。"
											]
										}
									]
								}
							]
						}
					]
				}
			],
			"dragonAge": "greatwyrm",
			"damageTagsLegendary": [
				"I",
				"P"
			],
			"hasFluff": true,
			"savingThrowForced": [
				"constitution",
				"dexterity",
				"strength",
				"wisdom"
			],
			"savingThrowForcedLegendary": [
				"constitution",
				"strength"
			]
		},
		{
			"name": "Green Greatwyrm",
			"shortName": "greatwyrm",
			"group": [
				"Chromatic Dragon"
			],
			"source": "BeGr",
			"size": [
				"G"
			],
			"type": {
				"type": "dragon",
				"tags": [
					"chromatic"
				]
			},
			"alignment": [
				"L",
				"E"
			],
			"ac": [
				{
					"ac": 22,
					"from": [
						"natural armor"
					]
				}
			],
			"hp": {
				"formula": "27d20 + 243",
				"average": 526
			},
			"speed": {
				"walk": 60,
				"burrow": 60,
				"fly": 120,
				"swim": 60
			},
			"str": 30,
			"dex": 15,
			"con": 28,
			"int": 26,
			"wis": 21,
			"cha": 24,
			"save": {
				"dex": "+10",
				"con": "+17",
				"wis": "+13",
				"cha": "+15",
				"int": "+16"
			},
			"skill": {
				"perception": "+21",
				"stealth": "+18",
				"intimidation": "+23",
				"persuasion": "+15",
				"deception": "+15",
				"insight": "+13"
			},
			"senses": [
				"truesight 120 ft."
			],
			"passive": 31,
			"immune": [
				"poison"
			],
			"languages": [
				"Common",
				"Draconic"
			],
			"cr": "27",
			"trait": [
				{
					"name": "Draconic Might",
					"entries": [
						"大魔王的武器攻击具有魔力，对物体和结构造成四倍的伤害。当它用近战攻击击中目标时，如果攻击卷满足或超过目标的被动力量（（%0%））得分，大巫师可以将其推到10英尺以外，如果其神话特性处于激活状态，则可以推到20英尺以外。"
					]
				},
				{
					"name": "Deceive the Senses (Mythic Trait; Once Per Rest)",
					"entries": [
						"如果大巫师的命中率会降低到0，它反而会恢复到最大命中率，而且它可以对自己结束任何它选择的法术。然后它变得（%0%），直到下一回合结束，它可以立即移动到它的速度并采取（%1%）的行动（不需要反应）。"
					]
				},
				{
					"name": "Guarded Mind",
					"entries": [
						"大巫师在所有智力、智慧和魅力方面都有优势。"
					]
				},
				{
					"name": "Plant Stride",
					"entries": [
						"大巫师无视植物造成的困难地形，如果它们是非魔法性的，就不能受到它们的伤害。"
					]
				}
			],
			"action": [
				{
					"name": "Multiattack",
					"entries": [
						"大食人魔可以使用它的腐蚀之力。然后它进行三次攻击：一次是咬，两次是爪子。"
					]
				},
				{
					"name": "Bite",
					"entries": [
						"{@atk mw} {@hit 18}击中，到达15英尺，一个目标。{@h}21 ({@damage 2d10 + 10})穿刺伤害加上13 ({@damage 2d12})毒药伤害。"
					]
				},
				{
					"name": "Claw",
					"entries": [
						"{@atk mw} {@hit 18}击中，到达10英尺，一个目标。{@h}19 ({@damage 2d8 + 10})砍击伤害。如果目标是一个巨大或较小的生物，它将被{@condition grappled}(逃脱{@dc 20})，{@condition restrained}，并且在智力、智慧和魅力方面有劣势，直到这次抓捕结束。大巫师每次只能让一个生物（%7%）这样做。"
					]
				},
				{
					"name": "Tail",
					"entries": [
						"{@atk mw} {@hit 18}击中，到达20英尺，一个目标。{@h}19 ({@damage 2d8 + 10})重击伤害。如果目标是一个生物，它必须在一个{@dc 27}的力量投掷中成功，或者被击倒{@condition prone}。"
					]
				},
				{
					"name": "Corrupting Presence",
					"entries": [
						"每一个在龙的1英里范围内并且知道它的大巫师所选择的生物必须在一个{@dc 23}智慧救赎上成功，否则就会变成{@condition charmed}或{@condition frightened}（大巫师选择），持续1分钟。一个生物可以在它的每个回合结束时重复蓄力，如果成功则结束对它的影响。如果一个生物的自救成功或效果结束，该生物在接下来的24小时内对大巫师的腐化存在免疫。"
					]
				},
				{
					"name": "Noxious Breath {@recharge 5}",
					"entries": [
						"大巫师在300英尺的范围内呼出毒气。该区域内的每个生物和物体都会受到91({@damage 26d6})的毒药伤害({@dc 25}宪法救赎为一半)。受损的表面会长出粗大的藤蔓，抓住附近的生物，直到被清除。任何大型或小型的生物，如果在这些藤蔓的5英尺范围内结束它的回合，就会被藤蔓缠住（%2%）（逃脱（%3%））。"
					]
				}
			],
			"legendary": [
				{
					"name": "Tail Attack",
					"entries": [
						"大魔王会进行两次尾部攻击，其中一次必须针对一个物体。"
					]
				},
				{
					"name": "Luring Glare",
					"entries": [
						"龙的目标是它所看到的90英尺内的一个生物。目标必须做一个{@dc 24}智慧救赎动作。如果目标是{@condition poisoned}，则在救赎中处于劣势。如果救赎失败，目标必须使用它的反应，沿着龙选择的路径移动，速度最多为它的一半。"
					]
				},
				{
					"name": "Wing Attack (Costs 2 Actions)",
					"entries": [
						"大魔王拍打它的翅膀。每个在大巫师10英尺范围内的生物都必须在一个{@dc 26}灵巧的蓄力动作上成功，否则会受到17({@damage 2d6 + 10})的重击伤害并被击倒{@condition prone}。然后，大魔王可以飞到其飞行速度的一半。"
					]
				}
			],
			"legendaryGroup": {
				"name": "Green Dragon",
				"source": "MM"
			},
			"fluff": {
				"_monsterFluff": {
					"name": "Chromatic Greatwyrms",
					"source": "BeGr"
				},
				"images": [
					{
						"type": "image",
						"href": {
							"type": "internal",
							"path": "bestiary/MM/Green%20Dragon.webp"
						}
					}
				]
			},
			"dragonCastingColor": "green",
			"token": {
				"name": "Adult Green Dragon",
				"source": "MM"
			},
			"senseTags": [
				"U"
			],
			"actionTags": [
				"Breath Weapon",
				"Multiattack",
				"Shapechanger"
			],
			"languageTags": [
				"C",
				"DR"
			],
			"damageTags": [
				"P",
				"I",
				"S",
				"B",
				"A",
				"Y"
			],
			"miscTags": [
				"MW",
				"RCH",
				"AOE"
			],
			"conditionInflict": [
				"charmed",
				"frightened",
				"grappled",
				"poisoned",
				"prone",
				"restrained"
			],
			"mythicHeader": [
				"If the greatwyrm's mythic trait has activated in the last hour, it can use the options below as legendary actions."
			],
			"conditionImmune": [
				"charmed",
				"exhaustion",
				"frightened",
				"poisoned"
			],
			"mythic": [
				{
					"name": "Nimble Predator",
					"entries": [
						"大巫师最多可以移动30英尺而不引起机会攻击。"
					]
				},
				{
					"name": "Fling",
					"entries": [
						"大巫师持有的一个巨大或较小的物体或生物（%0%）被抛向一个随机方向，最多30英尺，并被击倒（%1%）。如果被抛出的目标撞击到坚固的表面，那么目标每被抛出10英尺就会受到3（%2%）的重击伤害。如果目标被抛向另一个生物，该生物必须成功进行{@dc 20}灵巧救赎，否则会受到同样的伤害并被击倒{@condition prone}。"
					]
				},
				{
					"name": "Mind Poison (Costs 2 Actions)",
					"entries": [
						"大巫师对以其90英尺范围内的一个点为中心的20英尺半径范围内的所有生物发动精神攻击。每个目标受到22({@damage 4d10})的精神伤害({@dc 24}智力救赎为一半)。拯救失败时，目标也会被{@condition poisoned}，直到大巫师的下一个回合结束。"
					]
				}
			],
			"bonus": [
				{
					"name": "Brain Fog (1/Day)",
					"entries": [
						"大巫师在方圆1英里内释放一团毒雾，持续1小时。该气体会轻度遮蔽该区域，该区域的生物无法从抗毒或精神伤害中获益，并在所有智力、智慧和魅力检查中处于劣势。大巫师无视所有由雾气造成的影响。"
					]
				}
			],
			"reaction": [
				{
					"name": "Feed on Weakness",
					"entries": [
						"当大巫师20英尺范围内的生物在智力、智慧或魅力投掷中失败时，大巫师会获得15个临时打击点。"
					]
				}
			],
			"variant": [
				{
					"type": "inset",
					"name": "Customizing Dragons",
					"source": "FTD",
					"page": 33,
					"entries": [
						"你可以自定义任何龙的状态块，以反映龙的独特性格。像下面这样的小改动是很容易做到的，而且对龙的挑战等级没有影响。",
						{
							"type": "entries",
							"name": "Languages",
							"entries": [
								"大多数龙喜欢说龙语，但为了与盟友和爪牙打交道而学习普通话。但鉴于它们的高智力和长寿命，龙可以很容易地学习其他语言。你可以将语言添加到龙的状态块中。"
							]
						},
						{
							"type": "entries",
							"name": "Skills",
							"entries": [
								"大多数龙都精通{@skill Perception}和{@skill Stealth}的技能，许多龙还有额外的技能精通能力。与语言一样，你可以定制龙的技能列表（甚至将他们对某些技能的熟练度奖励翻倍），以反映特定的兴趣和活动。你也可以给龙提供工具能力，特别是如果龙花时间在人形上。"
							]
						},
						{
							"type": "entries",
							"name": "Spells",
							"entries": [
								"{@note See the \"Variant: Dragons as Innate Spellcasters\" inset(s), below.}"
							]
						},
						{
							"type": "entries",
							"name": "Other Traits and Actions",
							"entries": [
								"你可以借用其他怪物的特性和行动来为龙增加独特的味道。考虑一下这些例子。",
								{
									"type": "list",
									"style": "list-hang-notitle",
									"items": [
										{
											"type": "item",
											"name": "Change Shape.",
											"entries": [
												"你可以决定让龙在比平时更小的年龄获得这个动作，特别是如果你想在你的活动中以人形的龙为特色。",
												"龙会神奇地多态化为一个挑战等级不高于它自己的人或野兽，或者回到它的真实形态。如果它死了，它就会恢复到它的真实形态。它所穿戴或携带的任何装备都会被新形态吸收或承担（由龙选择）。",
												"在一个新的形态中，龙保留了它的排列组合、命中率、命中率、说话的能力、专长、传奇抵抗、巢穴行动、智力、智慧和魅力的分数，以及这个行动。它的统计数据和能力被新的形态所取代，但该形态的任何等级特征或传奇行动除外。"
											]
										},
										{
											"type": "item",
											"name": "Flyby,",
											"entries": [
												"龙是一种灵活的飞行器，能迅速飞出敌人的范围。",
												"当龙飞出敌人的范围时，不会引发机会攻击。"
											]
										},
										{
											"type": "item",
											"name": "Mimicry.",
											"entries": [
												"冒充人物或其盟友可能是狡猾的龙的一个有趣的技巧。",
												"龙可以模仿它所听到的任何声音，包括声音。听到这些声音的生物可以通过成功的{@dc 13}智慧({@skill Insight})检查来判断它们是模仿的。"
											]
										},
										{
											"type": "item",
											"name": "Rejuvenation.",
											"entries": [
												"你可以决定，在你的战役中，龙作为物质世界的重要组成部分，几乎不可能被摧毁。龙的生命精华可能被保存在它最初出现的蛋里、它的囤积物里，或者世界中心的一个洞穴大厅里，就像巫师的精华被藏在法器里一样。",
												"如果它有一个保存精华的物体，被摧毁的龙会在{@dice 1d10}天内获得一个新的身体，恢复它所有的命中率并再次变得活跃。新的身体会出现在该物体的5英尺范围内。"
											]
										},
										{
											"type": "item",
											"name": "Special Senses.",
											"entries": [
												"大多数龙有（%0%）和（%1%）。你可能会将{@sense blindsight}升级为{@sense truesight}，或者你可以给一条有钻洞速度的龙{@sense tremorsense|MM}。"
											]
										}
									]
								}
							]
						}
					]
				}
			],
			"dragonAge": "greatwyrm",
			"damageTagsLegendary": [
				"B",
				"P"
			],
			"hasFluff": true,
			"savingThrowForced": [
				"dexterity",
				"strength",
				"wisdom"
			],
			"savingThrowForcedLegendary": [
				"dexterity",
				"strength",
				"wisdom"
			]
		},
		{
			"name": "Blue Greatwyrm",
			"shortName": "greatwyrm",
			"group": [
				"Chromatic Dragon"
			],
			"source": "BeGr",
			"size": [
				"G"
			],
			"type": {
				"type": "dragon",
				"tags": [
					"chromatic"
				]
			},
			"alignment": [
				"L",
				"E"
			],
			"ac": [
				{
					"ac": 22,
					"from": [
						"natural armor"
					]
				}
			],
			"hp": {
				"formula": "28d20 + 252",
				"average": 546
			},
			"speed": {
				"walk": 75,
				"burrow": 75,
				"fly": 150,
				"swim": 75
			},
			"str": 30,
			"dex": 14,
			"con": 28,
			"int": 24,
			"wis": 21,
			"cha": 26,
			"save": {
				"dex": "+10",
				"con": "+17",
				"wis": "+13",
				"cha": "+16",
				"int": "+15"
			},
			"skill": {
				"perception": "+21",
				"stealth": "+10",
				"intimidation": "+24",
				"arcana": "+15"
			},
			"senses": [
				"tremorsense 30 ft.",
				"truesight 120 ft."
			],
			"passive": 31,
			"immune": [
				"lightning"
			],
			"languages": [
				"Common",
				"Draconic"
			],
			"cr": "28",
			"trait": [
				{
					"name": "Draconic Might",
					"entries": [
						"大魔王的武器攻击具有魔力，对物体和结构造成四倍的伤害。当它用近战攻击击中目标时，如果攻击卷满足或超过目标的被动力量（（%0%））得分，大巫师可以将其推到10英尺以外，如果其神话特性处于激活状态，则可以推到20英尺以外。"
					]
				},
				{
					"name": "Destructive Wrath (Mythic Trait; Once Per Rest)",
					"entries": [
						"如果大巫师的命中率会降至0，它反而会恢复到最大命中率，而且它可以对自己结束任何它选择的法术。然后它释放出巨大的雷霆，使它周围120英尺内的每个生物和物体都受到震荡。每个目标都会受到14({@damage 4d6})的雷霆伤害({@dc 25}宪法救赎的一半)，并被推到离大巫师20英尺的地方。如果拯救失败，目标也会被击倒（%2%）。"
					]
				},
				{
					"name": "Magic Resistance",
					"entries": [
						"大巫师在面对法术和其他魔法效果时，在蓄力攻击方面具有优势。"
					]
				},
				{
					"name": "Thunderous Charge (1/Turn)",
					"entries": [
						"如果大巫师向一个目标直线移动至少15英尺，然后在同一回合内用血肉攻击击中该目标，该目标也会受到26（（%0%））的雷霆伤害。"
					]
				},
				{
					"name": "Supercharged",
					"entries": [
						"如果一个生物在15英尺范围内接触到大巫师或用近战攻击击中它，或者用它不是自愿目标的法术攻击龙，该生物会受到7（（%0%））的雷电伤害。"
					]
				}
			],
			"action": [
				{
					"name": "Multiattack",
					"entries": [
						"大巫师可以使用它的 \"恐怖存在\"。然后它进行三次攻击：一次是咬，两次是爪子。"
					]
				},
				{
					"name": "Bite",
					"entries": [
						"{@atk mw} {@hit 18}击中，到达15英尺，一个目标。{@h}21 ({@damage 2d10 + 10})穿刺伤害加上13 ({@damage 2d12})雷电伤害。"
					]
				},
				{
					"name": "Claw",
					"entries": [
						"{@atk mw} {@hit 18}击中，到达10英尺，一个目标。{@h}19 ({@damage 2d8 + 10})砍击伤害。如果目标是巨大或较小的生物，则是{@condition grappled}(逃跑{@dc 20})和{@condition restrained}，直到这个抓捕结束。大巫师一次只能让一个生物（%7%）这样。"
					]
				},
				{
					"name": "Tail",
					"entries": [
						"{@atk mw} {@hit 18}击中，到达20英尺，一个目标。{@h}19 ({@damage 2d8 + 10})重击伤害。如果目标是一个生物，它必须在一个{@dc 27}的力量投掷中成功，或者被击倒{@condition prone}。"
					]
				},
				{
					"name": "Gore",
					"entries": [
						"{@atk mw} {@hit 18}击中，到达15英尺，一个目标。{@h}36 ({@damage 4d12 + 10})穿刺伤害。"
					]
				},
				{
					"name": "Frightful Presence",
					"entries": [
						"每个大巫师选择的生物，如果在龙的1英里范围内并且意识到它，必须在一个{@dc 24}智慧救赎上成功，否则就会变成{@condition frightened}，持续1分钟。一个生物可以在它的每个回合结束时重复蓄力，如果成功，则结束对它的影响。如果一个生物的自救成功或者效果结束，该生物在接下来的24小时内对大巫师的恐怖存在免疫。"
					]
				},
				{
					"name": "Storm Breath {@recharge 5}",
					"entries": [
						"大巫师在300英尺的范围内呼出集中的风暴能量，宽度为20英尺。该区域内的每个生物和物体都会受到88({@damage 16d10})的雷电伤害({@dc 25}灵巧救赎为一半)。如果一个巨大的或更小的目标不能通过5次拯救，它也会被推到离大巫师30英尺远的地方。"
					]
				}
			],
			"legendary": [
				{
					"name": "Tail Attack",
					"entries": [
						"大魔王会进行两次尾部攻击，其中一次必须针对一个物体。"
					]
				},
				{
					"name": "Wing Attack (Costs 2 Actions)",
					"entries": [
						"大魔王拍打它的翅膀。每个在大巫师10英尺范围内的生物都必须在一个{@dc 26}灵巧的蓄力动作上成功，否则会受到17({@damage 2d6 + 10})的重击伤害并被击倒{@condition prone}。然后，大魔王可以飞到其飞行速度的一半。"
					]
				},
				{
					"name": "Thunder Bolt",
					"entries": [
						"{@atk rs} {@hit 16}击中，范围90英尺，一个目标。{@h} 15 ({@damage 2d6 + 8})的闪电伤害加上3 ({@damage 1d6})的雷霆伤害。在关键的一击中，目标必须成功进行{@dc 24}体质测试，否则会变成{@condition stunned}，直到龙的下一回合结束。"
					]
				}
			],
			"legendaryGroup": {
				"name": "Blue Dragon",
				"source": "MM"
			},
			"fluff": {
				"_monsterFluff": {
					"name": "Chromatic Greatwyrms",
					"source": "BeGr"
				},
				"images": [
					{
						"type": "image",
						"href": {
							"type": "internal",
							"path": "bestiary/MM/Blue%20Dragon.webp"
						}
					}
				]
			},
			"dragonCastingColor": "blue",
			"token": {
				"name": "Adult Blue Dragon",
				"source": "MM"
			},
			"senseTags": [
				"T",
				"U"
			],
			"actionTags": [
				"Breath Weapon",
				"Frightful Presence",
				"Multiattack"
			],
			"languageTags": [
				"C",
				"DR"
			],
			"damageTags": [
				"P",
				"L",
				"S",
				"B",
				"T"
			],
			"miscTags": [
				"MW",
				"RCH",
				"AOE"
			],
			"conditionInflict": [
				"deafened",
				"frightened",
				"grappled",
				"prone",
				"restrained",
				"stunned"
			],
			"mythicHeader": [
				"If the greatwyrm's mythic trait has activated in the last hour, it can use the options below as legendary actions."
			],
			"conditionImmune": [
				"charmed",
				"exhaustion",
				"frightened",
				"poisoned"
			],
			"mythic": [
				{
					"name": "Fling",
					"entries": [
						"大巫师持有的一个巨大或较小的物体或生物（%0%）被抛向一个随机方向，最多30英尺，并被击倒（%1%）。如果被抛出的目标撞击到坚固的表面，那么目标每被抛出10英尺就会受到3（%2%）的重击伤害。如果目标被抛向另一个生物，该生物必须成功进行{@dc 20}灵巧救赎，否则会受到同样的伤害并被击倒{@condition prone}。"
					]
				},
				{
					"name": "Vortex",
					"entries": [
						"大魔王用它的角来引导风元素，用一个强大的漩涡将90英尺范围内的任何数量的巨大或较小的生物或物体吸进去。每个目标都会被拉到40英尺外的大巫师身边（{@dc 24}力量救赎为一半）。"
					]
				},
				{
					"name": "Lightning Strike (Costs 2 Actions)",
					"entries": [
						"大巫师使一道闪电击中它周围120英尺内的地面上的一个点。在该点5英尺范围内的每个生物和物体都会受到26({@damage 4d12})的闪电伤害({@dc 24}灵巧救赎为一半)。如果救赎失败5次以上，生物也会被{@condition deafened}，直到大巫师的下一个回合结束。"
					]
				}
			],
			"bonus": [
				{
					"name": "Superstorm (1/Day)",
					"entries": [
						"大暴君会在1英里范围内释放猛烈的风暴，持续1小时。这场风暴要么是暴雨，要么是沙暴，取决于周围环境的特点。{@hazard Strong wind}(DMG 110)击打该区域，并使其中任何被击倒的生物{@condition prone}也被抛向一个随机的方向，最多30英尺。",
						"每5个回合，一个{@creature air elemental}在风暴中的随机位置产生，在每回合的主动权计数20时轮到它（失去主动权的平局），并尽其所能地执行大巫师的恶意意志。大巫师和元素体无视风暴造成的所有影响。"
					]
				}
			],
			"traitTags": [
				"Magic Resistance"
			],
			"variant": [
				{
					"type": "inset",
					"name": "Customizing Dragons",
					"source": "FTD",
					"page": 33,
					"entries": [
						"你可以自定义任何龙的状态块，以反映龙的独特性格。像下面这样的小改动是很容易做到的，而且对龙的挑战等级没有影响。",
						{
							"type": "entries",
							"name": "Languages",
							"entries": [
								"大多数龙喜欢说龙语，但为了与盟友和爪牙打交道而学习普通话。但鉴于它们的高智力和长寿命，龙可以很容易地学习其他语言。你可以将语言添加到龙的状态块中。"
							]
						},
						{
							"type": "entries",
							"name": "Skills",
							"entries": [
								"大多数龙都精通{@skill Perception}和{@skill Stealth}的技能，许多龙还有额外的技能精通能力。与语言一样，你可以定制龙的技能列表（甚至将他们对某些技能的熟练度奖励翻倍），以反映特定的兴趣和活动。你也可以给龙提供工具能力，特别是如果龙花时间在人形上。"
							]
						},
						{
							"type": "entries",
							"name": "Spells",
							"entries": [
								"{@note See the \"Variant: Dragons as Innate Spellcasters\" inset(s), below.}"
							]
						},
						{
							"type": "entries",
							"name": "Other Traits and Actions",
							"entries": [
								"你可以借用其他怪物的特性和行动来为龙增加独特的味道。考虑一下这些例子。",
								{
									"type": "list",
									"style": "list-hang-notitle",
									"items": [
										{
											"type": "item",
											"name": "Change Shape.",
											"entries": [
												"你可以决定让龙在比平时更小的年龄获得这个动作，特别是如果你想在你的活动中以人形的龙为特色。",
												"龙会神奇地多态化为一个挑战等级不高于它自己的人或野兽，或者回到它的真实形态。如果它死了，它就会恢复到它的真实形态。它所穿戴或携带的任何装备都会被新形态吸收或承担（由龙选择）。",
												"在一个新的形态中，龙保留了它的排列组合、命中率、命中率、说话的能力、专长、传奇抵抗、巢穴行动、智力、智慧和魅力的分数，以及这个行动。它的统计数据和能力被新的形态所取代，但该形态的任何等级特征或传奇行动除外。"
											]
										},
										{
											"type": "item",
											"name": "Flyby,",
											"entries": [
												"龙是一种灵活的飞行器，能迅速飞出敌人的范围。",
												"当龙飞出敌人的范围时，不会引发机会攻击。"
											]
										},
										{
											"type": "item",
											"name": "Mimicry.",
											"entries": [
												"冒充人物或其盟友可能是狡猾的龙的一个有趣的技巧。",
												"龙可以模仿它所听到的任何声音，包括声音。听到这些声音的生物可以通过成功的{@dc 13}智慧({@skill Insight})检查来判断它们是模仿的。"
											]
										},
										{
											"type": "item",
											"name": "Rejuvenation.",
											"entries": [
												"你可以决定，在你的战役中，龙作为物质世界的重要组成部分，几乎不可能被摧毁。龙的生命精华可能被保存在它最初出现的蛋里、它的囤积物里，或者世界中心的一个洞穴大厅里，就像巫师的精华被藏在法器里一样。",
												"如果它有一个保存精华的物体，被摧毁的龙会在{@dice 1d10}天内获得一个新的身体，恢复它所有的命中率并再次变得活跃。新的身体会出现在该物体的5英尺范围内。"
											]
										},
										{
											"type": "item",
											"name": "Special Senses.",
											"entries": [
												"大多数龙有（%0%）和（%1%）。你可能会将{@sense blindsight}升级为{@sense truesight}，或者你可以给一条有钻洞速度的龙{@sense tremorsense|MM}。"
											]
										}
									]
								}
							]
						}
					]
				}
			],
			"dragonAge": "greatwyrm",
			"damageTagsLegendary": [
				"B",
				"L"
			],
			"hasFluff": true,
			"savingThrowForced": [
				"constitution",
				"dexterity",
				"strength",
				"wisdom"
			],
			"savingThrowForcedLegendary": [
				"constitution",
				"dexterity"
			]
		},
		{
			"name": "Red Greatwyrm",
			"shortName": "greatwyrm",
			"group": [
				"Chromatic Dragon"
			],
			"source": "BeGr",
			"size": [
				"G"
			],
			"type": {
				"type": "dragon",
				"tags": [
					"chromatic"
				]
			},
			"alignment": [
				"C",
				"E"
			],
			"ac": [
				{
					"ac": 22,
					"from": [
						"natural armor"
					]
				}
			],
			"hp": {
				"formula": "29d20 + 261",
				"average": 565
			},
			"speed": {
				"walk": 60,
				"burrow": 60,
				"fly": 120,
				"swim": 60
			},
			"str": 30,
			"dex": 14,
			"con": 29,
			"int": 24,
			"wis": 20,
			"cha": 28,
			"save": {
				"dex": "+11",
				"con": "+18",
				"wis": "+14",
				"cha": "+18",
				"int": "+16"
			},
			"skill": {
				"perception": "+23",
				"stealth": "+11",
				"intimidation": "+27"
			},
			"senses": [
				"truesight 120 ft."
			],
			"passive": 33,
			"immune": [
				"fire"
			],
			"languages": [
				"Common",
				"Draconic"
			],
			"cr": "29",
			"trait": [
				{
					"name": "Draconic Might",
					"entries": [
						"大魔王的武器攻击具有魔力，对物体和结构造成四倍的伤害。当它用近战攻击击中目标时，如果攻击卷满足或超过目标的被动力量（（%0%））得分，大巫师可以将其推到10英尺以外，如果其神话特性处于激活状态，则可以推到20英尺以外。"
					]
				},
				{
					"name": "Shrug it Off",
					"entries": [
						"在每个回合开始时，大巫师可以结束自己身上的一个条件，前提是它至少有1点生命值。"
					]
				},
				{
					"name": "Fiery Rebirth (Mythic Trait; Once Per Rest)",
					"entries": [
						"如果大巫师死亡，它的身体会被烧成一堆灰烬。它的身体会在下一回合开始时从这些灰烬中复原，恢复到最大命中率，结束对自己的任何法术，并再次变得活跃。当这种情况发生时，每个能看到大巫师的生物必须成功地进行一次{@dc 27}宪法救赎，否则会受到14({@damage 4d6})的火焰伤害，并被{@condition blinded}，直到大巫师的下一回合结束。"
					]
				},
				{
					"name": "Spreading Magma",
					"entries": [
						"大巫师的某些特征可能会导致岩浆从表面迸发出来，使其在一段时间内熔化。在熔化的时候，表面是困难的地形，任何生物在接触到它的时候结束其回合，都会受到14（（%0%））的火焰伤害。"
					]
				}
			],
			"action": [
				{
					"name": "Multiattack",
					"entries": [
						"大巫师可以使用它的 \"恐怖存在\"。然后它进行三次攻击：一次是咬，两次是爪子。"
					]
				},
				{
					"name": "Bite",
					"entries": [
						"{@atk mw} {@hit 19}击中，到达15英尺，一个目标。{@h}21 ({@damage 2d10 + 10})穿刺伤害加上13 ({@damage 2d12})火焰伤害。"
					]
				},
				{
					"name": "Claw",
					"entries": [
						"{@atk mw} {@hit 19}击中，到达10英尺，一个目标。{@h}19 ({@damage 2d8 + 10})砍击伤害。如果目标是巨大或较小的生物，则是{@condition grappled}(逃跑{@dc 20})和{@condition restrained}，直到这个抓捕结束。大巫师一次只能让一个生物（%7%）这样。"
					]
				},
				{
					"name": "Tail",
					"entries": [
						"{@atk mw} {@hit 19}击中，到达20英尺，一个目标。{@h}19 ({@damage 2d8 + 10})重击伤害。如果目标是一个生物，它必须在一个{@dc 27}的力量投掷中成功，或者被击倒{@condition prone}。"
					]
				},
				{
					"name": "Frightful Presence",
					"entries": [
						"每个大巫师选择的生物，如果在龙的1英里范围内并且意识到它，必须在一个{@dc 26}智慧救赎上成功，否则就会变成{@condition frightened}，持续1分钟。一个生物可以在它的每个回合结束时重复蓄力，如果成功，则结束对它的影响。如果一个生物的自救成功或者效果结束，该生物在接下来的24小时内对大巫师的恐怖存在免疫。"
					]
				},
				{
					"name": "Inferno Breath {@recharge 5}",
					"entries": [
						"大巫师在300英尺的范围内喷出火焰。该区域内的每个生物和物体都会受到91({@damage 26d6})的火焰伤害({@dc 26}灵巧救赎为一半)。该区域内受损的表面会变得熔化，直到大巫师的下一个回合结束。"
					]
				}
			],
			"legendary": [
				{
					"name": "Tail Attack",
					"entries": [
						"大魔王会进行两次尾部攻击，其中一次必须针对一个物体。"
					]
				},
				{
					"name": "Flame Blast",
					"entries": [
						"{@atk rs} {@hit 18}击中，范围90英尺，一个目标。{@h} 17 ({@damage 2d8 + 8}) 火灾伤害。在关键的一击中，目标对火灾伤害有不利的判断，直到龙的下一个回合结束。如果目标是生物或易燃物，它会被点燃。在生物采取行动灭火之前，目标在每个回合开始时都会受到5（4%）的火焰伤害。"
					]
				},
				{
					"name": "Wing Attack (Costs 2 Actions)",
					"entries": [
						"大魔王拍打它的翅膀。每个在大巫师10英尺范围内的生物都必须在一个{@dc 26}灵巧的蓄力动作上成功，否则会受到17({@damage 2d6 + 10})的重击伤害并被击倒{@condition prone}。然后，大魔王可以飞到其飞行速度的一半。"
					]
				}
			],
			"legendaryGroup": {
				"name": "Red Dragon",
				"source": "MM"
			},
			"fluff": {
				"_monsterFluff": {
					"name": "Chromatic Greatwyrms",
					"source": "BeGr"
				},
				"images": [
					{
						"type": "image",
						"href": {
							"type": "internal",
							"path": "bestiary/FTD/Red%20Greatwyrm.webp"
						}
					}
				]
			},
			"dragonCastingColor": "red",
			"token": {
				"name": "Red Greatwyrm",
				"source": "FTD"
			},
			"senseTags": [
				"U"
			],
			"actionTags": [
				"Breath Weapon",
				"Frightful Presence",
				"Multiattack"
			],
			"languageTags": [
				"C",
				"DR"
			],
			"damageTags": [
				"P",
				"F",
				"S",
				"B"
			],
			"miscTags": [
				"MW",
				"RCH",
				"AOE"
			],
			"conditionInflict": [
				"blinded",
				"frightened",
				"grappled",
				"prone",
				"restrained"
			],
			"mythicHeader": [
				"If the greatwyrm's mythic trait has activated in the last hour, it can use the options below as legendary actions."
			],
			"conditionImmune": [
				"charmed",
				"exhaustion",
				"frightened",
				"poisoned"
			],
			"mythic": [
				{
					"name": "Chosen of Tiamat",
					"entries": [
						"通过引导龙母的力量，大巫师在下一回合结束前的下一次蓄力时，会给自己带来优势。"
					]
				},
				{
					"name": "Fling",
					"entries": [
						"大巫师持有的一个巨大或较小的物体或生物（%0%）被抛向一个随机方向，最多30英尺，并被击倒（%1%）。如果被抛出的目标撞击到坚固的表面，那么目标每被抛出10英尺就会受到3（%2%）的重击伤害。如果目标被抛向另一个生物，该生物必须成功进行{@dc 20}灵巧救赎，否则会受到同样的伤害并被击倒{@condition prone}。"
					]
				},
				{
					"name": "Volcanic Eruption (Costs 2 Actions)",
					"entries": [
						"大巫师使熔岩从它周围120英尺内的每个熔融表面喷发出来。当发生这种情况时，每个在熔岩表面10英尺范围内的生物和物体都会受到14({@damage 4d6})的重击伤害加上14({@damage 4d6})的火焰伤害({@dc 26}灵巧救赎为一半)。如果救赎失败5次以上，生物也会被击倒（%3%）。"
					]
				}
			],
			"bonus": [
				{
					"name": "Rain of Fire (1/Day)",
					"entries": [
						"大巫师使火热的流星雨落在半径为1英里的区域内，持续1小时。小的流星撞击会使暴露在天空中的每个生物和物体在大巫师的每个回合开始时受到2({@damage 1d4})的火焰伤害。",
						"此外，当一个生物或物体在风暴中下降到0命中率时，岩浆会从它身上爆发出来，使它周围10英尺内的区域变成熔岩，直到被清除。"
					]
				}
			],
			"variant": [
				{
					"type": "inset",
					"name": "Customizing Dragons",
					"source": "FTD",
					"page": 33,
					"entries": [
						"你可以自定义任何龙的状态块，以反映龙的独特性格。像下面这样的小改动是很容易做到的，而且对龙的挑战等级没有影响。",
						{
							"type": "entries",
							"name": "Languages",
							"entries": [
								"大多数龙喜欢说龙语，但为了与盟友和爪牙打交道而学习普通话。但鉴于它们的高智力和长寿命，龙可以很容易地学习其他语言。你可以将语言添加到龙的状态块中。"
							]
						},
						{
							"type": "entries",
							"name": "Skills",
							"entries": [
								"大多数龙都精通{@skill Perception}和{@skill Stealth}的技能，许多龙还有额外的技能精通能力。与语言一样，你可以定制龙的技能列表（甚至将他们对某些技能的熟练度奖励翻倍），以反映特定的兴趣和活动。你也可以给龙提供工具能力，特别是如果龙花时间在人形上。"
							]
						},
						{
							"type": "entries",
							"name": "Spells",
							"entries": [
								"{@note See the \"Variant: Dragons as Innate Spellcasters\" inset(s), below.}"
							]
						},
						{
							"type": "entries",
							"name": "Other Traits and Actions",
							"entries": [
								"你可以借用其他怪物的特性和行动来为龙增加独特的味道。考虑一下这些例子。",
								{
									"type": "list",
									"style": "list-hang-notitle",
									"items": [
										{
											"type": "item",
											"name": "Change Shape.",
											"entries": [
												"你可以决定让龙在比平时更小的年龄获得这个动作，特别是如果你想在你的活动中以人形的龙为特色。",
												"龙会神奇地多态化为一个挑战等级不高于它自己的人或野兽，或者回到它的真实形态。如果它死了，它就会恢复到它的真实形态。它所穿戴或携带的任何装备都会被新形态吸收或承担（由龙选择）。",
												"在一个新的形态中，龙保留了它的排列组合、命中率、命中率、说话的能力、专长、传奇抵抗、巢穴行动、智力、智慧和魅力的分数，以及这个行动。它的统计数据和能力被新的形态所取代，但该形态的任何等级特征或传奇行动除外。"
											]
										},
										{
											"type": "item",
											"name": "Flyby,",
											"entries": [
												"龙是一种灵活的飞行器，能迅速飞出敌人的范围。",
												"当龙飞出敌人的范围时，不会引发机会攻击。"
											]
										},
										{
											"type": "item",
											"name": "Mimicry.",
											"entries": [
												"冒充人物或其盟友可能是狡猾的龙的一个有趣的技巧。",
												"龙可以模仿它所听到的任何声音，包括声音。听到这些声音的生物可以通过成功的{@dc 13}智慧({@skill Insight})检查来判断它们是模仿的。"
											]
										},
										{
											"type": "item",
											"name": "Rejuvenation.",
											"entries": [
												"你可以决定，在你的战役中，龙作为物质世界的重要组成部分，几乎不可能被摧毁。龙的生命精华可能被保存在它最初出现的蛋里、它的囤积物里，或者世界中心的一个洞穴大厅里，就像巫师的精华被藏在法器里一样。",
												"如果它有一个保存精华的物体，被摧毁的龙会在{@dice 1d10}天内获得一个新的身体，恢复它所有的命中率并再次变得活跃。新的身体会出现在该物体的5英尺范围内。"
											]
										},
										{
											"type": "item",
											"name": "Special Senses.",
											"entries": [
												"大多数龙有（%0%）和（%1%）。你可能会将{@sense blindsight}升级为{@sense truesight}，或者你可以给一条有钻洞速度的龙{@sense tremorsense|MM}。"
											]
										}
									]
								}
							]
						}
					]
				}
			],
			"dragonAge": "greatwyrm",
			"damageTagsLegendary": [
				"F"
			],
			"hasFluff": true,
			"savingThrowForced": [
				"constitution",
				"dexterity",
				"strength",
				"wisdom"
			],
			"savingThrowForcedLegendary": [
				"constitution",
				"dexterity"
			]
		},
		{
			"name": "Tiamat",
			"source": "BeGr",
			"size": [
				"G"
			],
			"type": {
				"type": "dragon",
				"tags": [
					"chromatic",
					"deity"
				]
			},
			"alignment": [
				"C",
				"E"
			],
			"ac": [
				{
					"ac": 23,
					"from": [
						"natural armor"
					]
				}
			],
			"hp": {
				"average": 574,
				"formula": "28d20 + 280"
			},
			"speed": {
				"walk": 60,
				"burrow": 60,
				"fly": 120,
				"swim": 60
			},
			"str": 30,
			"dex": 14,
			"con": 30,
			"int": 21,
			"wis": 20,
			"cha": 26,
			"save": {
				"dex": "+11",
				"con": "+19",
				"wis": "+14",
				"cha": "+17"
			},
			"skill": {
				"intimidation": "+26",
				"perception": "+23"
			},
			"senses": [
				"truesight 120 ft.",
				"blindsight 500 ft."
			],
			"passive": 33,
			"immune": [
				"acid",
				"cold",
				"fire",
				"lightning",
				"poison",
				{
					"immune": [
						"bludgeoning",
						"piercing",
						"slashing"
					],
					"note": "from nonmagical attacks",
					"cond": true
				}
			],
			"conditionImmune": [
				"blinded",
				"charmed",
				"deafened",
				"frightened",
				"poisoned",
				"stunned"
			],
			"languages": [
				"all",
				"telepathy 1,000 ft."
			],
			"cr": "30",
			"trait": [
				{
					"name": "Legendary Resistance (5/Day)",
					"entries": [
						"如果提亚马特的拯救动作失败，她可以选择成功。"
					]
				},
				{
					"name": "Discorporation",
					"entries": [
						"当提亚马特的命中率降至0或死亡时，她的身体会被摧毁，但她的本质会回到她在九层地狱的领域，而且她在一段时间内无法形成实体。"
					]
				},
				{
					"name": "Divine Will",
					"entries": [
						"提亚马特对任何会改变她的形态的法术或效果，以及那些会读懂她的思想、确定她是否在撒谎、或用魔法影响她的思想或行为的法术或效果，都是免疫的。"
					]
				},
				{
					"name": "Multiple Heads",
					"entries": [
						"Tiamat每回合可以做出一个反应，而不是每回合只能做出一个反应。她对被击倒的救赎也有优势（%0%）。如果她对一个会使生物眩晕的效果的蓄力失败，她的一个未使用的传奇行动将被消耗。"
					]
				},
				{
					"name": "Draconic Might",
					"entries": [
						"提亚马特的武器攻击具有魔力，对物体和结构造成四倍的伤害。当她用近战攻击击中一个目标时，如果攻击卷满足或超过目标的被动力量（（%0%））得分，提亚马特可以将其推到10英尺以外，如果她的一个神话特性处于激活状态，则推到20英尺以外，如果两个神话特性都处于激活状态，则推到30英尺以外。"
					]
				},
				{
					"name": "Dragon Queen's Roar (Mythic Trait; Once Per Rest)",
					"entries": [
						"如果提亚马特会被降低到0命中率，她反而会恢复到最大命中率，而且她可以对自己结束任何她选择的法术。然后她释放一个巨大的吼叫声，使她周围300英尺内的区域遭到破坏，使该区域内她选择的每个生物和物体，无论大小或结构稳定性如何，都被推到离提亚马特60英尺远的地方，并被击倒（%0%）。"
					]
				},
				{
					"name": "Infernal Dealings (Mythic Trait; Once Per Rest)",
					"entries": [
						"如果提亚马特会被降低到0命中率，她反而会恢复到最大命中率，而且她可以对自己结束任何她选择的法术。然后她会反刍十个（%0%）落在她周围30英尺内无人的空间的人。梅瑞格人在主动权顺序结束时行动，并尽其所能地保卫提亚马特。"
					]
				},
				{
					"name": "Sense Avarice",
					"entries": [
						"如果提亚马特能看到的生物与她进行心灵感应，她就会知道这个生物最大的欲望。"
					]
				}
			],
			"action": [
				{
					"name": "Catastrophic Breath",
					"entries": [
						"提亚马特从她的一个头中呼出元素能量，范围为300英尺的锥形。该区域内的每个生物和物体都会受到97({@damage 15d12})的伤害({@dc 27}救赎为一半，见下文)，伤害类型、救赎类型和次级效果由她使用的头部决定。",
						"一旦提亚马特为她的一个头颅选择了一种呼吸武器，她在下一回合就不能再选择与该头颅相关的武器。",
						{
							"type": "list",
							"style": "list-hang-notitle",
							"items": [
								{
									"type": "item",
									"name": "White: Frost Breath.",
									"entry": "这口气会造成寒冷的伤害，其保存类型为宪法。这个区域的受损表面会变成（%0%）（DMG 110），直到被清除。"
								},
								{
									"type": "item",
									"name": "Black: Corrosive Breath.",
									"entry": "呼吸造成酸液伤害，保存类型为灵巧。该区域内受损的表面会变成腐蚀的酸池，直到被清除。任何接触到这些表面的生物或物体都会受到11({@damage 2d10})的酸液伤害；目标每回合不能受到超过一次的伤害。"
								},
								{
									"type": "item",
									"name": "Green: Noxious Breath.",
									"entry": "这股气息会造成毒药伤害，拯救类型为宪法。受损的表面会长出粗大的藤蔓，抓住附近的生物，直到被清除。任何大型或小型的生物，如果在这些藤蔓的5英尺范围内结束它的回合，就会被藤蔓缠住（%0%）（逃脱%1%）。"
								},
								{
									"type": "item",
									"name": "Blue: Storm Breath.",
									"entry": "这口气会造成雷电伤害，救赎类型为灵巧。如果一个巨大或较小的目标未能通过5次以上的拯救，它也会被推到离大巫师30英尺远的地方。"
								},
								{
									"type": "item",
									"name": "Red: Inferno Breath.",
									"entry": "该呼吸造成火的伤害，救赎类型为灵巧。这个区域内受损的表面会变得熔化，直到大巫师的下一个回合结束。在熔化的时候，表面是困难的地形，任何生物在接触到它的时候结束其回合，都会受到14（（%0%））的火焰伤害。"
								}
							]
						}
					]
				}
			],
			"legendary": [
				{
					"name": "Nimble Predator",
					"entries": [
						"提亚马特最多可以移动30英尺而不引起机会攻击。"
					]
				},
				{
					"name": "Bite",
					"entries": [
						"{@atk mw} {@hit 19}击中，到达20英尺，一个目标。{@h}23 ({@damage 2d12 + 10})穿刺伤害加上19 ({@damage 3d12})酸、冷、火、闪电或毒药伤害（由提亚马特选择）。"
					]
				},
				{
					"name": "Claw",
					"entries": [
						"{@atk mw} {@hit 19}击中，到达15英尺，一个目标。{@h}21 ({@damage 2d10 + 10})砍击伤害。如果目标是一个巨大或较小的生物，它是{@condition grappled}(逃跑{@dc 20})，{@condition restrained}，在智力、智慧和魅力方面有劣势，直到这个抓取动作结束。这方面一次只能有一个生物（%7%）这样。"
					]
				},
				{
					"name": "Tail",
					"entries": [
						"{@atk mw} {@hit 19}击中，到达30英尺，一个目标。{@h}23 ({@damage 2d12 + 10})重击伤害。如果目标是一个生物，它必须在一个{@dc 27}的力量反射中成功，否则会被击倒{@condition prone}。"
					]
				},
				{
					"name": "Cast a Spell (Costs 3 Actions)",
					"entries": [
						"提亚马特施展了她的一个先天法术。"
					]
				}
			],
			"mythicHeader": [
				"If one of Tiamat's mythic traits were activated in the last hour, she can use the first three options below as legendary actions. If both traits were activated in the last hour, she can instead use any of the options below."
			],
			"traitTags": [
				"Legendary Resistances"
			],
			"senseTags": [
				"U",
				"B"
			],
			"actionTags": [
				"Breath Weapon"
			],
			"languageTags": [
				"XX",
				"TP"
			],
			"damageTags": [
				"A",
				"F",
				"P",
				"S",
				"B",
				"C",
				"Y",
				"L"
			],
			"miscTags": [
				"AOE",
				"MW",
				"RCH"
			],
			"conditionInflict": [
				"blinded",
				"charmed",
				"deafened",
				"frightened",
				"grappled",
				"poisoned",
				"prone",
				"restrained"
			],
			"hasFluff": true,
			"hasFluffImages": true,
			"token": {
				"name": "Aspect of Tiamat",
				"source": "FTD"
			},
			"fluff": {
				"entries": [
					{
						"type": "entries",
						"entries": [
							"邪恶的龙后是一个可怕的贪婪、嫉妒和囤积财富的神。虽然色龙是她最重要的崇拜者，但提亚马特接受任何渴望财富的人的崇拜。所有的色龙都对他们的暴虐女王有一种可怕的崇敬，但许多具有近乎神圣力量和野心的龙在她的统治下感到不安。",
							"提亚玛特仍然被囚禁在九大地狱之首的阿弗纳斯（Avernus），影响着整个位面的色龙的灵魂，并寻求释放自己的方法。",
							"所呈现的状态块代表了提亚马特的完整形态。要表现她的一面，需要去除她的一个神话特征。",
							{
								"type": "entries",
								"entries": [
									"只有满足特定的条件，人物才有希望绕过她的Discorporation特性，真正杀死提亚马特。以下是任务样本。",
									{
										"name": "Appeal to Avarice",
										"type": "entries",
										"entries": [
											"一个古老的宝藏在用吉蒂亚克船运输时丢失在星海中。如果他们能找到这批完美无瑕的宝石和稀有金属，他们就能利用提亚马特的贪婪把她从她的领域中引出来。他们必须诱使她进入巴哈姆特控制的领域，在那里她可以被杀死，或者至少可以困住她被剥夺的精华。"
										]
									},
									{
										"name": "Draconic Weapons",
										"type": "entries",
										"entries": [
											"队伍必须杀死五只大巫师，每只都有不同的颜色，然后用它们的骨头或鳞片制作魔法物品。只有当他们佩戴或使用这些物品时，他们才能摧毁提亚马特。为此而杀死的大巫师中至少有一个必须是提亚马特过去或现在的妃子。"
										]
									},
									{
										"name": "Gather Tiamat's Eggs",
										"type": "entries",
										"entries": [
											"一本印在玄武岩书页上、用紫色龙鳞装订的老书描述了一种名为 \"塑造提亚马特的真正死亡 \"的仪式。这个仪式的复杂配方包括采购至少一个提亚马特的蛋，新锻造的武器必须在其中淬炼。多个武器需要多个蛋。如果该武器被用来对付提亚马特并至少吸血一次，那么该神的本质就会被摧毁，而不是被整合。"
										]
									}
								]
							},
							{
								"name": "Targeting Objects",
								"type": "inset",
								"entries": [
									"当这里的一个特征说它的目标是一个物体时，它实际上是指一个没有被佩戴或携带的物体。我只是不忍心每次都这么写。"
								]
							}
						]
					}
				],
				"images": [
					{
						"type": "image",
						"href": {
							"type": "internal",
							"path": "bestiary/FTD/Aspect of Tiamat.webp"
						}
					}
				]
			},
			"shortName": true,
			"legendaryActions": 5,
			"legendaryHeader": [
				"Tiamat can take 5 legendary actions, choosing from the options below. Only one legendary action can be used at a time and only at the end of another creature's turn. Tiamat regains spent legendary actions at the start of her turn."
			],
			"spellcasting": [
				{
					"name": "Innate Spellcasting",
					"headerEntries": [
						"提亚马特与生俱来的法术能力是魅力（法术保存（%0%））。她可以先天性地施展以下法术。"
					],
					"constant": [
						"{@spell freedom of movement}",
						"{@spell nondetection}"
					],
					"daily": {
						"1e": [
							"{@spell divine word}",
							"{@spell wish}"
						],
						"2e": [
							"{@spell dominate monster}",
							"{@spell earthquake}"
						]
					},
					"ability": "cha",
					"type": "spellcasting"
				}
			],
			"spellcastingTags": [
				"I"
			],
			"bonus": [
				{
					"name": "Apocalypse (1/Day)",
					"entries": [
						"塔玛特在半径1英里的范围内释放一场末日风暴，持续1小时。该区域被{@hazard heavy precipitation}和{@hazard strong wind}，以及剧烈的元素能量所打击，使每一个暴露在风暴中的生物和物体在提亚马特的每个回合开始时受到5({@damage 2d4})酸、冷、火、闪电或毒伤害（由提亚马特选择）。提亚马特和她创造的任何元素效果不受风暴的影响。"
					]
				},
				{
					"name": "Corrupting Presence",
					"entries": [
						"每个在龙的1英里范围内并且意识到它的提亚马特选择的生物必须在一个{@dc 25}智慧救赎上成功，否则会变成{@condition charmed}或{@condition frightened}（提亚马特选择），持续1分钟。一个生物可以在它的每个回合结束时重复蓄力，如果成功则结束对它的影响。如果一个生物的蓄力投掷成功或效果结束，该生物在接下来的24小时内对提亚马特的腐化存在免疫。"
					]
				}
			],
			"mythic": [
				{
					"name": "Divine Greed",
					"entries": [
						"提亚马特窃取她所看到的90英尺内的一个生物的魔法，使其受益。任何影响她选择的目标的有益法术都会转移到提亚马特身上。如果她窃取的法术需要集中注意力，提亚马特就会在持续时间内专注于它，但她不能同时专注于多个法术（和正常情况一样）。"
					]
				},
				{
					"name": "Tail Sweep",
					"entries": [
						"提亚马特对她周围30英尺内的每个生物和物体进行一次尾部攻击。"
					]
				},
				{
					"name": "Chilling Gaze (Costs 2 Actions)",
					"entries": [
						"提亚马特用她的绿色和白色的头来攻击她所选择的、在90英尺范围内的每一个生物。区域内的每个生物都会受到11({@damage 2d10})的寒冷伤害，加上11({@damage 2d10})的精神伤害（{@dc 25}智力救赎为一半）。拯救失败时，目标也会被{@condition poisoned}，并且速度减半，直到大巫师的下一个回合结束。"
					]
				},
				{
					"name": "Toxic Gas (Costs 2 Actions)",
					"entries": [
						"提亚马特用她的黑色和绿色的头在她周围60英尺的范围内释放毒气。该区域内的每个生物必须在宪法规定的投掷中成功，否则就会变成（%1%），直到提亚马特的下一个回合结束。在这种情况下，一个生物会被{@condition blinded}和{@condition deafened}，而{@condition poisoned}。"
					]
				},
				{
					"name": "Fiery Tornado (Costs 2 Actions)",
					"entries": [
						"提亚马特用她的蓝色和红色的头颅在她能看到的点为中心的30英尺范围内释放出一个旋风。漩涡中的每个生物和物体都会受到10({@damage 3d6})的火焰伤害和10({@damage 3d6})的闪电伤害（{@dc 25}的灵巧救赎为一半）。如果救赎失败，一个巨大或较小的生物也会被抛向30英尺的随机方向并被击倒（%3%）。"
					]
				},
				{
					"name": "Hurl Through Hell (Costs 3 Actions)",
					"entries": [
						"提亚马特的目标是她正在抓捕的一个生物。该生物必须在一个{@dc 25}魅力救赎中成功，否则会受到44({@damage 8d10})精神伤害并被放逐到阿弗纳斯（九层地狱的第一层）。在提亚马特的下一个回合开始时，该生物会重新出现在她身边10英尺内的一个无人空间。"
					]
				}
			],
			"isNamedCreature": true,
			"damageTagsSpell": [
				"B",
				"N"
			],
			"savingThrowForced": [
				"charisma",
				"constitution",
				"strength",
				"wisdom"
			],
			"savingThrowForcedSpell": [
				"charisma",
				"constitution",
				"dexterity",
				"wisdom"
			]
		}
	],
	"monsterFluff": [
		{
			"name": "Chromatic Greatwyrms",
			"source": "BeGr",
			"entries": [
				"通过吸收强大的原始物体或生物的能量，色龙可以升华为大巫师。色素大巫师挥舞着深不可测的元素魔法，使他们在破坏力方面仅次于神灵。",
				"由于它伴随着不朽和几乎完全无可匹敌的力量，大巫师的地位被所有有能力实现它的色龙所争夺。一条成年龙或古龙可能会花一整个战役来收集完成升天仪式所需的神器和生物。",
				{
					"type": "entries",
					"entries": [
						{
							"type": "entries",
							"entries": [
								{
									"name": "Unusual Nature",
									"type": "entries",
									"entries": [
										"大巫师不需要食物、饮料或空气。"
									]
								}
							]
						}
					]
				},
				{
					"name": "Targeting Objects",
					"type": "inset",
					"entries": [
						"当这里的一个特征说它的目标是一个物体时，它实际上是指一个没有被佩戴或携带的物体。我只是不忍心每次都这么写。"
					]
				}
			]
		}
	]
}
