{
	"$schema": "https://raw.githubusercontent.com/TheGiddyLimit/5etools-utils/master/schema/brew-fast/homebrew.json",
	"_meta": {
		"sources": [
			{
				"json": "ArmiesOfWar",
				"abbreviation": "U_AOW",
				"full": "Armies of War",
				"authors": [
					"u/filmatra"
				],
				"convertedBy": [
					"p4535992"
				],
				"version": "3.1.1",
				"url": "https://homebrewery.naturalcrit.com/share/o4qRnnxr0a2G",
				"targetSchema": "1.7.0"
			}
		],
		"dateAdded": 1657961727,
		"dateLastModified": 1703373316,
		"_dateLastModifiedHash": "592c7263b9"
	},
	"legendaryGroup": [
		{
			"name": "ArmiesOfWarLairActionsCommanderOfWar",
			"source": "ArmiesOfWar",
			"lairActions": [
				"On initiative count 20 (losing initiative ties), the keep's commander takes a lair action to cause one of the following effects; the commander can't use the same effect two rounds in a row:",
				{
					"type": "list",
					"items": [
						"石头会被扔到距离城墙30英尺范围内的15英尺半径点。该区域内的每个生物都必须做一个DC{@dc 15}的灵巧救赎，救赎失败会受到7({@damage 2d6})的重击伤害，救赎成功则受到一半的伤害。",
						"沸腾的油从堡垒倾泻到沿堡垒墙壁的10英尺半径点内的所有生物。该区域内的每个生物都必须做一个DC15的灵巧救赎动作。如果救赎失败，生物会受到10({@damage 4d4})的火力伤害，并在每个回合开始时受到5({@damage 2d4})的额外火力伤害，直到它使用行动来清除油。拯救成功时，生物不会受到伤害。",
						"守卫者利用它的通道、建筑和简单的机械为自己服务。在本回合结束前，对指挥官选择的生物的近战攻击是以劣势进行的。",
						"一个{@spell glyph of warding}，在第三层施放，出现在守卫内某处指挥官选择的无人位置。指挥官的一名手下可以消耗一个法术槽，将他们准备好的法术储存在法术石刻内。否则，该字形就是一个爆炸性的符文。"
					]
				}
			],
			"regionalEffects": [
				"The region containing the keep may be altered by the keep's presence, which creates one or more of the following effects:",
				{
					"type": "list",
					"items": [
						"护城河、战壕以及Chevaux de frise的景观，使旅行变得疲惫不堪。保卫区1英里内的地区是困难的地形。",
						"堡垒的守卫用炽热的火焰照亮了这片土地，并在任何时候都对这片土地进行彻底的巡逻。在堡垒1英里范围内进行的灵巧（隐身）检查是不利的。",
						"指挥官的下属已经被说服，对他们的领袖非常尊重或恐惧。对守卫的人进行魅力（欺骗、恐吓和劝说）检查时，会产生不利影响。",
						"领主府烧毁了它的土地，因为它把人口召回到堡垒的墙内。在堡垒周围一天的路程内，不得觅食或捕猎任何口粮。"
					]
				},
				"If the keep is taken, these effects fade over the course of {@dice 1d10} days."
			]
		}
	],
	"monster": [
		{
			"name": "Commanders of War",
			"source": "ArmiesOfWar",
			"size": [
				"M"
			],
			"type": {
				"type": "humanoid"
			},
			"alignment": [
				"A"
			],
			"ac": [
				{
					"ac": 18,
					"from": [
						"{@item plate armor|phb|plate}"
					]
				}
			],
			"hp": {
				"average": 229,
				"formula": "27d8 + 108"
			},
			"speed": {
				"walk": 30
			},
			"str": 20,
			"dex": 16,
			"con": 18,
			"int": 12,
			"wis": 12,
			"cha": 18,
			"save": {
				"str": "+9",
				"dex": "+7",
				"con": "+8"
			},
			"skill": {
				"athletics": "+9",
				"intimidation": "+8",
				"perception": "+5",
				"persuasion": "+8"
			},
			"passive": 15,
			"languages": [
				"any two languages"
			],
			"cr": "12",
			"trait": [
				{
					"name": "Indomitable (3/Day)",
					"entries": [
						"战争指挥者可以重新掷出它失败的救球。它必须使用新的投掷。"
					]
				},
				{
					"name": "Survivor",
					"entries": [
						"如果战争指挥官的命中率低于其一半，但至少有1个命中率，则在其回合开始时重新获得10个命中率。"
					]
				}
			],
			"action": [
				{
					"name": "Multiattack",
					"entries": [
						"战争指挥官进行两次大剑或短弓攻击。"
					]
				},
				{
					"name": "Greatsword",
					"entries": [
						"{@atk mw} {@hit 9}击中，到达5英尺，一个目标。{@h}12 ({@damage 2d6 + 5})砍击伤害。"
					]
				},
				{
					"name": "Shortbow",
					"entries": [
						"{@atk rw} {@hit 7}击中，范围80/320英尺，一个目标。{@h}6 ({@damage 1d6 + 3})穿刺伤害。"
					]
				}
			],
			"legendaryGroup": {
				"name": "ArmiesOfWarLairActionsCommanderOfWar",
				"source": "ArmiesOfWar"
			},
			"environment": [
				"urban"
			],
			"actionTags": [
				"Multiattack"
			],
			"languageTags": [
				"X"
			],
			"damageTags": [
				"P",
				"S"
			],
			"miscTags": [
				"MW",
				"RW",
				"RNG",
				"MLW"
			],
			"tokenUrl": "https://i.imgur.com/0xO1MYW.png",
			"fluff": {
				"entries": [
					"{@link Commander of War|https://homebrewery.naturalcrit.com/share/o4qRnnxr0a2G} 基于来自{@link u/filmatra|https://www.reddit.com/r/UnearthedArcana/comments/pnewbv/comment/hcopcks/}的帖子",
					"这个人物的统计块是基于为这个自制的{@creature Warlord|MPMM}定制的。",
					{
						"name": "Armies of War",
						"entries": [
							"混乱分裂了中央王国。孩子们在战争中出生，活到成年，并在战争中死去。交战的派别将繁华的城市囊括其中，对他们的城堡进行长达数月的围攻。庞大的军队在乡间相遇，用比种子更多的尸体缝补田地。神秘的学院已经把他们的研究转向了杀人的艺术。甚至神圣的皇家合唱团的赞美诗也变成了挽歌。",
							"在这个战争年代，这片土地上的领主们依靠军队和强大的指挥官在战场上代表他们的利益。",
							"在这个补充文件中，有所有简单但强大的规则，你将需要指挥你自己的庞大的军队，防御入侵或将它们变成废墟，并决定中央王国的命运。"
						],
						"type": "entries"
					},
					{
						"name": "Commanders of War",
						"entries": [
							"每支军队在有指挥官的情况下运作最好，一个有经验的人能够带领他们走向辉煌。",
							"通常情况下，一支军队会向一个指挥官宣誓效忠，这个指挥官会支付他们的服务费用，为他们的领主服务，或者通过完成其他一些任务赢得他们的尊重。一支军队在同一时间只能有一个指挥官，但在短期或长期的休整过程中可以从一个指挥官换到另一个。",
							"要获得作为指挥官的好处，指挥官的查理斯玛分数必须高于他或她指挥的所有军队的总挑战等级。"
						],
						"type": "entries"
					},
					{
						"name": "Siege Defense",
						"entries": [
							"坚固的石头建筑，从隐约可见的收费桥塔到繁荣城市中心的辉煌城堡，是不安全时代的安全标志。",
							"当一个堡垒被围攻时，它的守卫者可以使用各种保护工具。",
							"堡垒在大小和位置上有很大的不同，但都有相同的目的--斥责入侵者并保护他们的居住者免受伤害。"
						],
						"type": "entries"
					},
					{
						"name": "Gaining Commander Actions",
						"entries": [
							"一些强大的指挥官每回合可以采取超过1个传奇行动。一般来说，非玩家指挥官的挑战等级每5级可以采取1个传奇行动。例如，一个战神（CR12）每回合可以采取2个传奇行动。",
							"\"如果你使用的是特技的可选规则（PHB第165页），当玩家获得一个等级时，可以获得1个传奇行动，而不是采取一个特技。\""
						],
						"type": "entries"
					}
				],
				"images": [
					{
						"type": "image",
						"href": {
							"type": "external",
							"url": "https://i.imgur.com/0Sb5sdh.jpg"
						}
					}
				]
			},
			"legendaryHeader": [
				"The commander can take 1 legendary action, choosing from the options below. Only one legendary action option can be used at a time and only at the end of another creature's turn. The commander regains spent legendary actions at the start of its turn."
			],
			"damageTagsLegendary": [
				"A",
				"B",
				"C",
				"F",
				"L",
				"T"
			],
			"legendaryActions": 1,
			"legendary": [
				{
					"name": "Advance/Retreat",
					"entries": [
						"你选择的每支军队最多可以移动其一半的速度。"
					]
				},
				{
					"name": "Commanded Strike (Costs 2 Actions)",
					"entries": [
						"你选择的一支军队进行一次攻击，目标是你选择的另一个你能看到的生物。"
					]
				},
				{
					"name": "Defensive Command (Costs 2 Actions)",
					"entries": [
						"你选择的一支军队获得躲避行动的好处，直到其下一回合结束。"
					]
				},
				{
					"name": "Detect",
					"entries": [
						"你做一个智慧（感知）检查。"
					]
				},
				{
					"name": "Inspiring Command",
					"entries": [
						"你所控制的一支军队可以在其下一次的攻击卷、技能检定或蓄力动作中增加一个（%0%）。"
					]
				}
			],
			"attachedItems": [
				"greatsword|phb",
				"shortbow|phb"
			]
		},
		{
			"name": "Longbowman",
			"size": [
				"M"
			],
			"type": {
				"type": "humanoid",
				"tags": [
					"any race"
				]
			},
			"source": "ArmiesOfWar",
			"alignment": [
				"A"
			],
			"ac": [
				{
					"ac": 12,
					"from": [
						"{@item padded armor|phb}"
					]
				}
			],
			"hp": {
				"formula": "2d8",
				"average": 9
			},
			"speed": {
				"walk": 30
			},
			"str": 14,
			"dex": 13,
			"con": 10,
			"int": 10,
			"wis": 11,
			"cha": 10,
			"passive": 10,
			"cr": "1/4",
			"shortName": "Longbowman",
			"languages": [
				"any one language (usually Common)"
			],
			"languageTags": [
				"C",
				"X"
			],
			"action": [
				{
					"name": "Shorsword",
					"entries": [
						"{@atk mw} {@hit 4}击中，到达5英尺，一个目标。{@h}5 ({@damage 1d6 + 2})穿刺伤害。"
					]
				},
				{
					"name": "Longbow",
					"entries": [
						"{@atk rw} {@hit 3}击中，范围150/600英尺，一个目标。{@h}5 ({@damage 1d8 + 1})穿刺伤害。"
					]
				}
			],
			"damageTags": [
				"P"
			],
			"miscTags": [
				"MW",
				"RW",
				"RNG"
			],
			"tokenUrl": "https://i.imgur.com/oTvMW2G.png",
			"fluff": {
				"entries": [
					"{@link Longbowman|https://homebrewery.naturalcrit.com/share/o4qRnnxr0a2G} 基于来自{@link u/filmatra|https://www.reddit.com/r/UnearthedArcana/comments/pnewbv/comment/hcopcks/}的帖子"
				],
				"images": [
					{
						"type": "image",
						"href": {
							"type": "external",
							"url": "https://i.imgur.com/0Z9Zv1S.jpg"
						}
					}
				]
			},
			"attachedItems": [
				"longbow|phb"
			]
		},
		{
			"name": "Archer Line",
			"size": [
				"H"
			],
			"type": {
				"type": "humanoid",
				"swarmSize": "M",
				"tags": [
					"any race",
					"10-20 members"
				]
			},
			"source": "ArmiesOfWar",
			"alignment": [
				"A"
			],
			"ac": [
				{
					"ac": 12,
					"from": [
						"{@item padded armor|phb}"
					]
				}
			],
			"hp": {
				"formula": "8d8 + 24",
				"average": 60
			},
			"speed": {
				"walk": 30
			},
			"str": 22,
			"dex": 13,
			"con": 16,
			"int": 10,
			"wis": 11,
			"cha": 10,
			"passive": 10,
			"cr": "3",
			"shortName": "Archer Line",
			"languages": [
				"any one language (usually Common)"
			],
			"languageTags": [
				"C",
				"X"
			],
			"skill": {
				"athletics": "+8"
			},
			"trait": [
				{
					"name": "Army",
					"entries": [
						"该单位可以占据另一个生物的空间，反之亦然，而且该单位可以通过任何足以容纳一个中型人形生物的开口移动。该单位在战斗中不能恢复命中率或获得临时命中率。"
					]
				},
				{
					"name": "Morale",
					"entries": [
						"如果单位变得{@condition frightened}或当它被减少到一半的命中率时，它必须在{@dc 13}智慧救赎上成功，否则会受到{@damage 2d8}的伤害，因为它的一些成员会脱离并逃离。"
					]
				}
			],
			"action": [
				{
					"name": "Blacken Sky (must be above half hit points)",
					"entries": [
						"该单位在600英尺内选择一个点。在该点30英尺范围内的所有生物必须做一个{@dc 15}灵巧的蓄力动作，如果蓄力失败会受到21({@damage 6d6})的穿刺伤害，如果蓄力成功则受到一半的伤害。穿着重甲和带着盾牌的生物可以在这个救赎中获得优势，并且在救赎成功后不会受到任何伤害，而会受到一半的伤害。"
					]
				},
				{
					"name": "Shortsword Flurry (swarm has more than half HP)",
					"entries": [
						"{@atk mw} {@hit 8}击中，到达5英尺，一个目标。{@h}14 ({@damage 4d6})穿刺伤害。"
					]
				},
				{
					"name": "Shortsword Flurry (swarm has half HP or less)",
					"entries": [
						"{@atk mw} {@hit 8}击中，到达5英尺，一个目标。{@h}7 ({@damage 2d6})穿刺伤害。"
					]
				},
				{
					"name": "Targeted Fire (swarm has more than half HP)",
					"entries": [
						"{@atk rw} {@hit 4}击中，范围150/600英尺，一个目标。{@h}18 ({@damage 4d8})穿刺伤害。"
					]
				},
				{
					"name": "Targeted Fire (swarm has half HP or less)",
					"entries": [
						"{@atk rw} {@hit 4}击中，范围150/600英尺，一个目标。{@h}9 ({@damage 2d8})穿刺伤害。"
					]
				}
			],
			"damageTags": [
				"P"
			],
			"miscTags": [
				"MW",
				"RW",
				"MLW"
			],
			"tokenUrl": "https://i.imgur.com/4JmSurx.png",
			"fluff": {
				"entries": [
					"{@link Archer Line|https://homebrewery.naturalcrit.com/share/o4qRnnxr0a2G} 基于来自{@link u/filmatra|https://www.reddit.com/r/UnearthedArcana/comments/pnewbv/comment/hcopcks/}的帖子"
				],
				"images": [
					{
						"type": "image",
						"href": {
							"type": "external",
							"url": "https://i.imgur.com/IHGCYYh.jpg"
						}
					}
				]
			},
			"savingThrowForced": [
				"dexterity"
			]
		},
		{
			"name": "Camp Followers",
			"size": [
				"H"
			],
			"type": {
				"type": "humanoid",
				"swarmSize": "M",
				"tags": [
					"any race",
					"20-40 members"
				]
			},
			"source": "ArmiesOfWar",
			"alignment": [
				"A"
			],
			"ac": [
				10
			],
			"hp": {
				"formula": "8d8 + 8",
				"average": 44
			},
			"speed": {
				"walk": 30
			},
			"str": 16,
			"dex": 10,
			"con": 13,
			"int": 13,
			"wis": 14,
			"cha": 13,
			"passive": 12,
			"cr": "1",
			"shortName": "Camp Followers",
			"languages": [
				"any four languages"
			],
			"languageTags": [
				"X"
			],
			"trait": [
				{
					"name": "Army",
					"entries": [
						"该单位可以占据另一个生物的空间，反之亦然，而且该单位可以通过任何足以容纳一个中型人形生物的开口移动。该单位在战斗中不能恢复命中率或获得临时命中率。"
					]
				},
				{
					"name": "Comforts of Home",
					"entries": [
						"只要该单位在休息期间处于一支军队的300英尺范围内，该军队在每次短时休息期间所花费的任何命中率骰子都会恢复最大的命中率，并在每次长时休息结束时失去一个额外的疲惫程度。"
					]
				},
				{
					"name": "Diverse",
					"entries": [
						"该部队由来自各行各业的商人、医生、工匠、歌妓和士兵家属组成。每当该单位进行技能检查时，滚动（%0%）。在2-3时，该单位将其熟练度奖励（+2）加入检查。在4的时候，它将其熟练度奖励的两倍（+4）加到检查上。"
					]
				},
				{
					"name": "Weak Morale",
					"entries": [
						"如果单位变成{@condition frightened}或减少到一半的命中率，它立即受到{@damage 2d8}的伤害，因为它的一些成员挣脱并逃跑了。"
					]
				}
			],
			"action": [
				{
					"name": "Makeshift Attack (swarm has more than half HP)",
					"entries": [
						"{@atk mw} {@hit 6}击中，到达5英尺，一个目标。{@h}10 ({@damage 4d4})重击伤害。"
					]
				},
				{
					"name": "Makeshift Attack (swarm has half HP or less)",
					"entries": [
						"{@atk mw} {@hit 6}击中，到达5英尺，一个目标。{@h}5 ({@damage 2d4})重击伤害。"
					]
				}
			],
			"damageTags": [
				"B"
			],
			"miscTags": [
				"MW"
			],
			"tokenUrl": "https://i.imgur.com/wjO79cv.png",
			"fluff": {
				"entries": [
					"{@link Camp Followers|https://homebrewery.naturalcrit.com/share/o4qRnnxr0a2G} 基于来自{@link u/filmatra|https://www.reddit.com/r/UnearthedArcana/comments/pnewbv/comment/hcopcks/}的帖子"
				],
				"images": [
					{
						"type": "image",
						"href": {
							"type": "external",
							"url": "https://i.imgur.com/3oFwjan.jpg"
						}
					}
				]
			}
		},
		{
			"name": "Conscripted Footman",
			"size": [
				"M"
			],
			"type": {
				"type": "humanoid",
				"tags": [
					"any race"
				]
			},
			"source": "ArmiesOfWar",
			"alignment": [
				"A"
			],
			"ac": [
				{
					"ac": 11,
					"from": [
						"{@item padded armor|phb}"
					]
				}
			],
			"hp": {
				"formula": "2d8 + 2",
				"average": 11
			},
			"speed": {
				"walk": 30
			},
			"str": 12,
			"dex": 11,
			"con": 12,
			"int": 10,
			"wis": 9,
			"cha": 10,
			"passive": 9,
			"cr": "1/8",
			"shortName": "Conscripted Footman",
			"languages": [
				"any one language (usually Common)"
			],
			"languageTags": [
				"C",
				"X"
			],
			"trait": [
				{
					"name": "Undisciplined",
					"entries": [
						"步行者在对被害人进行救赎时有劣势（%0%）。"
					]
				}
			],
			"action": [
				{
					"name": "Spear",
					"entries": [
						"{@atk mw} {@hit 3}击中，到达5英尺，一个目标。{@h}4 ({@damage 1d6 + 1})穿刺伤害，如果双手使用，则是5 ({@damage 1d8 + 1})穿刺伤害。"
					]
				},
				{
					"name": "Sling",
					"entries": [
						"{@atk rw} {@hit 2}击中，范围30/120英尺，一个目标。{@h}3 ({@damage 1d4 +1})重击伤害。"
					]
				}
			],
			"damageTags": [
				"B",
				"P"
			],
			"miscTags": [
				"MW",
				"RW",
				"RNG",
				"MLW"
			],
			"tokenUrl": "https://i.imgur.com/YTPicP5.png",
			"fluff": {
				"entries": [
					"{@link Conscripted Footman|https://homebrewery.naturalcrit.com/share/o4qRnnxr0a2G} 基于来自{@link u/filmatra|https://www.reddit.com/r/UnearthedArcana/comments/pnewbv/comment/hcopcks/}的帖子"
				],
				"images": [
					{
						"type": "image",
						"href": {
							"type": "external",
							"url": "https://i.imgur.com/ywoYQAA.jpg"
						}
					}
				]
			},
			"attachedItems": [
				"sling|phb",
				"spear|phb"
			]
		},
		{
			"name": "Conscript Infantry",
			"size": [
				"H"
			],
			"type": {
				"type": "humanoid",
				"swarmSize": "M",
				"tags": [
					"any race",
					"20-40 members"
				]
			},
			"source": "ArmiesOfWar",
			"alignment": [
				"A"
			],
			"ac": [
				{
					"ac": 11,
					"from": [
						"{@item padded armor|phb}"
					]
				}
			],
			"hp": {
				"formula": "8d8 + 24",
				"average": 60
			},
			"speed": {
				"walk": 30
			},
			"str": 18,
			"dex": 11,
			"con": 16,
			"int": 10,
			"wis": 9,
			"cha": 10,
			"passive": 9,
			"cr": "1",
			"shortName": "Conscript Infantry",
			"languages": [
				"any one language (usually Common)"
			],
			"languageTags": [
				"C",
				"X"
			],
			"skill": {
				"athletics": "+6"
			},
			"trait": [
				{
					"name": "Army",
					"entries": [
						"该单位可以占据另一个生物的空间，反之亦然，而且该单位可以通过任何足以容纳一个中型人形生物的开口移动。该单位在战斗中不能恢复命中率或获得临时命中率。"
					]
				},
				{
					"name": "Horde",
					"entries": [
						"在军队空间内开始其回合的生物会受到14({@damage 4d6})的穿刺伤害，如果单位的命中率低于一半，则会受到7({@dice 2d6})。"
					]
				},
				{
					"name": "Scavengers",
					"entries": [
						"如果该部队花了10分钟或更多的时间在被打败的军队的残骸上，它的装甲等级会永久地增加1（最多16，每个残骸只能增加一次）。"
					]
				},
				{
					"name": "Weak Morale",
					"entries": [
						"如果该单位变成{@condition frightened}或减少到一半的命中率，它立即受到2d8的伤害，因为它的一些成员脱离并逃离。"
					]
				}
			],
			"action": [
				{
					"name": "Horde (swarm has more than half HP)",
					"entries": [
						"{@atk mw} {@hit 6}击中，到达5英尺，一个目标。{@h}14 ({@damage 4d6})穿刺伤害。"
					]
				},
				{
					"name": "Horde (swarm has half HP or less)",
					"entries": [
						"{@atk mw} {@hit 6}击中，到达5英尺，一个目标。{@h}7 ({@damage 2d6})穿刺伤害。"
					]
				},
				{
					"name": "Spear Formation (swarm has more than half HP)",
					"entries": [
						"{@atk mw} {@hit 7}击中，到达5英尺，一个目标。{@h}14 ({@damage 4d6})穿刺伤害。"
					]
				},
				{
					"name": "Spear Formation (swarm has half HP or less)",
					"entries": [
						"{@atk mw} {@hit 7}击中，到达5英尺，一个目标。{@h}7 ({@damage 2d6})穿刺伤害。"
					]
				},
				{
					"name": "Rain of Javelins (swarm has more than half HP)",
					"entries": [
						"{@atk rw} {@hit 2}击中，范围30/120英尺，一个目标。{@h}14 ({@damage 4d6})穿刺伤害。"
					]
				},
				{
					"name": "Rain of Javelins (swarm has half HP or less)",
					"entries": [
						"{@atk rw} {@hit 2}击中，范围30/120英尺，一个目标。{@h}7 ({@damage 2d6})穿刺伤害。"
					]
				}
			],
			"damageTags": [
				"P"
			],
			"miscTags": [
				"MW",
				"RW",
				"MLW"
			],
			"tokenUrl": "https://i.imgur.com/TEC9lCs.png",
			"fluff": {
				"entries": [
					"{@link Conscript Infantry|https://homebrewery.naturalcrit.com/share/o4qRnnxr0a2G} 基于来自{@link u/filmatra|https://www.reddit.com/r/UnearthedArcana/comments/pnewbv/comment/hcopcks/}的帖子"
				],
				"images": [
					{
						"type": "image",
						"href": {
							"type": "external",
							"url": "https://i.imgur.com/9UaNXpv.jpg"
						}
					}
				]
			}
		},
		{
			"name": "Heavy Cavalry",
			"size": [
				"G"
			],
			"type": {
				"type": "humanoid",
				"swarmSize": "M",
				"tags": [
					"any race",
					"10-20 members",
					"warhorse"
				]
			},
			"source": "ArmiesOfWar",
			"alignment": [
				"A"
			],
			"ac": [
				{
					"ac": 17,
					"from": [
						"{@item splint armor|phb}"
					]
				}
			],
			"hp": {
				"formula": "18d8 + 108",
				"average": 189
			},
			"speed": {
				"walk": {
					"number": 30,
					"condition": "(60 ft. while mounted)"
				}
			},
			"str": 22,
			"dex": 13,
			"con": 22,
			"int": 11,
			"wis": 11,
			"cha": 10,
			"passive": 14,
			"cr": "12",
			"shortName": "Heavy Cavalry",
			"languages": [
				"any one language (usually Common)"
			],
			"languageTags": [
				"C",
				"X"
			],
			"skill": {
				"athletics": "+10",
				"perception": "+4"
			},
			"trait": [
				{
					"name": "Army",
					"entries": [
						"该单位可以占据另一个生物的空间，反之亦然，而且该单位在骑马时可以通过任何足以容纳大型野兽的开口，或在未骑马时可以通过中型人形生物的开口。该单位在战斗中不能恢复命中率或获得临时命中率。"
					]
				},
				{
					"name": "Trampling Charge",
					"entries": [
						"如果该单位至少向一个生物直线移动20英尺，然后在同一回合用蹄子攻击击中它，该目标必须在{@dc 14}力量救赎中成功，否则会被击倒{@condition prone}。如果目标是{@condition prone}，单位可以用蹄子对其进行另一次攻击，作为一个额外动作。"
					]
				},
				{
					"name": "Morale",
					"entries": [
						"如果单位变得{@condition frightened}或当它被减少到一半的命中率时，它必须在{@dc 13}智慧救赎上成功，否则会受到{@damage 2d8}的伤害，因为它的一些成员会脱离并逃离。"
					]
				}
			],
			"conditionInflict": [
				"prone"
			],
			"action": [
				{
					"name": "Multiattack",
					"entries": [
						"如果该部队在本回合至少直线移动了20英尺，它可以进行一次长矛冲锋和一次蹄子攻击。否则，它将进行一次侧翼攻击。"
					]
				},
				{
					"name": "Spear Charge (swarm has more than half HP)",
					"entries": [
						"{@atk mw} {@hit 10}击中，到达5英尺，一个目标。{@h}28 ({@damage 8d6})穿刺伤害。"
					]
				},
				{
					"name": "Spear Charge (swarm has half HP or less)",
					"entries": [
						"{@atk mw} {@hit 10}击中，到达5英尺，一个目标。{@h}14 ({@damage 4d6})穿刺伤害。"
					]
				},
				{
					"name": "Hooves (swarm has more than half HP)",
					"entries": [
						"{@atk mw} {@hit 10}击中，到达5英尺，一个目标。{@h}28 ({@damage 8d6})重击伤害。"
					]
				},
				{
					"name": "Hooves (swarm has half HP or less)",
					"entries": [
						"{@atk mw} {@hit 10}击中，到达5英尺，一个目标。{@h}14 ({@damage 4d6})重击伤害。"
					]
				},
				{
					"name": "Sidearm Flurry (swarm has more than half HP)",
					"entries": [
						"{@atk mw} {@hit 10}击中，到达5英尺，一个目标。{@h}28 ({@damage 8d6})砍击伤害。"
					]
				},
				{
					"name": "Sidearm Flurry (swarm has half HP or less)",
					"entries": [
						"{@atk mw} {@hit 10}击中，到达5英尺，一个目标。{@h}14 ({@damage 4d6})砍击伤害。"
					]
				}
			],
			"actionTags": [
				"Multiattack"
			],
			"damageTags": [
				"B",
				"P",
				"S"
			],
			"miscTags": [
				"MW",
				"MLW"
			],
			"tokenUrl": "https://i.imgur.com/QFVLrDO.png",
			"fluff": {
				"entries": [
					"{@link Heavy Cavalry|https://homebrewery.naturalcrit.com/share/o4qRnnxr0a2G} 基于来自{@link u/filmatra|https://www.reddit.com/r/UnearthedArcana/comments/pnewbv/comment/hcopcks/}的帖子"
				],
				"images": [
					{
						"type": "image",
						"href": {
							"type": "external",
							"url": "https://i.imgur.com/CvMhUpN.jpg"
						}
					}
				]
			},
			"savingThrowForced": [
				"strength"
			]
		},
		{
			"name": "Heavy Crossbowman",
			"size": [
				"M"
			],
			"type": {
				"type": "humanoid",
				"tags": [
					"any race"
				]
			},
			"source": "ArmiesOfWar",
			"alignment": [
				"A"
			],
			"ac": [
				{
					"ac": 14,
					"from": [
						"{@item chain shirt|phb}"
					]
				}
			],
			"hp": {
				"formula": "2d8 + 2",
				"average": 11
			},
			"speed": {
				"walk": 30
			},
			"str": 14,
			"dex": 13,
			"con": 13,
			"int": 10,
			"wis": 11,
			"cha": 10,
			"passive": 10,
			"cr": "1/2",
			"shortName": "Heavy Crossbowman",
			"languages": [
				"any one language (usually Common)"
			],
			"languageTags": [
				"C",
				"X"
			],
			"action": [
				{
					"name": "Crossbow",
					"entries": [
						"{@atk rw} {@hit 3}击中，范围100/400英尺，一个目标。{@h}6 ({@damage 1d10 + 1})穿刺伤害。"
					]
				},
				{
					"name": "Shortsword",
					"entries": [
						"{@atk mw} {@hit 4}击中，到达5英尺，一个目标。{@h}4 ({@damage 1d4 + 2})穿刺伤害。"
					]
				}
			],
			"damageTags": [
				"P"
			],
			"miscTags": [
				"RW",
				"MW",
				"MLW"
			],
			"tokenUrl": "https://i.imgur.com/WLrkqNx.png",
			"fluff": {
				"entries": [
					"{@link Heavy Crossbowman|https://homebrewery.naturalcrit.com/share/o4qRnnxr0a2G} 基于来自{@link u/filmatra|https://www.reddit.com/r/UnearthedArcana/comments/pnewbv/comment/hcopcks/}的帖子"
				],
				"images": [
					{
						"type": "image",
						"href": {
							"type": "external",
							"url": "https://i.imgur.com/szAGSCT.jpg"
						}
					}
				]
			},
			"attachedItems": [
				"shortsword|phb"
			]
		},
		{
			"name": "Heavy Crossbow Line",
			"size": [
				"H"
			],
			"type": {
				"type": "humanoid",
				"swarmSize": "M",
				"tags": [
					"any race",
					"10-20 members"
				]
			},
			"source": "ArmiesOfWar",
			"alignment": [
				"A"
			],
			"ac": [
				{
					"ac": 14,
					"from": [
						"{@item chain shirt|phb}"
					]
				}
			],
			"hp": {
				"formula": "8d8 + 32",
				"average": 68
			},
			"speed": {
				"walk": 30
			},
			"str": 22,
			"dex": 11,
			"con": 19,
			"int": 10,
			"wis": 11,
			"cha": 10,
			"passive": 10,
			"cr": "3",
			"shortName": "Heavy Crossbow Line",
			"languages": [
				"any one language (usually Common)"
			],
			"languageTags": [
				"C",
				"X"
			],
			"skill": {
				"athletics": "+8"
			},
			"trait": [
				{
					"name": "Army",
					"entries": [
						"该单位可以占据另一个生物的空间，反之亦然，而且该单位可以通过任何足以容纳一个中型人形生物的开口移动。该单位在战斗中不能恢复命中率或获得临时命中率。"
					]
				},
				{
					"name": "Rotating Fire",
					"entries": [
						"该单位在射击和重装弩手的队伍中交替进行。虽然它有超过一半的命中率，但它忽略了重弩的装载属性。"
					]
				},
				{
					"name": "Morale",
					"entries": [
						"如果单位变得{@condition frightened}或当它被减少到一半的命中率时，它必须在{@dc 13}智慧救赎上成功，否则会受到{@damage 2d8}的伤害，因为它的一些成员会脱离并逃离。"
					]
				}
			],
			"action": [
				{
					"name": "Multiattack",
					"entries": [
						"该部队进行了两次有针对性的火力攻击。"
					]
				},
				{
					"name": "Suffocating Volley (must be above half hit points)",
					"entries": [
						"所有在15英尺宽，100英尺长的队伍中的生物必须做一个{@dc 15}灵巧的救赎，如果救赎失败会受到22({@dice 4d10})的穿刺伤害，如果救赎成功则受到一半的伤害。距离单位超过50英尺的生物在做这个救赎时有优势。"
					]
				},
				{
					"name": "Shortsword Flurry (swarm has more than half HP)",
					"entries": [
						"{@atk mw} {@hit 8}击中，到达5英尺，一个目标。{@h}14 ({@damage 4d6})穿刺伤害。"
					]
				},
				{
					"name": "Shortsword Flurry (swarm has half HP or less)",
					"entries": [
						"{@atk mw} {@hit 8}击中，到达5英尺，一个目标。{@h}7 ({@damage 2d6})穿刺伤害。"
					]
				},
				{
					"name": "Plant Pavise",
					"entries": [
						"该部队在其前线前部署了一排塔盾。直到下一次移动或进行近战攻击时，该部队有四分之三的掩护（AC和Dexterity saving throws的+5奖励）。"
					]
				},
				{
					"name": "Targeted Fire (swarm has more than half HP)",
					"entries": [
						"{@atk rw} {@hit 2}击中，范围100/400英尺，一个目标。{@h}22 ({@damage 4d10})穿刺伤害。"
					]
				},
				{
					"name": "Targeted Fire (swarm has half HP or less)",
					"entries": [
						"{@atk rw} {@hit 2}击中，范围100/400英尺，一个目标。{@h}11 ({@damage 2d10})穿刺伤害。"
					]
				}
			],
			"actionTags": [
				"Multiattack"
			],
			"damageTags": [
				"P"
			],
			"miscTags": [
				"MW",
				"RW",
				"MLW"
			],
			"tokenUrl": "https://i.imgur.com/LqEkbRn.png",
			"fluff": {
				"entries": [
					"{@link Heavy Crossbow Line|https://homebrewery.naturalcrit.com/share/o4qRnnxr0a2G} 基于来自{@link u/filmatra|https://www.reddit.com/r/UnearthedArcana/comments/pnewbv/comment/hcopcks/}的帖子"
				],
				"images": [
					{
						"type": "image",
						"href": {
							"type": "external",
							"url": "https://i.imgur.com/XMrxYPI.jpg"
						}
					}
				]
			},
			"savingThrowForced": [
				"dexterity"
			]
		},
		{
			"name": "Holy Chorus",
			"size": [
				"L"
			],
			"type": {
				"type": "humanoid",
				"swarmSize": "M",
				"tags": [
					"any race",
					"5-10 members"
				]
			},
			"source": "ArmiesOfWar",
			"alignment": [
				"L",
				"G",
				"NY",
				"E"
			],
			"ac": [
				{
					"ac": 13,
					"from": [
						"{@item chain shirt|phb}"
					]
				}
			],
			"hp": {
				"formula": "8d8 + 24",
				"average": 60
			},
			"speed": {
				"walk": 30
			},
			"str": 16,
			"dex": 10,
			"con": 16,
			"int": 13,
			"wis": 16,
			"cha": 13,
			"passive": 13,
			"cr": "7",
			"shortName": "Holy Chorus",
			"languages": [
				"any one language (usually Common)"
			],
			"languageTags": [
				"C",
				"X"
			],
			"skill": {
				"medicine": "+9",
				"persuasion": "+4",
				"religion": "+4"
			},
			"trait": [
				{
					"name": "Army",
					"entries": [
						"该单位可以占据另一个生物的空间，反之亦然，而且该单位可以通过任何足以容纳一个中型人形生物的开口移动。该单位在战斗中不能恢复命中率或获得临时命中率。"
					]
				},
				{
					"name": "Morale",
					"entries": [
						"如果单位变得（%0%）或当它被减少到一半的命中率时，它必须在DC13智慧救赎上成功，否则会受到（%1%）的伤害，因为它的一些成员会挣脱和逃离。"
					]
				},
				{
					"name": "War Healer",
					"entries": [
						"该单位所施的法术可以使军队在战斗中也能恢复命中率。"
					]
				}
			],
			"spellcasting": [
				{
					"name": "Spellcasting: Convoke",
					"headerEntries": [
						"该单位是一个9级的施法者。它的法术能力是智慧（法术救赎（%0%），用法术攻击+6命中）。如果它的命中率降低到一半以下，该单位就会变成一个5级的施法者（它失去了4级和5级的法术槽以及3级的一个法术槽）。该单位有以下牧师法术准备。"
					],
					"spells": {
						"0": {
							"spells": [
								"{@spell light}",
								"{@spell mending}",
								"{@spell spare the dying}",
								"{@spell thaumaturgy}"
							]
						},
						"1": {
							"spells": [
								"{@spell divine favor}",
								"{@spell guiding bolt}",
								"{@spell healing word}",
								"{@spell sanctuary}",
								"{@spell shield of faith}"
							],
							"slots": 4
						},
						"2": {
							"spells": [
								"{@spell lesser restoration}",
								"{@spell magic weapon}",
								"{@spell prayer of healing}",
								"{@spell silence}",
								"{@spell spiritual weapon}"
							],
							"slots": 3
						},
						"3": {
							"spells": [
								"{@spell beacon of hope}",
								"{@spell crusader's mantle}",
								"{@spell dispel magic}",
								"{@spell revivify}",
								"{@spell spirit guardians}",
								"{@spell wall of water|XGE}"
							],
							"slots": 3
						},
						"4": {
							"spells": [
								"{@spell banishment}",
								"{@spell freedom of movement}",
								"{@spell guardian of faith}",
								"{@spell stoneskin}"
							],
							"slots": 3
						},
						"5": {
							"spells": [
								"{@spell flame strike}",
								"{@spell hold monster}",
								"{@spell mass cure wounds}"
							],
							"slots": 1
						}
					},
					"ability": "wis",
					"type": "spellcasting"
				}
			],
			"spellcastingTags": [
				"CC"
			],
			"damageTagsSpell": [
				"F",
				"N",
				"O",
				"R"
			],
			"action": [
				{
					"name": "Multiattack",
					"entries": [
						"该单位施放一个法术，并使用它的矛突击攻击。"
					]
				},
				{
					"name": "Mace Flurry",
					"entries": [
						"{@atk mw} {@hit 2}击中，到达5英尺，一个目标。{@h}28 ({@damage 8d6})重击伤害。"
					]
				}
			],
			"actionTags": [
				"Multiattack"
			],
			"damageTags": [
				"B"
			],
			"miscTags": [
				"MW",
				"MLW"
			],
			"tokenUrl": "https://i.imgur.com/pcziKy2.png",
			"fluff": {
				"entries": [
					"{@link Holy Chorus|https://homebrewery.naturalcrit.com/share/o4qRnnxr0a2G} 基于来自{@link u/filmatra|https://www.reddit.com/r/UnearthedArcana/comments/pnewbv/comment/hcopcks/}的帖子"
				],
				"images": [
					{
						"type": "image",
						"href": {
							"type": "external",
							"url": "https://i.imgur.com/XrrWfh3.jpg"
						}
					}
				]
			},
			"savingThrowForcedSpell": [
				"charisma",
				"dexterity",
				"wisdom"
			]
		},
		{
			"name": "Knightly Order",
			"size": [
				"G"
			],
			"type": {
				"type": "humanoid",
				"swarmSize": "M",
				"tags": [
					"any race",
					"10-20 members",
					"warhorse"
				]
			},
			"source": "ArmiesOfWar",
			"alignment": [
				"L",
				"G",
				"NY",
				"E"
			],
			"ac": [
				{
					"ac": 18,
					"from": [
						"{@item plate armor|phb}"
					]
				}
			],
			"hp": {
				"formula": "18d8 + 108",
				"average": 189
			},
			"speed": {
				"walk": {
					"number": 30,
					"condition": "(60 ft. while mounted)"
				}
			},
			"str": 22,
			"dex": 13,
			"con": 22,
			"int": 11,
			"wis": 11,
			"cha": 15,
			"passive": 15,
			"cr": "15",
			"shortName": "Knightly Order",
			"languages": [
				"any one language (usually Common)"
			],
			"languageTags": [
				"C",
				"X"
			],
			"skill": {
				"athletics": "+11",
				"perception": "+5"
			},
			"trait": [
				{
					"name": "Army",
					"entries": [
						"该单位可以占据另一个生物的空间，反之亦然，而且该单位在骑马时可以通过任何足以容纳大型野兽的开口，或在未骑马时可以通过中型人形生物的开口。该单位在战斗中不能恢复命中率或获得临时命中率。"
					]
				},
				{
					"name": "Trampling Charge",
					"entries": [
						"如果该单位至少向一个生物直线移动20英尺，然后在同一回合用蹄子攻击击中它，该目标必须在{@dc 14}力量救赎中成功，否则会被击倒{@condition prone}。如果目标是{@condition prone}，单位可以用蹄子对其进行另一次攻击，作为一个额外动作。"
					]
				},
				{
					"name": "Unwavering Morale",
					"entries": [
						"该单位在对被攻击者的救赎上有优势（%0%）。"
					]
				}
			],
			"conditionInflict": [
				"prone"
			],
			"action": [
				{
					"name": "Multiattack",
					"entries": [
						"如果该部队在本回合至少直线移动了20英尺，它可以进行一次长枪冲锋和一次蹄子攻击。否则，它将进行一次侧翼攻击。"
					]
				},
				{
					"name": "Lance Charge (swarm has more than half HP)",
					"entries": [
						"{@atk mw} {@hit 11}击中，到达5英尺，一个目标。{@h}52 ({@damage 8d12})穿刺伤害。"
					]
				},
				{
					"name": "Lance Charge (swarm has half HP or less)",
					"entries": [
						"{@atk mw} {@hit 11}击中，到达5英尺，一个目标。{@h}26 ({@damage 4d12})穿刺伤害。"
					]
				},
				{
					"name": "Hooves (swarm has more than half HP)",
					"entries": [
						"{@atk mw} {@hit 11}击中，到达5英尺，一个目标。{@h}28 ({@damage 8d6})重击伤害。"
					]
				},
				{
					"name": "Hooves (swarm has half HP or less)",
					"entries": [
						"{@atk mw} {@hit 11}击中，到达5英尺，一个目标。{@h}14 ({@damage 4d6})重击伤害。"
					]
				},
				{
					"name": "Sidearm Flurry (swarm has more than half HP)",
					"entries": [
						"{@atk mw} {@hit 11}击中，到达5英尺，一个目标。{@h}28 ({@damage 8d6})砍击伤害。"
					]
				},
				{
					"name": "Sidearm Flurry (swarm has half HP or less)",
					"entries": [
						"{@atk mw} {@hit 11}击中，到达5英尺，一个目标。{@h}14 ({@damage 4d6})砍击伤害。"
					]
				},
				{
					"name": "Thunder of Crossbow Bolts (swarm has more than half HP)",
					"entries": [
						"{@atk rw} {@hit 6}击中，范围100/400英尺，一个目标。{@h}28 ({@damage 8d6})穿刺伤害。"
					]
				},
				{
					"name": "Thunder of Crossbow Bolts (swarm has half HP or less)",
					"entries": [
						"{@atk rw} {@hit 6}击中，范围100/400英尺，一个目标。{@h}14 ({@damage 4d6})穿刺伤害。"
					]
				},
				{
					"name": "Beacon of Guidance (Recharges after a Short or LongRest)",
					"entries": [
						"在1分钟内，在它能看到的30英尺范围内，所有该单位选择的生物在每次攻击卷和蓄力时都会增加（%0%），前提是它能听到并理解该单位。如果该单位失去行动能力，该效果将结束。"
					]
				}
			],
			"actionTags": [
				"Multiattack"
			],
			"damageTags": [
				"B",
				"P",
				"S"
			],
			"miscTags": [
				"MW",
				"RW",
				"MLW"
			],
			"reaction": [
				{
					"name": "Warding Maneuvers",
					"entries": [
						"该单位在其AC上再加2个会击中它的石头近战攻击。要做到这一点，该单位必须看到攻击者并挥舞着近战武器。"
					]
				}
			],
			"tokenUrl": "https://i.imgur.com/4QalogH.png",
			"fluff": {
				"entries": [
					"{@link Knightly Order|https://homebrewery.naturalcrit.com/share/o4qRnnxr0a2G} 基于来自{@link u/filmatra|https://www.reddit.com/r/UnearthedArcana/comments/pnewbv/comment/hcopcks/}的帖子"
				],
				"images": [
					{
						"type": "image",
						"href": {
							"type": "external",
							"url": "https://i.imgur.com/SG4bMEB.jpg"
						}
					}
				]
			},
			"savingThrowForced": [
				"strength"
			]
		},
		{
			"name": "Light Cavalry",
			"size": [
				"H"
			],
			"type": {
				"type": "humanoid",
				"swarmSize": "M",
				"tags": [
					"any race",
					"5-10 members",
					"warhorse"
				]
			},
			"source": "ArmiesOfWar",
			"alignment": [
				"A"
			],
			"ac": [
				{
					"ac": 14,
					"from": [
						"{@item padded armor|phb}"
					]
				}
			],
			"hp": {
				"formula": "12d8 + 36",
				"average": 90
			},
			"speed": {
				"walk": {
					"number": 30,
					"condition": "(60 ft. while mounted)"
				}
			},
			"str": 20,
			"dex": 16,
			"con": 16,
			"int": 18,
			"wis": 11,
			"cha": 14,
			"passive": 13,
			"cr": "7",
			"shortName": "Light Cavalry",
			"languages": [
				"any one language (usually Common)"
			],
			"languageTags": [
				"C",
				"X"
			],
			"skill": {
				"athletics": "+8",
				"perception": "+3"
			},
			"trait": [
				{
					"name": "Army",
					"entries": [
						"该单位可以占据另一个生物的空间，反之亦然，而且该单位可以在骑马时通过任何足以容纳大型野兽的开口，或者在未骑马时通过中型人形动物的开口。该单位在战斗中不能恢复命中率或获得临时命中率。"
					]
				},
				{
					"name": "Morale",
					"entries": [
						"如果单位变得{@condition frightened}或当它被减少到一半的命中率时，它必须在{@dc 13}智慧救赎上成功，否则会受到{@damage 2d8}的伤害，因为它的一些成员会脱离并逃离。"
					]
				}
			],
			"action": [
				{
					"name": "Multiattack",
					"entries": [
						"该单位进行两次弯刀齐射或骑射攻击。"
					]
				},
				{
					"name": "Scimitar Flurry (swarm has more than half HP)",
					"entries": [
						"{@atk mw} {@hit 8}击中，到达5英尺，一个目标。{@h}28 ({@damage 8d6})砍击伤害。"
					]
				},
				{
					"name": "Scimitar Flurry (swarm has half HP or less)",
					"entries": [
						"{@atk mw} {@hit 8}击中，到达5英尺，一个目标。{@h}14 ({@damage 4d6})砍击伤害。"
					]
				},
				{
					"name": "Hooves (swarm has more than half HP)",
					"entries": [
						"{@atk mw} {@hit 8}击中，到达5英尺，一个目标。{@h}28 ({@damage 8d6})重击伤害。"
					]
				},
				{
					"name": "Hooves (swarm has half HP or less)",
					"entries": [
						"{@atk mw} {@hit 8}击中，到达5英尺，一个目标。{@h}14 ({@damage 4d6})重击伤害。"
					]
				},
				{
					"name": "Mounted Archery (swarm has more than half HP)",
					"entries": [
						"{@atk rw} {@hit 6}击中，范围150/600英尺，一个目标。{@h}36 ({@damage 8d8})穿刺伤害。"
					]
				},
				{
					"name": "Mounted Archery (swarm has half HP or less)",
					"entries": [
						"{@atk rw} {@hit 6}击中，范围150/600英尺，一个目标。{@h}18 ({@damage 4d8})穿刺伤害。"
					]
				}
			],
			"actionTags": [
				"Multiattack"
			],
			"damageTags": [
				"B",
				"P",
				"S"
			],
			"miscTags": [
				"MW",
				"RW",
				"MLW"
			],
			"reaction": [
				{
					"name": "Warding Maneuvers",
					"entries": [
						"该单位在抵御一次会击中它的近战攻击时，其攻击力增加2。要做到这一点，该单位必须看到攻击者并挥舞着近战武器。"
					]
				}
			],
			"tokenUrl": "https://i.imgur.com/w5gsPhp.png",
			"fluff": {
				"entries": [
					"{@link Light Cavalry|https://homebrewery.naturalcrit.com/share/o4qRnnxr0a2G} 基于来自{@link u/filmatra|https://www.reddit.com/r/UnearthedArcana/comments/pnewbv/comment/hcopcks/}的帖子"
				],
				"images": [
					{
						"type": "image",
						"href": {
							"type": "external",
							"url": "https://i.imgur.com/GNfgBRb.jpg"
						}
					}
				]
			}
		},
		{
			"name": "Army Drummer",
			"size": [
				"M"
			],
			"type": {
				"type": "humanoid",
				"tags": [
					"any race"
				]
			},
			"source": "ArmiesOfWar",
			"alignment": [
				"A"
			],
			"ac": [
				{
					"ac": 12,
					"from": [
						"{@item padded armor|phb}"
					]
				}
			],
			"hp": {
				"formula": "2d8 + 2",
				"average": 11
			},
			"speed": {
				"walk": 30
			},
			"str": 11,
			"dex": 12,
			"con": 12,
			"int": 10,
			"wis": 11,
			"cha": 12,
			"passive": 10,
			"cr": "1/8",
			"shortName": "Army Drummer",
			"languages": [
				"any one language (usually Common)"
			],
			"languageTags": [
				"C",
				"X"
			],
			"skill": {
				"performance": "+3",
				"persuasion": "+3",
				"intimidation": "+3"
			},
			"action": [
				{
					"name": "Inspire",
					"entries": [
						"鼓手所选择的一个生物在其下一个攻击卷、技能检定或蓄力投掷时增加1d4，直到其下一回合结束。"
					]
				}
			],
			"tokenUrl": "https://i.imgur.com/iS42lIB.png",
			"fluff": {
				"entries": [
					"{@link Army Drummer|https://homebrewery.naturalcrit.com/share/o4qRnnxr0a2G} 基于来自{@link u/filmatra|https://www.reddit.com/r/UnearthedArcana/comments/pnewbv/comment/hcopcks/}的帖子"
				],
				"images": [
					{
						"type": "image",
						"href": {
							"type": "external",
							"url": "https://i.imgur.com/1mOjy6U.jpg"
						}
					}
				]
			}
		},
		{
			"name": "Martial Band",
			"size": [
				"H"
			],
			"type": {
				"type": "humanoid",
				"swarmSize": "M",
				"tags": [
					"any race",
					"20-40 members"
				]
			},
			"source": "ArmiesOfWar",
			"alignment": [
				"A"
			],
			"ac": [
				{
					"ac": 12,
					"from": [
						"{@item padded armor|phb}"
					]
				}
			],
			"hp": {
				"formula": "10d8 + 40",
				"average": 85
			},
			"speed": {
				"walk": 30
			},
			"str": 18,
			"dex": 12,
			"con": 18,
			"int": 10,
			"wis": 11,
			"cha": 15,
			"passive": 10,
			"cr": "3",
			"shortName": "Martial Band",
			"languages": [
				"any one language (usually Common)"
			],
			"languageTags": [
				"C",
				"X"
			],
			"skill": {
				"athletics": "+7",
				"performance": "+5",
				"persuasion": "+5",
				"intimidation": "+5"
			},
			"trait": [
				{
					"name": "Army",
					"entries": [
						"该单位可以占据另一个生物的空间，反之亦然，而且该单位可以在骑马时通过任何足以容纳大型野兽的开口，或者在未骑马时通过中型人形动物的开口。该单位在战斗中不能恢复命中率或获得临时命中率。"
					]
				},
				{
					"name": "Marches of War",
					"entries": [
						"作为其回合中的一个行动，该单位开始演奏下列节奏之一。它一次只能演奏一种节奏，每回合必须使用其行动来继续该节奏的效果，并且必须保持对该节奏的专注，如同专注于一个法术。",
						{
							"type": "list",
							"items": [
								"{@b Rhythm of Guidance.} 这首歌协调军队的行动。在150英尺范围内的每个盟友，如果至少有一个传奇行动，就会多一个传奇行动，只要能听到节奏，就能在回合开始时重新获得这个行动。",
								"{@b Rhythm of Terror.}这首歌充满了威胁。在150英尺范围内能听到这首歌的敌对生物，在他们为抵抗变得{@condition frightened}而做出的拯救动作上有劣势，并因失去士气而受到9({@dice 2d8})的额外伤害。",
								"(只要能听到节奏，150英尺内的每个盟友都会在其攻击卷、技能检查和蓄力上增加（%1%）。"
							]
						}
					]
				},
				{
					"name": "Morale",
					"entries": [
						"如果单位变得（%0%）或当它被减少到一半的命中率时，它必须在DC13智慧救赎上成功，否则会受到（%1%）的伤害，因为它的一些成员会挣脱和逃离。"
					]
				}
			],
			"action": [
				{
					"name": "Shortsword Flurry (swarm has more than half HP)",
					"entries": [
						"{@atk mw} {@hit 8}击中，到达5英尺，一个目标。{@h}14 ({@damage 4d6})穿刺伤害。"
					]
				},
				{
					"name": "Shortsword Flurry (swarm has half HP or less)",
					"entries": [
						"{@atk mw} {@hit 8}击中，到达5英尺，一个目标。{@h}7 ({@damage 2d6})穿刺伤害。"
					]
				}
			],
			"damageTags": [
				"P"
			],
			"miscTags": [
				"MW",
				"MLW"
			],
			"tokenUrl": "https://i.imgur.com/5O3RFbZ.png",
			"fluff": {
				"entries": [
					"{@link Martial Band|https://homebrewery.naturalcrit.com/share/o4qRnnxr0a2G} 基于来自{@link u/filmatra|https://www.reddit.com/r/UnearthedArcana/comments/pnewbv/comment/hcopcks/}的帖子"
				],
				"images": [
					{
						"type": "image",
						"href": {
							"type": "external",
							"url": "https://i.imgur.com/5C3b6nR.jpg"
						}
					}
				]
			}
		},
		{
			"name": "Scouting Troop",
			"size": [
				"L"
			],
			"type": {
				"type": "humanoid",
				"swarmSize": "M",
				"tags": [
					"any race",
					"5-10 members"
				]
			},
			"source": "ArmiesOfWar",
			"alignment": [
				"NX",
				"NY",
				"N"
			],
			"ac": [
				{
					"ac": 13,
					"from": [
						"{@item leather armor|phb}"
					]
				}
			],
			"hp": {
				"formula": "8d8 + 24",
				"average": 60
			},
			"speed": {
				"walk": 30
			},
			"str": 18,
			"dex": 14,
			"con": 16,
			"int": 11,
			"wis": 13,
			"cha": 11,
			"passive": 15,
			"cr": "1",
			"shortName": "Scouting Troop",
			"languages": [
				"any one language (usually Common)"
			],
			"languageTags": [
				"C",
				"X"
			],
			"skill": {
				"nature": "+4",
				"perception": "+5",
				"stealth": "+6",
				"survival": "+5"
			},
			"trait": [
				{
					"name": "Army",
					"entries": [
						"该单位可以占据另一个生物的空间，反之亦然，而且该单位可以通过任何足以容纳一个中型人形生物的开口移动。该单位在战斗中不能恢复命中率或获得临时命中率。"
					]
				},
				{
					"name": "Keen Hearing and Sight",
					"entries": [
						"该单位在依靠听觉或视觉的智慧（感知）检查中具有优势。"
					]
				},
				{
					"name": "Landstrider",
					"entries": [
						"伴随该单位的军队不会因为困难的地形而减慢行程。在单独旅行时，该部队可以以正常的速度隐秘地移动。"
					]
				},
				{
					"name": "Watchkeeper",
					"entries": [
						"在休息时，该装置可以保护一个高达300英尺的区域，就像由咒语警报器与一个在声音的守护。"
					]
				},
				{
					"name": "Morale",
					"entries": [
						"如果单位变得{@condition frightened}或当它被减少到一半的命中率时，它必须在{@dc 13}智慧救赎上成功，否则会受到{@damage 2d8}的伤害，因为它的一些成员会脱离并逃离。"
					]
				}
			],
			"traitTags": [
				"Keen Senses"
			],
			"action": [
				{
					"name": "Shortsword Flurry (swarm has more than half HP)",
					"entries": [
						"{@atk mw} {@hit 6}击中，到达5英尺，一个目标。{@h}14 ({@damage 4d6})穿刺伤害。"
					]
				},
				{
					"name": "Shortsword Flurry (swarm has half HP or less)",
					"entries": [
						"{@atk mw} {@hit 6}击中，到达5英尺，一个目标。{@h}7 ({@damage 2d6})穿刺伤害。"
					]
				},
				{
					"name": "Rain of Needles (swarm has more than half HP)",
					"entries": [
						"{@atk rw} {@hit 4}击中，范围80/320英尺，一个目标。{@h}14 ({@damage 4d6})穿刺伤害。"
					]
				},
				{
					"name": "Rain of Needles (swarm has half HP or less)",
					"entries": [
						"{@atk rw} {@hit 4}击中，范围80/320英尺，一个目标。{@h}7 ({@damage 2d6})穿刺伤害。"
					]
				}
			],
			"damageTags": [
				"P"
			],
			"miscTags": [
				"MW",
				"RW",
				"MLW"
			],
			"tokenUrl": "https://i.imgur.com/IPUbnyL.png",
			"fluff": {
				"entries": [
					"{@link Scouting Troop|https://homebrewery.naturalcrit.com/share/o4qRnnxr0a2G} 基于来自{@link u/filmatra|https://www.reddit.com/r/UnearthedArcana/comments/pnewbv/comment/hcopcks/}的帖子"
				],
				"images": [
					{
						"type": "image",
						"href": {
							"type": "external",
							"url": "https://i.imgur.com/3lEVSum.jpg"
						}
					}
				]
			}
		},
		{
			"name": "Skirmishers",
			"size": [
				"H"
			],
			"type": {
				"type": "humanoid",
				"swarmSize": "M",
				"tags": [
					"any race",
					"20-40 members"
				]
			},
			"source": "ArmiesOfWar",
			"alignment": [
				"A"
			],
			"ac": [
				{
					"ac": 15,
					"from": [
						"{@item scale mail|phb}"
					]
				}
			],
			"hp": {
				"formula": "10d8 + 60",
				"average": 105
			},
			"speed": {
				"walk": 30
			},
			"str": 22,
			"dex": 12,
			"con": 22,
			"int": 10,
			"wis": 11,
			"cha": 9,
			"passive": 10,
			"cr": "5",
			"shortName": "Skirmishers",
			"languages": [
				"any one language (usually Common)"
			],
			"languageTags": [
				"C",
				"X"
			],
			"skill": {
				"athletics": "+9",
				"intimidation": "+2"
			},
			"trait": [
				{
					"name": "Army",
					"entries": [
						"该单位可以占据另一个生物的空间，反之亦然，而且该单位在骑马时可以通过任何足以容纳大型野兽的开口，或在未骑马时可以通过中型人形生物的开口。该单位在战斗中不能恢复命中率或获得临时命中率。"
					]
				},
				{
					"name": "Aggressive",
					"entries": [
						"作为一个额外的行动，该单位可以按其速度向它能看到的敌方生物移动。"
					]
				},
				{
					"name": "Horde",
					"entries": [
						"在该单位空间内开始其回合的生物会受到21({@damage 6d6})的穿刺伤害，如果该单位的生命值低于一半，则会受到11({@dice 3d6})的伤害。"
					]
				},
				{
					"name": "Reckless",
					"entries": [
						"在它的回合开始时，该单位可以在该回合内的所有近战武器攻击卷上获得优势，但对它的攻击卷有优势，直到下一回合开始。"
					]
				},
				{
					"name": "Morale",
					"entries": [
						"如果单位变得{@condition frightened}或当它被减少到一半的命中率时，它必须在{@dc 13}智慧救赎上成功，否则会受到{@damage 2d8}的伤害，因为它的一些成员会脱离并逃离。"
					]
				}
			],
			"traitTags": [
				"Aggressive",
				"Reckless"
			],
			"bonus": [
				{
					"name": "Aggressive",
					"entries": [
						"该单位可以按其速度向它能看到的敌方生物移动。"
					]
				}
			],
			"damageTags": [
				"P",
				"S"
			],
			"action": [
				{
					"name": "Multiattack",
					"entries": [
						"这支部队进行了两轮的斧头攻击。"
					]
				},
				{
					"name": "Horde (swarm has more than half HP)",
					"entries": [
						"{@atk mw} {@hit 9}击中，到达5英尺，一个目标。{@h}21 ({@damage 6d6})穿刺伤害。"
					]
				},
				{
					"name": "Horde (swarm has half HP or less)",
					"entries": [
						"{@atk mw} {@hit 9}击中，到达5英尺，一个目标。{@h}10 ({@damage 3d6})穿刺伤害。"
					]
				},
				{
					"name": "Flurry of Axes (swarm has more than half HP)",
					"entries": [
						"{@atk mw} {@hit 9}击中，到达5英尺，一个目标。{@h}21 ({@damage 6d6})砍击伤害。"
					]
				},
				{
					"name": "Flurry of Axes (swarm has half HP or less)",
					"entries": [
						"{@atk mw} {@hit 9}击中，到达5英尺，一个目标。{@h}10 ({@damage 3d6 })砍击伤害。"
					]
				},
				{
					"name": "Spear Rush (swarm has more than half HP)",
					"entries": [
						"{@atk mw} {@hit 9}击中，到达5英尺，一个目标。{@h}21 ({@damage 6d6})穿刺伤害。"
					]
				},
				{
					"name": "Spear Rush (swarm has half HP or less)",
					"entries": [
						"{@atk mw} {@hit 9}击中，到达5英尺，一个目标。{@h}10 ({@damage 3d6})穿刺伤害。"
					]
				}
			],
			"miscTags": [
				"MW",
				"MLW"
			],
			"actionTags": [
				"Multiattack"
			],
			"tokenUrl": "https://i.imgur.com/1SQSqJj.png",
			"fluff": {
				"entries": [
					"{@link Skirmishers|https://homebrewery.naturalcrit.com/share/o4qRnnxr0a2G} 基于来自{@link u/filmatra|https://www.reddit.com/r/UnearthedArcana/comments/pnewbv/comment/hcopcks/}的帖子"
				],
				"images": [
					{
						"type": "image",
						"href": {
							"type": "external",
							"url": "https://i.imgur.com/rYvBVyj.jpg"
						}
					}
				]
			}
		},
		{
			"name": "Soldiers-At-Arms",
			"size": [
				"H"
			],
			"type": {
				"type": "humanoid",
				"swarmSize": "M",
				"tags": [
					"any race",
					"20-40 members"
				]
			},
			"source": "ArmiesOfWar",
			"alignment": [
				"A"
			],
			"ac": [
				{
					"ac": 18,
					"from": [
						"{@item half plate armor|phb}",
						"{@item shield|phb}"
					]
				}
			],
			"hp": {
				"formula": "14d8 + 84",
				"average": 147
			},
			"speed": {
				"walk": 30
			},
			"str": 22,
			"dex": 13,
			"con": 22,
			"int": 11,
			"wis": 11,
			"cha": 10,
			"passive": 14,
			"cr": "10",
			"shortName": "Soldiers-At-Arms",
			"languages": [
				"any one language (usually Common)"
			],
			"languageTags": [
				"C",
				"X"
			],
			"skill": {
				"athletics": "+10",
				"perception": "+4"
			},
			"trait": [
				{
					"name": "Army",
					"entries": [
						"该单位可以占据另一个生物的空间，反之亦然，而且该单位可以在骑马时通过任何足以容纳一个中型人形生物的开口，或在未骑马时通过一个中型人形生物。该单位在战斗中不能恢复命中率或获得临时命中率。"
					]
				},
				{
					"name": "Horde",
					"entries": [
						"在该单位空间内开始其回合的生物会受到28({@damage 8d6})的穿刺伤害，如果该单位的命中率低于一半，则为14({@dice 4d6})。"
					]
				},
				{
					"name": "Unwavering Morale",
					"entries": [
						"该单位在对被攻击者的救赎上有优势（%0%）。"
					]
				}
			],
			"damageTags": [
				"B",
				"P"
			],
			"action": [
				{
					"name": "Multiattack",
					"entries": [
						"该单位进行三次近战攻击或两次远程攻击。"
					]
				},
				{
					"name": "Horde (swarm has more than half HP)",
					"entries": [
						"{@atk mw} {@hit 10}击中，到达5英尺，一个目标。{@h}28 ({@damage 8d6})穿刺伤害。"
					]
				},
				{
					"name": "Horde (swarm has half HP or less)",
					"entries": [
						"{@atk mw} {@hit 10}击中，到达5英尺，一个目标。{@h}14 ({@damage 4d6})穿刺伤害。"
					]
				},
				{
					"name": "Open Melee (swarm has more than half HP)",
					"entries": [
						"{@atk mw} {@hit 10}击中，到达5英尺，一个目标。{@h}28 ({@damage 8d6})重击伤害。"
					]
				},
				{
					"name": "Open Melee (swarm has half HP or less)",
					"entries": [
						"{@atk mw} {@hit 10}击中，到达5英尺，一个目标。{@h}14 ({@damage 4d6})重击伤害。"
					]
				},
				{
					"name": "Shield Push (swarm has more than half HP)",
					"entries": [
						"{@atk mw} {@hit 10}击中，到达5英尺，一个目标。{@h}20 ({@damage 8d4})重击伤害。如果目标是中等或较小的生物，必须成功地进行{@dc 15}力量投掷，否则会被击倒{@condition prone}。"
					]
				},
				{
					"name": "Shield Push (swarm has half HP or less)",
					"entries": [
						"{@atk mw} {@hit 10}击中，到达5英尺，一个目标。{@h}10 ({@damage 4d4})重击伤害。如果目标是中型或较小的生物，必须成功地进行{@dc 15}力量投掷，否则会被击倒{@condition prone}。"
					]
				}
			],
			"actionTags": [
				"Multiattack"
			],
			"miscTags": [
				"MW"
			],
			"reaction": [
				{
					"name": "Warding Maneuvers",
					"entries": [
						"该单位在抵御一次会击中它的近战攻击时，其攻击力增加2。要做到这一点，该单位必须看到攻击者并挥舞着近战武器。"
					]
				}
			],
			"tokenUrl": "https://i.imgur.com/bsSYOCK.png",
			"fluff": {
				"entries": [
					"{@link Soldiers-At-Arms|https://homebrewery.naturalcrit.com/share/o4qRnnxr0a2G} 基于来自{@link u/filmatra|https://www.reddit.com/r/UnearthedArcana/comments/pnewbv/comment/hcopcks/}的帖子"
				],
				"images": [
					{
						"type": "image",
						"href": {
							"type": "external",
							"url": "https://i.imgur.com/tWkEOv2.jpg"
						}
					}
				]
			},
			"savingThrowForced": [
				"strength"
			]
		},
		{
			"name": "Wall of Shields",
			"size": [
				"H"
			],
			"type": {
				"type": "humanoid",
				"swarmSize": "M",
				"tags": [
					"any race",
					"20-40 members"
				]
			},
			"source": "ArmiesOfWar",
			"alignment": [
				"A"
			],
			"ac": [
				{
					"ac": 16,
					"from": [
						"{@item chain shirt|phb}",
						"{@item shield|phb}"
					]
				}
			],
			"hp": {
				"formula": "18d8 + 108",
				"average": 189
			},
			"speed": {
				"walk": 5
			},
			"str": 22,
			"dex": 13,
			"con": 22,
			"int": 11,
			"wis": 11,
			"cha": 10,
			"passive": 14,
			"cr": "10",
			"shortName": "Wall of Shields",
			"languages": [
				"any one language (usually Common)"
			],
			"languageTags": [
				"C",
				"X"
			],
			"skill": {
				"athletics": "+10",
				"perception": "+4"
			},
			"trait": [
				{
					"name": "Army",
					"entries": [
						"该单位可以占据另一个生物的空间，反之亦然，而且该单位可以通过任何足以容纳一个中型人形生物的开口移动。该单位在战斗中不能恢复命中率或获得临时命中率。"
					]
				},
				{
					"name": "Pike and Shield Formation",
					"entries": [
						"该单位在所有针对骑乘单位的近战攻击中具有优势，而针对它的非魔法范围攻击具有劣势。"
					]
				},
				{
					"name": "Polearm Master",
					"entries": [
						"其他生物在进入它的范围（10英尺）时，会引起该单位的一次机会攻击。"
					]
				},
				{
					"name": "Sentinel",
					"entries": [
						"当该单位以机会攻击击中一个生物时，该生物的速度在该回合的剩余时间内会变成0。此外，即使生物在离开该单位的范围之前采取了脱离行动，也会引发该单位的机会攻击。"
					]
				},
				{
					"name": "Vulnerable Flank",
					"entries": [
						"在其回合结束时，该单位宣布它所面对的是哪个红心方向。在其下一回合结束前，从相反方向对其进行的攻击是有优势的，并且该单位在所有其他方向都有3/4的掩护。"
					]
				},
				{
					"name": "Morale",
					"entries": [
						"如果单位变得{@condition frightened}或当它被减少到一半的命中率时，它必须在{@dc 13}智慧救赎上成功，否则会受到{@damage 2d8}的伤害，因为它的一些成员会脱离并逃离。"
					]
				}
			],
			"action": [
				{
					"name": "Multiattack",
					"entries": [
						"该部队进行了一次长矛齐射的攻击。"
					]
				},
				{
					"name": "Pike Flurry (swarm has more than half HP)",
					"entries": [
						"{@atk mw} {@hit 10}击中，到达5英尺，一个目标。{@h}44 ({@damage 8d10})穿刺伤害。"
					]
				},
				{
					"name": "Pike Flurry (swarm has half HP or less)",
					"entries": [
						"{@atk mw} {@hit 10}击中，到达5英尺，一个目标。{@h}22 ({@damage 4d10})穿刺伤害。"
					]
				},
				{
					"name": "Shield Push (swarm has more than half HP)",
					"entries": [
						"{@atk mw} {@hit 10}击中，到达5英尺，一个目标。{@h}20 ({@damage 8d4})重击伤害。"
					]
				},
				{
					"name": "Shield Push (swarm has half HP or less)",
					"entries": [
						"{@atk mw} {@hit 10}击中，到达5英尺，一个目标。{@h}10 ({@damage 4d4})重击伤害。"
					]
				}
			],
			"actionTags": [
				"Multiattack"
			],
			"damageTags": [
				"B",
				"P"
			],
			"miscTags": [
				"MW",
				"MLW"
			],
			"tokenUrl": "https://i.imgur.com/YMhgxZJ.png",
			"fluff": {
				"entries": [
					"{@link Wall of Shields|https://homebrewery.naturalcrit.com/share/o4qRnnxr0a2G} 基于来自{@link u/filmatra|https://www.reddit.com/r/UnearthedArcana/comments/pnewbv/comment/hcopcks/}的帖子"
				],
				"images": [
					{
						"type": "image",
						"href": {
							"type": "external",
							"url": "https://i.imgur.com/EYQiG7w.jpg"
						}
					}
				]
			}
		},
		{
			"name": "War Academy Mages",
			"size": [
				"L"
			],
			"type": {
				"type": "humanoid",
				"swarmSize": "M",
				"tags": [
					"any race",
					"5-10 members"
				]
			},
			"source": "ArmiesOfWar",
			"alignment": [
				"A"
			],
			"ac": [
				{
					"ac": 13,
					"from": [
						"{@item chain shirt|phb}"
					]
				}
			],
			"hp": {
				"formula": "8d8 + 24",
				"average": 60
			},
			"speed": {
				"walk": 30
			},
			"str": 12,
			"dex": 14,
			"con": 16,
			"int": 17,
			"wis": 12,
			"cha": 10,
			"passive": 11,
			"cr": "9",
			"shortName": "War Academy Mages",
			"languages": [
				"any four languages"
			],
			"languageTags": [
				"X"
			],
			"skill": {
				"arcana": "+7",
				"history": "+7"
			},
			"trait": [
				{
					"name": "Army",
					"entries": [
						"该单位可以占据另一个生物的空间，反之亦然，而且该单位可以通过任何足以容纳一个中型人形生物的开口移动。该单位在战斗中不能恢复命中率或获得临时命中率。"
					]
				},
				{
					"name": "Arcane Ward",
					"entries": [
						"在它周围30英尺范围内的生物（包括它自己），在对法术和其他魔法效果的拯救动作上有优势。"
					]
				},
				{
					"name": "Morale",
					"entries": [
						"如果单位变得（%0%）或当它被减少到一半的命中率时，它必须在DC13智慧救赎上成功，否则会受到（%1%）的伤害，因为它的一些成员会挣脱和逃离。"
					]
				}
			],
			"spellcasting": [
				{
					"name": "Spellcasting: Convoke",
					"headerEntries": [
						"该单位是一个12级的施法者。它的法术能力是智力（法术保存（%0%）,用法术攻击+7命中）。如果它的命中率降低到一半以下，该单位就会变成一个8级的施法者（它失去了5级和6级的法术槽以及4级的一个法术槽）。该单位有以下巫师法术准备。"
					],
					"spells": {
						"0": {
							"spells": [
								"{@spell fire bolt}",
								"{@spell light}",
								"{@spell prestidigitation}",
								"{@spell ray of frost}"
							]
						},
						"1": {
							"spells": [
								"{@spell detect magic}",
								"{@spell mage armor}",
								"{@spell magic missile}",
								"{@spell shield}"
							],
							"slots": 4
						},
						"2": {
							"spells": [
								"{@spell mirror image}",
								"{@spell misty step}",
								"{@spell shatter}"
							],
							"slots": 3
						},
						"3": {
							"spells": [
								"{@spell counterspell}",
								"{@spell fireball}",
								"{@spell lightning bolt}"
							],
							"slots": 3
						},
						"4": {
							"spells": [
								"{@spell ice storm}",
								"{@spell stoneskin}"
							],
							"slots": 3
						},
						"5": {
							"spells": [
								"{@spell Bigby's hand}",
								"{@spell cone of cold}"
							],
							"slots": 2
						},
						"6": {
							"spells": [
								"{@spell chain lightning}",
								"{@spell wall of ice}"
							],
							"slots": 1
						}
					},
					"ability": "int",
					"type": "spellcasting"
				}
			],
			"spellcastingTags": [
				"CW"
			],
			"damageTagsSpell": [
				"B",
				"C",
				"F",
				"L",
				"O",
				"T"
			],
			"action": [
				{
					"name": "Multiattack",
					"entries": [
						"该单位施放一个一级以上的法术和一个咒语，或施放两个咒语。"
					]
				},
				{
					"name": "Desperate Quarterstaves",
					"entries": [
						"{@atk mw} {@hit 2}击中，到达5英尺，一个目标。{@h}14 ({@damage 4d6})重击伤害。"
					]
				},
				{
					"name": "Desperate Quarterstaves",
					"entries": [
						"{@atk mw} {@hit 2}击中，到达5英尺，一个目标。{@h}7 ({@damage 2d6})重击伤害。"
					]
				}
			],
			"actionTags": [
				"Multiattack"
			],
			"damageTags": [
				"B"
			],
			"miscTags": [
				"MW"
			],
			"tokenUrl": "https://i.imgur.com/iTXTRd5.png",
			"fluff": {
				"entries": [
					"{@link War Academy Mages|https://homebrewery.naturalcrit.com/share/o4qRnnxr0a2G} 基于来自{@link u/filmatra|https://www.reddit.com/r/UnearthedArcana/comments/pnewbv/comment/hcopcks/}的帖子"
				],
				"images": [
					{
						"type": "image",
						"href": {
							"type": "external",
							"url": "https://i.imgur.com/LiPv8pg.jpg"
						}
					}
				]
			},
			"savingThrowForcedSpell": [
				"constitution",
				"dexterity"
			]
		}
	]
}
