{
	"$schema": "https://raw.githubusercontent.com/TheGiddyLimit/5etools-utils/master/schema/brew-fast/homebrew.json",
	"_meta": {
		"sources": [
			{
				"json": "LOD5HLV",
				"abbreviation": "LOD_5HLV",
				"full": "5 High Level Villains",
				"authors": [
					"Lair of Dragons"
				],
				"convertedBy": [
					"p4535992"
				],
				"version": "2022.07.16",
				"url": "https://www.dmsguild.com/product/325943/5-High-Level-Villains?affiliate_id=18983",
				"targetSchema": "1.7.0"
			}
		],
		"dateAdded": 1657961727,
		"dateLastModified": 1693666789,
		"_dateLastModifiedHash": "b08ebcce55"
	},
	"monster": [
		{
			"name": "Sajarin Khan",
			"size": [
				"M"
			],
			"type": "fiend",
			"source": "LOD5HLV",
			"alignment": [
				"L",
				"E"
			],
			"ac": [
				{
					"ac": 16,
					"from": [
						"natural armor"
					]
				}
			],
			"hp": {
				"formula": "13d8 + 52",
				"average": 110
			},
			"speed": {
				"walk": 40
			},
			"str": 14,
			"dex": 17,
			"con": 18,
			"int": 13,
			"wis": 16,
			"cha": 20,
			"passive": 13,
			"cr": "13",
			"shortName": "Sajarin Khan",
			"senses": [
				"darkvision 60 ft."
			],
			"senseTags": [
				"D"
			],
			"languages": [
				"Abyssal",
				"Common",
				"Infernal"
			],
			"languageTags": [
				"AB",
				"C",
				"I"
			],
			"skill": {
				"deception": "+10",
				"insight": "+8"
			},
			"vulnerable": [
				{
					"vulnerable": [
						"piercing"
					],
					"note": "from magic weapons wielded from good creatures"
				}
			],
			"resist": [
				{
					"resist": [
						"bludgeoning",
						"piercing",
						"slashing"
					],
					"note": "from nonmagical weapons"
				}
			],
			"trait": [
				{
					"name": "Special Equipment",
					"entries": [
						"萨迦林汗戴着萨迦林的汗冠。"
					]
				},
				{
					"name": "Limited Magic Immunity",
					"entries": [
						"除非它愿意，否则Sajarin Khan不能被6级或更低的法术影响或探测到。它对其他所有的法术和魔法效果都有救命的优势。"
					]
				}
			],
			"spellcasting": [
				{
					"name": "Innate Spellcasting",
					"headerEntries": [
						"Sajarin Khan与生俱来的法术能力是魅力（法术保存（%0%），使用法术攻击时命中率+10）。Sajarin Khan可以天生施展以下法术，不需要任何材料成分。"
					],
					"will": [
						"{@spell detect thoughts}",
						"{@spell disguise self}",
						"{@spell mage hand}",
						"{@spell minor illusion}"
					],
					"daily": {
						"3e": [
							"{@spell charm person}",
							"{@spell detect magic}",
							"{@spell invisibility}",
							"{@spell major image}",
							"{@spell suggestion}"
						],
						"1e": [
							"{@spell dominate person}",
							"{@spell fly}",
							"{@spell plane shift}",
							"{@spell true seeing}"
						]
					},
					"ability": "cha",
					"type": "spellcasting"
				}
			],
			"spellcastingTags": [
				"I"
			],
			"action": [
				{
					"name": "Multiattack",
					"entries": [
						"Sajarin Khan进行了两次爪击攻击。"
					]
				},
				{
					"name": "Claw",
					"entries": [
						"{@atk mw} {@hit 7}击中，到达5英尺，一个目标。{@h}9 ({@damage 2d6 + 2})砍击伤害。如果目标是生物，则被诅咒。每当目标进行短时或长时休息时，魔法诅咒就会生效，使目标的思想充满可怕的图像和梦想。被诅咒的目标不会从完成短期或长期休息中获得任何好处。诅咒持续到它被移除诅咒咒语或类似的魔法所解除。"
					]
				},
				{
					"name": "Psychic Crown (1/Day)",
					"entries": [
						"萨迦林汗用他的王冠来施展幻觉地形。"
					]
				}
			],
			"actionTags": [
				"Multiattack"
			],
			"damageTags": [
				"S"
			],
			"miscTags": [
				"MW"
			],
			"tokenUrl": "https://i.imgur.com/EyvMKZn.png",
			"fluff": {
				"entries": [
					"{@link Sajarin Khan|https://www.dmsguild.com/product/325943/5-High-Level-Villains?affiliate_id=18983}",
					"Sajarin Khan是一个狡猾而富有的罗刹，一个像老虎一样的魔鬼。在你的战役背景中，他是一个沙漠地区的绿洲的领主。他住在一个宫殿里，周围是巨大的、由奴隶打理的田地，并由一众尤格罗特雇佣兵保卫。",
					"{@b Backstory} ",
					"萨贾林-汗来自你的竞选环境中的一个沼泽地区的小家族部落。他的家族在这片沼泽地里拥有许多奴隶和大量的权力，但萨贾林的愿望更大。他在这个王国里四处游走，到城镇和城市，操纵人类以获取钱财，并在任何可能的地方偷窃。他积累了大量的财富，足以从恶魔的星球上雇佣尤戈洛人的雇佣兵。",
					"这些裕固族人协助萨迦林汗绑架和购买奴隶，以建造他的沙漠宫殿和大规模的水果仙人掌田。",
					"{@b Goals}",
					"萨迦林汗，像所有的罗刹一样，是一个享乐主义和残忍的存在。他从全国各地收集了大量珍贵的艺术品，让人目不暇接，但这些都是通过出售仙人掌果实和买卖奴隶获得的。他希望沉浸在生活的乐趣中，同时也要作恶。死亡和折磨使萨贾林兴高采烈，就像在他的爪牙下扩大土地一样。",
					"萨贾林还发现，从整个王国召唤英雄来挑战并试图杀死他是一件很有趣的事情，这样他就可以保持警惕。",
					"{@b Resources} ",
					"萨贾林拥有75个（0%）奴隶，他们在他广阔的绿洲上收获仙人掌果实。除非有命令，否则他们不会攻击党，而且他们的忠诚度可以在战斗的浪潮中迅速改变，转向党。他还雇佣了一个由10个{@creature Yagnoloth|MPMM|Yagnoloth/Yugoloth}、5个{@creature canoloth|MPMM}、2个{@creature nycaloth}和1个{@creature arcanaloth}组成的主人，名叫克雷洛，他既是主人的领导者，也是萨迦林汗的首席奴隶主。",
					"他还拥有价值1200金币的雕像、绘画、宝石和雕刻品的收藏。",
					"{@b Adventure Hooks} ",
					{
						"type": "list",
						"items": [
							"萨杰林-汗邀请该党参加晚宴。",
							"一个重要的NPC被绑架并沦为奴隶。",
							"当事人被绑架并沦为奴隶。",
							"该党派被雇来调查奴隶贸易。",
							"该党受雇于人，要干掉萨迦林汗。"
						]
					},
					"{@b Sajarin Khan's Crown} ",
					"{@i Wondrous item, very rare} ",
					"这个头盔有三个电荷。戴上它时，你可以用一个动作消耗3个电荷来施展幻觉地形法术。你也可以用一个动作来消耗1个电荷，在3级时施放主要图像法术。王冠在黎明时分会重新获得1d3个电荷。",
					"Here the item link {@item Sajarin Khan's Crown|LOD5HLV}."
				],
				"images": [
					{
						"type": "image",
						"href": {
							"type": "external",
							"url": "https://i.imgur.com/w8zulvV.jpg"
						}
					}
				]
			},
			"savingThrowForcedSpell": [
				"charisma",
				"wisdom"
			]
		},
		{
			"name": "The Steel Colossus",
			"size": [
				"G"
			],
			"type": "construct",
			"source": "LOD5HLV",
			"alignment": [
				"U"
			],
			"ac": [
				20
			],
			"hp": {
				"formula": "16d20 + 80",
				"average": 248
			},
			"speed": {
				"walk": 40
			},
			"str": 24,
			"dex": 9,
			"con": 20,
			"int": 3,
			"wis": 11,
			"cha": 1,
			"passive": 10,
			"cr": "16",
			"shortName": "The Steel Colossus",
			"languages": [
				"understands common but can't speak"
			],
			"languageTags": [
				"CS"
			],
			"senses": [
				"darkvision 120 ft."
			],
			"senseTags": [
				"SD"
			],
			"immune": [
				"fire",
				"poison",
				"psychic"
			],
			"conditionImmune": [
				"charmed",
				"exhaustion",
				"frightened",
				"paralyzed",
				"petrified",
				"poisoned"
			],
			"trait": [
				{
					"name": "Fire Absorption",
					"entries": [
						"每当钢铁巨像受到火灾伤害时，它不会受到任何伤害，反而会恢复与所受火灾伤害相等的打击点数。"
					]
				},
				{
					"name": "Immutable Form",
					"entries": [
						"钢铁巨像对任何会改变其形态的法术或效果都是免疫的。"
					]
				},
				{
					"name": "Magic Resistance",
					"entries": [
						"钢铁巨像在面对法术和其他魔法效果时，在蓄力攻击方面具有优势。"
					]
				},
				{
					"name": "Magic Weapons",
					"entries": [
						"钢铁巨兽的武器攻击是有魔力的。"
					]
				},
				{
					"name": "Siege Monster",
					"entries": [
						"钢铁巨兽对物体和结构造成双倍伤害。"
					]
				}
			],
			"traitTags": [
				"Damage Absorption",
				"Immutable Form",
				"Magic Resistance",
				"Magic Weapons",
				"Siege Monster"
			],
			"action": [
				{
					"name": "Multiattack",
					"entries": [
						"钢铁巨像进行了两次踩踏攻击。"
					]
				},
				{
					"name": "Stomp",
					"entries": [
						"{@atk mw} {@hit 13}击中，到达5英尺，一个目标。{@h}20 ({@damage 3d8 + 7})重击伤害。"
					]
				},
				{
					"name": "Hammer",
					"entries": [
						"{@atk mw} {@hit 13}击中，到达10英尺，一个目标。{@h}39 ({@damage 6d12})砍击伤害。"
					]
				},
				{
					"name": "Poison Breath {@recharge}",
					"entries": [
						"钢铁巨像会在30英尺的范围内呼出毒气。该区域内的每个生物都必须做一个{@dc 19}体质判定，如果判定失败，将受到45({@damage 10d8})的毒气伤害，如果判定成功，将受到一半的伤害。"
					]
				}
			],
			"actionTags": [
				"Breath Weapon",
				"Multiattack"
			],
			"damageTags": [
				"B",
				"I",
				"S"
			],
			"miscTags": [
				"MW",
				"RCH",
				"AOE"
			],
			"tokenUrl": "https://i.imgur.com/CynCdSC.png",
			"fluff": {
				"entries": [
					"{@link Steel Colossus|https://www.dmsguild.com/product/325943/5-High-Level-Villains?affiliate_id=18983}",
					"钢铁巨像是一个巨大的铁质巨像，直达60英尺的天空。由一个强大但愚蠢的巫师创造，钢铁巨像是一个具有破坏性和残忍的生物，没有自己的思想。它是对所有文明的威胁，而且几乎不可能被打倒。",
					"{@b Backstory} ",
					"一个名叫埃达芬大帝的隐居的强大人类巫师开始在你的战役背景中的一个地下深洞里创造钢铁巨像。他希望创造一个在他控制下的生物，能够轻松地摧毁兽人战队、地精部落和整个王国的所有其他危险团体。在一个熟练的矮人部族的协助下，埃达芬的60英尺梦想被创造出来。然而，他犯了一个可怕的错误。他特别制作了{@i The Steel Colossus' Heart}，一种具有巨大魔力的绿色宝石，能够控制钢铁巨像。创作完成后，它被放在一边，因为巨像的身体正在完成。一个在钢铁巨像上工作的矮人不小心把宝石打翻了，在它的中间留下了一个大裂缝。他没有想到，但当它被放进钢铁巨像的胸膛时，这个建筑就开始横冲直撞，从地球上迸发出来，开始了毁灭之路。",
					"{@b Goals}",
					"钢铁巨像是一个巨大的、没有思想的生物，在它的 \"头脑 \"中只有一个指令：毁灭。任何经过巨像视线的人、地方或事物都会被判处死刑，要么在它脚下被拆毁，要么被它的毒气窒息，要么在它巨大的锤子下湮灭。",
					"{@b Resources}",
					"钢铁巨像既没有巢穴，也没有任何盟友，但它也不需要。巨像既不需要睡眠也不需要食物。它只需穿过森林，越过山脉，穿过湖泊，搜索并摧毁一切可以摧毁的东西。",
					"{@b Adventure Hooks}",
					{
						"type": "list",
						"items": [
							"埃达芬大帝向这些人物寻求帮助。",
							"一个重要的NPC被钢铁巨像杀死。",
							"附近的一个小镇被钢铁巨像摧毁。",
							"党派所占领的城镇被钢铁巨像攻击了。",
							"一座大城市雇佣了该党派来摧毁钢铁巨像。"
						]
					},
					"{@b The Steel Colossus' Heart}",
					"{@i Wondrous item, legendary}",
					"如果心脏破裂了，一个更大的修复咒语可以修复它。如果修复了，如果钢铁巨像没有被损坏，心脏可以让它的主人有能力完全控制钢铁巨像。",
					"Here the item link {@item The Steel Colossus' Heart|LOD5HLV}."
				],
				"images": [
					{
						"type": "image",
						"href": {
							"type": "external",
							"url": "https://i.imgur.com/eH84PSV.jpg"
						}
					}
				]
			},
			"savingThrowForced": [
				"constitution"
			]
		},
		{
			"name": "Lady Tzilith",
			"size": [
				"M"
			],
			"type": {
				"type": "humanoid",
				"tags": [
					"elf",
					"drow"
				]
			},
			"source": "LOD5HLV",
			"alignment": [
				"N",
				"E"
			],
			"ac": [
				15,
				{
					"ac": 18,
					"condition": "with {@spell mage armor}",
					"braces": true
				}
			],
			"hp": {
				"formula": "30d8 + 90",
				"average": 225
			},
			"speed": {
				"walk": 30
			},
			"str": 15,
			"dex": 20,
			"con": 16,
			"int": 18,
			"wis": 15,
			"cha": 18,
			"passive": 18,
			"cr": "18",
			"shortName": "Lady Tzilith",
			"senses": [
				"darkvision 120 ft."
			],
			"senseTags": [
				"SD"
			],
			"languages": [
				"Common",
				"Elvish",
				"Undercommon"
			],
			"languageTags": [
				"C",
				"E",
				"U"
			],
			"save": {
				"dex": "+11",
				"con": "+9",
				"cha": "+10"
			},
			"skill": {
				"acrobatics": "+11",
				"athletics": "+8",
				"perception": "+8",
				"stealth": "+11"
			},
			"trait": [
				{
					"name": "Fey Ancestry",
					"entries": [
						"茨勒丽斯女士在对被害人的救赎上有优势（%0%），而且魔法无法使她入睡。"
					]
				},
				{
					"name": "Sunlight Sensitivity",
					"entries": [
						"在阳光下时，Tzilith女士在攻击卷轴以及依赖视觉的智慧（感知）检查上有劣势。"
					]
				}
			],
			"traitTags": [
				"Fey Ancestry",
				"Sunlight Sensitivity"
			],
			"spellcasting": [
				{
					"name": "Innate Spellcasting",
					"headerEntries": [
						"茨勒丽斯女士与生俱来的法术能力是魅力（法术保存（%0%））。她可以天生施展以下法术，不需要任何物质成分。"
					],
					"daily": {
						"1e": [
							"{@spell darkness}",
							"{@spell faerie fire}",
							"{@spell levitate} (self only)"
						]
					},
					"ability": "cha",
					"type": "spellcasting"
				},
				{
					"name": "Spellcasting",
					"headerEntries": [
						"蒂齐利斯夫人是一个11级的施法者。她的法术能力是智力（法术救赎（%0%），用法术攻击命中率+10）。她准备了以下巫师法术。"
					],
					"spells": {
						"0": {
							"spells": [
								"{@spell mage hand}",
								"{@spell message}",
								"{@spell poison spray}",
								"{@spell ray of frost}",
								"{@spell shocking grasp}"
							]
						},
						"1": {
							"spells": [
								"{@spell burning hands}",
								"{@spell mage armor}",
								"{@spell magic missile}",
								"{@spell shield}"
							],
							"slots": 4
						},
						"2": {
							"spells": [
								"{@spell gust of wind}",
								"{@spell invisibility}",
								"{@spell misty step}",
								"{@spell shatter}"
							],
							"slots": 3
						},
						"3": {
							"spells": [
								"{@spell counterspell}",
								"{@spell fireball}",
								"{@spell haste}"
							],
							"slots": 3
						},
						"4": {
							"spells": [
								"{@spell dimension door}",
								"{@spell Otiluke's resilient sphere}"
							],
							"slots": 3
						},
						"5": {
							"spells": [
								"{@spell cone of cold}"
							],
							"slots": 2
						},
						"6": {
							"spells": [
								"{@spell chain lightning}"
							],
							"slots": 1
						}
					},
					"ability": "int",
					"type": "spellcasting"
				}
			],
			"spellcastingTags": [
				"I",
				"CW"
			],
			"damageTagsSpell": [
				"C",
				"F",
				"I",
				"L",
				"O",
				"T"
			],
			"action": [
				{
					"name": "Multiattack",
					"entries": [
						"茨勒丽斯女士进行了两次鞭子攻击。"
					]
				},
				{
					"name": "Whip",
					"entries": [
						"{@atk mw} {@hit 11}击中，到达5英尺，一个目标。{@h}7 ({@damage 1d4 + 5})砍击伤害，外加18 ({@damage 4d8})毒药伤害。此外，目标在下一回合结束前，对提莉斯女士施展的法术进行的下一次蓄力攻击中处于不利地位。"
					]
				}
			],
			"actionTags": [
				"Multiattack"
			],
			"damageTags": [
				"I",
				"S"
			],
			"miscTags": [
				"MW",
				"MLW"
			],
			"tokenUrl": "https://i.imgur.com/dr3ZYiW.png",
			"fluff": {
				"entries": [
					"{@link Lady Tzilith|https://www.dmsguild.com/product/325943/5-High-Level-Villains?affiliate_id=18983}",
					"Tzilith女士是一个在你设定的一个大城市里活动的鸦人犯罪头目。她是一个强大的、残酷的、令人恐惧的女人，她总是比所有寻找她的冒险者和城市守卫快一步。",
					"{@b Backstory }",
					"大约100年前，Tzilith夫人是D'groth家族的族长。D'groth家族并不是一个强大的家族，它与一个敌对的家族经常发生争执。当对手的家族袭击了德格拉斯鸦人，屠杀他们并摧毁他们的基础设施时，这场冲突达到了顶峰。齐丽斯夫人利用她强大的魔法，从充满敌意的暗黑世界逃到了地面，才勉强逃过一劫。",
					"她对这片新的土地并不熟悉，但她很快发现这里的人们很容易被支配，但更容易被操纵。大约几十年后，齐丽斯女士来到你的竞选环境中的一个大城市。在这里，她建立了一个犯罪帝国。",
					"{@b Goals} ",
					"茨勒丽斯女士已经将她在暗黑世界的日子抛诸脑后，但她仍然对摧毁她的乌鸦家族抱有一丝复仇的欲望。然而，她的主要愿望是积累财富和魔法力量，以便她可以主宰主物质世界。",
					"她已经被贪婪和享乐主义所征服，她在折磨那些比她弱小的人时找到了极大的乐趣。她的犯罪集团影响深远，将大量的黄金和其他贵重物品带到她的脚下。她还经营着一个非法的格斗俱乐部，挑战者来自王国的各个角落，面对致命的对手。",
					"{@b Resources} ",
					"齐丽斯女士在她经营的城市里有一个大型地下院落。它有强大的魔法防御系统，她的所有盟友都知道的密码可以降低它。她有大量的收藏品，包括9361cp、3633sp和852gp，这些都是通过在城市和城市附近地区的非法走私和抢劫获得的。她的个人小包里有3件（%0%）、1件（%1%）和1件（%2%）魔法物品。",
					"齐丽斯夫人的犯罪集团由17名{@creature bandit}、9名{@creature thug}和3名{@creature veteran}组成。在地下大院，大约有10个{@creature bandit}、6个{@creature thug}和2个{@creature veteran}的人在同一时间。茨勒丽斯夫人还有一个执法者的头，名字叫{@i Moryx the Bloody}，一个黑龙族{@creature gladiator}。莫里克斯因为他的残暴而在城市的大街小巷受到人们的敬畏，他在齐丽斯的格斗俱乐部中以武功高强而闻名。",
					"{@b Adventure Hooks}",
					{
						"type": "list",
						"items": [
							"该党派被雇来调查泰利斯夫人的集团所犯的谋杀案。",
							"党员们被齐丽斯女士的集团抢劫/扒窃。",
							"一个重要的NPC请求党的帮助，干掉Tzilith女士。",
							"一名党员被邀请到齐丽斯夫人的格斗俱乐部参加比赛。",
							"慈禧太后雇佣该党人偷运非法武器。"
						]
					}
				],
				"images": [
					{
						"type": "image",
						"href": {
							"type": "external",
							"url": "https://i.imgur.com/v27XBYV.jpg"
						}
					}
				]
			},
			"attachedItems": [
				"whip|phb"
			],
			"savingThrowForcedSpell": [
				"constitution",
				"dexterity",
				"strength"
			]
		},
		{
			"name": "Velgilt the Colonizer",
			"size": [
				"M"
			],
			"type": "aberration",
			"source": "LOD5HLV",
			"alignment": [
				"L",
				"E"
			],
			"ac": [
				{
					"ac": 17,
					"from": [
						"natural armor"
					]
				}
			],
			"hp": {
				"formula": "17d10 + 34",
				"average": 127
			},
			"speed": {
				"walk": 30
			},
			"str": 15,
			"dex": 12,
			"con": 15,
			"int": 21,
			"wis": 19,
			"cha": 21,
			"passive": 18,
			"cr": "14",
			"shortName": "Velgilt the Colonizer",
			"languages": [
				"Deep Speech",
				"Undercommon",
				"telepathy 10560 ft."
			],
			"languageTags": [
				"DS",
				"U",
				"TP"
			],
			"senses": [
				"darkvision 120 ft."
			],
			"senseTags": [
				"SD"
			],
			"save": {
				"int": "+9",
				"wis": "+8",
				"cha": "+9"
			},
			"skill": {
				"arcana": "+9",
				"insight": "+8",
				"perception": "+8",
				"stealth": "+5"
			},
			"resist": [
				{
					"resist": [
						"bludgeoning",
						"piercing",
						"slashing"
					],
					"note": "from nonmagical attacks"
				}
			],
			"trait": [
				{
					"name": "Creature Sense",
					"entries": [
						"维尔吉特能察觉到它周围2英里范围内智力分值为4或更高的生物的存在。他知道与每个生物的距离和方向，以及每个生物的智力得分，但不能感知其他任何东西。受心灵空白法术、无侦测法术或类似魔法保护的生物不能以这种方式被感知。"
					]
				}
			],
			"spellcasting": [
				{
					"name": "Innate Spellcasting (Psionics)",
					"headerEntries": [
						"ulitharid的先天法术能力是智力（法术保存（%0%））。它可以天生施展以下法术，不需要任何组件。"
					],
					"will": [
						"{@spell detect thoughts}",
						"{@spell levitate}"
					],
					"daily": {
						"1e": [
							"{@spell confusion}",
							"{@spell dominate monster}",
							"{@spell eyebite}",
							"{@spell feeblemind}",
							"{@spell mass suggestion}",
							"{@spell plane shift} (self only)",
							"{@spell project image}",
							"{@spell scrying}",
							"{@spell telekinesis}"
						]
					},
					"ability": "int",
					"type": "spellcasting"
				}
			],
			"spellcastingTags": [
				"P",
				"I"
			],
			"damageTagsSpell": [
				"Y"
			],
			"action": [
				{
					"name": "Tentacles",
					"entries": [
						"{@atk mw} {@hit 9}击中，到达10英尺，一个目标。{@h}27 ({@damage 4d10 + 5})精神伤害。如果目标是大型或较小的，它是{@condition grappled}(逃脱{@dc 14})，必须在{@dc 17}智力救赎上成功，否则会{@condition stunned}，直到这个抓捕结束。"
					]
				},
				{
					"name": "Extract Brain",
					"entries": [
						"{@atk mw} {@hit 9}击中，达到5英尺，一个{@condition incapacitated}人形{@condition grappled}被Velgilt。 {@h}55({@damage 10d10})刺穿伤害。如果这个伤害使目标的命中率降至0，Velgilt会通过提取和吞噬其大脑来杀死目标。"
					]
				},
				{
					"name": "Mind Blast {@recharge 5}",
					"entries": [
						"维尔吉特在60英尺的范围内神奇地释放出精神能量。该区域内的每个生物都必须在一个{@dc 18}智力测验中成功，否则会受到32({@damage 5d12 + 5})的精神伤害并被{@condition stunned}1分钟。目标可以在其每个回合结束时重复蓄力，如果成功则结束对自己的影响。"
					]
				}
			],
			"actionTags": [
				"Tentacles"
			],
			"damageTags": [
				"P",
				"Y"
			],
			"miscTags": [
				"MW",
				"RCH",
				"AOE"
			],
			"conditionInflict": [
				"grappled",
				"stunned"
			],
			"tokenUrl": "https://i.imgur.com/5GNKnF4.png",
			"fluff": {
				"entries": [
					"{@link Velgilt|https://www.dmsguild.com/product/325943/5-High-Level-Villains?affiliate_id=18983}",
					"维尔吉特是一个狡猾而卑鄙的心灵传播者，将近120岁。他生活在你的竞选环境中的一个大城市下面。他的噬心者群落非常庞大，而且不断扩大。但是，噬心者的殖民地需要食物，而城市里的人是非常好的食物。",
					"{@b Backstory}",
					"殖民者维尔吉特是居住在一艘穿越星界的鹦鹉螺飞船上的一个思想絮乱者殖民地的领导人。这个殖民地很小，而且不是很强大。githyanki仍然是Velgilt身边的一根永恒的刺，githyanki突袭者和Velgilt的殖民地之间的战斗很频繁。在一次特殊的战斗中，Velgilt的鹦鹉螺被摧毁，他的殖民地被屠杀了。维尔吉特只能勉强逃脱，被传送到主物质界。",
					"然后他撤退到你的竞选环境中的一个地下区域，进行阴谋和计划。他开始绑架人类，并利用 \"变身 \"过程将他们变成了 \"精神分裂者\"。在这之后不久，维尔吉特在一个大城市的下水道下面的洞穴里找到了家，并继续扩大他的殖民地。",
					"{@b Goals}",
					"殖民者维尔吉特（Velgilt）只想维持自己的生活，并创造出更多的心灵传播者。他所居住的城市提供了成功实现这两个目标的简单方法。在下水道中发现自己的城市居民很快就会被维尔吉特或他的一个盟友穿过墙壁带走。在这里，要么大脑被吃掉，要么他们自己被变成了噬心者。",
					"维尔吉特还确保不带走那么多城市居民，因为这对殖民地的安全至关重要，它必须保持隐蔽和未知。在他的核心，Velgilt是一个偏执的生物，永远害怕可怕的Githyanki。",
					"{@b Resources}",
					"维尔吉特的殖民地包含17个{@creature mind flayer}，和2个{@creature mind flayer arcanist}作为维尔吉特最亲密的副手。这些都是非常聪明的生物，他们在交战中总是使用高明的战术。如果他们的生命真的受到威胁，他们也会毫不犹豫地逃跑。",
					"他们也有一大批受他们控制的鲛人。它们通常充当殖民地的守卫，但有时也会在罕见的情况下进入下水道。这包括12只{@creature quaggoth}，5只{@creature intellect devourer}和18只{@creature grimlock}。",
					"{@b Adventure Hooks}",
					{
						"type": "list",
						"items": [
							"该党派受雇于城市，调查下水道。",
							"这支队伍受雇于一个重要的NPC，负责调查下水道。",
							"一个重要的NPC在下水道中失踪。",
							"队伍在下水道时受到{@creature grimlock}的攻击。",
							"队伍在旅馆的房间里被一个（%0%）的人袭击。"
						]
					}
				],
				"images": [
					{
						"type": "image",
						"href": {
							"type": "external",
							"url": "https://i.imgur.com/Y3oEuxk.jpg"
						}
					}
				]
			},
			"savingThrowForced": [
				"intelligence"
			],
			"savingThrowForcedSpell": [
				"charisma",
				"constitution",
				"intelligence",
				"wisdom"
			]
		},
		{
			"name": "Garkagzul",
			"size": [
				"L"
			],
			"type": {
				"type": "fiend",
				"tags": [
					"demon"
				]
			},
			"source": "LOD5HLV",
			"alignment": [
				"C",
				"E"
			],
			"ac": [
				{
					"ac": 19,
					"from": [
						"natural armor"
					]
				}
			],
			"hp": {
				"formula": "21d12 + 126",
				"average": 262
			},
			"speed": {
				"walk": 40,
				"fly": 80
			},
			"str": 26,
			"dex": 15,
			"con": 22,
			"int": 20,
			"wis": 16,
			"cha": 22,
			"passive": 13,
			"cr": "19",
			"shortName": "Garkagzul",
			"languages": [
				"Abyssal",
				"telepathy 120 ft."
			],
			"languageTags": [
				"AB",
				"TP"
			],
			"senses": [
				"truesight 120 ft."
			],
			"senseTags": [
				"U"
			],
			"save": {
				"str": "+14",
				"con": "+12",
				"wis": "+9",
				"cha": "+12"
			},
			"resist": [
				{
					"resist": [
						"bludgeoning",
						"lightning",
						"piercing",
						"slashing"
					],
					"note": "from non magical attacks"
				}
			],
			"immune": [
				"cold",
				"fire",
				"poison"
			],
			"conditionImmune": [
				"poisoned"
			],
			"trait": [
				{
					"name": "Special Equipment",
					"entries": [
						"Garkagzul穿戴 {@i Garkagzul's Amulet}"
					]
				},
				{
					"name": "Death Throes",
					"entries": [
						"当Garkagzul死亡时，它就会爆炸，在它周围30英尺内的每个生物都必须做一个{@dc 20}灵巧的蓄力动作，如果蓄力失败会受到70({@damage 20d6})的火力伤害，如果蓄力成功会受到一半的伤害。爆炸会点燃该区域内没有穿戴或携带的易燃物品，并摧毁巴洛尔的武器。"
					]
				},
				{
					"name": "Fire Aura",
					"entries": [
						"在Garkagzul的每个回合开始时，它周围5英尺内的每个生物都会受到10({@damage 3d6})的火焰伤害，并且光环中没有被佩戴或携带的易燃物品会被点燃。在Garkagzul周围5英尺范围内的生物触碰Garkagzul或用近战攻击击中它，会受到10({@damage 3d6})的火焰伤害。"
					]
				},
				{
					"name": "Magic Resistance",
					"entries": [
						"巴洛尔在面对法术和其他魔法效果时，在蓄力攻击上有优势。"
					]
				},
				{
					"name": "Magic Weapons",
					"entries": [
						"巴洛尔的武器攻击是神奇的。"
					]
				}
			],
			"traitTags": [
				"Death Burst",
				"Magic Resistance",
				"Magic Weapons"
			],
			"damageTags": [
				"F",
				"S"
			],
			"miscTags": [
				"MW",
				"RCH",
				"AOE",
				"MLW"
			],
			"action": [
				{
					"name": "Multiattack",
					"entries": [
						"Garkagzul进行两次大剑攻击"
					]
				},
				{
					"name": "Greatsword",
					"entries": [
						"{@atk mw} {@hit 14}击中，到达10英尺，一个目标。{@h}27 ({@damage 3d12 + 8})砍击伤害，加上13 ({@damage 3d8})火力伤害。如果Garkagzul打出关键一击，它会掷出三次伤害骰子，而不是两次。"
					]
				},
				{
					"name": "Teleport",
					"entries": [
						"巴洛尔会神奇地将它和它所穿戴或携带的任何装备一起传送到它能看到的无人的空间，最远可达120英尺。"
					]
				},
				{
					"name": "Ruby Amulet",
					"entries": [
						"加卡祖尔使用他的护身符来施展（%0%）。"
					]
				}
			],
			"actionTags": [
				"Multiattack",
				"Teleport"
			],
			"tokenUrl": "https://i.imgur.com/MVottGH.png",
			"fluff": {
				"entries": [
					"{@link Garkagzul|https://www.dmsguild.com/product/325943/5-High-Level-Villains?affiliate_id=18983}",
					"加卡祖尔是一个残暴而强大的恶魔，他能够吸引大量的恶魔和邪教徒加入他。他能够从深渊逃到物质界，他目前居住在那里，屠杀村庄，烧毁城镇，并建立他的军队。",
					"{@b Backstory}",
					"Garkagzul是深渊中一个强大而跋扈的恶魔。近一年前，一个探索深渊的人类法师在不知情的情况下遇到了加尔卡祖尔的巢穴。这是个可怕的错误。在杀死他并在他的尸体上大快朵颐后，加尔卡祖尔在法师斗篷的褶皱中发现了一个小型的、充满宝石的护身符。",
					"这颗宝石使他能够传送到物质界，进入你的竞选环境中的一个山区。从这里开始，他开始召集周围的恶魔崇拜者，并使用他的护身符将其他恶魔传送到物质界。",
					"{@b Goals}",
					"加卡祖尔对征服和暴力有一种无法抑制的欲望。他的最终目标是杀死所有人类，将物质世界变成一个恶魔的领域，而摧毁所有文明是他实现这一目标的方法。",
					"他已经开始扩大他的领土，领导对山区周围的城镇和村庄的入侵，焚烧和屠杀他们遇到的一切。当每一个人形生物都死了之后，加尔卡祖尔计划指挥物质世界，用铁拳统治恶魔群。",
					"{@b Resources}",
					"加卡祖尔建立了一支军队，其中包括25{@creature cultist}个、8{@creature cult fanatic}个、6{@creature hezrou}个、15{@creature dretch}个、10{@creature barlgura}个、20{@creature manes}个、4{@creature shadow demon}个、1{@creature glabrezu}个。这些人既是加尔卡祖尔的山地据点的守卫，也是他的入侵部队。",
					"他的据点是一座大城堡，由4{@i firebreathing statue traps}保护。当加尔卡祖尔外出入侵时，城堡由10{@creature cultist}个、2{@creature cult fanatic}个和5{@creature barlgura}个保护。",
					"{@b Adventure Hooks}",
					{
						"type": "list",
						"items": [
							"一个重要的NPC被Garkagzul杀死。",
							"附近的一个城镇被加尔卡祖尔摧毁。",
							"党所占领的城镇被加尔卡祖尔（Garkagzul）所入侵。",
							"一座大城市雇佣该党人去杀死加尔卡祖尔。",
							"一个重要的NPC雇人去杀加卡祖尔。"
						]
					},
					"{@b Garkagzul's Amulet}",
					"{@i Wondrous item, very rare}",
					"这个护身符上有16颗红宝石。这个护身符可以用来施法（%0%），每次施法都要消耗一颗红宝石。当所有的红宝石用完后，护身符就会失去它的魔力。",
					"Here the item link {@item Garkagzul's Amulet|LOD5HLV}."
				],
				"images": [
					{
						"type": "image",
						"href": {
							"type": "external",
							"url": "https://i.imgur.com/hySURND.jpg"
						}
					}
				]
			},
			"attachedItems": [
				"greatsword|phb"
			],
			"savingThrowForced": [
				"dexterity"
			]
		}
	],
	"item": [
		{
			"name": "Sajarin Khan's Crown",
			"source": "LOD5HLV",
			"page": 0,
			"rarity": "very rare",
			"reqAttune": false,
			"wondrous": true,
			"recharge": "dawn",
			"charges": 3,
			"entries": [
				"这个头盔有三个电荷。戴上它时，你可以用一个动作消耗3个电荷来施展幻觉地形法术。你也可以用一个动作来消耗1个电荷，在3级时施放主要图像法术。王冠在黎明时分会重新获得1d3个电荷。"
			],
			"attachedSpells": [
				"major image",
				"hallucinatory terrain"
			],
			"rechargeAmount": 1
		},
		{
			"name": "The Steel Colossus' Heart",
			"source": "LOD5HLV",
			"page": 0,
			"rarity": "legendary",
			"reqAttune": false,
			"wondrous": true,
			"entries": [
				"如果心脏有裂痕，更大的修复法术可以修复它。",
				"如果修好了，如果巨像没有被损坏，心脏可以让它的主人有能力控制整个钢铁巨像。"
			],
			"attachedSpells": [
				"greater restoration"
			]
		},
		{
			"name": "Garkagzul's Amulet",
			"source": "LOD5HLV",
			"page": 0,
			"rarity": "very rare",
			"reqAttune": false,
			"wondrous": true,
			"entries": [
				"这个护身符上有16颗红宝石。这个护身符可以用来施法（%0%），每次施法都要消耗一颗红宝石。当所有的红宝石用完后，护身符就会失去它的魔力。"
			],
			"attachedSpells": [
				"plane shift"
			]
		}
	]
}
