{
	"$schema": "https://raw.githubusercontent.com/TheGiddyLimit/5etools-utils/master/schema/brew-fast/homebrew.json",
	"_meta": {
		"sources": [
			{
				"json": "FMp1",
				"abbreviation": "FMp1",
				"full": "Flee, Mortals! (Packet 1)",
				"url": "https://mcdm-monster-book.backerkit.com/backer/digital_rewards",
				"authors": [
					"MCDM Productions"
				],
				"convertedBy": [
					"Giddy"
				],
				"version": "1.0 (WIP)"
			}
		],
		"status": "deprecated",
		"dateAdded": 1660133452,
		"dateLastModified": 1697994241,
		"_dateLastModifiedHash": "68f25e46bb"
	},
	"book": [
		{
			"name": "Flee, Mortals! (Packet 1)",
			"id": "FMp1",
			"source": "FMp1",
			"group": "homebrew",
			"author": "MCDM Productions",
			"published": "2022-08-08",
			"contents": [
				{
					"name": "Introduction",
					"headers": [
						"Using These Creatures"
					]
				},
				{
					"name": "Orcs"
				},
				{
					"name": "Voiceless Talkers"
				},
				{
					"name": "Enchanted Forest"
				}
			]
		}
	],
	"bookData": [
		{
			"id": "FMp1",
			"source": "FMp1",
			"data": [
				{
					"type": "entries",
					"name": "Flee, Mortals",
					"page": 1,
					"entries": [
						"怪物包1来了! 在里面，你会发现一些MCDM兽人、无声说话者和森林生物。虽然这些生物已经过游戏测试和编辑，但它们不一定是你在书中看到的最终数据块。如果你想让我们知道你对这些小动物的看法，请到{@link MCDM Discord server|https://mcdm.gg/discord}里来讨论它们。",
						"好消息! 如果你运行过第五版，那么你已经明白如何使用本书中的大多数生物。你可能会看到一些不熟悉的细节，但不用担心；我们对生物状态块的调整根本不需要花太多时间来摸索。",
						{
							"type": "section",
							"name": "Using These Creatures",
							"page": 1,
							"entries": [
								"本书中的生物通常遵循核心规则，但我们做了一些调整。",
								{
									"type": "entries",
									"name": "Challenge Rating",
									"page": 1,
									"entries": [
										"每个生物的状态块都在右上角列出了它们的挑战等级。挑战等级的位置更加明显，这使得寻找状态块和建立遭遇战来挑战你的玩家更加容易。"
									]
								},
								{
									"type": "entries",
									"name": "Creature Roles",
									"page": 1,
									"entries": [
										"每个生物都有一个角色，列在他们的挑战等级旁边。角色是描述性的，通常不包括规则。大多数角色只是帮助你建立遭遇战，并在战斗中有效地利用该生物。",
										{
											"type": "entries",
											"name": "Ambusher",
											"page": 1,
											"entries": [
												"伏击者是一种善于隐藏的生物，不仅在遭遇战之前，而且在遭遇战中也是如此。他们利用惊喜和隐蔽性来取得优势。"
											]
										},
										{
											"type": "entries",
											"name": "Artillery",
											"page": 1,
											"entries": [
												"炮兵生物最好从远处作战。无论他们挥舞的是箭还是魔法射线，这些生物总是试图与他们的敌人保持一定的距离。"
											]
										},
										{
											"type": "entries",
											"name": "Brute",
											"page": 1,
											"entries": [
												"野蛮人是一种坚韧的生物，他们有大量的命中率，并能造成大量的伤害。他们可能不是最有纪律的战士，但他们在纯粹的坚韧和侵略性方面弥补了这一点。"
											]
										},
										{
											"type": "entries",
											"name": "Companion",
											"page": 1,
											"entries": [
												"伙伴生物是为了在冒险中陪伴玩家角色。欲了解更多信息，请参见第18页的 \"伙伴生物\"。"
											]
										},
										{
											"type": "entries",
											"name": "Controller",
											"page": 1,
											"entries": [
												"控制者对他们的敌人进行减伤、移动和阻挠。他们通常有人群控制行动，一次针对多个生物，或对一个目标施加衰弱的效果。"
											]
										},
										{
											"type": "entries",
											"name": "Leader",
											"page": 1,
											"entries": [
												"领袖是一种行动导向的生物，与下属一起战斗。更多信息请参见第17页的 \"行动导向型生物\"。"
											]
										},
										{
											"type": "entries",
											"name": "Minion",
											"page": 1,
											"entries": [
												"奴才是弱小的生物，他们在数量上找到力量。更多信息，请参见第21页的 \"奴仆\"。"
											]
										},
										{
											"type": "entries",
											"name": "Retainer",
											"page": 1,
											"entries": [
												"留守者是用来陪伴玩家角色冒险的人形生物。更多信息，请参见第20页的 \"留守者\"。"
											]
										},
										{
											"type": "entries",
											"name": "Skirmisher",
											"page": 1,
											"entries": [
												"小兵是机动战士，在战斗中使用打了就跑的战术。他们的特点使他们能够最大限度地利用自己的位置。"
											]
										},
										{
											"type": "entries",
											"name": "Soldier",
											"page": 1,
											"entries": [
												"士兵是装甲良好的生物，他们吸引敌人的攻击，使盟友能够在战场上自由行动。这些训练有素的战士通常有较高的攻击加成和攻击力。"
											]
										},
										{
											"type": "entries",
											"name": "Solo",
											"page": 1,
											"entries": [
												"独行生物是一种以行动为导向的生物，可以独自对付玩家角色。更多信息，请参阅第17页的 \"行动导向型生物\"。"
											]
										},
										{
											"type": "entries",
											"name": "Support",
											"page": 1,
											"entries": [
												"支持性生物帮助他们的盟友，提供buff、治疗、移动或行动选项。"
											]
										}
									]
								},
								{
									"type": "entries",
									"name": "Other New Rules",
									"page": 1,
									"entries": [
										"如果你想了解更多关于新规则的信息，比如我们在《逃亡吧，凡人》中加入的眩晕条件，请翻到第17页的 \"新规则\"。"
									]
								}
							]
						}
					]
				},
				{
					"type": "section",
					"name": "Orcs",
					"page": 2,
					"entries": [
						{
							"type": "quote",
							"entries": [
								"\"我想打架！\"",
								"\"是的，我在你这个年龄也是这样，\"托沃克对他的侄女说。",
								"\"但你不为它燃烧就不会战斗。\"",
								"\"我燃烧！\"",
								"战士笑了笑，灵巧地从他侄女的手中夺过长矛。\"你的眼睛里有火，我可以看到它。但当你准备好时，当你燃烧时，整个世界都会知道。\""
							],
							"skipMarks": true
						},
						"在一种早已失传的语言中，oruk这个词--\"血火\"--描述了兽人在将自己推向极限时的炽热外观。虽然兽人在自己的语言中知道对方是卡宁，但他们也非常自豪地使用 \"兽人\"，特别是在与其他民族打交道时。兽人的历史跨越了世界和所有的时代。他们定居在村庄和城市，炎热和寒冷的气候，高山和地下深处。大多数兽人生活在多样化的人形社会中，尽管有少数人隐居在热带地区。",
						"虽然兽人并不比其他民族更有可能挡住冒险者的路，但那些人却扮演着与其他人类相同的角色：雇佣兵、赏金猎人、盗贼、卫兵、邪教分子和腐败的国王。",
						{
							"type": "entries",
							"entries": [
								{
									"type": "entries",
									"entries": [
										{
											"type": "entries",
											"name": "Relentlessly Tough",
											"page": 2,
											"entries": [
												"兽人长到令人印象深刻的高度。当他们兴奋或被驱赶时，通常在他们坚韧的皮肤上纹上的血管会显得更加鲜艳。他们的头发，从粗到细，从头上延伸，像皇室的衣冠一样垂在肩上。强壮的獠牙从他们的嘴唇上延伸过去，保护着他们的其他牙齿。",
												"很少有其他人类能与兽人的耐力相提并论，为狩猎和战斗而训练的兽人可以使自己的行动更快，胜利更久。如果兽人发现自己处于死亡的边缘，他们的血管会本能地涌出 \"血火\"，发出耀眼的光芒，使他们振作起来进行最后一次攻击。血火通常呈红色，尽管来自山区和地下的兽人分别发出蓝色和白色的光芒。"
											]
										},
										{
											"type": "entries",
											"name": "Innate Power",
											"page": 2,
											"entries": [
												"兽人精神的强烈力量偶尔会表现为原始的魔法。兽人导管将他们的魔法磨练成易于操纵的单一亲和力。兽人族的地球人通过他们的双脚移动他们的魔法，涌入大地。兽人唤神者用歌声来激发每个生物精神中固有的魔法。"
											]
										}
									]
								},
								{
									"type": "entries",
									"name": "Mohler",
									"page": 2,
									"entries": [
										"摩尔人是有刺的、像猪一样的野兽，它们在地面上的开瓶器速度比它们跑得还快。这些钻地动物起源于沙漠和森林，在地表下产生浅浅的隧道网络。",
										"兽人走到哪里，摩尔人就会跟到哪里。在和平时期，兽人驯化它们来耕种土地并吃掉害虫；在战争时期，摩尔人重塑战场，把兽人的敌人打得落花流水。"
									]
								},
								{
									"type": "entries",
									"name": "Scyza",
									"page": 2,
									"entries": [
										"兽人依靠被称为 \"镰刀 \"的巨大的不会飞的鸟类来携带他们走很远的路。半兽人为这些起源于热带地区的坐骑配备了由相互连接的吊船组成的巨大马具，可以沿着它们厚厚的羽翼自由摆动。这些鸟在面对危险时无所畏惧，使它们成为完美的战斗坐骑。",
										"镰刀鱼的腿和爪子像树干一样劈开地面，掀起可怕的尘暴。更糟糕的是，它们那锋利的喙和峰，会发出可怕的、撼动骨头的响声。"
									]
								},
								{
									"type": "entries",
									"name": "Dohma Raskovar",
									"page": 2,
									"entries": [
										"Dohma Raskovar是象牙王座（Ivory Throne）一长串领导人中最新的一位，他们被称为dohmas，是一队雇佣兵。在拉斯科瓦尔的领导下，王座已经发展到一百多人，现在他们同时处理多个合同，偶尔会联合起来作为一个单位作战。",
										"拉斯科瓦在他的酒馆 \"悬铃木 \"里掌管着王位，他在那里扮演着酒吧老板的角色。在这里，知情的客户可以通过点一份沸腾的油，一种没有出现在菜单上的威士忌和朗姆酒的普通混合物，谨慎地表明他们想要雇佣赏金猎人、割喉者或小偷。",
										"一旦点了酒，拉斯科瓦本人就出现在桌前，准备做生意。他以保持政治中立和平等对待所有潜在客户为荣，这一点让他的一些客户感到不快。许多当地的贵族在拉斯科瓦尔拒绝使用适当的称呼方式后，怒气冲冲地冲出了悬铃木--后来当他们的处境更加绝望，而骄傲的代价又太高时，他们又回来了。"
									]
								},
								{
									"type": "entries",
									"name": "Stat Blocks",
									"page": 2,
									"entries": [
										"本节包含了兽人状态块。",
										{
											"type": "list",
											"columns": 3,
											"items": [
												"{@creature Orc Blitzer|FMp1}",
												"{@creature Orc Bloodrunner|FMp1}",
												"{@creature Orc Conduit|FMp1}",
												"{@creature Orc Fury|FMp1}",
												"{@creature Orc Garroter|FMp1}",
												"{@creature Orc Godcaller|FMp1}",
												"{@creature Orc Rampart|FMp1}",
												"{@creature Orc Terranova|FMp1}",
												"{@creature Mohler|FMp1}",
												"{@creature Scyza|FMp1}",
												"{@creature Dohma Raskovar|FMp1}",
												"{@creature Orc Blacksmith|FMp1}",
												"{@creature Mohler Companion|FMp1}"
											]
										}
									]
								}
							]
						}
					]
				},
				{
					"type": "section",
					"name": "Voiceless Talkers",
					"page": 10,
					"entries": [
						"在时空中最强大的幻术师中，Synlirii（单数：synliroi）被称为 \"无声的说话者\"，对于不幸遇到他们的地表居民来说也是如此。他们是无骨水生头足类动物的后裔，在思想和动机上与他们所厌恶的人形物种相异。Synlirii认为 \"吠叫者\"（他们对通过肉瓣挤压空气进行交流的生物的称呼）是进化树的一个腐败分支--一种必须被纠正的憎恶。",
						{
							"type": "entries",
							"entries": [
								{
									"type": "entries",
									"entries": [
										{
											"type": "entries",
											"name": "Uneasy Alliances",
											"page": 10,
											"entries": [
												"虽然Synlirii和overminds是世袭的敌人，但他们对吠叫者的相互迷恋常常导致不稳定的联盟。Synlirii和overminds都雇佣了来自地下世界的人类作为代理人，用传说和技术来换取关于他们表面敌人的信息。"
											]
										},
										{
											"type": "entries",
											"name": "Aboleth Hatred",
											"page": 10,
											"entries": [
												"Synlirii对吠叫者的内在反感，只有在他们对aboleths的深仇大恨（和恐惧）中才能超越。古老的神话说，Aboleths创造了synlirii和overminds。对overminds来说，这是一个无害的寓言。但是Synlirii，他们自诩为未来时代的主人，对他们的力量来自于他们自己的卓越发展以外的任何来源感到愤怒。"
											]
										},
										{
											"type": "entries",
											"name": "Psionic Spies",
											"page": 10,
											"entries": [
												"尽管他们有精神力量，但无声者认为信息是他们最大的武器。他们利用自己的幻觉天赋来操纵记忆和感知，掩盖自己的形态，并在其他文化中不被察觉。"
											]
										},
										{
											"type": "entries",
											"name": "Psi-Tech",
											"page": 10,
											"entries": [
												"Synlirii繁殖的软体动物能分泌出类似塑料的物质，用它们来制造武器和类似的技术，由幻觉晶体驱动。无声说话者的手持psi-pistols和便携式psirifles只能由他们的外星思维使用。"
											]
										},
										{
											"type": "entries",
											"name": "Creature Engineers",
											"page": 10,
											"entries": [
												"Synlirii痴迷于操纵其他生物的自然发展。他们使用一种被称为 \"交错 \"的幻觉技术创造出巨大的大脑、精神杀手和其他仆人。许多Synlirii实验品都活不长，也不打算这样做。但是下面的世界充满了非自然的生物，它们逃出了无声说话者的身体库--其中大部分是不能繁殖的奇异生命形式，可能永远不会死亡。",
												{
													"type": "inset",
													"name": "Psi-Tech",
													"page": 10,
													"entries": [
														"虽然大多数psi-tech武器只能由无声的说话者使用，但使用天赋类（来自即将出版的MCDM补充资料《天赋与幻术》）的角色可以使用这些武器，每次用它进行攻击时获得1个应变能力。使用psi-tech远程武器的生物在攻击和伤害卷中使用智力而不是灵巧。"
													]
												}
											]
										}
									]
								}
							]
						},
						{
							"type": "entries",
							"name": "Hulking Brain",
							"page": 10,
							"entries": [
								"无声者设计了灰色皮肤、人形的畸形体，有四只巨大的手臂，并且用一个巨大的脉冲式大脑代替了头部。这些生物被无声者称为thylinça，被其他所有人称为巨大的大脑，它们为它们的synlirii主人充当保镖和幻觉电池。"
							]
						},
						{
							"type": "entries",
							"name": "Mindkiller",
							"page": 10,
							"entries": [
								"漂浮在爪子上的大脑带着拖曳的脊柱和神经，杀心者作为无声者的宠物和走狗。这些无定形的寄生虫可以通过耳朵、眼睛或鼻子强行进入人的身体，然后吞噬受害者的中枢神经系统，同时用自己的组织来代替。当这个过程完成后，杀心者会获得受害者的所有知识和记忆，并能操纵身体，成为杀心者的Synlirii霸主的完美间谍。",
								"杀心虫是一种较小形式的杀心虫，可以在很短的时间内被创造出来。虽然他们不能居住在身体里，但他们的存在就会削弱敌人对幻术的精神防御。"
							]
						},
						{
							"type": "entries",
							"name": "Lord Syuul",
							"page": 10,
							"entries": [
								"他的国家身体银行的首席设计者，synliroi勋爵Syuul为他的实验寻找更多的材料。他的间谍、线人和盟友总是在寻找具有独特的遗传特征的实验对象，以使国际刑警组织可以提取。",
								"Syuul勋爵属于一个古老而受人尊敬的贵族家族，他离开自己的庄园时，从来没有带过护卫和奴仆的随从。他们狂热地服从他的命令--因为Syuul已经确保他们在生物学上无法拒绝。",
								"Syuul最近的实验集中在分离人形生物中表达巫术能力的特质上。到目前为止，这些尝试并不成功。Syuul勋爵并没有被吓倒，他让他的助手负责人体银行的日常运作，而Syuul本人则冒险去观察表面世界并掠夺其多样性。"
							]
						},
						{
							"type": "entries",
							"name": "Stat Blocks",
							"page": 10,
							"entries": [
								"本节包含无声说话者的状态块。",
								{
									"type": "inset",
									"name": "Absolute Evil",
									"page": 10,
									"entries": [
										"无声说话者是邪恶的智人，他们从事应受谴责的、不可救药的优生学行为。虽然你可以创造出与这种哲学和做法作斗争的特殊的synlirii，但参与基因实验的无声说话者无疑是邪恶的。"
									]
								},
								{
									"type": "list",
									"columns": 3,
									"items": [
										"{@creature Voiceless Talker|FMp1}",
										"{@creature Voiceless Talker Artillerist|FMp1}",
										"{@creature Hulking Brain|FMp1}",
										"{@creature Mindkiller|FMp1}",
										"{@creature Mindkiller Whelp|FMp1}",
										"{@creature Lord Syuul|FMp1}"
									]
								}
							]
						}
					]
				},
				{
					"type": "section",
					"name": "Enchanted Forest",
					"page": 15,
					"entries": [
						{
							"type": "quote",
							"entries": [
								"没有梦想的人，让他到美丽的森林里去拥有许多梦想。"
							],
							"by": "Mehmet Murat Ildan"
						},
						"魔法渗透到大自然中。从可怕的雷暴到滋养人的浆果，当冒险家们寻求其青翠的力量时，大自然会做出回应。在平面面纱稀薄的地方，古老的灵魂居住在那里，或者雷线散发着狂野的能量，迷人的森林等待着迷人的生物和神秘的事物。",
						{
							"type": "entries",
							"name": "Enchanted Forest Traits",
							"page": 15,
							"entries": [
								"你可以通过采用现有生物的状态块并添加以下一个或多个特征来创建一个魔法森林版本的生物。",
								{
									"type": "entries",
									"entries": [
										{
											"type": "entries",
											"entries": [
												{
													"type": "list",
													"items": [
														{
															"type": "entries",
															"name": "Speak with Beasts and Plants",
															"entries": [
																"被施了魔法的森林生物可以与野兽和植物交流，就像它们有共同的语言一样。"
															]
														},
														{
															"type": "entries",
															"name": "Tree Stride",
															"entries": [
																"每回合一次，被施法的森林生物可以使用10英尺的移动距离，神奇地踏入触手可及的一棵活树，并从第一棵树60英尺内的第二棵活树中出来，出现在第二棵树5英尺内的一个无人空间。这两棵树必须与被施法的森林生物有相同的大小类别或更大。"
															]
														},
														{
															"type": "entries",
															"name": "Living Forest",
															"entries": [
																"在以被施了魔法的森林生物为中心的30英尺半径范围内，一个蠕动的小树林正在茁壮成长。雾气轻盈地遮蔽了该区域，五颜六色的藤蔓和变幻莫测的树叶构成了它的地面（%0%）。戏谑的声音在笑和低语，让该区域的其他生物在为保持对法术和类似效果的注意力而做出的拯救动作中处于劣势。闪烁的灯光可以熄灭该区域内由3级或更低等级的法术所产生的魔法黑暗。(当把这个特性加到一个生物身上时，你可以选择排除其中一个或多个效果）。"
															]
														}
													]
												}
											]
										}
									]
								}
							]
						},
						{
							"type": "entries",
							"name": "Enchanted Forest Lair Actions",
							"page": 15,
							"entries": [
								"你可以给住在魔法森林中的现有生物一个更可怕的版本，让它们有以下巢穴行动。在主动权计数20时（失去主动权的平局），魔法森林生物可以采取以下巢穴行动之一；魔法森林生物不能连续两轮采取相同的巢穴行动。",
								{
									"type": "list",
									"style": "list-hang-notitle",
									"items": [
										{
											"type": "item",
											"name": "Frothing Flora",
											"page": 15,
											"entries": [
												"被施法的森林生物使根和藤蔓暂时在他们周围生长；直到下一回合的主动性计数20，被施法的森林生物30英尺内的地面是（%0%）。"
											]
										},
										{
											"type": "item",
											"name": "Writhing Roots",
											"page": 15,
											"entries": [
												"被施法的森林生物巢穴中的树叶成为被施法的森林生物力量的管道。被施了魔法的森林生物可以在被施了魔法的森林生物的90英尺范围内，以他们选择的接触这些植物的生物为目标。目标必须在{@dc 10}加PB的智慧救赎中成功，或者受到PBd6的精神伤害并被{@condition grappled}(逃脱{@dc 10}加PB)。"
											]
										},
										{
											"type": "item",
											"name": "Faerie Lights",
											"page": 15,
											"entries": [
												"被施法的森林生物在他们120英尺范围内可以看到的地方创造出20英尺立方体的舞动灯光。该区域内每个能看到灯光的生物都必须做一个{@dc 10}加PB的智慧救赎动作。拯救失败时，生物会被{@condition blinded}，被光勾勒出来，并在10英尺范围内发出昏暗的光，直到下一轮的主动权计数20结束。如果攻击者能看到受影响的生物，对其进行{@action Attack}的翻滚有优势，而且受影响的生物不能从{@condition invisible}中获益。"
											]
										}
									]
								}
							]
						},
						{
							"type": "entries",
							"name": "Dancing Lady",
							"page": 15,
							"entries": [
								"在魔法森林里，迷雾中出现奇怪的幻象是意料之中的事，但在这位跳舞的女士身上，这些数字不是幻觉--它们是真实的......有点像。",
								"舞姬是一种巨大的植物，开着白色的人形大小的花朵，类似于穿裙子的人。红色和绿色的大叶子围绕着这些悬挂的花朵。舞姬潜伏在精灵族群或其他森林居民的周围，花朵平静地转动，直到威胁出现。一旦植物的盟友受到威胁，跳舞女士的超大花朵就会跳起令人眩晕的舞蹈，使敌人感到迷惑和恐惧。"
							]
						},
						{
							"type": "entries",
							"name": "Empyrean Stag",
							"page": 15,
							"entries": [
								"作为森林的天神守护者，帝王鹿只在保护森林居民免受巨大威胁或警告凡人即将发生的灾难时出现。它们的白毛上有斑驳的蓝色，它们的眼睛闪耀着黑夜的光芒。",
								{
									"type": "entries",
									"entries": [
										{
											"type": "entries",
											"name": "Unyielding Defenders",
											"page": 15,
											"entries": [
												"冒险者经常与森林居民发生冲突，从饥饿的猫头鹰熊到调皮的费伊。这种暴力行为会引起帝王鹿的愤怒，往往会激起帝王鹿和他们的森林盟友的致命攻击。忏悔的冒险者可以通过帮助雄鹿保护森林免受更大的威胁来进行补偿。"
											]
										},
										{
											"type": "entries",
											"name": "Divine Knowledge",
											"page": 15,
											"entries": [
												"那些给帝王鹿留下深刻印象的人--通常是通过保护森林--被允许向帝王鹿提出一个问题，帝王鹿会尽其所能如实回答。在他们的鹿角之间，他们可以显示出现在的闪亮的幻象或未来的一瞥。当雄鹿帮助盟友时，鹿角会发出金色的光芒，而当他们占卜信息时，鹿角会发出白色的光芒。"
											]
										}
									]
								}
							]
						},
						{
							"type": "entries",
							"name": "Stat Blocks",
							"page": 15,
							"entries": [
								"本节包含魔法森林的状态块。",
								{
									"type": "list",
									"columns": 3,
									"items": [
										"{@creature Dancing Lady|FMp1}",
										"{@creature Empyrean Stag|FMp1}"
									]
								}
							]
						}
					]
				}
			]
		}
	],
	"monster": [
		{
			"name": "Orc Blitzer",
			"source": "FMp1",
			"page": 3,
			"size": [
				"M"
			],
			"type": {
				"type": "humanoid",
				"tags": [
					"orc",
					"Minion"
				]
			},
			"alignment": [
				"A"
			],
			"ac": [
				{
					"ac": 13,
					"from": [
						"{@item studded leather armor|PHB}"
					]
				}
			],
			"hp": {
				"special": "7"
			},
			"speed": {
				"walk": 35
			},
			"str": 15,
			"dex": 12,
			"con": 12,
			"int": 10,
			"wis": 11,
			"cha": 11,
			"senses": [
				"darkvision 60 ft."
			],
			"passive": 10,
			"conditionImmune": [
				"exhaustion"
			],
			"languages": [
				"Common",
				"Orc"
			],
			"cr": "1/2",
			"trait": [
				{
					"name": "Gnashing Horde",
					"entries": [
						"如果暴击者能看到的敌对生物在三个或更多暴击者的5英尺范围内开始他们的回合，该生物在他们5英尺范围内的每一个暴击者都会受到1个穿透伤害。"
					]
				},
				{
					"name": "Minion",
					"entries": [
						"如果暴走族受到攻击或救赎失败的伤害，他们的命中率会降低到0。如果暴走族受到其他效果的伤害，如果伤害等于或超过他们的最大命中率，他们会死亡，否则他们不会受到伤害。"
					]
				},
				{
					"name": "Relentless Minion",
					"entries": [
						"当爆破手不是{@condition incapacitated}并被降低到0命中率时，他们可以对他们周围5英尺内的敌对生物造成1个穿刺伤害。"
					]
				}
			],
			"action": [
				{
					"name": "Spear (Group Attack)",
					"entries": [
						"{@atk mw,rw}{@hit 4}命中，射程5英尺或范围20/60英尺，一个目标。{@h}1次穿刺伤害。"
					]
				}
			],
			"senseTags": [
				"D"
			],
			"languageTags": [
				"C",
				"O"
			],
			"damageTags": [
				"P"
			],
			"miscTags": [
				"MW",
				"RW",
				"THW",
				"MLW"
			],
			"attachedItems": [
				"spear|phb"
			]
		},
		{
			"name": "Orc Bloodrunner",
			"source": "FMp1",
			"page": 3,
			"size": [
				"M"
			],
			"type": {
				"type": "humanoid",
				"tags": [
					"orc",
					"Skirmisher"
				]
			},
			"alignment": [
				"A"
			],
			"ac": [
				{
					"ac": 15,
					"from": [
						"{@item shield|phb|spiked shield}"
					]
				}
			],
			"hp": {
				"average": 15,
				"formula": "2d8 + 6"
			},
			"speed": {
				"walk": 60
			},
			"str": 14,
			"dex": 16,
			"con": 16,
			"int": 11,
			"wis": 9,
			"cha": 10,
			"save": {
				"dex": "+5"
			},
			"skill": {
				"acrobatics": "+5",
				"athletics": "+4"
			},
			"senses": [
				"darkvision 60 ft."
			],
			"passive": 9,
			"conditionImmune": [
				"exhaustion"
			],
			"languages": [
				"Common",
				"Orc"
			],
			"cr": "1/2",
			"trait": [
				{
					"name": "Relentless (1/Turn)",
					"entries": [
						"当跑血者不是（%0%），并且他们被降低到0命中率但没有被直接杀死时，他们可以在命中率降低解决之前对一个敌对的生物进行一次攻击（不需要行动）。如果攻击命中并且其伤害将目标降低到0命中率，那么跑血者会下降到1命中率而不是0命中率。"
					]
				},
				{
					"name": "Unimpeded",
					"entries": [
						"跑血者可以占据一个（%0%）生物的空间。在跑血者的回合中，跑血者第一次进入一个{@condition prone}生物的空间，该{@condition prone}生物会受到3({@damage 1d6})的打击伤害。当跑血者空间中的{@condition prone}生物站起来时，该生物会进入他们选择的最近的无人空间。"
					]
				}
			],
			"action": [
				{
					"name": "Spiked Shield",
					"entries": [
						"{@atk mw} {@hit 5}击中，到达5英尺，一个目标。{@h}6 ({@damage 1d6 + 3})穿刺伤害。如果跑血者在用此攻击击中大型或小型生物前至少移动了10英尺，跑血者可以选择将目标击倒（%4%）或将其推到10英尺以外。"
					]
				},
				{
					"name": "Javelin",
					"entries": [
						"{@atk mw,rw}{@hit 4}击中，到达5英尺或范围30/120英尺，一个目标。{@h}5 ({@damage 1d6 + 2})穿刺伤害。"
					]
				}
			],
			"reaction": [
				{
					"name": "Juke",
					"entries": [
						"当跑血者做一个灵巧的蓄力动作时，他们可以在蓄力上获得优势。要做到这一点，跑血者不能是（%0%）、（%1%）或（%2%）。"
					]
				}
			],
			"senseTags": [
				"D"
			],
			"languageTags": [
				"C",
				"O"
			],
			"damageTags": [
				"B",
				"P"
			],
			"miscTags": [
				"MW",
				"RW",
				"THW",
				"MLW"
			],
			"attachedItems": [
				"javelin|phb"
			]
		},
		{
			"name": "Orc Conduit",
			"source": "FMp1",
			"page": 4,
			"size": [
				"M"
			],
			"type": {
				"type": "humanoid",
				"tags": [
					"orc",
					"Artillery"
				]
			},
			"alignment": [
				"A"
			],
			"ac": [
				{
					"ac": 13,
					"from": [
						"{@item studded leather armor|PHB}"
					]
				}
			],
			"hp": {
				"average": 30,
				"formula": "4d8 + 12"
			},
			"speed": {
				"walk": 35
			},
			"str": 14,
			"dex": 12,
			"con": 16,
			"int": 10,
			"wis": 12,
			"cha": 16,
			"skill": {
				"perception": "+3"
			},
			"senses": [
				"darkvision 60 ft."
			],
			"passive": 13,
			"resist": [
				{
					"special": "determined by the conduit's affinity trait"
				}
			],
			"conditionImmune": [
				"exhaustion"
			],
			"languages": [
				"Common",
				"Orc"
			],
			"cr": "1",
			"trait": [
				{
					"name": "Affinity",
					"entries": [
						"导管终身对以下一种伤害类型有亲和力：冷，火，或闪电。所选择的类型决定了导管的抗伤害能力以及他们的元素释放和力量爆发行动的伤害。"
					]
				},
				{
					"name": "Relentless (1/Turn)",
					"entries": [
						"当导管不是（%0%），并且他们被降低到0命中率但没有被直接杀死时，他们可以在命中率降低的问题解决之前对一个敌对的生物进行攻击（不需要行动）。如果攻击命中并且其伤害将目标降低到0命中率，那么导管就会下降到1命中率而不是0命中率。"
					]
				}
			],
			"action": [
				{
					"name": "Elemental Discharge (Cantrip)",
					"entries": [
						"{@atk ms,rs}{@hit 5}击中，达到5英尺或范围120英尺，一个目标。{@h}9 ({@damage 1d12 + 3})的伤害，类型由导管的亲和力特性决定。"
					]
				},
				{
					"name": "Power Burst (2/Day; 1st-Level Spell)",
					"entries": [
						"导管在15英尺的范围内释放出爆炸性能量。该区域的地面成为困难的地形，该区域的每个生物必须做一个{@dc 13}灵巧的救赎动作。如果救赎失败，生物会受到10({@damage 3d6})的伤害，伤害类型由导管的亲和力特性决定，并且他们会被推离导管10英尺远。",
						"拯救成功后，生物会受到一半的伤害，并且不会被推开。"
					]
				}
			],
			"bonus": [
				{
					"name": "Rush",
					"entries": [
						"导管采取 \"冲刺 \"行动。"
					]
				}
			],
			"senseTags": [
				"D"
			],
			"languageTags": [
				"C",
				"O"
			],
			"miscTags": [
				"AOE"
			],
			"savingThrowForced": [
				"dexterity"
			]
		},
		{
			"name": "Orc Fury",
			"source": "FMp1",
			"page": 4,
			"size": [
				"M"
			],
			"type": {
				"type": "humanoid",
				"tags": [
					"orc",
					"Brute"
				]
			},
			"alignment": [
				"A"
			],
			"ac": [
				{
					"ac": 13,
					"from": [
						"{@item studded leather armor|PHB}"
					]
				}
			],
			"hp": {
				"average": 22,
				"formula": "3d8 + 9"
			},
			"speed": {
				"walk": 35
			},
			"str": 17,
			"dex": 12,
			"con": 16,
			"int": 9,
			"wis": 11,
			"cha": 12,
			"save": {
				"str": "+5"
			},
			"skill": {
				"athletics": "+5"
			},
			"senses": [
				"darkvision 60 ft."
			],
			"passive": 10,
			"conditionImmune": [
				"exhaustion"
			],
			"languages": [
				"Common",
				"Orc"
			],
			"cr": "1/2",
			"trait": [
				{
					"name": "Relentless (1/Turn)",
					"entries": [
						"当煞气不（%0%），并且他们被降低到0命中率但没有被直接杀死时，他们可以在命中率降低被解决之前对一个敌对的生物进行一次攻击（不需要行动）。如果攻击命中并且其伤害将目标降低到0命中率，那么怒气就会下降到1命中率而不是0命中率。"
					]
				}
			],
			"action": [
				{
					"name": "Haymaker Greataxe",
					"entries": [
						"{@atk mw} {@hit 5}击中，到达5英尺，一个目标。{@h}9 ({@damage 1d12 + 3})砍伤，如果目标是{@condition prone}，则为12 ({@damage 1d12 + 6})砍伤。如果目标是中型或较小的生物，他们必须成功地进行{@dc 13}力量投掷，否则会被击倒{@condition prone}。"
					]
				},
				{
					"name": "Javelin",
					"entries": [
						"{@atk mw,rw}{@hit 5}击中，到达5英尺或范围30/120英尺，一个目标。{@h}6 ({@damage 1d6 + 3})穿刺伤害。"
					]
				}
			],
			"bonus": [
				{
					"name": "Healing Rally (1/Day)",
					"entries": [
						"愤怒的人重新获得5点命中率。"
					]
				}
			],
			"senseTags": [
				"D"
			],
			"languageTags": [
				"C",
				"O"
			],
			"damageTags": [
				"P",
				"S"
			],
			"miscTags": [
				"MW",
				"RW",
				"THW",
				"MLW"
			],
			"conditionInflict": [
				"prone"
			],
			"attachedItems": [
				"javelin|phb"
			],
			"savingThrowForced": [
				"strength"
			]
		},
		{
			"name": "Orc Garroter",
			"source": "FMp1",
			"page": 5,
			"size": [
				"M"
			],
			"type": {
				"type": "humanoid",
				"tags": [
					"orc",
					"Ambusher"
				]
			},
			"alignment": [
				"A"
			],
			"ac": [
				{
					"ac": 14,
					"from": [
						"{@item studded leather armor|PHB}"
					]
				}
			],
			"hp": {
				"average": 30,
				"formula": "4d8 + 12"
			},
			"speed": {
				"walk": 35
			},
			"str": 15,
			"dex": 14,
			"con": 16,
			"int": 10,
			"wis": 12,
			"cha": 9,
			"save": {
				"dex": "+4"
			},
			"skill": {
				"athletics": "+4",
				"stealth": "+6"
			},
			"senses": [
				"darkvision 60 ft."
			],
			"passive": 11,
			"conditionImmune": [
				"exhaustion"
			],
			"languages": [
				"Common",
				"Orc"
			],
			"cr": "1",
			"trait": [
				{
					"name": "Relentless (1/Turn)",
					"entries": [
						"当garroter不是{@condition incapacitated}并且他们被降低到0命中率但没有被直接杀死时，他们可以在命中率降低被解决之前对一个敌对的生物进行一次攻击（不需要行动）。如果攻击命中并且其伤害将目标降低到0命中率，garroter将下降到1命中率而不是0命中率。"
					]
				}
			],
			"action": [
				{
					"name": "Strangle",
					"entries": [
						"{@atk mw} {@hit 4}击中，到达5英尺，一个目标。{@h}5({@damage 1d6 + 2})重击伤害，目标{@condition grappled}(逃跑{@dc 12})。在抓捕结束前，目标不能说明白话，也不能施放带有语言成分的法术。如果攻击是以优势进行的，目标必须做一个{@dc 12}体质救赎动作。如果救赎失败，目标会倒下（7%）1分钟（救赎在回合开始时结束）或直到他们受到伤害。一个生物可以用一个动作来摇晃另一个以这种方式倒下的生物，使其清醒。"
					]
				},
				{
					"name": "Dagger",
					"entries": [
						"{@atk mw,rw}{@hit 4}命中，距离5英尺或范围20/60英尺，一个目标。{@h}4 ({@damage 1d4 + 2})穿刺伤害。如果攻击是以优势进行的，目标会受到额外的7({@damage 2d6})穿刺伤害。"
					]
				}
			],
			"bonus": [
				{
					"name": "Cloak (1/Day)",
					"entries": [
						"戍守者会神奇地变成{@condition invisible}，持续1分钟。戏法师所穿戴或携带的任何装备都会与他们一起（%1%）。当{@condition invisible}时，服装师的动作不会发出声音。如果杂耍者用攻击击中生物、施放法术或受到伤害，该效果就会结束。"
					]
				}
			],
			"senseTags": [
				"D"
			],
			"languageTags": [
				"C",
				"O"
			],
			"damageTags": [
				"B",
				"P"
			],
			"miscTags": [
				"MW",
				"RW",
				"THW",
				"MLW"
			],
			"conditionInflict": [
				"grappled",
				"invisible",
				"unconscious"
			],
			"attachedItems": [
				"dagger|phb"
			],
			"savingThrowForced": [
				"constitution"
			]
		},
		{
			"name": "Orc Godcaller",
			"source": "FMp1",
			"page": 5,
			"size": [
				"M"
			],
			"type": {
				"type": "humanoid",
				"tags": [
					"orc",
					"Support"
				]
			},
			"alignment": [
				"A"
			],
			"ac": [
				{
					"ac": 14,
					"from": [
						"{@item studded leather armor|PHB}"
					]
				}
			],
			"hp": {
				"average": 82,
				"formula": "11d8 + 33"
			},
			"speed": {
				"walk": 35
			},
			"str": 14,
			"dex": 14,
			"con": 16,
			"int": 12,
			"wis": 13,
			"cha": 19,
			"save": {
				"wis": "+3"
			},
			"skill": {
				"arcana": "+3",
				"insight": "+3",
				"performance": "+8"
			},
			"senses": [
				"darkvision 60 ft."
			],
			"passive": 11,
			"conditionImmune": [
				"charmed",
				"exhaustion"
			],
			"languages": [
				"Common",
				"Orc"
			],
			"cr": "4",
			"trait": [
				{
					"name": "Relentless (1/Turn)",
					"entries": [
						"当唤神者不是{@condition incapacitated}，并且他们被降低到0命中率但没有被直接杀死时，他们可以在命中率降低被解决之前对一个敌对的生物进行一次攻击（不需要行动）。如果攻击命中并且其伤害将目标降低到0命中率，那么唤神者会下降到1命中率而不是0命中率。"
					]
				}
			],
			"action": [
				{
					"name": "Power Chord (1st-Level Spell)",
					"entries": [
						"{@atk ms,rs}{@hit 6}击中，达到5英尺或范围30英尺，一个能听到神召者的生物。{@h}18 ({@damage 4d6 + 4})雷霆伤害。"
					]
				},
				{
					"name": "Cadenza",
					"entries": [
						"唤神者选择他们周围30英尺内的另一个生物。如果目标能听到唤神者的声音，目标可以使用他们的反应来移动到他们的速度并进行攻击。"
					]
				},
				{
					"name": "Song of the Gods (2nd-Level Spell)",
					"entries": [
						"唤神者和他们所选择的30英尺范围内能听到他们的生物在攻击卷轴上有优势，直到唤神者的下一回合开始。如果唤神者受到任何伤害，这个效果会提前结束。"
					]
				}
			],
			"bonus": [
				{
					"name": "Rallying Ostinato (1/Day)",
					"entries": [
						"唤神者和他们身边60英尺内最多三个能听到他们的生物恢复20点命中率，这些生物在1分钟内无视困难地形。"
					]
				}
			],
			"senseTags": [
				"D"
			],
			"languageTags": [
				"C",
				"O"
			],
			"damageTags": [
				"T"
			]
		},
		{
			"name": "Orc Rampart",
			"source": "FMp1",
			"page": 6,
			"size": [
				"M"
			],
			"type": {
				"type": "humanoid",
				"tags": [
					"orc",
					"Soldier"
				]
			},
			"alignment": [
				"A"
			],
			"ac": [
				{
					"ac": 18,
					"from": [
						"{@item chain mail|PHB}",
						"{@item shield|PHB}"
					]
				}
			],
			"hp": {
				"average": 42,
				"formula": "5d8 + 20"
			},
			"speed": {
				"walk": 35
			},
			"str": 18,
			"dex": 12,
			"con": 18,
			"int": 10,
			"wis": 11,
			"cha": 12,
			"skill": {
				"athletics": "+6",
				"perception": "+2"
			},
			"senses": [
				"darkvision 60 ft."
			],
			"passive": 12,
			"conditionImmune": [
				"exhaustion"
			],
			"languages": [
				"Common",
				"Orc"
			],
			"cr": "2",
			"trait": [
				{
					"name": "Relentless (1/Turn)",
					"entries": [
						"当壁垒不是（%0%），并且他们被降低到0命中率但没有被直接杀死时，他们可以在命中率降低被解决之前对一个敌对的生物进行一次攻击（不需要行动）。如果攻击命中并且其伤害将目标降低到0命中率，那么斜刺里就会降到1命中率而不是0命中率。"
					]
				}
			],
			"action": [
				{
					"name": "Multiattack",
					"entries": [
						"堡垒进行两次长矛攻击。如果城墙两次攻击的目标都是同一个生物，那么该目标在对城墙以外的生物进行攻击时就会处于劣势，直到城墙的下一回合开始。"
					]
				},
				{
					"name": "Spear",
					"entries": [
						"{@atk mw,rw} {@hit 6}击中，距离5英尺或范围20/60英尺，一个目标。{@h}7 ({@damage 1d6 + 4})穿刺伤害，如果用双手进行近战攻击，则为8 ({@damage 1d8 + 4})穿刺伤害。"
					]
				}
			],
			"reaction": [
				{
					"name": "No!",
					"entries": [
						"当一个在城墙5英尺内的生物以另一个生物为攻击目标时，攻击者必须以城墙为目标。"
					]
				}
			],
			"senseTags": [
				"D"
			],
			"actionTags": [
				"Multiattack"
			],
			"languageTags": [
				"C",
				"O"
			],
			"damageTags": [
				"P"
			],
			"miscTags": [
				"MW",
				"RW",
				"THW",
				"MLW"
			],
			"attachedItems": [
				"spear|phb"
			]
		},
		{
			"name": "Orc Terranova",
			"source": "FMp1",
			"page": 6,
			"size": [
				"M"
			],
			"type": {
				"type": "humanoid",
				"tags": [
					"orc",
					"Controller"
				]
			},
			"alignment": [
				"A"
			],
			"ac": [
				{
					"ac": 15,
					"from": [
						"{@item breastplate|PHB}"
					]
				}
			],
			"hp": {
				"average": 37,
				"formula": "5d8 + 15"
			},
			"speed": {
				"walk": 35
			},
			"str": 14,
			"dex": 12,
			"con": 16,
			"int": 12,
			"wis": 9,
			"cha": 16,
			"skill": {
				"athletics": "+4"
			},
			"senses": [
				"darkvision 60 ft.",
				"tremorsense 30 ft."
			],
			"passive": 9,
			"conditionImmune": [
				"exhaustion",
				"prone"
			],
			"languages": [
				"Common",
				"Orc"
			],
			"cr": "2",
			"trait": [
				{
					"name": "Relentless (1/Turn)",
					"entries": [
						"当Terranova不是{@condition incapacitated}，并且他们被降低到0命中率但没有被直接杀死时，他们可以在命中率降低解决之前对一个敌对的生物进行攻击（不需要行动）。如果攻击命中并且其伤害将目标降低到0命中率，特拉诺瓦会下降到1命中率而不是0命中率。"
					]
				},
				{
					"name": "Tremorspeak",
					"entries": [
						"特拉诺瓦人可以用震颤感应或震颤语来感应30英尺范围内自愿的生物所能感应到的一切。"
					]
				},
				{
					"name": "Unhindered",
					"entries": [
						"特拉诺瓦人忽略了困难的地形。"
					]
				}
			],
			"action": [
				{
					"name": "Earth Pillar (1st-Level Spell)",
					"entries": [
						"{@atk ms,rs}{@hit 5}击中，达到5英尺或范围30英尺，一个目标触地。{@h}12 ({@damage 2d8 + 3})重击伤害，目标被击倒{@condition prone}。"
					]
				},
				{
					"name": "Quake",
					"entries": [
						"特拉诺瓦选择15英尺范围内地面上最多五个生物，并踩踏地面。每个目标都必须成功地进行力量投掷，否则会被击倒（%0%）。"
					]
				},
				{
					"name": "Sinkhole",
					"entries": [
						"特拉诺瓦选择30英尺内地面上最多两个生物。每个目标必须成功地进行一次力量救赎，否则就会被（%0%）。一个生物可以使用他们的行动来释放自己或他们范围内的另一个生物，结束对该生物的影响。"
					]
				}
			],
			"bonus": [
				{
					"name": "Unearth Mohlers (1/Day)",
					"entries": [
						"特拉诺瓦跺脚，在他们周围30英尺范围内无人的空间里，会有（%0%）摩尔人从地下蹦出来。莫勒人对特拉诺瓦人是友好的，并在他们之后立即行动。"
					]
				},
				{
					"name": "Rush",
					"entries": [
						"特拉诺瓦人采取了大奔行动。"
					]
				}
			],
			"senseTags": [
				"D",
				"T"
			],
			"languageTags": [
				"C",
				"O"
			],
			"damageTags": [
				"B"
			],
			"conditionInflict": [
				"prone",
				"restrained"
			],
			"savingThrowForced": [
				"strength"
			]
		},
		{
			"name": "Mohler",
			"source": "FMp1",
			"page": 7,
			"size": [
				"S"
			],
			"type": {
				"type": "beast",
				"tags": [
					"Controller"
				]
			},
			"alignment": [
				"U"
			],
			"ac": [
				12
			],
			"hp": {
				"average": 9,
				"formula": "2d6 + 2"
			},
			"speed": {
				"walk": 20,
				"burrow": 40
			},
			"str": 7,
			"dex": 14,
			"con": 12,
			"int": 2,
			"wis": 12,
			"cha": 5,
			"senses": [
				"blindsight 20 ft.",
				"tremorsense 40 ft."
			],
			"passive": 11,
			"cr": "1/4",
			"action": [
				{
					"name": "Claw",
					"entries": [
						"{@atk mw} {@hit 4}击中，到达5英尺，一个目标。{@h}5 ({@damage 1d6 + 2})砍击伤害。"
					]
				},
				{
					"name": "Earth Bump",
					"entries": [
						"当摩勒在5英尺范围内的地面上的大型或小型生物下钻时，摩勒会转移地面。在他们上面的生物必须在一个{@dc 12}灵巧的蓄力动作上成功，否则会被击倒{@condition prone}。"
					]
				},
				{
					"name": "Ground Grinder",
					"entries": [
						"莫勒的钻探速度达到他们的钻探速度。在摩勒钻洞的5英尺范围内的地面会变成困难的地形。"
					]
				}
			],
			"reaction": [
				{
					"name": "Zip",
					"entries": [
						"如果摩勒在钻洞时的灵巧救赎失败，他们反而会成功。"
					]
				}
			],
			"senseTags": [
				"B",
				"T"
			],
			"damageTags": [
				"S"
			],
			"miscTags": [
				"MW"
			],
			"conditionInflict": [
				"prone"
			],
			"savingThrowForced": [
				"dexterity"
			]
		},
		{
			"name": "Scyza",
			"source": "FMp1",
			"page": 7,
			"size": [
				"G"
			],
			"type": {
				"type": "monstrosity",
				"tags": [
					"Brute"
				]
			},
			"alignment": [
				"U"
			],
			"ac": [
				{
					"ac": 14,
					"from": [
						"natural armor"
					]
				}
			],
			"hp": {
				"average": 108,
				"formula": "8d20 + 24"
			},
			"speed": {
				"walk": 40
			},
			"str": 21,
			"dex": 9,
			"con": 17,
			"int": 5,
			"wis": 11,
			"cha": 7,
			"save": {
				"str": "+7",
				"con": "+5"
			},
			"senses": [
				"darkvision 120 ft."
			],
			"passive": 10,
			"conditionImmune": [
				"frightened"
			],
			"cr": "4",
			"trait": [
				{
					"name": "Siege Monster",
					"entries": [
						"镰刀对物体和结构造成双倍伤害。"
					]
				},
				{
					"name": "War Harness",
					"entries": [
						"在穿着战甲的情况下，Scyza可以携带多达36个中型或小型生物。"
					]
				}
			],
			"action": [
				{
					"name": "Multiattack",
					"entries": [
						"镰刀手进行了两次塔隆攻击。"
					]
				},
				{
					"name": "Talon",
					"entries": [
						"{@atk mw} {@hit 7}击中，到达5英尺，一个目标。{@h}12 ({@damage 2d6 + 5})砍击伤害，目标被击飞{@condition prone}。"
					]
				},
				{
					"name": "Tail Whip",
					"entries": [
						"{@atk mw} {@hit 7}击中，到达20英尺，一个目标。{@h}14 ({@damage 2d8 + 5})重击伤害。如果目标在镰刀上面，目标会掉下来并落地（%4%）。"
					]
				},
				{
					"name": "Head Crest",
					"entries": [
						"{@atk mw} {@hit 7}击中，到达10英尺，一个目标。{@h}23 ({@damage 4d8 + 5})砍击伤害，如果目标是能听到的生物，他们会被峰顶的深沉铃声震晕，直到下一回合结束。"
					]
				},
				{
					"name": "Talon Twister {@recharge}",
					"entries": [
						"镰刀在地面上乱抓一气。在5英尺范围内的每个生物都必须做一个{@dc 15}灵巧的蓄力动作。拯救失败时，生物会受到13（%1%）的砍击伤害，被击倒（%2%），并被（%3%）的尘埃所笼罩，直到镰刀的下一回合开始。救赎成功时，生物会受到一半的伤害，并且不会被击倒（%4%）或（%5%）。"
					]
				}
			],
			"traitTags": [
				"Siege Monster"
			],
			"senseTags": [
				"SD"
			],
			"actionTags": [
				"Multiattack"
			],
			"damageTags": [
				"B",
				"S"
			],
			"miscTags": [
				"MW",
				"RCH",
				"MLW"
			],
			"conditionInflict": [
				"blinded",
				"prone"
			],
			"savingThrowForced": [
				"dexterity"
			]
		},
		{
			"name": "Dohma Raskovar",
			"source": "FMp1",
			"page": 8,
			"size": [
				"M"
			],
			"type": {
				"type": "humanoid",
				"tags": [
					"orc",
					"Leader"
				]
			},
			"alignment": [
				"L",
				"E"
			],
			"ac": [
				{
					"ac": 14,
					"from": [
						"{@item chain shirt|phb}"
					]
				}
			],
			"hp": {
				"average": 93,
				"formula": "11d8 + 44"
			},
			"speed": {
				"walk": 35
			},
			"str": 17,
			"dex": 12,
			"con": 18,
			"int": 16,
			"wis": 15,
			"cha": 16,
			"save": {
				"str": "+6",
				"con": "+7",
				"wis": "+5"
			},
			"skill": {
				"athletics": "+6",
				"deception": "+6",
				"insight": "+5",
				"intimidation": "+6",
				"perception": "+5"
			},
			"senses": [
				"darkvision 60 ft."
			],
			"passive": 15,
			"conditionImmune": [
				"exhaustion"
			],
			"languages": [
				"Common",
				"Orc"
			],
			"cr": "5",
			"trait": [
				{
					"name": "Adrenaline Rush",
					"entries": [
						"如果Raskovar的救赎失败，他可以在不获得好处的情况下消耗他的Dohma Rally的使用权（不需要行动），并在救赎中取得成功。"
					]
				},
				{
					"name": "Relentless (1/Turn)",
					"entries": [
						"当Raskovar不是{@condition incapacitated}并且他被降低到0命中率但没有被直接杀死时，他可以在命中率降低被解决之前对一个敌对的生物进行一次攻击（不需要行动）。如果攻击命中并且其伤害将目标降低到0命中率，拉斯科瓦会下降到1命中率而不是0命中率。"
					]
				}
			],
			"action": [
				{
					"name": "Multiattack",
					"entries": [
						"拉斯科瓦尔进行三次连发弩攻击或两次战矛攻击。"
					]
				},
				{
					"name": "War Mace",
					"entries": [
						"{@atk mw} {@hit 6}击中，到达5英尺，一个目标。{@h}8 ({@damage 2d4 + 3})重击伤害，并且目标会被眩晕，直到下一回合结束。"
					]
				},
				{
					"name": "Repeating Crossbow",
					"entries": [
						"{@atk rw} {@hit 4}击中，范围30/120英尺，一个目标。{@h}7 ({@damage 1d12 + 1})穿刺伤害，并且目标的速度降低10英尺，直到他们下一个回合结束。"
					]
				},
				{
					"name": "Reinforcements (1/Day)",
					"entries": [
						"拉斯科瓦获得躲避动作的好处，十个兽人突击手出现在他周围30英尺内无人的空间。"
					]
				}
			],
			"bonus": [
				{
					"name": "Dohma Rally (3/Day)",
					"entries": [
						"Raskovar恢复20点生命值，并获得对打击、穿刺和砍击伤害的抗性，直到他下一回合结束。"
					]
				}
			],
			"reaction": [
				{
					"name": "On the House",
					"entries": [
						"当Raskovar能看到的30英尺范围内的生物在能力检查中失败或在攻击卷中失败时，该生物可以重新进行检查或攻击，选择任一结果。"
					]
				}
			],
			"legendaryHeader": [
				"Raskovar has three villain actions. He can take each action once during an encounter after an enemy creature's turn. He can take these actions in any order but can only use one per round."
			],
			"legendary": [
				{
					"name": "Action 1: Close In",
					"entries": [
						"在他周围60英尺范围内，每个由拉斯科瓦尔选择的、能听到他的生物都可以按照他们的速度移动。在这次移动之后，在至少一个移动的生物的5英尺范围内的每个敌人必须做一个{@dc 15}的智慧救赎，否则在1分钟内被拉斯科瓦尔{@condition frightened}所控制（救赎在回合结束时结束）。"
					]
				},
				{
					"name": "Action 2: Lockdown",
					"entries": [
						"在他周围60英尺范围内，由Raskovar选择的每个生物，只要能听到他的声音，就可以进行力量（竞技）检定，并在其范围内抓住一个敌人（不需要行动）。然后Raskovar可以以他的速度移动。"
					]
				},
				{
					"name": "Action 3: Do It Myself",
					"entries": [
						"拉斯科瓦以他的速度移动，不会引起机会攻击。在移动结束时，他最多可以以优势进行五次战矛攻击。"
					]
				}
			],
			"senseTags": [
				"D"
			],
			"actionTags": [
				"Multiattack"
			],
			"languageTags": [
				"C",
				"O"
			],
			"damageTags": [
				"B",
				"P"
			],
			"miscTags": [
				"MW",
				"RW",
				"MLW"
			],
			"conditionInflict": [
				"frightened"
			],
			"savingThrowForced": [
				"wisdom"
			]
		},
		{
			"name": "Orc Blacksmith",
			"source": "FMp1",
			"page": 9,
			"size": [
				"M"
			],
			"type": {
				"type": "humanoid",
				"tags": [
					"orc",
					"Retainer"
				]
			},
			"alignment": [
				"A"
			],
			"ac": [
				{
					"ac": 15,
					"from": [
						"medium"
					]
				}
			],
			"hp": {
				"special": "15 times their level (number of d10 Hit Dice equal to twice their level)"
			},
			"speed": {
				"walk": 35
			},
			"str": 18,
			"dex": 16,
			"con": 16,
			"int": 16,
			"wis": 16,
			"cha": 16,
			"save": {
				"con": "+6",
				"int": "+6"
			},
			"skill": {
				"athletics": "+6"
			},
			"senses": [
				"darkvision 60 ft."
			],
			"passive": 13,
			"languages": [
				"Common",
				"Orc"
			],
			"trait": [
				{
					"name": "Tool Proficiency",
					"entries": [
						"铁匠精通铁匠工具（+6奖励）。"
					]
				}
			],
			"action": [
				{
					"name": "Signature Attack (Warhammer)",
					"entries": [
						"{@atk mw} {@hit 6}击中，到达5英尺，一个目标。{@h}9 ({@damage 1d10 + 4})重击伤害。",
						"从第七级开始，铁匠在他们的回合中采取攻击行动时，可以进行两次而不是一次这样的攻击。"
					]
				},
				{
					"name": "3rd Level: Fire Bellows (3/Day)",
					"entries": [
						"铁匠在15英尺的锥形范围内或在30英尺长、5英尺宽的范围内吹火。该区域内的每个生物都必须做一个灵巧的蓄力动作，蓄力失败时受到9({@damage 2d8})的火焰伤害，蓄力成功时受到一半的伤害。"
					]
				}
			],
			"bonus": [
				{
					"name": "5th Level: Reinforce Armor (3/Day)",
					"entries": [
						"作为一个奖励动作，铁匠触摸一件盔甲并加固它。掷出{@dice d4}。在10分钟内，穿戴该盔甲的生物会获得与掷骰子结果相等的AC奖励。"
					]
				},
				{
					"name": "7th Level: Fortify Weapon (3/Day)",
					"entries": [
						"作为一个额外的动作，铁匠触摸一件武器并将其抛光。在1分钟内，该武器具有魔力，并造成额外的（%0%）伤害。"
					]
				}
			],
			"senseTags": [
				"D"
			],
			"languageTags": [
				"C",
				"O"
			],
			"damageTags": [
				"B",
				"F"
			],
			"miscTags": [
				"AOE",
				"MW",
				"MLW"
			]
		},
		{
			"name": "Mohler Companion",
			"source": "FMp1",
			"page": 9,
			"size": [
				"S"
			],
			"type": {
				"type": "beast",
				"tags": [
					"Companion"
				]
			},
			"alignment": [
				"U"
			],
			"ac": [
				{
					"special": "13 plus pb (natural armor)"
				}
			],
			"hp": {
				"special": "7 + seven times caregiver's level (number of d8 Hit Dice equal to their caregiver's level)"
			},
			"speed": {
				"walk": 20,
				"burrow": 40
			},
			"str": 7,
			"dex": 16,
			"con": 14,
			"int": 2,
			"wis": 12,
			"cha": 5,
			"save": {
				"dex": "+3",
				"con": "+2"
			},
			"skill": {
				"acrobatics": "+3 plus pb",
				"stealth": "+3 plus pb"
			},
			"senses": [
				"blindsight 20 ft.",
				"tremorsense 40 ft."
			],
			"passive": 11,
			"pbNote": "equals caregiver's proficiency bonus",
			"action": [
				{
					"name": "Signature Attack (Claw)",
					"entries": [
						"{@atk mw}+3加PB命中，到达5英尺，一个目标。{@h}{@dice 1d6}加PB的砍击伤害。"
					]
				},
				{
					"name": "1st Level",
					"entries": [
						"地动山摇（2级凶猛）。莫勒以他们的速度钻入地下，并选择一个他们在移动过程中进入5英尺以内的大型或小型生物。目标必须在一个{@dc 10}加PB的灵巧救赎中成功，否则将被击倒{@condition prone}。"
					]
				},
				{
					"name": "3rd Level",
					"entries": [
						"天坑（5级凶猛）。摩尔人以他们的速度钻入地下，并以他们在地面上能感觉到的10英尺内的生物为目标。目标必须在{@dc 10}加PB力量的投掷中成功，或者被地面{@condition restrained}，直到摩勒的下一回合开始。"
					]
				},
				{
					"name": "5th Level",
					"entries": [
						"特拉诺瓦（8级凶暴）。在摩勒10英尺范围内的地面上的每个生物都必须在一个{@dc 10}加PB力量的投掷中成功，否则将受到{@dice 1d6}加PB的打击伤害并被击倒{@condition prone}。如果该蓄力动作失败5次或更多，则被地面击倒（3%）。",
						"一个生物可以使用他们的行动来释放自己或他们范围内的另一个生物，结束这个效果。"
					]
				}
			],
			"reaction": [
				{
					"name": "Quick Pit (1/Day)",
					"entries": [
						"如果莫勒的看护者在离莫勒10英尺范围内的灵巧救赎失败，而莫勒不是{@condition incapacitated}或{@condition restrained}，莫勒会将看护者拉出危险。看护者的救赎动作会成功。"
					]
				}
			],
			"variant": [
				{
					"type": "inset",
					"name": "Mystic Connection: Mohler",
					"entries": [
						"如果你扮演的是（%0%），并且有一个摩勒同伴，你在9级时获得兽心的神秘连接功能，你会获得以下好处。",
						{
							"type": "entries",
							"name": "Earthen Strength",
							"entries": [
								"作为一个额外的动作，你的四肢会变得密集并以难以置信的力量摆动，持续1分钟。在持续时间内，当你用近战武器攻击击中比你大或小不超过一个体型类别的生物时，该生物也被击倒（%0%）。一旦你使用了这个好处，你就不能再这样做，直到你完成一个长时间的休息。"
							]
						}
					]
				}
			],
			"senseTags": [
				"B",
				"T"
			],
			"miscTags": [
				"MW"
			],
			"conditionInflict": [
				"prone",
				"restrained"
			]
		},
		{
			"name": "Voiceless Talker",
			"source": "FMp1",
			"page": 11,
			"size": [
				"M"
			],
			"type": {
				"type": "aberration",
				"tags": [
					"Controller"
				]
			},
			"alignment": [
				"L",
				"E"
			],
			"alignmentPrefix": "typically ",
			"ac": [
				{
					"ac": 16,
					"from": [
						"natural armor"
					]
				}
			],
			"hp": {
				"average": 91,
				"formula": "14d8 + 28"
			},
			"speed": {
				"walk": 30,
				"fly": 30
			},
			"str": 10,
			"dex": 16,
			"con": 14,
			"int": 19,
			"wis": 15,
			"cha": 14,
			"save": {
				"con": "+5",
				"int": "+7",
				"wis": "+5"
			},
			"skill": {
				"arcana": "+7",
				"deception": "+5",
				"insight": "+5",
				"perception": "+5",
				"persuasion": "+5",
				"stealth": "+6"
			},
			"senses": [
				"darkvision 120 ft."
			],
			"passive": 15,
			"resist": [
				"bludgeoning"
			],
			"languages": [
				"Deep Speech",
				"Undercommon",
				"telepathy 120 ft."
			],
			"cr": "7",
			"action": [
				{
					"name": "Multiattack",
					"entries": [
						"无声说话者表现出一种力量，并进行触手或幻象枪的攻击。"
					]
				},
				{
					"name": "Tentacle",
					"entries": [
						"{@atk mw}{@hit 7}击中，到达10英尺，一个目标。{@h}15({@damage 2d10 + 4})精神伤害，目标为{@condition grappled}(逃跑{@dc 15})。"
					]
				},
				{
					"name": "Psionic Pistol",
					"entries": [
						"{@atk rw} {@hit 7}击中，范围80/320英尺，一个目标。{@h}15 ({@damage 2d10 + 4})武力伤害。"
					]
				},
				{
					"name": "Memory Thief (4th-Order Power)",
					"entries": [
						"无声说话者用灵力掠夺他们周围30英尺内的生物的思想。目标必须做一个{@dc 15}智力储蓄动作。",
						"拯救失败时，目标会受到22({@damage 4d10})的精神伤害，并且直到他们完成长时间的休息或死亡，他们的熟练度加成会降低1，并且无声说话者会在伤害卷上获得累积的+2加成。拯救成功时，目标会受到一半的伤害，并且不会降低他们的熟练度加成。",
						"熟练度奖励下降到0的生物不能形成新的思想或说话，他们在能力检查、攻击卷和救赎上有劣势。"
					]
				},
				{
					"name": "Flay (3/Day; 5th-Order Power)",
					"entries": [
						"无声说话者从他们的眼睛射出一个15英尺的幻象能量锥。该区域内的每个生物必须做一个{@dc 15}智力测验，如果测验失败，将受到28({@damage 8d6})的精神伤害，如果测验成功，将受到一半的伤害。"
					]
				},
				{
					"name": "Guise (3rd-Order Power)",
					"entries": [
						"无声说话者在他们的身体上投射出一个幻象，在1小时内将他们的外表转化为他们所看到的中等生物的样子。当他们表现出这种能力时，他们也可以在持续时间内改变他们携带的任何装备的外观。",
						"这种能力所造成的变化无法经受住物理检查。一个生物可以用一个动作来检查无声说话者的外表，并进行（%0%）智力（调查）检查，成功后注意到这个图像是一个投影。"
					]
				}
			],
			"reaction": [
				{
					"name": "Brain Drain",
					"entries": [
						"当无声说话者身边的生物{@condition grappled}对无声说话者的某项力量进行救赎时，无声说话者会暂时削弱该生物，并且该生物在救赎中处于劣势。"
					]
				}
			],
			"senseTags": [
				"SD"
			],
			"actionTags": [
				"Multiattack",
				"Tentacles"
			],
			"languageTags": [
				"DS",
				"TP",
				"U"
			],
			"damageTags": [
				"O",
				"Y"
			],
			"miscTags": [
				"MW",
				"RCH",
				"RW"
			],
			"conditionInflict": [
				"grappled"
			],
			"savingThrowForced": [
				"intelligence"
			]
		},
		{
			"name": "Voiceless Talker Artillerist",
			"source": "FMp1",
			"page": 11,
			"size": [
				"M"
			],
			"type": {
				"type": "aberration",
				"tags": [
					"Artillery"
				]
			},
			"alignment": [
				"L",
				"E"
			],
			"alignmentPrefix": "typically ",
			"ac": [
				{
					"ac": 16,
					"from": [
						"natural armor"
					]
				}
			],
			"hp": {
				"average": 150,
				"formula": "20d8 + 60"
			},
			"speed": {
				"walk": 30,
				"fly": 30
			},
			"str": 12,
			"dex": 16,
			"con": 16,
			"int": 21,
			"wis": 17,
			"cha": 16,
			"save": {
				"con": "+7",
				"int": "+9",
				"wis": "+7"
			},
			"skill": {
				"arcana": "+9",
				"deception": "+7",
				"insight": "+7",
				"perception": "+7",
				"persuasion": "+7",
				"stealth": "+7"
			},
			"senses": [
				"darkvision 120 ft."
			],
			"passive": 17,
			"resist": [
				"bludgeoning"
			],
			"languages": [
				"Deep Speech",
				"Undercommon",
				"telepathy 120 ft."
			],
			"cr": "10",
			"trait": [
				{
					"name": "Phasing Rifle (1/Turn)",
					"entries": [
						"当炮手用幻象步枪攻击到目标时，炮手可以尝试传送目标（不需要行动）。目标必须在{@dc 17}智慧救赎中成功，或者被传送到一个由炮手选择的、在炮手60英尺内可以看到的无人空间。所选择的空间必须是在一个表面或液体中，能够支持目标而不被挤压。"
					]
				}
			],
			"action": [
				{
					"name": "Multiattack",
					"entries": [
						"炮手进行两次幻象步枪攻击，或者他们表现出一种力量并进行一次触手攻击。"
					]
				},
				{
					"name": "Psionic Rifle",
					"entries": [
						"{@atk rw} {@hit 9}击中，范围150/600英尺，一个目标。{@h}21 ({@damage 3d10 + 5})武力伤害。"
					]
				},
				{
					"name": "Phasing Tentacles",
					"entries": [
						"{@atk mw} {@hit 9}击中，到达10英尺，一个目标。{@h}21 ({@damage 3d10 + 5})精神伤害，并且炮手可以选择以下效果之一：目标被{@condition grappled}(逃跑{@dc 17})或被传送到炮手可以看到的未被占用的空间，最多 15 英尺。"
					]
				},
				{
					"name": "Memory Thief (5th-Order Power)",
					"entries": [
						"炮手以幻术掠夺他们周围30英尺内的生物的思想。目标必须做一个{@dc 17}智力储蓄动作。",
						"拯救失败时，目标会受到33({@damage 6d10})的精神伤害，并且在他们完成长时间休息或死亡之前，他们的熟练度加成会降低1，并且炮手会在伤害卷上获得累积的+2加成。拯救成功时，目标会受到一半的伤害，并且不会降低他们的熟练度奖励。",
						"熟练度奖励下降到0的生物不能形成新的思想或说话，他们在能力检查、攻击卷和救赎上有劣势。"
					]
				},
				{
					"name": "Guise (3rd-Order Power)",
					"entries": [
						"炮手在自己的身体上投射出一个幻象，在1小时内将自己的外表转化为他们所看到的中等生物的样子。当他们表现出这种能力时，他们也可以在持续时间内改变他们携带的任何装备的外观。",
						"这种能力所带来的变化无法经受住物理检查。一个生物可以用一个动作来检查炮手的外表，并做一个{@dc 17}智力（调查）检查，如果成功，则注意到图像是一个投影。"
					]
				}
			],
			"bonus": [
				{
					"name": "Vanish for One (3/Day; 3rd-Order Power; Concentration)",
					"entries": [
						"炮手将自己隐身在60英尺范围内的生物的视线中。该生物必须在一个{@dc 17}的智慧救赎中成功，否则炮手将在1分钟内对该生物产生{@condition invisible}的影响（救赎在回合结束时终止）。如果炮手攻击该生物，对他们造成伤害，或者产生一个迫使他们进行蓄力的效果，那么这个效果会提前结束。"
					]
				}
			],
			"senseTags": [
				"SD"
			],
			"actionTags": [
				"Multiattack"
			],
			"languageTags": [
				"DS",
				"TP",
				"U"
			],
			"damageTags": [
				"O",
				"Y"
			],
			"miscTags": [
				"MW",
				"RCH",
				"RW"
			],
			"conditionInflict": [
				"grappled"
			],
			"savingThrowForced": [
				"intelligence",
				"wisdom"
			]
		},
		{
			"name": "Hulking Brain",
			"source": "FMp1",
			"page": 12,
			"size": [
				"L"
			],
			"type": {
				"type": "aberration",
				"tags": [
					"Brute"
				]
			},
			"alignment": [
				"L",
				"E"
			],
			"alignmentPrefix": "typically ",
			"ac": [
				{
					"ac": 16,
					"from": [
						"natural armor"
					]
				}
			],
			"hp": {
				"average": 126,
				"formula": "12d10 + 60"
			},
			"speed": {
				"walk": 30
			},
			"str": 21,
			"dex": 10,
			"con": 20,
			"int": 8,
			"wis": 6,
			"cha": 12,
			"senses": [
				"blindsight 120 ft. (blind beyond this radius)"
			],
			"passive": 8,
			"languages": [
				"Deep Speech",
				"Undercommon",
				"telepathy 120 ft."
			],
			"cr": "7",
			"trait": [
				{
					"name": "Psionic Immunity",
					"entries": [
						"巨大的大脑不受无声说话者所表现出的幻觉力量的影响，除非大脑愿意这样做。"
					]
				},
				{
					"name": "Psychic Scream",
					"entries": [
						"当大脑下降到0命中率时，他们周围30英尺内的每个生物都必须做一个{@dc 16}智慧救赎，救赎失败时受到21({@damage 6d6})的精神伤害，救赎成功时受到一半的伤害。"
					]
				}
			],
			"action": [
				{
					"name": "Multiattack",
					"entries": [
						"大脑会进行三次巴什攻击。"
					]
				},
				{
					"name": "Bash",
					"entries": [
						"{@atk mw} {@hit 8}击中，到达10英尺，一个目标。{@h}14 ({@damage 2d8 + 5})重击伤害，并且目标是{@condition grappled}(逃跑{@dc 15})。在抓捕结束前，目标是{@condition restrained}，对幻象力量的救赎有劣势。",
						"大脑可以同时抓取多达四个生物。"
					]
				},
				{
					"name": "Squeeze",
					"entries": [
						"大脑旁的每一个生物（%0%）都必须做一个（%1%）力量救赎，救赎失败会受到22（{@damage 4d10}）重击伤害，救赎成功则受到一半的伤害。"
					]
				}
			],
			"bonus": [
				{
					"name": "Psionic Invigoration (1/Day)",
					"entries": [
						"在大脑周围60英尺范围内的每个自愿的无声说话者都能重新使用无声说话者选择的一种幻象能力，而且无声说话者在攻击卷上有优势，直到大脑的下一个回合结束。"
					]
				}
			],
			"senseTags": [
				"B"
			],
			"actionTags": [
				"Multiattack"
			],
			"languageTags": [
				"DS",
				"TP",
				"U"
			],
			"damageTags": [
				"B",
				"Y"
			],
			"miscTags": [
				"AOE",
				"MW",
				"RCH"
			],
			"conditionInflict": [
				"grappled",
				"restrained"
			],
			"savingThrowForced": [
				"strength",
				"wisdom"
			]
		},
		{
			"name": "Mindkiller",
			"source": "FMp1",
			"page": 13,
			"size": [
				"S"
			],
			"type": {
				"type": "aberration",
				"tags": [
					"Ambusher"
				]
			},
			"alignment": [
				"L",
				"E"
			],
			"alignmentPrefix": "typically ",
			"ac": [
				12
			],
			"hp": {
				"average": 45,
				"formula": "10d6 + 10"
			},
			"speed": {
				"walk": 10,
				"fly": 30
			},
			"str": 14,
			"dex": 15,
			"con": 12,
			"int": 16,
			"wis": 15,
			"cha": 14,
			"skill": {
				"deception": "+4",
				"stealth": "+4"
			},
			"senses": [
				"darkvision 120 ft."
			],
			"passive": 12,
			"languages": [
				"Deep Speech",
				"Undercommon",
				"telepathy 120 ft."
			],
			"cr": "2",
			"trait": [
				{
					"name": "Amorphous",
					"entries": [
						"心灵杀手可以在1英寸宽的狭窄空间内移动而不被挤压。"
					]
				},
				{
					"name": "Psionic Immunity",
					"entries": [
						"杀心者不受无声说话者所表现出的幻觉力量的影响，除非杀心者愿意。"
					]
				}
			],
			"action": [
				{
					"name": "Claws",
					"entries": [
						"{@atk mw} {@hit 4}击中，到达5英尺，一个目标。{@h}7({@damage 2d4 + 2})的砍击伤害加上7({@damage 2d6})的精神伤害，如果目标是中型或小型生物，目标是{@condition grappled}(逃跑{@dc 12})。在抓捕结束之前，目标是{@condition restrained}，并且心灵杀手不能使用他们的爪子来攻击其他目标。"
					]
				},
				{
					"name": "Concealing Strike",
					"entries": [
						"{@atk rs} {@hit 5}击中，范围30英尺，一个生物。{@h}13({@damage 3d6 + 3})的精神伤害，并且杀心者对目标的{@condition invisible}，直到杀心者的下一回合结束。"
					]
				},
				{
					"name": "Mindwipe",
					"entries": [
						"被杀心者控制的人形生物（%0%）必须成功地进行强度救赎，否则杀心者将进入该人形生物的身体。在人形生物体内时，杀心者对来自人形生物外部的攻击和其他影响有完全的保护，杀心者唯一可以采取的行动是离开身体，在身体5英尺内的一个无人空间退出。",
						"当一个人形生物在他们体内结束他们的回合时，他们必须成功地进行一次（%0%）宪法救赎，否则就会受到10次坏死的伤害。如果人形生物的命中率降至0，他们就会死亡，而杀心者会接管他们的身体，重新获得与人形生物的最大命中率相同的命中率。杀心者保留了他们的智力、智慧和魅力分数，他们对深层语言和暗语的理解，以及他们的心灵感应。除此之外，他们还采用目标的统计数据，并且可以采取该生物可以采取的行动。他们知道该生物所知道的一切，包括法术、等级特征、特性和语言。如果在杀心者控制之后，身体的命中率降至0，杀心者必须离开它。",
						"挥舞着锋利的工具或武器的生物，在人形宿主或体内有杀心剂的身体范围内，可以使用一个动作来试图移除杀心剂，如果宿主不愿意，就对人形的AC进行攻击卷。一旦命中，该生物对宿主造成11（（%0%））的伤害，并且必须进行（%1%）智慧（医学）检查。检查成功时，该生物会将杀心剂从宿主身上切下来。如果检查失败，如果这个砍击伤害使宿主的命中率降至0，杀心者就会杀死宿主；否则就没有效果。"
					]
				}
			],
			"traitTags": [
				"Amorphous"
			],
			"senseTags": [
				"SD"
			],
			"languageTags": [
				"DS",
				"TP",
				"U"
			],
			"damageTags": [
				"N",
				"S",
				"Y"
			],
			"miscTags": [
				"MW"
			],
			"conditionInflict": [
				"grappled",
				"invisible",
				"restrained"
			],
			"savingThrowForced": [
				"constitution",
				"strength"
			]
		},
		{
			"name": "Mindkiller Whelp",
			"source": "FMp1",
			"page": 13,
			"size": [
				"S"
			],
			"type": {
				"type": "aberration",
				"tags": [
					"Minion"
				]
			},
			"alignment": [
				"L",
				"E"
			],
			"alignmentPrefix": "typically ",
			"ac": [
				12
			],
			"hp": {
				"special": "11"
			},
			"speed": {
				"walk": 10,
				"fly": 30
			},
			"str": 10,
			"dex": 14,
			"con": 11,
			"int": 14,
			"wis": 12,
			"cha": 12,
			"senses": [
				"darkvision 120 ft."
			],
			"passive": 11,
			"languages": [
				"Deep Speech",
				"Undercommon",
				"telepathy 120 ft."
			],
			"cr": "2",
			"trait": [
				{
					"name": "Amorphous",
					"entries": [
						"小狗可以在1英寸宽的狭窄空间内移动而不受挤压。"
					]
				},
				{
					"name": "Minion",
					"entries": [
						"如果该小羊从攻击中受到伤害，或者由于救赎失败，它们的命中率会降低到0。如果该小羊从其他效果中受到伤害，如果伤害等于或超过它们的最大命中率，它们就会死亡，否则它们不会受到伤害。"
					]
				},
				{
					"name": "Psionic Immunity",
					"entries": [
						"除非无声者愿意，否则小麦不会受到无声者所表现出的幻觉力量的影响。"
					]
				},
				{
					"name": "Resistance Drain",
					"entries": [
						"当在三个或更多的麦田的5英尺范围内的敌对生物对一种力量或幻觉效果进行救赎时，该生物的救赎受到的惩罚等于他们5英尺范围内的麦田数量。"
					]
				}
			],
			"action": [
				{
					"name": "Claws (Group Attack)",
					"entries": [
						"{@atk mw} {@hit 4}击中，到达5英尺，一个目标。{@h}3次砍击伤害。"
					]
				}
			],
			"traitTags": [
				"Amorphous"
			],
			"senseTags": [
				"SD"
			],
			"languageTags": [
				"DS",
				"TP",
				"U"
			],
			"damageTags": [
				"S"
			],
			"miscTags": [
				"MW"
			]
		},
		{
			"name": "Lord Syuul",
			"isNamedCreature": true,
			"source": "FMp1",
			"page": 14,
			"size": [
				"M"
			],
			"type": {
				"type": "aberration",
				"tags": [
					"Solo"
				]
			},
			"alignment": [
				"L",
				"E"
			],
			"ac": [
				{
					"ac": 18,
					"from": [
						"natural armor"
					]
				}
			],
			"hp": {
				"average": 221,
				"formula": "26d8 + 104"
			},
			"speed": {
				"walk": 30,
				"fly": 30
			},
			"str": 15,
			"dex": 16,
			"con": 18,
			"int": 22,
			"wis": 20,
			"cha": 21,
			"save": {
				"con": "+9",
				"int": "+11",
				"wis": "+10"
			},
			"skill": {
				"arcana": "+16",
				"deception": "+10",
				"insight": "+10",
				"perception": "+10",
				"persuasion": "+10",
				"stealth": "+8"
			},
			"senses": [
				"darkvision 120 ft."
			],
			"passive": 20,
			"resist": [
				"bludgeoning"
			],
			"conditionImmune": [
				"charmed",
				"frightened"
			],
			"languages": [
				"Deep Speech",
				"Undercommon",
				"telepathy 120 ft."
			],
			"cr": "15",
			"trait": [
				{
					"name": "Draw In",
					"entries": [
						"如果Syuul勋爵在抓捕至少一个敌方生物时救赎失败，他可以选择释放所有{@condition grappled}的生物并成功救赎。"
					]
				}
			],
			"action": [
				{
					"name": "Multiattack",
					"entries": [
						"Syuul勋爵进行两次触手或幻象中继器攻击，然后表现出一种力量或使用记忆转移。"
					]
				},
				{
					"name": "Tentacle",
					"entries": [
						"{@atk mw}{@hit 11}击中，到达15英尺，一个目标。{@h}28({@damage 4d10 + 6})精神伤害，目标为{@condition grappled}(逃跑{@dc 19})。"
					]
				},
				{
					"name": "Psionic Repeater",
					"entries": [
						"{@atk rw} {@hit 11}击中，范围150/600英尺，一个目标。{@h}22 ({@damage 3d10 + 6})武力伤害。"
					]
				},
				{
					"name": "Brain Overload (1/Day; 6th-Order Power)",
					"entries": [
						"Syuul勋爵在他周围120英尺范围内可以看到的生物的头脑中突然产生一股能量。目标必须做一个{@dc 19}宪法救赎，如果救赎失败，会受到77({@damage 14d10})的精神伤害，如果救赎成功，会受到一半的伤害。如果目标有头并被降低到0点，他们的头就会爆炸，如果他们没有头就无法生存，他们就会死亡。"
					]
				},
				{
					"name": "Flay (6th-Order Power)",
					"entries": [
						"Syuul勋爵从他的眼睛射出一个15英尺的幻象能量锥。该区域内的每个生物必须做一个{@dc 19}智力测验，如果测验失败，将受到35({@damage 10d6})的精神伤害，如果测验成功，将受到一半的伤害。"
					]
				},
				{
					"name": "Memory Transfer",
					"entries": [
						"Syuul勋爵以幻术掠夺他所抓捕的每个生物的思想。每个目标必须成功地进行智力储蓄，否则会受到44（（1%））的精神伤害。如果目标没有成功，并且在下一回合结束时没有逃脱抓捕，他们必须选择这些效果中的一个。",
						{
							"type": "list",
							"items": [
								"目标的熟练度加成下降到0，他们不能形成新的想法或说话，并且在所有的能力检查、攻击卷和自救动作中都处于劣势。只有治愈疾病的能力、{@spell lesser restoration}咒语或类似的超自然效果才能使目标的熟练度加成恢复正常。",
								"目标被Syuul勋爵控制{@condition charmed}，持续1小时。当目标处于{@condition charmed}时，Syuul勋爵可以向目标发出心灵感应的命令（不需要行动），目标会尽力服从。每次目标受到伤害时，他们可以做一个{@dc 19}智慧救赎，如果成功则结束该状态。"
							]
						},
						"此外，在赛乌尔勋爵完成长期休息之前，他在伤害卷上获得累积的+5奖励。"
					]
				},
				{
					"name": "Guise (3rd-Order Power)",
					"entries": [
						"Syuul勋爵在他的身体上投射出一个幻象，将他的外表转化为他所看到的中等生物的样子，持续1小时。当他表现出这种能力时，他也可以改变他携带的任何装备的外观。",
						"这种力量所带来的变化无法经受住物理检查。一个生物可以用一个行动来检查西乌尔勋爵的外表，并做一个{@dc 19}智力（调查）检查，如果成功，就能注意到这个图像是一个投影。"
					]
				}
			],
			"bonus": [
				{
					"name": "Grappling Jaunt",
					"entries": [
						"Syuul勋爵和他身边的每个生物（%0%）最多可以传送30英尺到他能看到的未被占领的空间。"
					]
				}
			],
			"reaction": [
				{
					"name": "Brain Drain",
					"entries": [
						"当Syuul勋爵身边的生物{@condition grappled}对记忆转移进行蓄力攻击时，Syuul勋爵会暂时削弱该生物，并且该生物在蓄力攻击中处于劣势。"
					]
				}
			],
			"legendaryHeader": [
				"Lord Syuul has three villain actions. He can take each action once during an encounter after an enemy creature's turn. He can take these actions in any order but can only use one per round."
			],
			"legendary": [
				{
					"name": "Action 1: Mindblind",
					"entries": [
						"在他周围60英尺范围内，Syuul勋爵选择的每个生物都必须做一个{@dc 19}智慧救赎动作。拯救失败时，该生物在1分钟内无法看到Syuul勋爵以外的生物（拯救在回合结束时终止）。"
					]
				},
				{
					"name": "Action 2: Was I Ever Here?",
					"entries": [
						"Syuul勋爵变得（%0%），传送60英尺到一个他能看到的无人的空间，并可以采取隐藏行动。同时，在他离开的空间里出现一个Syuul勋爵的虚幻幻象，他可以按照自己的选择打手势、说话和行动（不需要行动）。触摸图像或对其进行近身攻击的生物必须在宪法规定的投掷中成功，否则会受到21（%2%）的精神伤害。与图像的物理互动显示它是一个幻象，因为东西可以穿过它。Syuul勋爵的隐身状态结束，他的影像在下一回合结束时消失。"
					]
				},
				{
					"name": "Action 3: Mindshatter",
					"entries": [
						"在他周围60英尺范围内，每个由Syuul勋爵选择的生物都必须进行一次{@dc 19}的智慧投掷。拯救失败时，目标会受到55（（%1%））的精神伤害，并被晕眩1分钟（拯救在回合结束时结束）。",
						"拯救成功后，目标会受到一半的伤害，并且不会被迷惑。"
					]
				}
			],
			"senseTags": [
				"SD"
			],
			"actionTags": [
				"Multiattack",
				"Tentacles"
			],
			"languageTags": [
				"DS",
				"TP",
				"U"
			],
			"damageTags": [
				"O",
				"Y"
			],
			"miscTags": [
				"AOE",
				"MW",
				"RCH",
				"RW"
			],
			"conditionInflict": [
				"charmed",
				"grappled"
			],
			"savingThrowForced": [
				"constitution",
				"intelligence",
				"wisdom"
			]
		},
		{
			"name": "Dancing Lady",
			"source": "FMp1",
			"page": 16,
			"size": [
				"H"
			],
			"type": {
				"type": "plant",
				"tags": [
					"Controller"
				]
			},
			"alignment": [
				"U"
			],
			"ac": [
				{
					"ac": 17,
					"from": [
						"natural armor"
					]
				}
			],
			"hp": {
				"average": 161,
				"formula": "14d12 + 70"
			},
			"speed": {
				"walk": 30
			},
			"str": 22,
			"dex": 8,
			"con": 20,
			"int": 10,
			"wis": 16,
			"cha": 12,
			"save": {
				"dex": "+3",
				"wis": "+7"
			},
			"senses": [
				"blindsight 120 ft. (blind beyond this radius)"
			],
			"passive": 13,
			"vulnerable": [
				"fire"
			],
			"conditionImmune": [
				"blinded",
				"charmed",
				"deafened",
				"flanked",
				"frightened",
				"prone"
			],
			"languages": [
				"understands Druidic and Sylvan but can't speak"
			],
			"cr": "9",
			"trait": [
				{
					"name": "Dancing Flowers",
					"entries": [
						"舞娘有三朵旋转的花，类似于真人大小的跳舞的人形动物。每朵花有16点攻击力，5点命中率，易受火灾伤害，并对精神伤害免疫。对这些旋转的花朵进行攻击时，会有劣势。摧毁一朵花不会对跳舞的女士造成伤害，她会在回合结束时重新长出被摧毁的花。"
					]
				}
			],
			"action": [
				{
					"name": "Multiattack",
					"entries": [
						"跳舞的女士进行了两次猛烈的攻击。"
					]
				},
				{
					"name": "Slam",
					"entries": [
						"{@atk mw} {@hit 10}击中，到达10英尺，一个目标。{@h}25 ({@damage 3d12 + 6})重击伤害。"
					]
				},
				{
					"name": "Blood-Red Waltz",
					"entries": [
						"舞娘每拥有一朵花，就可以选择一个他们能看到的60英尺内的生物。每个目标必须在跳舞的花朵扫向他们的时候做一个{@dc 17}的力量救赎动作。如果救赎失败，生物会受到18({@damage 4d8})的精神伤害，并被移动到舞姬60英尺内的一个无人空间。拯救成功时，生物会受到一半的伤害并且不会被移动。"
					]
				},
				{
					"name": "Disarming Quickstep",
					"entries": [
						"舞娘每拥有一朵花，就可以选择一个他们能看到的60英尺范围内的生物。",
						"每个目标必须做一个{@dc 17}灵巧的蓄力动作，因为一朵舞动的花将他们旋入舞池。如果救赎失败，生物会受到17({@damage 5d6})的重击伤害，并被眩晕，直到舞姬下一回合开始。拯救成功时，生物会受到一半的伤害，并且不会被眩晕。"
					]
				},
				{
					"name": "Ballet of Terror (1/Day)",
					"entries": [
						"舞女的花朵回旋并散发出刺鼻的雾气。在120英尺范围内的生物，如果能闻到雾气，必须做一个{@dc 17}的智慧救赎动作。如果救赎失败，生物会在1分钟内成为舞姬的{@condition frightened}成员（救赎在回合结束时结束）。"
					]
				}
			],
			"reaction": [
				{
					"name": "Somber Dirge",
					"entries": [
						"当舞娘能看到的生物用攻击击中舞娘时，舞娘会使攻击改为击中它们的一朵花。"
					]
				}
			],
			"senseTags": [
				"B"
			],
			"actionTags": [
				"Multiattack"
			],
			"languageTags": [
				"CS",
				"DU",
				"S"
			],
			"damageTags": [
				"B",
				"Y"
			],
			"miscTags": [
				"MW",
				"RCH"
			],
			"conditionInflict": [
				"frightened"
			],
			"savingThrowForced": [
				"dexterity",
				"strength",
				"wisdom"
			]
		},
		{
			"name": "Empyrean Stag",
			"source": "FMp1",
			"page": 16,
			"size": [
				"L"
			],
			"type": {
				"type": "celestial",
				"tags": [
					"Support"
				]
			},
			"alignment": [
				"N",
				"G"
			],
			"alignmentPrefix": "typically ",
			"ac": [
				{
					"ac": 20,
					"from": [
						"natural armor"
					]
				}
			],
			"hp": {
				"average": 187,
				"formula": "22d10 + 66"
			},
			"speed": {
				"walk": 60
			},
			"str": 24,
			"dex": 16,
			"con": 16,
			"int": 18,
			"wis": 20,
			"cha": 20,
			"save": {
				"dex": "+8",
				"wis": "+10",
				"cha": "+10"
			},
			"skill": {
				"athletics": "+12",
				"insight": "+10",
				"perception": "+10"
			},
			"senses": [
				"darkvision 120 ft."
			],
			"passive": 20,
			"resist": [
				"necrotic",
				{
					"resist": [
						"bludgeoning",
						"piercing",
						"slashing"
					],
					"note": "from attacks that aren't supernatural",
					"cond": true
				}
			],
			"immune": [
				"radiant"
			],
			"conditionImmune": [
				"charmed",
				"exhaustion",
				"frightened"
			],
			"languages": [
				"all",
				"telepathy 120 ft."
			],
			"cr": "13",
			"trait": [
				{
					"name": "Supernatural Resistance",
					"entries": [
						"雄鹿在对力量、法术和其他超自然效果的挽救上具有优势。"
					]
				}
			],
			"action": [
				{
					"name": "Multiattack",
					"entries": [
						"雄鹿会进行三次冲撞或光爆攻击。"
					]
				},
				{
					"name": "Ram",
					"entries": [
						"{@atk mw} {@hit 12}击中，到达10英尺，一个目标。{@h}25 ({@damage 4d8 + 7})穿刺伤害。"
					]
				},
				{
					"name": "Lightburst",
					"entries": [
						"{@atk rs} {@hit 10}击中，范围120英尺，一个目标。{@h}18 ({@damage 3d8 + 5})辐射伤害，并且目标被勾勒出一道金光，使对他们的攻击卷获得优势，直到雄鹿的下一回合开始。"
					]
				},
				{
					"name": "Starcall (1/Day)",
					"entries": [
						"雄鹿会在雄鹿周围120英尺范围内的60英尺长、5英尺宽的区域内召唤出一个神奇的星星雨。该区域内的每个敌对生物必须做一个{@dc 18}灵巧的蓄力动作，蓄力失败会受到28({@damage 8d6})辐射伤害，蓄力成功会受到一半的伤害。该区域内每个自愿的友好生物都会重新获得15点生命值。",
						"然后，星星在该区域创造了一堵10英尺高的不透明辐射光墙。在墙的空间里的每个生物都会以最短的路线被推出去。该生物选择在墙的哪一边结束。这堵墙持续1分钟，或者直到雄鹿变成{@condition incapacitated}或者死亡。如果一个有敌意的生物在自愿或其他情况下穿过光墙，该生物必须做一个{@dc 18}宪法救赎，如果救赎失败，将受到14({@damage 4d6})辐射伤害，如果救赎成功，将受到一半的伤害。"
					]
				}
			],
			"bonus": [
				{
					"name": "Starlight Infusion",
					"entries": [
						"雄鹿将辐射能量注入他们能看到的60英尺范围内的一个自愿的生物。该生物在武器攻击卷中造成额外的5个辐射伤害，直到雄鹿的下一回合开始。"
					]
				}
			],
			"reaction": [
				{
					"name": "Nature's Ward",
					"entries": [
						"当雄鹿或它们能看到的30英尺范围内的生物受到伤害时，雄鹿会在该生物周围神奇地创造一个保护屏障。该屏障使受保护的生物受到的伤害减少20，然后消失。"
					]
				}
			],
			"senseTags": [
				"SD"
			],
			"actionTags": [
				"Multiattack"
			],
			"languageTags": [
				"TP",
				"XX"
			],
			"damageTags": [
				"P",
				"R"
			],
			"miscTags": [
				"MW",
				"RCH"
			],
			"savingThrowForced": [
				"constitution",
				"dexterity"
			]
		}
	],
	"item": [
		{
			"name": "Banner of Glory",
			"source": "FMp1",
			"wondrous": true,
			"rarity": "very rare",
			"entries": [
				"在持有旗帜的时候，你可以使用一个动作，英勇地挥舞旗帜，激励你周围30英尺内你所选择的自愿的生物。受影响的生物立即获得短暂休息的好处。一旦使用，该旗帜在24小时内不能再次使用。"
			]
		}
	],
	"condition": [
		{
			"name": "Dazed",
			"source": "FMp1",
			"entries": [
				"一个发呆的生物在他们的回合中只能做以下一件事：移动、使用一个行动、或使用一个额外的行动。如果一个生物在他们的回合中变得茫然，他们的回合就会结束。"
			],
			"page": 17
		}
	]
}
