{
	"_meta": {
		"sources": [
			{
				"json": "HboSR",
				"abbreviation": "HboSR",
				"full": "The Handbook of Slime Rheology",
				"authors": [
					"_Metabot"
				],
				"convertedBy": [
					"Modnar"
				],
				"version": "2.0",
				"url": "https://www.reddit.com/r/DnDBehindTheScreen/comments/7o4sm1/handbook_of_slime_rheology_a_collection_of/",
				"targetSchema": "1.0.0"
			}
		],
		"dateAdded": 1544022434,
		"dateLastModified": 1690651615,
		"_dateLastModifiedHash": "997fd12c69"
	},
	"monster": [
		{
			"source": "HboSR",
			"name": "Rock Slime",
			"size": [
				"M"
			],
			"type": "ooze",
			"alignment": [
				"U"
			],
			"ac": [
				{
					"ac": 10,
					"from": [
						"natural armor"
					]
				}
			],
			"hp": {
				"average": 36,
				"formula": "10d8"
			},
			"speed": {
				"walk": {
					"number": 35,
					"condition": "(equal to current hit points at least 5 ft.)"
				}
			},
			"str": 15,
			"dex": 10,
			"con": 14,
			"int": 2,
			"wis": 6,
			"cha": 1,
			"passive": null,
			"resist": [
				"force"
			],
			"conditionImmune": [
				"blinded",
				"charmed",
				"deafened",
				"exhaustion",
				"frightened",
				"prone"
			],
			"senses": [
				"blindsight 60 ft. (blind beyond this radius)"
			],
			"cr": "1/2",
			"trait": [
				{
					"name": "Amorphou",
					"entries": [
						"粘液可以在1英寸宽的狭窄空间内移动而不被挤压。当粘液的自然护甲值为15或更高时，它就会失去这种能力。"
					]
				},
				{
					"name": "Spider Climb",
					"entries": [
						"粘液可以爬上困难的表面，包括倒立在天花板上，而不需要进行能力检查。当粘液的自然护甲值为15或更高时，它就会失去这个能力。"
					]
				},
				{
					"name": "Rheopectic Hardening",
					"entries": [
						"如果触发的伤害是力量伤害，那么它的自然护甲的攻击力会增加5。一旦粘液的自然护甲AC值达到25，粘液就会{@condition petrified}并重新获得所有的命中率。"
					]
				}
			],
			"action": [
				{
					"name": "Pseudopod",
					"entries": [
						"{@atk mw} {@hit 4}击中，到达5英尺，一个目标。{@h}9 ({@damage 2d6 + 2})重击伤害或6 ({@damage 1d6 + 2})重击伤害，如果渗出物的自然护甲AC为15或以上。"
					]
				}
			],
			"fluff": {
				"entries": [
					"{@b Slimeous Rheopecta}（主要）。",
					"这种粘液变体的战斗力很强，但随着战斗的进行会慢慢失去能量。"
				]
			},
			"senseTags": [
				"B"
			],
			"damageTags": [
				"B"
			],
			"miscTags": [
				"MW"
			],
			"traitTags": [
				"Spider Climb"
			]
		},
		{
			"source": "HboSR",
			"name": "Honey Slime",
			"size": [
				"S"
			],
			"type": "ooze",
			"alignment": [
				"U"
			],
			"ac": [
				{
					"ac": 10,
					"from": [
						"natural armor"
					]
				}
			],
			"hp": {
				"average": 21,
				"formula": "6d6"
			},
			"speed": {
				"walk": {
					"number": 20,
					"condition": "(equal to current hit points at least 5 ft.)"
				}
			},
			"str": 12,
			"dex": 6,
			"con": 10,
			"int": 2,
			"wis": 6,
			"cha": 8,
			"passive": null,
			"resist": [
				"force"
			],
			"conditionImmune": [
				"blinded",
				"charmed",
				"deafened",
				"exhaustion",
				"frightened",
				"prone"
			],
			"senses": [
				"blindsight 60 ft. (blind beyond this radius)"
			],
			"cr": "1/8",
			"trait": [
				{
					"name": "Rheopectic Hardening",
					"entries": [
						"粘液每回合第一次受到武力、重击、砍击或穿刺伤害时，其自然护甲的AC值会增加5。如果触发的伤害是武力，则额外增加5。一旦粘液的自然护甲AC值达到20，粘液就会（%0%）并恢复所有的命中率。"
					]
				}
			],
			"action": [
				{
					"name": "Glomp",
					"entries": [
						"目标必须做一个{@dc 11}的力量检查，否则粘液会被该生物视为{@condition grappled}。只有当目标或与目标相邻的生物使用行动将粘液拉开时，这种抓捕才会结束，这需要成功的（%2%）力量检查。如果目标已经被两个粘液抓住了，第三个粘液就会束缚住这个生物。如果粘液是（%3%），这些抓捕不会结束。"
					]
				}
			],
			"fluff": {
				"entries": [
					"{@b Slimeous Rheopecta}（小）。",
					"蜂蜜粘液是一种小流苏粘液。它很年轻，很天真，因此试图与任何可以拥抱的人拥抱。"
				]
			},
			"senseTags": [
				"B"
			]
		},
		{
			"source": "HboSR",
			"name": "Whip Slime",
			"size": [
				"M"
			],
			"type": "ooze",
			"alignment": [
				"U"
			],
			"ac": [
				13
			],
			"hp": {
				"average": 65,
				"formula": "10d8 + 20"
			},
			"speed": {
				"walk": 30
			},
			"str": 11,
			"dex": 16,
			"con": 14,
			"int": 2,
			"wis": 6,
			"cha": 1,
			"passive": null,
			"conditionImmune": [
				"blinded",
				"charmed",
				"deafened",
				"exhaustion",
				"frightened",
				"prone"
			],
			"senses": [
				"blindsight 60 ft. (blind beyond this radius)"
			],
			"cr": "1/2",
			"trait": [
				{
					"name": "Amorphous",
					"entries": [
						"粘液可以在1英寸宽的狭窄空间内移动而不被挤压。"
					]
				},
				{
					"name": "Spider Climb",
					"entries": [
						"粘液可以爬上困难的表面，包括倒立在天花板上，而不需要进行能力检查。"
					]
				},
				{
					"name": "Thixotropic acceleration",
					"entries": [
						"粘液每次攻击都会受到3（（%0%））的虚张声势伤害。如果粘液有一半的命中率或更少，对粘液的攻击卷轴将处于不利地位。"
					]
				}
			],
			"action": [
				{
					"name": "Multiattack",
					"entries": [
						"如果粘液有一半的命中率或更少，粘液可以用它的假肢进行两次攻击，假肢获得10英尺的距离。"
					]
				},
				{
					"name": "Pseudopod",
					"entries": [
						"{@atk mw} {@hit 6}击中，到达5英尺，一个目标。对目标造成{@h}6({@damage 1d6 + 3})重击伤害。"
					]
				}
			],
			"reaction": [
				{
					"name": "Unstable Matter (1/Day",
					"entries": [
						"当粘液受到的伤害会使它的命中率降至0时，它首先会获得10个临时命中率，持续到下一回合开始，并且必须对范围内的每个生物进行一次额外的pseduopod攻击。"
					]
				}
			],
			"fluff": {
				"entries": [
					"{@b Slimeous Thixotropia}:",
					"岩石粘液越强越弱，而鞭子粘液则越强。如果可能的话，请迅速杀死它们。"
				]
			},
			"senseTags": [
				"B"
			],
			"damageTags": [
				"B"
			],
			"miscTags": [
				"MW"
			],
			"traitTags": [
				"Amorphous",
				"Spider Climb"
			],
			"actionTags": [
				"Multiattack"
			]
		},
		{
			"source": "HboSR",
			"name": "Worm Slime",
			"size": [
				"S"
			],
			"type": "ooze",
			"alignment": [
				"U"
			],
			"ac": [
				{
					"ac": 14,
					"from": [
						"natural armor"
					]
				}
			],
			"hp": {
				"average": 63,
				"formula": "14d6 + 14"
			},
			"speed": {
				"walk": 35
			},
			"str": 15,
			"dex": 14,
			"con": 12,
			"int": 8,
			"wis": 6,
			"cha": 1,
			"passive": null,
			"conditionImmune": [
				"blinded",
				"charmed",
				"deafened",
				"exhaustion",
				"frightened",
				"prone"
			],
			"senses": [
				"blindsight 60 ft. (blind beyond this radius)"
			],
			"cr": "1",
			"trait": [
				{
					"name": "Amorphous",
					"entries": [
						"粘液可以在1英寸宽的狭窄空间内移动而不被挤压。"
					]
				},
				{
					"name": "Spider Climb",
					"entries": [
						"粘液可以爬上困难的表面，包括倒立在天花板上，而不需要进行能力检查。"
					]
				}
			],
			"action": [
				{
					"name": "Pseudopod",
					"entries": [
						"{@atk mw} {@hit 5} to hit, reach 5 ft., one target. {@h}9 ({@damage 2d6 + 2}) bludgeoning damage, and the target is {@condition grappled} (escape {@dc 12}), but can still move at half its speed. Until this grapple ends, the target is {@condition blinded}, and the slime can't use its psuedopod on another target."
					]
				},
				{
					"name": "Ingestion (Recharge 6)",
					"entries": [
						"粘液抓取的一个人形物体必须成功地进行一次{@dc 13}的力量储蓄，否则就会被粘液占有；粘液会消失在目标的喉咙里，而目标会被{@condition incapacitated}并失去对其身体的控制。粘液现在控制了身体，但并没有剥夺目标的意识。粘液不能被任何攻击、法术或其他效果所针对，它保留了智力、智慧、魅力，以及对被（%2%）和（%3%）的免疫力。除此之外，它还使用被附身的目标的统计资料，但不能获得目标的知识、类特性或专长的使用权。",
						"目标可以在每一回合与粘液进行力量较量，如果成功则使粘液失去能力。如果目标在一个回合中受到10次或更多的伤害，目标可以在该回合结束时做一个{@dc 14}宪法救赎来反刍粘液，粘液会出现在目标10英尺内的空间。"
					]
				}
			],
			"fluff": {
				"entries": [
					"{@b Slimeous Viscoelastia}:",
					"这些可怕的粘液会附着在你的头上，并流向你的喉咙。"
				]
			},
			"senseTags": [
				"B"
			],
			"damageTags": [
				"B"
			],
			"traitTags": [
				"Amorphous",
				"Spider Climb"
			],
			"conditionInflict": [
				"grappled",
				"blinded",
				"incapacitated"
			],
			"savingThrowForced": [
				"constitution",
				"strength"
			]
		},
		{
			"source": "HboSR",
			"name": "Bubble Slime",
			"size": [
				"S"
			],
			"type": "ooze",
			"alignment": [
				"U"
			],
			"ac": [
				{
					"ac": 10,
					"from": [
						"natural armor"
					]
				}
			],
			"hp": {
				"average": 20,
				"formula": "8d6 - 8"
			},
			"speed": {
				"walk": 25
			},
			"str": 11,
			"dex": 10,
			"con": 8,
			"int": 2,
			"wis": 6,
			"cha": 8,
			"passive": null,
			"conditionImmune": [
				"blinded",
				"charmed",
				"deafened",
				"exhaustion",
				"frightened",
				"prone"
			],
			"senses": [
				"blindsight 30 ft. (blind beyond this radius)"
			],
			"cr": "1/8",
			"action": [
				{
					"name": "Pseudopod",
					"entries": [
						"{@atk mw} {@hit 2} to hit, reach 5 ft., one target. {@h}2 ({@damage 1d4}) bludgeoning damage for every 10 hit points it has."
					]
				}
			],
			"reaction": [
				{
					"name": "Merge",
					"entries": [
						"如果伤害使粘液的命中率降至0，它必须做一个DC等于5加所受伤害的Dex蓄力动作。如果成功，该粘液会使它周围10英尺内的粘液的最大生命值增加10，并为其提供相同数量的治疗。"
					]
				}
			],
			"fluff": {
				"entries": [
					"{@b Slimeous Coagulata}（主要）。",
					"粘液有能力将其意识分散，以适应手头的情况。"
				]
			},
			"senseTags": [
				"B"
			],
			"damageTags": [
				"B"
			]
		},
		{
			"source": "HboSR",
			"name": "Pool Slime",
			"size": [
				"L"
			],
			"type": {
				"swarmSize": "S",
				"type": "ooze"
			},
			"alignment": [
				"U"
			],
			"ac": [
				7,
				{
					"ac": 13,
					"from": [
						"natural armor"
					]
				}
			],
			"hp": {
				"average": 82,
				"formula": "8d10 + 40"
			},
			"speed": {
				"walk": {
					"number": 35,
					"condition": "(15 ft.)"
				}
			},
			"str": 4,
			"dex": 16,
			"con": 20,
			"int": 2,
			"wis": 6,
			"cha": 8,
			"passive": null,
			"conditionImmune": [
				"blinded",
				"charmed",
				"deafened",
				"exhaustion",
				"frightened",
				"prone"
			],
			"senses": [
				"blindsight 30 ft. (blind beyond this radius)"
			],
			"cr": "2",
			"trait": [
				{
					"name": "Swarm Form",
					"entries": [
						"当它处于群居状态时，它可以占据另一个生物的空间，反之亦然，而且群居状态可以通过任何足以容纳小型粘液的开口移动。当它处于蜂群状态时，它对针对其整个空间的区域效应的蓄力失败，并获得对蓝光、穿刺和切割伤害的抵抗。"
					]
				},
				{
					"name": "Pool Form",
					"entries": [
						"当它变成单一的大型粘液时，它对穿透性武器有脆弱性，它的速度是15英尺，它的力量和灵巧被调换（也降低了它的AC）。"
					]
				}
			],
			"action": [
				{
					"name": "Multiattack",
					"entries": [
						"在蜂群状态下，它可以用它的假肢攻击进行2次攻击，一次改革。在池塘形态下，它可以进行一次假肢攻击，攻击范围为5英尺，一个目标。"
					]
				},
				{
					"name": "Reform",
					"entries": [
						"仅限虫群形式）。粘液从一群人中重新组合成一个大型粘液。任何在虫群空间中的生物必须做一个{@dc 12}灵巧的救赎动作。拯救成功时，该生物可以选择被推到5英尺后或被推到泥浆的一边。拯救失败时，该生物会受到10({@damage 3d6})的酸性伤害并被吞噬。",
						"被吞噬的生物不能呼吸，是{@condition restrained}，并在粘液的每个回合开始时受到21({@damage 6d6})酸液伤害。当粘液移动时，被吞噬的生物也随之移动。被吞噬的生物可以通过一个行动来尝试逃跑，做出一个{@dc 12}力量检查。如果成功，该生物就会逃脱并进入一个它所选择的距离粘液5英尺以内的空间。"
					]
				},
				{
					"name": "Pseudopod",
					"entries": [
						"{@atk mw} {@hit 5}击中。到达0英尺，粘液空间中的一个生物。{@h}9({@damage 2d6 + 3})蓝光伤害加上3({@damage 1d6})酸液伤害，如果是群居状态，并且有一半的命中率或更少，则是6({@damage 1d6 + 3})蓝光伤害。"
					]
				}
			],
			"reaction": [
				{
					"name": "Coagulate",
					"entries": [
						"当粘液被作为攻击目标时，它可以转换为群居形态。"
					]
				}
			],
			"fluff": {
				"entries": [
					"{@b Slimeous Coagulata}（小）。",
					"这些小家伙直到最近才被认为是属于一个不同的属（Slimeous plastibinghamia）。"
				]
			},
			"senseTags": [
				"B"
			],
			"damageTags": [
				"A"
			],
			"miscTags": [
				"MW"
			],
			"actionTags": [
				"Multiattack"
			],
			"conditionInflict": [
				"restrained"
			],
			"savingThrowForced": [
				"dexterity"
			]
		},
		{
			"source": "HboSR",
			"name": "Pounce Slime",
			"size": [
				"M"
			],
			"type": "ooze",
			"alignment": [
				"U"
			],
			"ac": [
				{
					"ac": 12,
					"from": [
						"natural armor"
					]
				}
			],
			"hp": {
				"average": 55,
				"formula": "10d8 + 10"
			},
			"speed": {
				"walk": 30
			},
			"str": 14,
			"dex": 15,
			"con": 13,
			"int": 2,
			"wis": 6,
			"cha": 8,
			"passive": null,
			"conditionImmune": [
				"blinded",
				"exhaustion",
				"prone"
			],
			"senses": [
				"blindsight 30 ft. (blind beyond this radius)"
			],
			"cr": "1",
			"trait": [
				{
					"name": "Leap",
					"entries": [
						"粘液可以进行站立长跳，最高可达30英尺，站立高跳，最高可达20英尺。它可以在空中使用它的Psuedopod攻击。如果它在移动了至少20英尺之后才这样做，大型或小型的目标必须成功地做一个灵巧的蓄力动作（{@dc 13}）。如果失败，目标会被粘液击倒（%1%）并被（%2%）。成功时，该生物被向后推10英尺。"
					]
				},
				{
					"name": "Agile",
					"entries": [
						"粘液可以使用一个额外的动作进行{@action dash}或{@action disengage}的行动。"
					]
				}
			],
			"action": [
				{
					"name": "Pseudopod",
					"entries": [
						"{@atk mw} {@hit 4}击中，到达5英尺，一个目标。{@h}7 ({@damage 1d10 + 2})重击伤害。"
					]
				}
			],
			"reaction": [
				{
					"name": "Run",
					"entries": [
						"如果有生物将粘液的命中率降低到0，它就会发出可怜的喵喵叫声。附近的粘液会受到适当的惊吓，并且可以选择使用他们的反应成为该生物的（%0%），持续一分钟。如果他们变成（1%），他们可以立即移动30英尺而不引起机会攻击。"
					]
				}
			],
			"fluff": {
				"entries": [
					"{@b Slimeous Meowiaia}:",
					"这种粘液真的很喜欢把你扑倒在地。奇怪的是，它也无法抗拒毛线球。"
				]
			},
			"senseTags": [
				"B"
			],
			"damageTags": [
				"B"
			],
			"miscTags": [
				"MW"
			],
			"conditionInflict": [
				"prone",
				"grappled"
			]
		},
		{
			"source": "HboSR",
			"name": "Boom Slime",
			"size": [
				"M"
			],
			"type": "ooze",
			"alignment": [
				"U"
			],
			"ac": [
				{
					"ac": 12,
					"from": [
						"natural armor"
					]
				}
			],
			"hp": {
				"average": 45,
				"formula": "10d8"
			},
			"speed": {
				"walk": 35
			},
			"str": 12,
			"dex": 6,
			"con": 10,
			"int": 2,
			"wis": 6,
			"cha": 8,
			"passive": null,
			"save": {
				"con": "+2"
			},
			"immune": [
				"fire"
			],
			"conditionImmune": [
				"blinded",
				"charmed",
				"deafened",
				"exhaustion",
				"prone"
			],
			"senses": [
				"blindsight 60 ft. (blind beyond this radius)"
			],
			"cr": "1/4",
			"trait": [
				{
					"name": "Warm Embrace",
					"entries": [
						"任何在繁荣粘液5英尺范围内开始他们的回合的生物都会受到3（（%0%））的火焰伤害。"
					]
				},
				{
					"name": "Uh oh",
					"entries": [
						"粘液看起来有点担心，如果它受到更多的伤害会发生什么。粘液专注于不爆炸，就像专注于一个咒语一样。如果它在被降低到0命中率之前失去了注意力，在它周围5英尺内的每个生物都必须成功地进行一次灵巧的蓄力，否则就会受到14（（%0%））的闪电伤害，并被推到10英尺后，降落（%1%）。粘液会自动失败，并被发射到一个随机的方向。"
					]
				}
			],
			"fluff": {
				"entries": [
					"{@b Slimeous newtonia}（小）。",
					"这种粘液并不想伤害你。它只是想要一个拥抱？它的所有朋友都死了。"
				]
			},
			"senseTags": [
				"B"
			],
			"damageTags": [
				"F"
			],
			"conditionInflict": [
				"prone"
			],
			"miscTags": [
				"AOE"
			]
		},
		{
			"source": "HboSR",
			"name": "Eye Slime",
			"size": [
				"M"
			],
			"type": "ooze",
			"alignment": [
				"U"
			],
			"ac": [
				{
					"ac": 13,
					"from": [
						"natural armor"
					]
				}
			],
			"hp": {
				"average": 32,
				"formula": "5d8 + 10"
			},
			"speed": {
				"walk": 30
			},
			"str": 11,
			"dex": 13,
			"con": 14,
			"int": 2,
			"wis": 16,
			"cha": 1,
			"passive": 15,
			"save": {
				"wis": "+6"
			},
			"skill": {
				"perception": "+5",
				"investigation": "+4"
			},
			"conditionImmune": [
				"charmed",
				"deafened",
				"exhaustion",
				"prone"
			],
			"languages": [
				"Telepathy 30 ft."
			],
			"cr": "1/4",
			"trait": [
				{
					"name": "Spider Climb",
					"entries": [
						"粘液可以爬上困难的表面，包括倒立在天花板上，而不需要进行能力检查。"
					]
				},
				{
					"name": "Keen Sight",
					"entries": [
						"粘液在依靠视觉的智慧（感知）检查中具有优势，并且可以将搜索动作作为一个额外动作。"
					]
				}
			],
			"action": [
				{
					"name": "Pseudopod",
					"entries": [
						"{@atk mw} {@hit 3}击中，到达5英尺，一个目标。对目标造成{@h}6({@damage 1d6 + 3})重击伤害。"
					]
				},
				{
					"name": "Don't Blink",
					"entries": [
						"粘液可以将它的目光集中在一个敌人身上，赋予它可以看到的一个生物的真实视力，这个视力持续到粘液失去视线或受到伤害为止。任何能与眼睛粘液进行心灵感应的粘液在对眼睛粘液有真实视力的生物进行攻击时都有优势。"
					]
				}
			],
			"fluff": {
				"entries": [
					"{@b Slimeous Oculous}:",
					"这种粘液的目光很凶狠。在粘液社会中，人们误以为它们是哨兵，而实际上它们只是在寻找朋友。"
				]
			},
			"damageTags": [
				"B"
			],
			"miscTags": [
				"MW"
			],
			"traitTags": [
				"Keen Senses",
				"Spider Climb"
			]
		},
		{
			"source": "HboSR",
			"name": "Chain Slime",
			"size": [
				"S"
			],
			"type": "ooze",
			"alignment": [
				"U"
			],
			"ac": [
				12
			],
			"hp": {
				"average": 50,
				"formula": "11d6 + 11"
			},
			"speed": {
				"walk": 20
			},
			"str": 15,
			"dex": 14,
			"con": 12,
			"int": 8,
			"wis": 6,
			"cha": 1,
			"passive": null,
			"conditionImmune": [
				"blinded",
				"charmed",
				"deafened",
				"exhaustion",
				"frightened",
				"prone"
			],
			"senses": [
				"blindsight 60 ft. (blind beyond this radius)"
			],
			"cr": "1/2",
			"trait": [
				{
					"name": "Amorphous",
					"entries": [
						"粘液可以在1英寸宽的狭窄空间内移动而不被挤压。"
					]
				},
				{
					"name": "Spider Climb",
					"entries": [
						"粘液可以爬上困难的表面，包括倒立在天花板上，而不需要进行能力检查。"
					]
				},
				{
					"name": "Coordinated Slim",
					"entries": [
						"该粘液在它5英尺范围内的链状粘液中主动性最高。对该链状黏液造成的伤害由5英尺范围内HP值最高的链状黏液承担。如果至少有两个链状黏液在该生物的5英尺范围内，并且该黏液没有（%0%），则该黏液在对该生物的攻击卷中具有优势。"
					]
				}
			],
			"action": [
				{
					"name": "Pseudopod",
					"entries": [
						"{@atk mw} {@hit 4}击中，到达10英尺，一个目标。{@h}9 ({@damage 2d6 + 2})重击伤害，目标是{@condition grappled}(逃脱{@dc 12})，并被拉动5英尺。"
					]
				}
			],
			"reaction": [
				{
					"name": "Huddle",
					"entries": [
						"如果这个粘液在5英尺范围内有至少两个链状粘液，它可以聚集在一起，以减少需要它做出灵巧判断的效果的伤害。 如果该粘液受到的效果允许它进行蓄力投掷，只受到一半的伤害，那么如果蓄力投掷成功，它就不会受到伤害，如果失败，它就只会受到一半的伤害。"
					]
				}
			],
			"fluff": {
				"entries": [
					"{@b Slimeous Psuedopod}:",
					"一个粘液还是几个？这个人说不上来。当然，它喜欢围绕着你。"
				]
			},
			"senseTags": [
				"B"
			],
			"damageTags": [
				"B"
			],
			"miscTags": [
				"MW",
				"RCH"
			],
			"traitTags": [
				"Amorphous",
				"Spider Climb"
			],
			"conditionInflict": [
				"grappled"
			]
		},
		{
			"source": "HboSR",
			"name": "Pudding Slime",
			"size": [
				"M"
			],
			"type": "ooze",
			"alignment": [
				"U"
			],
			"ac": [
				{
					"ac": 14,
					"from": [
						"natural armor"
					]
				}
			],
			"hp": {
				"average": 85,
				"formula": "13d8 + 26"
			},
			"speed": {
				"walk": 20
			},
			"str": 15,
			"dex": 10,
			"con": 14,
			"int": 18,
			"wis": 6,
			"cha": 1,
			"passive": null,
			"conditionImmune": [
				"blinded",
				"deafened",
				"exhaustion",
				"prone"
			],
			"senses": [
				"blindsight 60 ft. (blind beyond this radius)",
				"tremorsense 5 ft."
			],
			"languages": [
				"Deep Speak"
			],
			"cr": "1",
			"trait": [
				{
					"name": "Fluid Channel",
					"entries": [
						"如果盟友粘液在任何布丁粘液所占据的空间中开始，他们可以使用5英尺的移动距离，移动到任何布丁粘液所占据的空间。"
					]
				}
			],
			"action": [
				{
					"name": "Psuedopod. (flat form only",
					"entries": [
						"{@atk mw}{@hit 4}击中，达到0英尺，粘液空间内的一个目标。{@h}9 ({@damage 2d6 + 2})重击伤害，目标会受到{@condition grappled}(逃跑{@dc 14})和推搡{@condition prone}。如果目标已经被粘液{@condition grappled}，只要他们与粘液占据同一空间，他们就会被{@condition restrained}。"
					]
				},
				{
					"name": "Melt",
					"entries": [
						"粘液会融化成一个水坑。在平坦的状态下，粘液的速度是5英尺，它的大小变成了巨大的（占据9个5x5英尺的方块），并且占据了整个空间。其他生物可以进入这个空间，但这样做的生物会触发一个有利的机会攻击。",
						"对扁平形态的粘液进行的攻击是在一个5英尺乘5英尺的区段上进行的，在粘液的该部分被摧毁之前，最多可以造成10次伤害。该空间内的任何生物（%0%）或（%1%）都会被释放，并且该空间在粘液的下一回合开始前不被视为粘液的空间。"
					]
				}
			],
			"fluff": {
				"entries": [
					"{@b Slimeous molda}:",
					"这种粘液有一种奇怪的能力，它可以变平--成为其他粘液的微流控管道"
				]
			},
			"senseTags": [
				"B",
				"T"
			],
			"damageTags": [
				"B"
			],
			"miscTags": [
				"MW"
			],
			"conditionInflict": [
				"grappled"
			]
		},
		{
			"source": "HboSR",
			"name": "Slime Fly",
			"size": [
				"L"
			],
			"type": "ooze",
			"alignment": [
				"U"
			],
			"ac": [
				{
					"ac": 13,
					"from": [
						"natural armor"
					]
				}
			],
			"hp": {
				"average": 45,
				"formula": "10d10"
			},
			"speed": {
				"walk": 30,
				"fly": {
					"number": 30,
					"condition": "(hover)"
				}
			},
			"str": 11,
			"dex": 14,
			"con": 11,
			"int": 2,
			"wis": 6,
			"cha": 8,
			"passive": null,
			"conditionImmune": [
				"blinded",
				"charmed",
				"deafened",
				"exhaustion",
				"frightened",
				"prone"
			],
			"senses": [
				"blindsight 30 ft. (blind beyond this radius)"
			],
			"cr": "1/2",
			"trait": [
				{
					"name": "Compatible Rheology",
					"entries": [
						"粘液可以携带4个中等或较小的粘液，这些粘液与粘液虫占据相同的空间，并具有完全的覆盖性。"
					]
				}
			],
			"action": [
				{
					"name": "Eject",
					"entries": [
						"{@atk rw} {@hit 4} to hit. Range 20/40 ft. If available, a slime that the Slime Fly is carrying lands within 5 feet of the target of the attack.  {@h}6 ({@damage 1d8 + 2}) blugeoning damage and that slime can use its reaction to make an pseudopod attack if it has one."
					]
				}
			],
			"fluff": {
				"entries": [
					"{@b Slimeous boyanta}",
					"如果一个会飞的粘液还不够糟糕，它还会把粘液热滴到你的脸上。愉快地。它的首选弹药是水晶粘液，否则它很难靠近你进行集体拥抱。"
				]
			},
			"senseTags": [
				"B"
			]
		},
		{
			"source": "HboSR",
			"name": "Crystal Slime",
			"size": [
				"S"
			],
			"type": "ooze",
			"alignment": [
				"U"
			],
			"ac": [
				10,
				{
					"ac": 15,
					"from": [
						"natural armor"
					]
				}
			],
			"hp": {
				"average": 55,
				"formula": "10d6 + 20"
			},
			"speed": {
				"walk": 35
			},
			"str": 13,
			"dex": 9,
			"con": 15,
			"int": 2,
			"wis": 6,
			"cha": 8,
			"passive": null,
			"conditionImmune": [
				"blinded",
				"charmed",
				"deafened",
				"exhaustion",
				"frightened",
				"prone"
			],
			"senses": [
				"blindsight 30 ft. (blind beyond this radius)"
			],
			"cr": "2",
			"trait": [
				{
					"name": "Hard shell",
					"entries": [
						"粘液在每个回合开始时获得10个临时命中点。当它拥有这些命中率时，粘液拥有对魔法伤害的抵抗力和+5的攻击力。"
					]
				}
			],
			"action": [
				{
					"name": "Pseudopod",
					"entries": [
						"{@atk mw} {@hit 5} to hit, reach 5 ft., all targets in range. {@h}9 ({@damage 2d6 + 2}) piercing damage."
					]
				}
			],
			"fluff": {
				"entries": [
					"{@b Slimeous crystalin}",
					"如果一个会飞的粘液还不够糟糕，它还会把粘液热滴到你的脸上。愉快地。它的首选弹药是水晶粘液，否则它很难靠近你进行集体拥抱。"
				]
			},
			"senseTags": [
				"B"
			],
			"damageTags": [
				"P"
			]
		},
		{
			"source": "HboSR",
			"name": "Rad Slime",
			"size": [
				"M"
			],
			"type": "ooze",
			"alignment": [
				"U"
			],
			"ac": [
				{
					"ac": 12,
					"from": [
						"natural armor"
					]
				}
			],
			"hp": {
				"average": 65,
				"formula": "10d8 + 20"
			},
			"speed": {
				"walk": 25
			},
			"str": 13,
			"dex": 15,
			"con": 13,
			"int": 2,
			"wis": 6,
			"cha": 8,
			"passive": null,
			"conditionImmune": [
				"blinded",
				"charmed",
				"deafened",
				"exhaustion",
				"frightened",
				"prone"
			],
			"senses": [
				"blindsight 30 ft. (blind beyond this radius)"
			],
			"cr": "1",
			"trait": [
				{
					"name": "Amorphous",
					"entries": [
						"粘液可以在1英寸宽的狭窄空间内移动而不被挤压。"
					]
				},
				{
					"name": "Spider Climb",
					"entries": [
						"粘液可以爬上困难的表面，包括倒立在天花板上，而不需要进行能力检查。"
					]
				},
				{
					"name": "Debilitating Aura",
					"entries": [
						"非粘液的生物如果在粘液的10英尺范围内开始他们的回合，必须用{@dc 13}体质救赎，否则获得{@condition exhaustion}的等级。一旦该生物离开该特性的范围，通过该特性获得的所有等级（%2%）都会消失。"
					]
				}
			],
			"action": [
				{
					"name": "Pseudopod",
					"entries": [
						"{@atk mw} {@hit 4}击中，到达5英尺，一个目标。{@h}6 ({@damage 2d6})火焰伤害和6 ({@damage 2d6})辐射伤害。"
					]
				}
			],
			"fluff": {
				"entries": [
					"{@b Slimeous Curian}:",
					"这种粘液会发出一种阴森的光环，抽走周围人的意志。史莱姆似乎很奇怪地没有受到影响。"
				]
			},
			"senseTags": [
				"B"
			],
			"damageTags": [
				"F",
				"R"
			],
			"miscTags": [
				"MW"
			],
			"traitTags": [
				"Amorphous",
				"Spider Climb"
			],
			"conditionInflict": [
				"exhaustion"
			],
			"savingThrowForced": [
				"constitution"
			]
		},
		{
			"source": "HboSR",
			"name": "Tar Slime",
			"size": [
				"L"
			],
			"type": "ooze",
			"alignment": [
				"C",
				"E"
			],
			"ac": [
				14
			],
			"hp": {
				"average": 133,
				"formula": "12d10 + 56"
			},
			"speed": {
				"walk": 10
			},
			"str": 17,
			"dex": 15,
			"con": 18,
			"int": 8,
			"wis": 8,
			"cha": 16,
			"passive": null,
			"conditionImmune": [
				"blinded",
				"charmed",
				"deafened",
				"exhaustion",
				"frightened",
				"prone"
			],
			"senses": [
				"blindsight 60 ft. (blind beyond this radius)"
			],
			"cr": "3",
			"trait": [
				{
					"name": "Slime Bane",
					"entries": [
						"所有其他的史莱姆都是{@condition frightened}的焦油史莱姆，即使他们对该状况有免疫力。"
					]
				},
				{
					"name": "Death Tar",
					"entries": [
						"粘液内的生物从外面看不到，有完全的掩护，是{@condition blinded}，并且是{@condition grappled}（逃跑{@dc 15}）。在粘液5英尺范围内的生物可以采取行动将一个生物或物体拉出粘液。这样做需要一个成功的{@dc 12}力量检查，并且尝试的生物会受到10({@damage 3d6})的坏死伤害。在粘液中开始其回合的生物，在其每个回合结束时开始进行死亡拯救。他们在掷出20分时不会获得一个命中点，而当他们会变得稳定时，效果就会结束。"
					]
				},
				{
					"name": "Terrible Agglomeration",
					"entries": [
						"受到死亡焦油效果的粘液会突然死亡，而焦油粘液会获得该粘液的特性、感觉、行动、速度和反应。焦油粘液会获得目标的一半命中率作为临时命中率。通过此特性获得的任何特性，它的攻击力不能超过15。"
					]
				}
			],
			"action": [
				{
					"name": "Multiattack",
					"entries": [
						"粘液对不同的目标进行3次Slag攻击，并可以采取Slough行动。"
					]
				},
				{
					"name": "Slag",
					"entries": [
						"{@atk mw,rw}{@hit 5}击中，到达5英尺，范围20英尺，一个目标或一个5英尺乘5英尺的地形区域。{@h}7 ({@damage 1d8 + 3})重击伤害，目标必须做一个{@dc 15}灵巧救赎，否则会被{@condition grappled}拉向粘液，如果它在5英尺内开始，则被拉入粘液。如果没有击中或者目标是地形，粘液会被拉到离目标10英尺的地方。"
					]
				},
				{
					"name": "Slough",
					"entries": [
						"受到20个不可还原的伤害，并消除影响粘液的任何负面条件。"
					]
				}
			],
			"fluff": {
				"entries": [
					"{@b Slimeous Tartartar}:",
					"这种邪恶的粘液是其他人的祸根，他们像躲避瘟疫一样躲避它。我想知道为什么？"
				]
			},
			"senseTags": [
				"B"
			],
			"damageTags": [
				"B",
				"N"
			],
			"miscTags": [
				"RW",
				"MW"
			],
			"actionTags": [
				"Multiattack"
			],
			"conditionInflict": [
				"grappled"
			],
			"savingThrowForced": [
				"dexterity"
			]
		}
	],
	"table": [
		{
			"name": "Encounter Table",
			"source": "HboSR",
			"colLabels": [
				"#",
				"Environment and notes",
				"Coposition",
				"Exp"
			],
			"intro": [
				{
					"type": "list",
					"name": "How to use",
					"items": [
						"[邂逅#] = {@dice 2d4} + 队伍中的总PC等级。",
						"你每掷一次骰子，就会深入到水晶洞窟。到目前为止，你每次遇到的情况都会在你的卷轴上加一个+1。",
						"没有长时间的休息。偶数的卷轴意味着在遭遇之后，它是一个适合短暂休息的地点。",
						"经过3次滚动，你的深度足以遇到塔尔。如果你的totall卷是15，或26-31，就用Tar的成分。"
					]
				}
			],
			"rows": [
				[
					"7",
					"向下倾斜的平坦巷道",
					"3 x {@creature Bubble Slime|HboSR}/{@creature Honey Slime|HboSR}",
					"150"
				],
				[
					"8",
					"充满钟乳石的房间",
					"2 x {@creature Boom Slime|HboSR}",
					"150"
				],
				[
					"9",
					"隧道向下倾斜，然后又向上倾斜--死水潭",
					"4 x {@creature Bubble Slime|HboSR}/{@creature Honey Slime|HboSR}",
					"200"
				],
				[
					"10",
					"开阔的房间，中间是粗壮的石笋",
					"1 x {@creature Worm Slime|HboSR}/{@creature Pounce Slime|HboSR}/{@creature Pudding Slime|HboSR}/{@creature Rad Slime|HboSR}",
					"200"
				],
				[
					"11",
					"隧道向下倾斜，然后又向上倾斜--死水潭",
					"3 x {@creature Bubble Slime|HboSR}, 1 x {@creature Fly Slime|HboSR}/{@creature Eye Slime|HboSR}",
					"250"
				],
				[
					"12",
					"从壁架上落下，进入一个相对平坦的凹地。",
					"2 x {@creature Bubble Slime|HboSR}, 1 x {@creature Rock Slime|HboSR}/{@creature Whip Slime|HboSR}",
					"300"
				],
				[
					"13",
					"隧道里的死胡同",
					"2 x {@creature Rock Slime|HboSR}/{@creature Whip Slime|HboSR}",
					"300"
				],
				[
					"14",
					"宽大的房间里有许多粗壮的石笋和一条凸起的道路",
					"3 x {@creature Eye Slime|HboSR}",
					"300"
				],
				[
					"15",
					"锐利的螺旋式坡道，中央区域开阔",
					{
						"type": "list",
						"items": [
							"1 x {@creature Eye Slime|HboSR}, 4 x {@creature Honey Slime|HboSR}, 1 x {@creature Fly Slime|HboSR}",
							"1 x {@creature Tar Slime|HboSR}"
						]
					},
					{
						"type": "list",
						"items": [
							"400",
							"700"
						]
					}
				],
				[
					"16",
					"房间中间有一只孤独的粘液（（%0%）藏起来了）",
					"1 x {@creature Pounce Slime|HboSR}, 1 x {@creature Rock Slime|HboSR}",
					"450"
				],
				[
					"17",
					"通道狭窄，挤过一个地洞",
					"1 x {@creature Crystal Slime|HboSR}/{@creature Pool Slime|HboSR}",
					"450"
				],
				[
					"18",
					"有石桥的大房间（10英尺宽），两侧有支架",
					"2 x {@creature Bubble Slime|HboSR}, 1 x {@creature Pounce Slime|HboSR}",
					"500"
				],
				[
					"19",
					"墙壁和天花板上有几个小的滑道（粘液会出来）。",
					"3 x {@creature Rock Slime|HboSR}/{@creature Whip Slime|HboSR}",
					"600"
				],
				[
					"20",
					"长长的通道，有薄薄的面纱般的柱子",
					"2 x {@creature Worm Slime|HboSR}/{@creature Pounce Slime|HboSR}",
					"600"
				],
				[
					"21",
					"通道狭窄，但有倾斜的墙壁和高高的天花板",
					"1 x {@creature Crystal Slime|HboSR}, 1 x {@creature Fly Slime|HboSR}",
					"750"
				],
				[
					"22",
					"巨大的沟壑，中间是圆形的高原",
					"5 x {@creature Honey Slime|HboSR}, 5 x {@creature Bubble Slime|HboSR}",
					"750"
				],
				[
					"23",
					"宽阔的隧道，靠近两侧有几根柱子",
					"4 x {@creature Whip Slime|HboSR}/{@creature Chain Slime|HboSR}",
					"800"
				],
				[
					"24",
					"鸿沟中的浮岛，上面有一座桥可以通行",
					"4 x {@creature Bubble Slime|HboSR}, 4 x {@creature Honey Slime|HboSR}, 2 x {@creature Fly Slime|HboSR}",
					"900"
				],
				[
					"25",
					"很少有石笋，有浓浓的雾气",
					"2 x {@creature Pounce Slime|HboSR}, 2 x {@creature Eye Slime|HboSR}",
					"1000"
				],
				[
					"26",
					"有几个优雅的自然拱门的开放区域",
					{
						"type": "list",
						"items": [
							"2 x {@creature Worm Slime|HboSR}/{@creature Pounce Slime|HboSR}, 4 x {@creature Bubble Slime|HboSR}",
							"1 x {@creature Tar Slime|HboSR}, 1 x {@filter CR 1/8 slime|bestiary|challenge rating=[&0;&1/8]|type=ooze|miscellaneous=!swarm}"
						]
					},
					{
						"type": "list",
						"items": [
							"1000",
							"1088"
						]
					}
				],
				[
					"27",
					"壮观的鸿沟与瀑布，路径是一个壁架",
					{
						"type": "list",
						"items": [
							"5 x {@creature Bubble Slime|HboSR}, 1 x {@creature Pool Slime|HboSR}",
							"1 x {@creature Tar Slime|HboSR}, 1 x {@filter CR 1/4 slime|bestiary|challenge rating=[&0;&1/4]|type=ooze|miscellaneous=!swarm}"
						]
					},
					{
						"type": "list",
						"items": [
							"1150",
							"1125"
						]
					}
				],
				[
					"28",
					"天花板上有孔的球形空腔",
					{
						"type": "list",
						"items": [
							"6 x {@creature Whip Slime|HboSR}/{@creature Chain Slime|HboSR}",
							"1 x {@creature Tar Slime|HboSR}, 1 x {@filter CR 1/2 slime|bestiary|challenge rating=[&0;&1/2]|type=ooze|miscellaneous=!swarm}"
						]
					},
					{
						"type": "list",
						"items": [
							"1200",
							"1200"
						]
					}
				],
				[
					"29",
					"找到一个有水池的粘液筑巢区",
					{
						"type": "list",
						"items": [
							"2 x {@creature Crystal Slime|HboSR}/{@creature Pool Slime|HboSR}",
							"1 x {@creature Tar Slime|HboSR}, 1 x {@filter CR 1 slime|bestiary|challenge rating=[&0;&1]|type=ooze|miscellaneous=!swarm}"
						]
					},
					{
						"type": "list",
						"items": [
							"1350",
							"1350"
						]
					}
				],
				[
					"30",
					"一个巨大的大厅，有一个临时的石桌",
					{
						"type": "list",
						"items": [
							"3 x {@creature Worm Slime|HboSR}, 3 x {@creature Boom Slime|HboSR}",
							"1 x {@creature Tar Slime|HboSR}, 1 x {@filter CR 2 slime|bestiary|challenge rating=[&0;&2]|type=ooze|miscellaneous=!swarm}"
						]
					},
					{
						"type": "list",
						"items": [
							"1500",
							"1550"
						]
					}
				],
				[
					"31",
					"巨大的鸿沟，有一座通往浮岛的陆桥",
					{
						"type": "list",
						"items": [
							"1 x {@creature Pudding Slime|HboSR}, 3 x {@creature Pounce Slime|HboSR}",
							"1 x {@creature Tar Slime|HboSR}, 1 x {@filter CR 1/4th slime|bestiary|challenge rating=[&0;&1/4]|type=ooze|miscellaneous=!swarm}, 1 x {@filter CR 1/8th slime|bestiary|challenge rating=[&0;&1/8]|type=ooze|miscellaneous=!swarm}"
						]
					},
					{
						"type": "list",
						"items": [
							"1600",
							"1725"
						]
					}
				]
			],
			"outro": [
				{
					"type": "list",
					"name": "Rewards",
					"items": [
						"收集马赛克史莱姆，价值250金币（以金币奖励），食用后可获得治疗药水的效果。",
						"杀死{@creature Tar Slime|HboSR}可以获得1000金币的赏金（除非你到了4级，否则不太可能这么做），并随机获得一只粘液作为宠物。岩石史莱姆通常是最好的宠物，但你可以自由选择任何宠物。",
						"在1级或2级时，你在洞穴中跑完后获得一个等级。在3级或4级时，你在击败{@creature Tar Slime|HboSR}后获得等级。"
					]
				}
			]
		}
	]
}
