{
	"$schema": "https://raw.githubusercontent.com/TheGiddyLimit/5etools-utils/master/schema/brew-fast/homebrew.json",
	"_meta": {
		"sources": [
			{
				"json": "COMUndeadLegendary",
				"abbreviation": "COMUndeadLegendary",
				"full": "Community Undead Legendary Collection",
				"authors": [
					"A collection derived from the web community (Reddit,Pinterest,DmsGuild,ecc.). For credits, authors are provided with a web link in the entity description"
				],
				"convertedBy": [
					"p4535992"
				],
				"version": "2021.09.27",
				"url": "https://github.com/TheGiddyLimit/homebrew",
				"targetSchema": "1.7.0"
			}
		],
		"dateAdded": 1632778501,
		"dateLastModified": 1673562612,
		"_dateLastModifiedHash": "273060eedb"
	},
	"monster": [
		{
			"name": "Little girl",
			"page": 0,
			"size": [
				"M"
			],
			"type": {
				"type": "undead",
				"tags": [
					"shapechanger",
					"vampire"
				]
			},
			"source": "COMUndeadLegendary",
			"alignment": [
				"L",
				"E"
			],
			"ac": [
				{
					"ac": 16,
					"from": [
						"Natural Armor"
					]
				}
			],
			"hp": {
				"average": 23,
				"formula": "5d8"
			},
			"speed": {},
			"str": 18,
			"dex": 18,
			"con": 18,
			"int": 17,
			"wis": 15,
			"cha": 18,
			"save": {
				"dex": "+6",
				"wis": "+4",
				"cha": "+6"
			},
			"skill": {
				"perception": "+4",
				"stealth": "+6"
			},
			"senses": [
				"Darkvision 120 Ft.",
				"passive Perception 17"
			],
			"passive": 10,
			"languages": [
				"Common"
			],
			"trait": [
				{
					"name": "Shapechanger",
					"entries": [
						"如果小女孩不在阳光下或流水中，它可以用它的行动来多态化成一只小蝙蝠或一团中等大小的雾气，或回到它的真实形态。在蝙蝠形态下，小女孩不能说话，其行走速度为5英尺，飞行速度为30英尺。除了体型和速度之外，它的统计数据没有变化。它所穿戴的任何东西都会随着它而改变，但它所携带的任何东西都不会改变。如果它死了，就会恢复到它的真实形态。在雾状状态下，小女孩不能采取任何行动，不能说话，也不能操纵物体。它没有重量，有20英尺的飞行速度，可以盘旋，并且可以进入一个敌对生物的空间并停在那里。此外，如果空气可以通过一个空间，雾气可以不受挤压地通过，它不能通过水。它在力量、灵巧和体质方面有优势，对所有非魔法伤害免疫，除了阳光的伤害。"
					]
				},
				{
					"name": "Legendary Resistance (3/Day)",
					"entries": [
						"如果小女孩拯救失败，它可以选择成功代替。"
					]
				},
				{
					"name": "Misty Escape",
					"entries": [
						"When it drops to 0 hit points outside its resting place, the little girl transforms into a cloud of mist (as in the Shapechanger trait) instead of falling unconscious, provided that it isn't in sunlight or running water. If it can't transform, it is destroyed.",
						"While it has 0 hit points in mist form, it can't revert to its the little girl form, and it must reach its resting place within 2 hours or be destroyed. Once in its resting place, it reverts to its the little girl form. It is then paralyzed until it regains at least 1 hit point. After spending 1 hour in its resting place with 0 hit points, it regains 1 hit point."
					]
				},
				{
					"name": "Regeneration",
					"entries": [
						"如果小女孩至少有1个命中率，并且不在阳光下或流水中，则在其回合开始时重新获得20点命中率。如果小女孩受到辐射伤害或圣水伤害，这个特性在小女孩的下一个回合开始时不会发挥作用。"
					]
				},
				{
					"name": "Spider Climb",
					"entries": [
						"小女孩可以爬上困难的表面，包括倒立在天花板上，而不需要进行能力检查。"
					]
				},
				{
					"name": "Vampire Weakness",
					"entries": [
						"这个小女孩有以下缺陷。",
						{
							"type": "list",
							"items": [
								"{@i Forbiddance.}没有住户之一的邀请，小女孩不能进入住宅。",
								"{@i Harmed by Running Water.}小女孩在流水中结束她的回合时，会受到20个酸性伤害。",
								"{@i Stake to the Heart.}小女孩在休息的时候，如果用木头做的穿心武器刺入她的心脏，她就会被摧毁，直到木桩被移走为止，她会被{@condition paralyzed}。",
								"{@i Sunlight Hypersensitivity.} 小女孩在阳光下开始她的回合时，会受到20个辐射伤害。在阳光下时，她在攻击卷和能力检查上有劣势。"
							]
						}
					]
				}
			],
			"action": [
				{
					"name": "Multiattack (Vampire Form Only)",
					"entries": [
						"吸血鬼进行两次攻击，其中只有一次可以是咬人攻击。"
					]
				},
				{
					"name": "Unarmed Strike",
					"entries": [
						"{@atk mw} +6 to hit, reach 5 ft., one target. Hit: 6 (1d8 + 4) piercing damage."
					]
				},
				{
					"name": "Bite",
					"entries": [
						"{@atk mw} +6 to hit, reach 5 ft., one target. Hit: 6 (1d6 + 4) piercing damage plus 10 (3d6) necrotic damage."
					]
				},
				{
					"name": "Charm",
					"entries": [
						"吸血鬼的目标是它在30英尺内能看到的一个人形生物。如果目标能看到吸血鬼，那么目标必须在DC17智慧救赎中成功对抗这个魔法，否则就会被吸血鬼迷住。被魅惑的目标会将吸血鬼视为一个值得信赖的朋友，并加以注意和保护。虽然目标不在吸血鬼的控制之下，但它会以最有利的方式接受吸血鬼的要求或行动，而且它是吸血鬼的咬人攻击的自愿目标。每次吸血鬼或吸血鬼的同伴对目标做了任何有害的事情，它都可以重复蓄力，如果成功则结束对自己的影响。否则，该效果将持续24小时，或直到吸血鬼被消灭，与目标处于不同的存在平面，或采取额外行动来结束该效果。"
					]
				},
				{
					"name": "Children of the Night (1/Day)",
					"entries": [
						"只要太阳还没有升起，吸血鬼就会神奇地召唤2D4群蝙蝠或老鼠。在户外时，吸血鬼可以召唤3d6只狼来代替。被召唤的生物在1d4个回合内到达，作为吸血鬼的盟友并服从它的命令。这些野兽会停留1小时，直到吸血鬼死亡，或者直到吸血鬼以额外行动的方式将它们解散。"
					]
				}
			],
			"legendary": [
				{
					"name": "Move",
					"entries": [
						"吸血鬼按其速度移动，不会引起机会攻击。"
					]
				},
				{
					"name": "Unarmed Strike",
					"entries": [
						"吸血鬼进行一次徒手攻击。"
					]
				},
				{
					"name": "Bite (Costs 2 Actions)",
					"entries": [
						"吸血鬼进行一次咬合攻击。"
					]
				}
			],
			"traitTags": [
				"Legendary Resistances",
				"Regeneration",
				"Shapechanger",
				"Spider Climb"
			],
			"actionTags": [
				"Multiattack"
			],
			"fluff": {
				"entries": [
					"{@link Little Girl|https://critterdb.com/#/publishedbestiary/view/5e8281aba7e7611f3fc29a94}"
				],
				"images": [
					{
						"type": "image",
						"href": {
							"type": "external",
							"url": "https://i.imgur.com/PqDC2id.jpg"
						}
					}
				]
			},
			"tokenUrl": "https://i.imgur.com/la8jvBh.png"
		}
	]
}
