{
	"_meta": {
		"sources": [
			{
				"json": "MagicMoonSorcerer",
				"abbreviation": "MMS",
				"full": "Magic Moon Sorcerer",
				"url": "https://www.dmsguild.com/product/289610/Magic-Moon-Sorcerer",
				"authors": [
					"Actual Jake"
				],
				"convertedBy": [
					"cadowtin"
				],
				"version": "1.0"
			}
		],
		"status": "wip",
		"dateAdded": 1652739335,
		"dateLastModified": 1671544279,
		"_dateLastModifiedHash": "635801700d"
	},
	"subclass": [
		{
			"name": "Magical Moon",
			"page": 1,
			"source": "MagicMoonSorcerer",
			"shortName": "Magic Moon",
			"className": "Sorcerer",
			"classSource": "PHB",
			"subclassFeatures": [
				"Celestial Protector|Sorcerer||Magic Moon|MagicMoonSorcerer|1",
				"Magical Gift: Celestial Rod|Sorcerer||Magic Moon|MagicMoonSorcerer|6",
				"Magical Gift: Scepter of Lunia|Sorcerer||Magic Moon|MagicMoonSorcerer|14",
				"Love & Justice|Sorcerer||Magic Moon|MagicMoonSorcerer|18"
			],
			"subclassSpells": [
				"Radiant Tiara|TMM",
				"Sugarheart|TMM",
				"Sonic Cry|TMM",
				"Celestial Blast|TMM",
				"Chain of Hearts|TMM",
				"Burning Bow|TMM",
				"Silverblade|TMM",
				"Zephyr of Petals|TMM",
				"Mandala of Embers|TMM",
				"Flash Freeze|TMM",
				"Thunder Dragon|TMM",
				"Earth Rend|TMM"
			]
		}
	],
	"subclassFeature": [
		{
			"name": "Celestial Protector",
			"source": "MagicMoonSorcerer",
			"className": "Sorcerer",
			"classSource": "PHB",
			"subclassShortName": "Magic Moon",
			"subclassSource": "MagicMoonSorcerer",
			"page": 2,
			"level": 1,
			"entries": [
				"你的先天魔法是通过与来自天山的伟大战士的直系血缘关系而被赋予的。有些天体保护者甚至声称自己是这些战士的真正转世，而这些守护者的故事可以追溯到各个时代。这些力量直到14岁生日时才显示出来，新的保护者从一个会说话的动物向导那里获得了他们的魔法，通常赋予孩子许多魔法礼物中的第一个。这些动物立即成为新的守护者的伙伴，并献身于一生的服务。",
				{
					"type": "refSubclassFeature",
					"subclassFeature": "Animal Guide|Sorcerer||Magic Moon|MagicMoonSorcerer|1"
				},
				{
					"type": "refSubclassFeature",
					"subclassFeature": "Magical Gifts|Sorcerer||Magic Moon|MagicMoonSorcerer|1"
				},
				{
					"type": "refSubclassFeature",
					"subclassFeature": "Bonus Cantrip|Sorcerer||Magic Moon|MagicMoonSorcerer|1"
				}
			]
		},
		{
			"name": "Animal Guide",
			"source": "MagicMoonSorcerer",
			"className": "Sorcerer",
			"classSource": "PHB",
			"subclassShortName": "Magic Moon",
			"subclassSource": "MagicMoonSorcerer",
			"page": 2,
			"level": 1,
			"header": 1,
			"entries": [
				"从1级开始，当你选择天神守护者的起源时，你会得到（%0%）的法术。这个法术不计入你的已知法术。你可以在没有材料组件的情况下仪式性地施放这个法术，而且这个熟悉的人可以说和读所有你能说的语言。你的熟悉者的形式不能改变，但其形式可以是正常熟悉者名单之外的一种，但形式最终由DM决定。"
			]
		},
		{
			"name": "Magical Gifts",
			"source": "MagicMoonSorcerer",
			"className": "Sorcerer",
			"classSource": "PHB",
			"subclassShortName": "Magic Moon",
			"subclassSource": "MagicMoonSorcerer",
			"page": 2,
			"level": 1,
			"header": 1,
			"entries": [
				"同样在第一层，你会得到你的第一个魔法礼物。最基本的礼物是一枚神奇的胸针。这个胸针可以有你想要的样子，它代表了你与天山和露妮娅的联系；它也是你的法术重点。你将会收到另外两个魔法礼物；在6级和14级时各一个。"
			]
		},
		{
			"name": "Wield Weapon",
			"source": "MagicMoonSorcerer",
			"className": "Sorcerer",
			"classSource": "PHB",
			"subclassShortName": "Magic Moon",
			"subclassSource": "MagicMoonSorcerer",
			"page": 2,
			"level": 1,
			"header": 1,
			"entries": [
				"1级时，你获得对轻甲、中甲、简单武器、武术武器和（%0%）的熟练度。"
			]
		},
		{
			"name": "Reinforce Weapon",
			"source": "MagicMoonSorcerer",
			"className": "Sorcerer",
			"classSource": "PHB",
			"subclassShortName": "Magic Moon",
			"subclassSource": "MagicMoonSorcerer",
			"level": 6,
			"header": 2,
			"entries": [
				"从6级开始，武器的形象是不够的，你超越了那单纯的形象，创造了一个杰作。作为长时间休息的一部分，你可以改进一件简单或武术的近战武器。如果该武器还没有魔力，则会变得有魔力，并获得以下特征之一。",
				{
					"type": "entries",
					"name": "Black Iron",
					"entries": [
						"该武器对其击中的任何目标造成该武器类型的额外（%0%）伤害。一个生物每回合只能从这个特性中受益一次。"
					]
				},
				{
					"type": "entries",
					"name": "White Iron",
					"entries": [
						"该武器获得了投掷属性，范围为20/60英尺。生物用该武器进行远程武器攻击后，它将回到生物的手中。"
					]
				},
				"一件武器一次只能有一个这样的特征，如果你改进的武器数量高于你的魅力修饰值（最小为1），那么你选择改进的武器就会失去这个特征的好处。"
			]
		},
		{
			"name": "Master Weapon",
			"source": "MagicMoonSorcerer",
			"className": "Sorcerer",
			"classSource": "PHB",
			"subclassShortName": "Magic Moon",
			"subclassSource": "MagicMoonSorcerer",
			"level": 14,
			"header": 2,
			"entries": [
				"从14级开始，你超越了自己，掌握了自己的武器。你学会了（%0%）的法术，这并不计入你已知的巫师法术数量。",
				"此外，你无视所有等级、种族和级别对使用魔法武器的要求。"
			]
		},
		{
			"name": "Endless Creation",
			"source": "MagicMoonSorcerer",
			"className": "Sorcerer",
			"classSource": "PHB",
			"subclassShortName": "Magic Moon",
			"subclassSource": "MagicMoonSorcerer",
			"level": 18,
			"header": 2,
			"entries": [
				"从18级开始，你的武器装备可以超越世界。当你使用你的项目武器时，你可以使一些简单的或武术的近战武器代替你的巫师等级降下。这些武器是有魔力的，不能成为永久性的。",
				"一旦你使用这个功能，你必须完成一个长时间的休息才能再次使用。"
			]
		}
	],
	"spell": [
		{
			"name": "Radiant Tiara",
			"source": "MagicMoonSorcerer",
			"page": 2,
			"level": 0,
			"school": "V",
			"time": [
				{
					"number": 1,
					"unit": "action"
				}
			],
			"range": {
				"type": "point",
				"distance": {
					"type": "feet",
					"amount": 90
				}
			},
			"components": {
				"v": true,
				"s": true,
				"m": "Your Lunar Tiara"
			},
			"duration": [
				{
					"type": "instant"
				}
			],
			"entries": [
				"你从头上摘下魔法头饰，并在它像明亮的银色月光一样发光时迅速向你的敌人发出。进行一次范围性的法术攻击。一旦命中，目标受到{@damage 1d8}辐射伤害。咒语结束后，头冠会传送回你的头顶。"
			],
			"entriesHigherLevel": [
				{
					"name": "At Higher Levels",
					"entries": [
						"在更高的级别，该法术可以向你在最近被击中的目标30英尺范围内看到的另一个目标投射。每一次弹射都要进行一次法术攻击。如果你错过一次攻击，你不能再进行一次法术攻击。在5级时，它可以投掷一次。在11级时，它可以投掷两次。在17级时，它可以投掷三次。除此之外，该法术的伤害在5级时增加（%0%），11级时增加（%1%），17级时增加（%2%）。"
					],
					"type": "entries"
				}
			],
			"damageInflict": [
				"radiant"
			],
			"spellAttack": [
				"R"
			],
			"miscTags": [
				"SGT"
			]
		},
		{
			"name": "Burning Bow",
			"source": "MagicMoonSorcerer",
			"page": 4,
			"level": 2,
			"school": "C",
			"time": [
				{
					"number": 1,
					"unit": "action"
				}
			],
			"range": {
				"type": "point",
				"distance": {
					"type": "self"
				}
			},
			"components": {
				"v": true,
				"s": true,
				"m": "a small stone arrowhead"
			},
			"duration": [
				{
					"type": "timed",
					"duration": {
						"type": "hour",
						"amount": 8
					}
				}
			],
			"entries": [
				"你召唤出一把由纯天体魔法制成的光芒四射的长弓。在咒语结束之前，你已经装备了一把长弓，在你精通的攻击和伤害卷上有+1的加成，范围为150英尺。当你使用这把弓时，你可以选择使用你的魅力修改器进行攻击和伤害。一旦命中，目标会受到{@damage 1d8}火焰或辐射伤害，由你选择。这把武器在拉开弓弦后会产生自己的弹药。如果这把弓离开你的身体，法术就会结束。"
			],
			"entriesHigherLevel": [
				{
					"name": "At Higher Levels",
					"entries": [
						"当你使用四级或更高等级的法术槽施放此法术时，奖励增加到+2。当你使用6级或更高等级的法术槽施放此法术时，奖励增加到+3。"
					],
					"type": "entries"
				}
			],
			"damageInflict": [
				"fire",
				"radiant"
			]
		},
		{
			"name": "Celestial Blast",
			"source": "MagicMoonSorcerer",
			"page": 4,
			"level": 1,
			"school": "V",
			"time": [
				{
					"number": 1,
					"unit": "action"
				}
			],
			"range": {
				"type": "point",
				"distance": {
					"type": "feet",
					"amount": 60
				}
			},
			"components": {
				"v": true,
				"s": true
			},
			"duration": [
				{
					"type": "instant"
				}
			],
			"entries": [
				"你创造一条辐射能量射线，并将其射向范围内的目标。一旦命中，目标会受到{@damage 2d8}辐射伤害。"
			],
			"entriesHigherLevel": [
				{
					"name": "At Higher Levels",
					"entries": [
						"当你使用二级或更高等级的法术槽施放此法术时，每超过一级的法术槽等级，你就会额外创造一条射线。为每条射线进行一次范围性的法术攻击"
					],
					"type": "entries"
				}
			],
			"damageInflict": [
				"radiant"
			],
			"spellAttack": [
				"R"
			]
		},
		{
			"name": "Chain of Hearts",
			"source": "MagicMoonSorcerer",
			"page": 4,
			"level": 2,
			"school": "C",
			"time": [
				{
					"number": 1,
					"unit": "action"
				}
			],
			"range": {
				"type": "point",
				"distance": {
					"type": "feet",
					"amount": 30
				}
			},
			"components": {
				"v": true,
				"s": true,
				"m": "a small piece of silver chain"
			},
			"duration": [
				{
					"type": "timed",
					"duration": {
						"type": "minute",
						"amount": 1
					},
					"concentration": true
				}
			],
			"entries": [
				"你的手指指向范围内的一个目标。目标必须在力量救赎中成功，否则会受到{@damage 2d6}力量伤害，并在持续时间内受到{@condition restrained}银心形状的魔法锁链的缠绕。",
				"在你的回合开始时，你可以选择使用你的行动对受影响的目标继续施法，维持{@condition restrained}的条件并造成进一步的伤害。",
				"目标可以在其回合结束时选择重新进行拯救。如果你使用你的行动去做其他事情，则该咒语结束。",
				"如果目标在法术的范围之外，如果它完全被你遮蔽，或者如果链子会以某种方式被切断，比如被一个复原者完全吞噬，那么法术也会结束。",
				"球体，或在你和目标之间放置一道石墙。"
			],
			"entriesHigherLevel": [
				{
					"name": "At Higher Levels",
					"entries": [
						"当你使用3级以上的法术槽施放此法术时，每超过2级的法术槽等级，伤害会增加（%0%）。"
					],
					"type": "entries"
				}
			],
			"damageInflict": [
				"force"
			],
			"conditionInflict": [
				"restrained"
			],
			"savingThrow": [
				"strength"
			]
		},
		{
			"name": "Earth Rend",
			"source": "MagicMoonSorcerer",
			"page": 4,
			"level": 7,
			"school": "V",
			"time": [
				{
					"number": 1,
					"unit": "action"
				}
			],
			"range": {
				"type": "point",
				"distance": {
					"type": "feet",
					"amount": 30
				}
			},
			"components": {
				"v": true,
				"s": true,
				"m": "a pinch of soil"
			},
			"duration": [
				{
					"type": "instant"
				}
			],
			"entries": [
				"你将双手举过头顶，然后迅速在你面前推开，使一个能量球在你面前的地面上冲向30英尺长、5英尺高、10英尺宽的一条线。效果范围内的每个生物都必须做一个灵巧的蓄力动作，否则就会受到{@damage 10d6}重击伤害。除了伤害之外，所有拯救失败的生物将被推到法术效果之外最近的空间，并使其跌落（%1%）。",
				"任何成功抵御法术的生物都会受到一半的伤害，不会被推开，也不会去（%0%）。"
			],
			"entriesHigherLevel": [
				{
					"name": "At Higher Levels",
					"entries": [
						"当你使用8级以上的法术槽施放此法术时，每超过7级的法术槽等级，伤害会增加（%0%）。"
					],
					"type": "entries"
				}
			],
			"damageInflict": [
				"bludgeoning"
			],
			"savingThrow": [
				"dexterity"
			],
			"miscTags": [
				"FMV"
			],
			"areaTags": [
				"L"
			]
		},
		{
			"name": "Flash Freeze",
			"source": "MagicMoonSorcerer",
			"page": 4,
			"level": 5,
			"school": "V",
			"time": [
				{
					"number": 1,
					"unit": "action"
				}
			],
			"range": {
				"type": "point",
				"distance": {
					"type": "feet",
					"amount": 30
				}
			},
			"components": {
				"v": true,
				"s": true,
				"m": "a small stone, painted white"
			},
			"duration": [
				{
					"type": "timed",
					"duration": {
						"type": "minute",
						"amount": 1
					},
					"concentration": true
				}
			],
			"entries": [
				"你指向范围内的一个生物，他们必须做一个宪法规定的救赎动作，否则会受到{@damage 4d8}寒冷伤害，并在持续时间内被冻结在一层薄薄的天体冰层中。如果救赎成功，目标会受到一半的伤害并且不会被冻结。在这段时间内，该生物是（%1%），失明，（%2%），不能呼吸。受到伤害时，冰块会被击碎并结束咒语。受影响的目标必须在其回合结束时再次进行宪法救赎。在每一次额外的救赎失败后，目标会再受到{@dice 2d8}的寒冷伤害。"
			],
			"damageInflict": [
				"cold"
			],
			"conditionInflict": [
				"deafened",
				"paralyzed"
			],
			"savingThrow": [
				"constitution"
			]
		},
		{
			"name": "Mandala of Embers",
			"source": "MagicMoonSorcerer",
			"page": 4,
			"level": 4,
			"school": "V",
			"time": [
				{
					"number": 1,
					"unit": "action"
				}
			],
			"range": {
				"type": "point",
				"distance": {
					"type": "feet",
					"amount": 120
				}
			},
			"components": {
				"v": true,
				"s": true,
				"m": "a charred piece of wood from an extinguished camp fire"
			},
			"duration": [
				{
					"type": "timed",
					"duration": {
						"type": "minute",
						"amount": 1
					},
					"concentration": true
				}
			],
			"entries": [
				"你召唤在莫努特天体的永恒之炉中燃烧的天火，并变出一个由九个燃烧着的余烬组成的冠冕，在咒语持续期间，这些余烬会在你的头顶上慢慢旋转。在这段时间内，你在15英尺的范围内发出亮光，在另外15英尺的范围内发出暗光。作为一个额外的动作，你可以向范围内的目标发送最多四个余烬。对每个琥珀进行一次范围性的法术攻击。一旦命中，余烬会造成{@damage 2d4}的火焰伤害。如果你在专注于此法术时受到一个生物的近战伤害，在进行注意力检查之前，你可以选择消耗所有剩余的余烬作为反应，每一个剩余的余烬自动造成{@damage 1d4}的伤害。失去对该法术的注意力并不会导致此效果。"
			],
			"damageInflict": [
				"fire"
			],
			"spellAttack": [
				"R"
			],
			"miscTags": [
				"UBA"
			]
		},
		{
			"name": "Silverblade",
			"source": "MagicMoonSorcerer",
			"page": 5,
			"level": 2,
			"school": "C",
			"time": [
				{
					"number": 1,
					"unit": "action"
				}
			],
			"range": {
				"type": "point",
				"distance": {
					"type": "self"
				}
			},
			"components": {
				"v": true,
				"s": true,
				"m": "the hilt of a broken sword"
			},
			"duration": [
				{
					"type": "timed",
					"duration": {
						"type": "hour",
						"amount": 8
					}
				}
			],
			"entries": [
				"你召唤出一个由纯天体魔法制成的（%0%）。在咒语结束之前，你已经装备了一把短剑，攻击和伤害卷的加成+1，以及你所精通的银色属性。当你使用这把剑时，你可以选择使用你的魅力修改器进行攻击和伤害。一旦命中，目标会受到{@damage 1d6}的砍击伤害。如果这把剑离开你的身体，咒语结束。"
			],
			"entriesHigherLevel": [
				{
					"name": "At Higher Levels",
					"entries": [
						"当你使用四级或更高等级的法术槽施放此法术时，奖励增加到+2。当你使用6级或更高等级的法术槽施放此法术时，奖励增加到+3。"
					],
					"type": "entries"
				}
			],
			"damageInflict": [
				"slashing"
			]
		},
		{
			"name": "Sonic Cry",
			"source": "MagicMoonSorcerer",
			"page": 5,
			"level": 1,
			"school": "V",
			"time": [
				{
					"number": 1,
					"unit": "action"
				}
			],
			"range": {
				"type": "radius",
				"distance": {
					"type": "feet",
					"amount": 15
				}
			},
			"components": {
				"v": true
			},
			"duration": [
				{
					"type": "instant"
				}
			],
			"entries": [
				"你引导你的愤怒、恐惧和焦虑，直到你再也忍不住了，在眼泪和哭声的情绪爆发中一下子把它释放出来。你高亢的哭声散发着一波波的魔法伤害。半径15英尺范围内的所有生物都必须做一个体罚动作。如果失败，一个生物会受到{@damage 2d8}的雷霆伤害，并在下一回合结束前受到{@condition deafened}的伤害。成功时，生物会受到一半的伤害，并且不会受到（%2%）。"
			],
			"entriesHigherLevel": [
				"At Higher Levels When you cast this spell using a spell slot of 2nd level or higher, the damage increases by {@dice 1d8} for each slot level above 1st."
			],
			"damageInflict": [
				"thunder"
			],
			"conditionInflict": [
				"deafened"
			],
			"savingThrow": [
				"constitution"
			]
		},
		{
			"name": "Sugarheart",
			"source": "MagicMoonSorcerer",
			"page": 5,
			"level": 0,
			"school": "V",
			"time": [
				{
					"number": 1,
					"unit": "action"
				}
			],
			"range": {
				"type": "point",
				"distance": {
					"type": "feet",
					"amount": 30
				}
			},
			"components": {
				"v": true,
				"s": true,
				"m": "your brooch"
			},
			"duration": [
				{
					"type": "instant"
				}
			],
			"entries": [
				"一阵心形能量反复击打范围内的目标。一旦命中，目标受到1个武力伤害，并对你产生敌意。一个对暴力的生物（%0%）可能会攻击你。另一个生物可能会以其他方式寻求报应。"
			],
			"damageInflict": [
				"force"
			],
			"conditionInflict": [
				"prone"
			]
		},
		{
			"name": "Thunder Dragon",
			"source": "MagicMoonSorcerer",
			"page": 5,
			"level": 6,
			"school": "C",
			"time": [
				{
					"number": 1,
					"unit": "action"
				}
			],
			"range": {
				"type": "point",
				"distance": {
					"type": "feet",
					"amount": 60
				}
			},
			"components": {
				"v": true,
				"s": true,
				"m": "a small wooden effigy of a dragon"
			},
			"duration": [
				{
					"type": "instant"
				}
			],
			"entries": [
				"你闭上眼睛，伸出手臂，呼唤天雷的力量，并将它们化为你周围由电构成的龙的可怕面孔。翅膀的每一次拍打都听起来像雷声的破裂。",
				"范围内所有你选择的生物必须进行宪法救赎，否则会受到{@damage 9d6}的雷霆伤害并变成{@condition frightened}，或在救赎成功时受到一半的伤害，并抵御{@condition frightened}的状况。任何成功救治的生物在24小时内对该法术的{@condition frightened}状况免疫。"
			],
			"entriesHigherLevel": [
				{
					"name": "At Higher Levels",
					"entries": [
						"当你使用七级以上的法术槽施放此法术时，每超过六级的法术槽等级，伤害就会增加（%0%）。"
					],
					"type": "entries"
				}
			],
			"damageInflict": [
				"thunder"
			],
			"conditionInflict": [
				"frightened"
			],
			"savingThrow": [
				"constitution"
			]
		},
		{
			"name": "Zephyr of Petals",
			"source": "MagicMoonSorcerer",
			"page": 5,
			"level": 3,
			"school": "C",
			"time": [
				{
					"number": 1,
					"unit": "action"
				}
			],
			"range": {
				"type": "radius",
				"distance": {
					"type": "feet",
					"amount": 10
				}
			},
			"components": {
				"v": true,
				"s": true,
				"m": "a fallen leaf from a tree"
			},
			"duration": [
				{
					"type": "timed",
					"duration": {
						"type": "minute",
						"amount": 1
					},
					"concentration": true
				}
			],
			"entries": [
				"你召唤出一股由树叶组成的旋风，以高速在你周围呼啸。所有在回合中进入旋风的生物，或者在旋风中开始回合的生物，都必须做一个灵巧的蓄力动作，否则会受到{@damage 2d8}的砍伤，蓄力时受到一半的伤害。除此以外，你会被鞭打的树叶严重遮蔽，获得一半的掩护。"
			],
			"entriesHigherLevel": [
				{
					"name": "At Higher Levels",
					"entries": [
						"当你使用四级以上的法术槽施放此法术时，每超过三级的法术槽等级，伤害就会增加（%0%）。"
					],
					"type": "entries"
				}
			],
			"damageInflict": [
				"slashing"
			],
			"savingThrow": [
				"dexterity"
			],
			"miscTags": [
				"SMN"
			],
			"areaTags": [
				"R"
			]
		},
		{
			"name": "Magical Armor",
			"source": "MagicMoonSorcerer",
			"page": 2,
			"level": 1,
			"school": "A",
			"time": [
				{
					"number": 1,
					"unit": "action"
				}
			],
			"range": {
				"type": "point",
				"distance": {
					"type": "self"
				}
			},
			"components": {
				"v": true,
				"s": true,
				"m": "Your Lunar Brooch"
			},
			"duration": [
				{
					"type": "timed",
					"duration": {
						"type": "hour",
						"amount": 8
					}
				}
			],
			"entries": [
				"你说的是魔语，表演的是天人合一。",
				"移动，对自己施放魔法盔甲。施放后，你身上所有的衣服都会变成你的魔法制服，并授予你的魔法头饰，这是施放辐射头饰咒语所必需的。你的行动力变成了13+你的灵巧修改器。在这种形态下，你会变得无法被其他生物识别，不管他们对你有多了解，尽管你的外表几乎没有变化。只有那些见证了实际转变的人，才能看出你的秘密身份。除了这些特征外，你还会获得与你的巫师等级相等的临时命中率。如果你穿上盔甲，或者你以行动方式解除咒语，则咒语结束。"
			],
			"entriesHigherLevel": [
				{
					"name": "At Higher Levels",
					"entries": [
						"当你使用一个3级的插槽施放此法术时，你的交流能力变为14+你的灵巧修正值。",
						"当你使用5级的法术槽施展此法术时，你的交流能力变为15+你的灵巧修饰。",
						"当你用7级的法术槽施展此法术时，你的AC值变为16+你的灵巧修饰值"
					],
					"type": "entries"
				}
			],
			"miscTags": [
				"THP"
			]
		}
	]
}
