{
	"_meta": {
		"sources": [
			{
				"json": "DnDWikiWildMagic",
				"abbreviation": "DnDWiki",
				"full": "Arcane Tradition: Wild Magic",
				"authors": [
					"BadBard"
				],
				"convertedBy": [
					"Modnar"
				],
				"version": "1.0",
				"url": "https://www.dandwiki.com/wiki/Wild_Mage_(5e_Subclass)",
				"targetSchema": "1.0.0"
			}
		],
		"spellSchools": {
			"W": {
				"full": "Wild Magic",
				"short": "W"
			}
		},
		"dateAdded": 1546024328,
		"dateLastModified": 1673562612,
		"_dateLastModifiedHash": "5218d0f564"
	},
	"subclass": [
		{
			"name": "Wild Mage",
			"subclassFeatures": [
				"Wild Magic|Wizard||Wild Mage|DnDWikiWildMagic|2",
				"Servant of ChAoS|Wizard||Wild Mage|DnDWikiWildMagic|6",
				"Student of cHaOS|Wizard||Wild Mage|DnDWikiWildMagic|10",
				"Master of ChaoS|Wizard||Wild Mage|DnDWikiWildMagic|14"
			],
			"source": "DnDWikiWildMagic",
			"shortName": "Wild Mage",
			"className": "Wizard",
			"classSource": "PHB"
		}
	],
	"spell": [
		{
			"name": "Alternate Reality",
			"source": "DnDWikiWildMagic",
			"level": 3,
			"school": "W",
			"subschools": [
				"T"
			],
			"time": [
				{
					"number": 1,
					"unit": "reaction"
				}
			],
			"range": {
				"type": "point",
				"distance": {
					"type": "self"
				}
			},
			"components": {
				"v": true,
				"s": true,
				"m": {
					"text": "material component is a small, unmarked die"
				}
			},
			"duration": [
				{
					"type": "instant"
				}
			],
			"classes": {
				"fromSubclass": [
					{
						"class": {
							"name": "Wizard",
							"source": "PHB"
						},
						"subclass": {
							"name": "Wild Mage",
							"source": "DnDWikiWildMagic",
							"shortName": "Wild Mage"
						}
					},
					{
						"class": {
							"name": "Sorcerer",
							"source": "PHB"
						},
						"subclass": {
							"name": "Wild Magic",
							"source": "PHB",
							"shortName": "Wild Magic"
						}
					}
				]
			},
			"entries": [
				"通过这个咒语，施法者在概率上创造了一个小小的变化。这种变化只持续片刻，但却为最近的一个事件创造了替代的结果。当施法时，受术者尝试的任何一个事件都会被重新计算，本质上是允许（或强迫）生物进行新的掷骰。 这对任何传奇或巢穴行动都不起作用。",
				"只有在一个回合内开始和结束的事件才能受到影响，而且只有一个骰子被重掷。如果该生物是自愿接受的，该生物可以选择哪一个卷轴（原卷轴或新卷轴）影响他，更有可能选择最成功的。如果该生物不愿意，他必须重做这个动作。第二个结果，无论其结果如何，都不能改变。"
			]
		},
		{
			"name": "Chaos Shield",
			"level": 2,
			"school": "W",
			"subschools": [
				"A"
			],
			"time": [
				{
					"number": 1,
					"unit": "action"
				}
			],
			"range": {
				"type": "point",
				"distance": {
					"type": "self"
				}
			},
			"components": {
				"v": true,
				"s": true
			},
			"duration": [
				{
					"type": "timed",
					"duration": {
						"type": "hour",
						"amount": 24
					}
				}
			],
			"classes": {
				"fromSubclass": [
					{
						"class": {
							"name": "Wizard",
							"source": "PHB"
						},
						"subclass": {
							"name": "Wild Mage",
							"source": "DnDWikiWildMagic",
							"shortName": "Wild Mage"
						}
					},
					{
						"class": {
							"name": "Sorcerer",
							"source": "PHB"
						},
						"subclass": {
							"name": "Wild Magic",
							"source": "PHB",
							"shortName": "Wild Magic"
						}
					}
				]
			},
			"source": "DnDWikiWildMagic",
			"entries": [
				"在发现了野生魔法之后，又发现了野生激流和这种激流带来的个人危险。在几个野性法师以相当壮观的方式毁掉自己（或遭受非常奇怪的副作用）之后，混沌盾被创造出来，作为对这些激增的保护。",
				"此法术赋予野生法师特殊的保护，使其免受狂暴冲击的影响。它只保护施法者免受自己的法术所造成的狂涌影响，而不包括其他法师的狂涌影响。",
				"当狂暴波动影响到受混沌护盾保护的施法者时，他们被允许对自己的DC进行INT救赎。如果蓄力成功，施法者身上的暴涨效果就会被抵消。如果蓄力失败，施法者会正常地受到冲击的影响。该法术并不保护施法者免受可能由其自身施法引起的狂涌的影响。",
				"混乱护盾只保护施法者，并不否定狂暴波动对其他可能处于影响范围内的角色的影响。一旦施法者了解了狂涌的性质，他就不能主动取消保护；混沌护盾既能保护好的效果也能保护有害的效果。因此，如果一个狂暴波动导致施法者周围10英尺内的所有角色都受到了治疗术的影响，受保护的施法者可能不会受益，而半径内的所有其他人都会得到治疗。",
				"咒语一直有效，直到它否定了一个狂暴的涌动或咒语持续时间过期。"
			],
			"miscTags": [
				"HL"
			]
		},
		{
			"name": "Fool's Speech",
			"level": 2,
			"school": "W",
			"subschools": [
				"A"
			],
			"time": [
				{
					"number": 1,
					"unit": "bonus"
				}
			],
			"range": {
				"type": "point",
				"distance": {
					"type": "touch"
				}
			},
			"components": {
				"v": true,
				"s": true,
				"m": {
					"text": "a small whistle made of bone."
				}
			},
			"duration": [
				{
					"type": "timed",
					"duration": {
						"type": "hour",
						"amount": 24
					},
					"concentration": true
				}
			],
			"classes": {
				"fromSubclass": [
					{
						"class": {
							"name": "Wizard",
							"source": "PHB"
						},
						"subclass": {
							"name": "Wild Mage",
							"source": "DnDWikiWildMagic",
							"shortName": "Wild Mage"
						}
					},
					{
						"class": {
							"name": "Sorcerer",
							"source": "PHB"
						},
						"subclass": {
							"name": "Wild Magic",
							"source": "PHB",
							"shortName": "Wild Magic"
						}
					}
				]
			},
			"source": "DnDWikiWildMagic",
			"entries": [
				"通过这个咒语，巫师赋予自己和他所选择的其他人说一种别人无法理解的秘密语言的能力。在施法的时候，被指定说这种语言的生物必须互相接触。",
				"一旦施放，人物可以选择正常说话或使用他们的秘密语言。他们可以流利地说和理解这种神秘的语言。愚人的语言不能被识别为任何已知的语言，也不像任何语言的声音。理解语言或方言的法术不会翻译它。它可以被一个戴着理解语言和阅读魔法头盔的角色所理解，尽管正常的百分比几率适用。"
			],
			"meta": {
				"ritual": true
			}
		},
		{
			"name": "Hornung's Baleful Deflector",
			"level": 2,
			"school": "W",
			"subschools": [
				"V"
			],
			"time": [
				{
					"number": 1,
					"unit": "action"
				}
			],
			"range": {
				"type": "point",
				"distance": {
					"type": "touch"
				}
			},
			"components": {
				"v": true,
				"s": true,
				"m": {
					"text": "small prism that shatters when the spell is cast."
				}
			},
			"duration": [
				{
					"type": "timed",
					"duration": {
						"type": "minute",
						"amount": 1
					},
					"concentration": true
				}
			],
			"classes": {
				"fromSubclass": [
					{
						"class": {
							"name": "Wizard",
							"source": "PHB"
						},
						"subclass": {
							"name": "Wild Mage",
							"source": "DnDWikiWildMagic",
							"shortName": "Wild Mage"
						}
					},
					{
						"class": {
							"name": "Sorcerer",
							"source": "PHB"
						},
						"subclass": {
							"name": "Wild Magic",
							"source": "PHB",
							"shortName": "Wild Magic"
						}
					}
				]
			},
			"source": "DnDWikiWildMagic",
			"entries": [
				"这个咒语将受术者部分包围在一个闪闪发光的半球形力场中。这个力场是透明的，并随受术者一起移动，形成一个离他身体大约一英尺的外壳。这个外壳可以作为一个盾牌，抵御所有形式的单独目标导弹攻击（包括魔法导弹和其他法术）。施法者指定外壳的位置（保护受术者的前面、后面、侧面或顶部）。该法术不保护区域效应法术或其他同时攻击几个生物的攻击。",
				"每当一个单独的导弹攻击指向一个受保护的生物时，可恶的偏转器就会启动。导弹的目标不是击中目标生物，而是在受保护生物的15英尺半球形范围内的所有生物中随机决定，包括受保护生物。然后导弹改变路线，朝向它的新目标，并有正常的命中机会。如果新的目标在导弹的范围之外，则没有目标被击中。如果被保护的生物被击中，咒语立即失效。如果有几个人被禁忌偏转器所保护，那么导弹在到达目标之前会多次改变路线。"
			]
		},
		{
			"name": "Hornung's Random Dispatcher",
			"level": 8,
			"school": "W",
			"subschools": [
				"A"
			],
			"time": [
				{
					"number": 1,
					"unit": "bonus"
				}
			],
			"range": {
				"type": "point",
				"distance": {
					"type": "feet",
					"amount": 30
				}
			},
			"components": {
				"v": true
			},
			"duration": [
				{
					"type": "timed",
					"duration": {
						"type": "minute",
						"amount": 1
					},
					"concentration": true
				}
			],
			"classes": {
				"fromSubclass": [
					{
						"class": {
							"name": "Wizard",
							"source": "PHB"
						},
						"subclass": {
							"name": "Wild Mage",
							"source": "DnDWikiWildMagic",
							"shortName": "Wild Mage"
						}
					},
					{
						"class": {
							"name": "Sorcerer",
							"source": "PHB"
						},
						"subclass": {
							"name": "Wild Magic",
							"source": "PHB",
							"shortName": "Wild Magic"
						}
					}
				]
			},
			"source": "DnDWikiWildMagic",
			"entries": [
				"只要说出几个字，这个咒语就能把一个生物扔到一个随机的平面上，并把他留在那里。如果目标不愿意，则允许他做一个拯救动作。如果成功，咒语会失败。如果不成功，受害者和他携带的所有物品会被送到一个随机的平面。要确定平面，请在下面的表格中滚动。",
				{
					"type": "table",
					"caption": "Dispatcher Result",
					"colLabels": [
						"d100",
						"Roll Plane"
					],
					"colStyles": [
						"col-2 text-center",
						"col-10 text-right "
					],
					"rows": [
						[
							"01-03",
							"深渊"
						],
						[
							"04-06",
							"Acheron"
						],
						[
							"07-12",
							"其他主要物质世界"
						],
						[
							"13-17",
							"阿卡迪亚"
						],
						[
							"18-23",
							"星界"
						],
						[
							"24-27",
							"兽地（快乐狩猎场）"
						],
						[
							"28-30",
							"协和的反对派"
						],
						[
							"31-35",
							"元素界（空气、火、土或水）。"
						],
						[
							"36-38",
							"极乐世界"
						],
						[
							"39-44",
							"虚空界"
						],
						[
							"45-47",
							"地狱（Gehenna）"
						],
						[
							"48-50",
							"格拉德海姆"
						],
						[
							"51-53",
							"哈迪斯"
						],
						[
							"54-58",
							"凌波微步"
						],
						[
							"59-61",
							"负的物质平面"
						],
						[
							"62-64",
							"负面的准平面（真空、灰烬、灰尘或盐）。"
						],
						[
							"65-67",
							"九层地狱"
						],
						[
							"68-70",
							"涅槃"
						],
						[
							"71-73",
							"奥林巴斯"
						],
						[
							"74-76",
							"大闹天宫"
						],
						[
							"77-79",
							"准元素位面（烟、岩浆、渗水或冰）。"
						],
						[
							"80-82",
							"阳性物质平面"
						],
						[
							"83-85",
							"正面的准平面（闪电、光芒、矿物或蒸汽）。"
						],
						[
							"86-91",
							"主物质层*"
						],
						[
							"92-94",
							"七重天"
						],
						[
							"95-97",
							"塔尔塔罗斯"
						],
						[
							"98-100",
							"双子乐园"
						]
					]
				},
				"* 被传送到主物质层的角色会被传送到同一个世界的其他地方。施法者对目标的目的地没有控制权。目的地的条件可能会杀死目标（例如，到达火元素位面）或仅仅使生活变得困难。这个决定权留给了DM。"
			]
		},
		{
			"name": "Hornung's Surge Selector",
			"level": 3,
			"school": "W",
			"subschools": [
				"A"
			],
			"time": [
				{
					"number": 1,
					"unit": "action"
				}
			],
			"range": {
				"type": "point",
				"distance": {
					"type": "self"
				}
			},
			"components": {
				"v": true,
				"s": true,
				"m": {
					"text": "a brass spinner"
				}
			},
			"duration": [
				{
					"type": "timed",
					"duration": {
						"type": "hour",
						"amount": 1
					},
					"concentration": true
				}
			],
			"classes": {
				"fromSubclass": [
					{
						"class": {
							"name": "Wizard",
							"source": "PHB"
						},
						"subclass": {
							"name": "Wild Mage",
							"source": "DnDWikiWildMagic",
							"shortName": "Wild Mage"
						}
					},
					{
						"class": {
							"name": "Sorcerer",
							"source": "PHB"
						},
						"subclass": {
							"name": "Wild Magic",
							"source": "PHB",
							"shortName": "Wild Magic"
						}
					}
				]
			},
			"source": "DnDWikiWildMagic",
			"entries": [
				"伟大的霍农在不止一次地被自己的野性冲动炸伤之后，设计了一种方法来改善野性魔法的结果，并且不无意外地改善了自己的生存机会。其结果就是霍农的激增选择器。",
				"通过施展这个法术，野性法师获得了对狂涌的更大控制权。当施法者的法术创造了一个野性激增，他们就会获得激增结果作用表的优势。这个法术可以和（%0%）一起使用。",
				"咒语的持续时间是固定的涌动次数，最多1小时，以先到者为准。",
				"野生法师每五级经验可以塑造一个野生涌动；因此，一个15级的施法者可以在1小时内塑造三个野生涌动。在1小时结束时，或者当注意力被打断时，咒语就会失效，而不考虑剩余的暴涨数量。"
			]
		},
		{
			"name": "Nahal's Nonsensical Nullifier",
			"level": 2,
			"school": "W",
			"subschools": [
				"A"
			],
			"time": [
				{
					"number": 1,
					"unit": "action"
				}
			],
			"range": {
				"type": "point",
				"distance": {
					"type": "touch"
				}
			},
			"components": {
				"v": true,
				"s": true,
				"m": {
					"text": "a small amount of egg yolk smeared onto the object/person"
				}
			},
			"duration": [
				{
					"type": "timed",
					"duration": {
						"type": "hour",
						"amount": 1
					},
					"concentration": true
				}
			],
			"classes": {
				"fromSubclass": [
					{
						"class": {
							"name": "Wizard",
							"source": "PHB"
						},
						"subclass": {
							"name": "Wild Mage",
							"source": "DnDWikiWildMagic",
							"shortName": "Wild Mage"
						}
					},
					{
						"class": {
							"name": "Sorcerer",
							"source": "PHB"
						},
						"subclass": {
							"name": "Wild Magic",
							"source": "PHB",
							"shortName": "Wild Magic"
						}
					}
				]
			},
			"source": "DnDWikiWildMagic",
			"entries": [
				"这个法术会扰乱受影响的生物或物体的光环，使占卜法术的结果随机化，例如知道排列、侦测邪恶、识别、定位生物、传说传说、定位物体，甚至对该生物施展的原始法术。",
				"当一个受保护的生物成为这些占卜的焦点时，获得的信息是随机决定的。因此，如果对一个受无厘头无效者保护的混沌邪恶生物使用知道的排列方式，其反应可能是任何排列组合。如果两个角色都对同一个目标使用同一个占卜，会产生两个随机结果。",
				{
					"type": "table",
					"caption": "Optional Caption",
					"colLabels": [
						"d10",
						"Roll Alignment"
					],
					"colStyles": [
						"col-6 text-center",
						"col-4-5 text-align-left"
					],
					"rows": [
						[
							"1",
							"合法的好"
						],
						[
							"2",
							"合法中立"
						],
						[
							"3",
							"合法的邪恶"
						],
						[
							"4",
							"中性良好"
						],
						[
							"5",
							"中性"
						],
						[
							"6",
							"中立邪恶"
						],
						[
							"7",
							"混乱的好"
						],
						[
							"8",
							"混乱的邪恶"
						],
						[
							"9",
							"混乱的中性"
						],
						[
							"10",
							"没有对齐"
						]
					]
				},
				"每一轮都会产生一个新的随机结果；因此，继续观察一个受保护的生物通常会产生不同的答案。应使用下表来确定随机排列。"
			]
		},
		{
			"name": "Patternweave",
			"level": 2,
			"school": "W",
			"subschools": [
				"V"
			],
			"time": [
				{
					"number": 1,
					"unit": "bonus"
				}
			],
			"range": {
				"type": "point",
				"distance": {
					"type": "feet",
					"amount": 10
				}
			},
			"components": {
				"v": true,
				"s": true,
				"m": {
					"text": "a small hand lens through which the caster studies the objects. The lens is not consumed in the casting"
				}
			},
			"duration": [
				{
					"type": "timed",
					"duration": {
						"type": "minute",
						"amount": 10
					},
					"concentration": true
				}
			],
			"classes": {
				"fromSubclass": [
					{
						"class": {
							"name": "Wizard",
							"source": "PHB"
						},
						"subclass": {
							"name": "Wild Mage",
							"source": "DnDWikiWildMagic",
							"shortName": "Wild Mage"
						}
					},
					{
						"class": {
							"name": "Sorcerer",
							"source": "PHB"
						},
						"subclass": {
							"name": "Wild Magic",
							"source": "PHB",
							"shortName": "Wild Magic"
						}
					}
				]
			},
			"source": "DnDWikiWildMagic",
			"entries": [
				"图案编织术允许施法者对明显的混乱做出解释。施法者可以看到诸如陶器碎片被改造成一个完整的罐子，碎纸片被做成一页纸，散落的零件被做成一台工作的机器，或者从重叠的脚印中出现特定的轨迹。",
				"施法后，法师会研究看似随机的元素--破碎的玻璃片、碎纸片、混杂的痕迹等等。要研究的项目必须是有形的--编码的闪光灯、乱七八糟的语言或任何形式的思想都不能被研究。",
				"巫师必须研究随机元素一回合，之后DM秘密地对野生法师进行调查检查，并取得优势。如果检查失败，咒语就会失败。然而，如果救赎成功，施法者会在脑海中看到这些物品形成的模式。如果所研究的物品确实是随机的，则不会获得任何信息。",
				"在施法者将图案形象化之后，他可以尝试将这些部件重新组装成它们的原始形式。这需要通过INT检查来确定法师是否记得足够的细节来完成这项任务。所需的时间和修复的质量根据图案的复杂性而不同。",
				"重新组装一张碎裂的地图可能很容易；重新组装一个破碎的时钟则明显困难得多；重建一个破碎的马赛克则极其困难。在任何情况下，巫师只能制作一个合理的物品的副本。他可以用这个法术来修复艺术品，但它们的价值将只有原来价值的一小部分。"
			],
			"meta": {
				"ritual": true
			}
		},
		{
			"name": "Spell Shape",
			"level": 8,
			"school": "W",
			"subschools": [
				"V"
			],
			"time": [
				{
					"number": 1,
					"unit": "action"
				}
			],
			"range": {
				"type": "point",
				"distance": {
					"type": "self"
				}
			},
			"components": {
				"v": true,
				"s": true,
				"m": {
					"text": "a diamond worth no less than 500 gp. When the spell is cast, the diamond is transformed into a lump of coal.",
					"cost": 50000
				}
			},
			"duration": [
				{
					"type": "timed",
					"duration": {
						"type": "minute",
						"amount": 1
					},
					"concentration": true
				}
			],
			"classes": {
				"fromSubclass": [
					{
						"class": {
							"name": "Wizard",
							"source": "PHB"
						},
						"subclass": {
							"name": "Wild Mage",
							"source": "DnDWikiWildMagic",
							"shortName": "Wild Mage"
						}
					},
					{
						"class": {
							"name": "Sorcerer",
							"source": "PHB"
						},
						"subclass": {
							"name": "Wild Magic",
							"source": "PHB",
							"shortName": "Wild Magic"
						}
					}
				]
			},
			"source": "DnDWikiWildMagic",
			"entries": [
				"这个法术使野生法师有能力夺取针对他的魔法能量，并按照他的意愿重新塑造它。在它生效的时候，该法术不会有任何明显的迹象表明它的存在。它不提供对区域效应法术的保护。",
				"如果野生法师是一个法术或魔法物品的目标，这个法术会自动允许他做一个蓄力动作。如果救赎失败，对方的法术就会产生正常的效果。",
				"如果蓄力成功，法术形状会吸收对方法术的魔法能量。然后野生法师可以选择让能量消散，或者作为一种反应向对方法师施放一个法术。返回的法术必须与原来的法术等级相同或更低，并且必须是巫师目前所记忆的。返还法术的行为并不耗费野生法师的任何法术槽。咒语能量不能被保存；如果不立即使用，它就会消散。",
				"例如，野性法师哈莫斯受到法术形状的保护，被死亡之指（一个7级法术）击中。他的蓄力动作成功，现在可以施放一个7级或更低级的法术。哈莫斯已经学会了 \"弱智\"。由于这只是一个5级的法术，他选择将它投向他的敌人。他进行了狂暴检查（但没有得到狂暴），而feeblemind则被送回他的敌人身上。",
				"哈莫斯仍有他原来的第5层槽位可用。剩下的两个法术等级则会丢失，因为它们没有在同一回合中使用。",
				"如果一个野生法师同时被两个法术击中，他可以选择哪个法术来塑造。",
				"他将受到剩余法术的所有影响。"
			]
		},
		{
			"name": "Steal Enchantment",
			"level": 8,
			"school": "W",
			"subschools": [
				"E"
			],
			"time": [
				{
					"number": 1,
					"unit": "action"
				}
			],
			"range": {
				"type": "point",
				"distance": {
					"type": "touch"
				}
			},
			"components": {
				"v": true,
				"s": true,
				"m": {
					"text": "special (see details)"
				}
			},
			"duration": [
				{
					"type": "permanent"
				}
			],
			"classes": {
				"fromSubclass": [
					{
						"class": {
							"name": "Wizard",
							"source": "PHB"
						},
						"subclass": {
							"name": "Wild Mage",
							"source": "DnDWikiWildMagic",
							"shortName": "Wild Mage"
						}
					},
					{
						"class": {
							"name": "Sorcerer",
							"source": "PHB"
						},
						"subclass": {
							"name": "Wild Magic",
							"source": "PHB",
							"shortName": "Wild Magic"
						}
					}
				]
			},
			"source": "DnDWikiWildMagic",
			"entries": [
				"这个咒语从一个魔法物品中 \"偷 \"出了魔法，并将其置于另一个非魔法物品（物质成分）中。在施法过程中，两个物品都必须被巫师接触到。这两件物品必须是同一类别的（钝器、刃器、戒指、护身符、盾牌、盔甲、魔杖等）。",
				"魔法只能转移到非魔法物品上。只有一件物品的能量可以被转移；不可能将两个魔法物品合并成一件物品。新的物品具有原始魔法物品的所有属性（包括相同的收费数量，如果有的话）。",
				"在咒语结束时，原来的魔法物品被允许对施法者的救赎DC进行一次物品救赎，并允许其作为魔法物品的所有修改因素。异常强大的物品（比如神器）可以被认为是自动成功的，由DM决定。",
				"如果救赎成功，魔法物品就会抵制该效果，并且该咒语以失败告终。如果投掷失败，魔法物品就会失去它所有的力量，这些力量会转移到之前的非魔法物品上。即使魔法物品的蓄力动作失败，也不能保证咒语的成功。",
				"有一个机会，魔法可能会丢失。这种情况发生的基本几率是100%，按施法者的每一级-5%修改。因此，一个20级的巫师没有机会丢失魔法。如果魔力消失了，两个物品都会变成非魔力。",
				"材料成分是要接受魔法的非魔法物品。",
				"它的价值必须等同于或高于要排泄的物体。"
			],
			"meta": {
				"ritual": true
			},
			"miscTags": [
				"PRM"
			]
		},
		{
			"name": "Stabilize",
			"level": 9,
			"school": "W",
			"subschools": [
				"E"
			],
			"time": [
				{
					"number": 10,
					"unit": "minute"
				}
			],
			"range": {
				"type": "point",
				"distance": {
					"type": "self"
				}
			},
			"components": {
				"v": true,
				"s": true
			},
			"duration": [
				{
					"type": "timed",
					"duration": {
						"type": "hour",
						"amount": 1
					},
					"concentration": true
				}
			],
			"classes": {
				"fromSubclass": [
					{
						"class": {
							"name": "Wizard",
							"source": "PHB"
						},
						"subclass": {
							"name": "Wild Mage",
							"source": "DnDWikiWildMagic",
							"shortName": "Wild Mage"
						}
					},
					{
						"class": {
							"name": "Sorcerer",
							"source": "PHB"
						},
						"subclass": {
							"name": "Wild Magic",
							"source": "PHB",
							"shortName": "Wild Magic"
						}
					}
				]
			},
			"source": "DnDWikiWildMagic",
			"entries": [
				"这个法术需要巨大的魔法努力才能施展，将其降至最高法术等级。稳定术否定了野生魔法区域的影响，允许施法者和30英尺范围内的所有生物正常施法和使用魔法物品。该法术以施法者为中心，并跟随他的行动。",
				"施法者自己的法术在稳定法术的持续时间内施放时，永远不会引起狂涌，狂涌的效果也不会延伸到保护区域内。此外，野性法师的法术以其真实等级发挥作用；（%0%）不用于确定等级变化。该法术会影响到狂暴、野区和野风。"
			],
			"meta": {
				"ritual": true
			}
		},
		{
			"name": "There/Not There",
			"level": 4,
			"school": "W",
			"subschools": [
				"C"
			],
			"time": [
				{
					"number": 1,
					"unit": "action"
				}
			],
			"range": {
				"type": "point",
				"distance": {
					"type": "feet",
					"amount": 300
				}
			},
			"components": {
				"v": true,
				"s": true,
				"m": {
					"text": "a small piece of cat fur sealed inside a small box."
				}
			},
			"duration": [
				{
					"type": "timed",
					"duration": {
						"type": "minute",
						"amount": 1
					},
					"concentration": true
				}
			],
			"classes": {
				"fromSubclass": [
					{
						"class": {
							"name": "Wizard",
							"source": "PHB"
						},
						"subclass": {
							"name": "Wild Mage",
							"source": "DnDWikiWildMagic",
							"shortName": "Wild Mage"
						}
					},
					{
						"class": {
							"name": "Sorcerer",
							"source": "PHB"
						},
						"subclass": {
							"name": "Wild Magic",
							"source": "PHB",
							"shortName": "Wild Magic"
						}
					}
				]
			},
			"source": "DnDWikiWildMagic",
			"entries": [
				"这种奇特的野性魔法在存在的概率中创造了一种随机的波动。该法术只能对非生命体施放，并且只能影响10'x10'x10'立方体内的材料。",
				"影响范围内的物体要么保持正常可见，要么消失（50%的几率）。任何物体的存在状态都是随机决定的，并随着每次观看和观看者的变化而变化。因此，一个物体在施法过程中可能会出现和消失几次。此外，它可能对一个旁观者来说是 \"存在\"，但对另一个旁观者来说是 \"不存在\"。",
				"例如，一个野生法师对一个门洞施展这个法术。DM掷出百分率骰子，确定这扇门对巫师来说是 \"存在 \"的。巫师的同伴也看了看门。管理员掷骰子，确定门对同伴来说 \"不在那里\"。两人研究了几分钟，在此期间，门没有变化（这算作每个角色的一次观察）。然后巫师和他的同伴闭上眼睛。当他们再次看门的时候，每个角色的新检查显示，门对两个角色来说都是 \"不存在 \"的。",
				"这对夫妇走过打开的拱门，转身再次看向门。",
				"这次它对巫师来说是 \"不在\"，但对他的同伴来说是 \"在\"。这种随机变化在整个咒语的持续时间内持续进行。",
				"那些 \"存在 \"的物体在各方面都是正常的。门可以被打开，箱子可以被拿起和搬运，石头可以被用作路障。而 \"不存在 \"的物体则消失了，尽管它们的缺失并不会导致天花板坍塌或其他损坏。巫师可以毫无困难地穿过一堵 \"不存在 \"的墙。",
				"当两方对一个 \"有/无 \"的物体有不同的感知时，该物体就会根据自己的感知对每一方发挥作用。例如，一个巫师躲在一块石头后面，他认为那是 \"存在\"。她的敌人，一个战士，认为岩石是 \"不存在的\"，并向巫师射出了箭。巫师会认为箭被石头弹开，而战士会认为箭没有射中目标或没有射中。",
				"斗士在每次射箭前都要接受检查，以确定他的感知是否发生了变化（假设斗士每次射箭时都必须远离岩石；每次瞄准时，都算作一次新的观察）。",
				"在施法后，任何从效果区移出的物体都会在施法期间保持其不确定的存在。因此，一对英雄可以拿起一个宝箱，把它搬到大厅里，放下它，然后发现它在他们转身的时候消失了。更糟糕的是，一个人可能看到了宝箱，而另一个人却没有看到"
			]
		},
		{
			"name": "Unluck",
			"level": 4,
			"school": "W",
			"subschools": [
				"V"
			],
			"time": [
				{
					"number": 1,
					"unit": "action"
				}
			],
			"range": {
				"type": "sphere",
				"distance": {
					"type": "feet",
					"amount": 30
				}
			},
			"components": {
				"v": true,
				"s": true,
				"m": {
					"text": "a piece of a broken mirror."
				}
			},
			"duration": [
				{
					"type": "timed",
					"duration": {
						"type": "minute",
						"amount": 1
					},
					"concentration": true
				}
			],
			"classes": {
				"fromSubclass": [
					{
						"class": {
							"name": "Wizard",
							"source": "PHB"
						},
						"subclass": {
							"name": "Wild Mage",
							"source": "DnDWikiWildMagic",
							"shortName": "Wild Mage"
						}
					},
					{
						"class": {
							"name": "Sorcerer",
							"source": "PHB"
						},
						"subclass": {
							"name": "Wild Magic",
							"source": "PHB",
							"shortName": "Wild Magic"
						}
					}
				]
			},
			"source": "DnDWikiWildMagic",
			"entries": [
				"通过这个法术，野性法师在一个生物周围的随机力量中创造一个负面的模式。该生物被允许进行救赎，如果成功，咒语失败。如果蓄力失败，随机机会就会落入一个不吉利的模式。在接下来的2-20回合内，受害者进行的任何涉及随机机会的行动（即任何一次掷骰子影响到角色）都处于劣势；更坏的结果总是被应用。(受害者在攻击、伤害、蓄力等方面会掷两次骰子，总是使用较差的骰子。）",
				"幸运石或类似的魔法装置会否定不吉利。然而，这样做会使该魔法物品在{@dice 2d10}回合内无法发挥作用。"
			],
			"entriesHigherLevel": [
				{
					"type": "entries",
					"name": "At Higher Levels",
					"entries": [
						"在更高的法术槽等级，DC增加1；你不能自愿在这个法术上花费额外的法术槽等级。"
					]
				}
			]
		},
		{
			"name": "Vortex",
			"level": 2,
			"school": "W",
			"subschools": [
				"V"
			],
			"time": [
				{
					"number": 1,
					"unit": "action"
				}
			],
			"range": {
				"type": "point",
				"distance": {
					"type": "feet",
					"amount": 30
				}
			},
			"components": {
				"v": true,
				"s": true,
				"m": {
					"text": "a silk streamer and a handful of straw."
				}
			},
			"duration": [
				{
					"type": "timed",
					"duration": {
						"type": "minute",
						"amount": 1
					},
					"concentration": true
				}
			],
			"classes": {
				"fromSubclass": [
					{
						"class": {
							"name": "Wizard",
							"source": "PHB"
						},
						"subclass": {
							"name": "Wild Mage",
							"source": "DnDWikiWildMagic",
							"shortName": "Wild Mage"
						}
					},
					{
						"class": {
							"name": "Sorcerer",
							"source": "PHB"
						},
						"subclass": {
							"name": "Wild Magic",
							"source": "PHB",
							"shortName": "Wild Magic"
						}
					}
				]
			},
			"source": "DnDWikiWildMagic",
			"entries": [
				"漩涡是一团魔法能量的漩涡，施法者几乎无法控制。在施法的那一轮，一个小的闪光点充斥在所需位置的空气中。在第二轮时，一个7英尺高的多色龙卷风出现。从这一刻起，施法者必须保持注意力集中，以使漩涡继续存在。",
				"每一轮，施法者可以将漩涡移动60英尺。然而，对方向的控制并不完美。施法者可以完全控制距离，但只能建议想要的方向。施法者有50%的机会将漩涡移向他所期望的方向；如果掷骰子显示失败，漩涡就会根据手榴弹式导弹的散布图移动。因此，漩涡通常会向所希望的大方向移动，但有时也会向两侧或直接向施法者移动。漩涡不能穿过大于其作用范围的物体（它可以穿过小树苗，但不能穿过古橡树），并且会被这些物体重新定向，沿着一般的运动路线反弹。例如，如果在一个狭窄的走廊里施放，漩涡可能会在走廊里反弹，从一边弹到另一边。",
				"漩涡是由原始魔法能量组成的。被漩涡击中的非魔法生物会受到{@dice 2d4}点随机类型的能量伤害(力量、死亡、辐射、火、冷、闪电)。魔法生物和施法者受到{@dice 2d8}点的伤害。被击中的生物被允许对魔法进行救赎，只受到一半的伤害。",
				"每次有生物被击中，就有5%的机会让漩涡爆发出狂暴的力量。使用{@table Wild Magic 2|wldm|Table 2}来决定任何狂涌的结果。如果漩涡导致了狂涌，则法术立即结束。"
			],
			"entriesHigherLevel": [
				{
					"type": "entries",
					"name": "At Higher Levels",
					"entries": [
						"漩涡对非魔法生物造成额外的{@dice d4}点伤害，对魔法生物造成额外的{@dice d8}"
					]
				}
			],
			"roll20Spell": [
				{
					"name": "Vortex",
					"source": "DnDWikiWildMagic",
					"data": {
						"Save": "Dexterity",
						"Damage": "2d4 ",
						"Damage Type": "Random damage type",
						"Save Success": "Half damage",
						"Higher Spell Slot Die": "d4",
						"Higher Spell Slot Dice": "1"
					}
				}
			]
		},
		{
			"name": "Wildfire",
			"level": 9,
			"school": "W",
			"subschools": [
				"V"
			],
			"time": [
				{
					"number": 1,
					"unit": "action"
				}
			],
			"range": {
				"type": "point",
				"distance": {
					"type": "self"
				}
			},
			"components": {
				"v": true
			},
			"duration": [
				{
					"type": "timed",
					"duration": {
						"type": "hour",
						"amount": 24
					},
					"concentration": true
				}
			],
			"classes": {
				"fromSubclass": [
					{
						"class": {
							"name": "Wizard",
							"source": "PHB"
						},
						"subclass": {
							"name": "Wild Mage",
							"source": "DnDWikiWildMagic",
							"shortName": "Wild Mage"
						}
					},
					{
						"class": {
							"name": "Sorcerer",
							"source": "PHB"
						},
						"subclass": {
							"name": "Wild Magic",
							"source": "PHB",
							"shortName": "Wild Magic"
						}
					}
				]
			},
			"source": "DnDWikiWildMagic",
			"entries": [
				"通过这个咒语，野生法师能够通过自己引导原始的魔法能量，将其塑造成他想要的任何形式或效果。这种能量在许多方面与愿望咒语相似，但也有独特的区别。",
				"野火允许施法者创造任何8级或以下的巫师法术的效果。他只需要对该法术及其效果有一般的了解；该法术不需要在他自己的法术书中出现。",
				"法术攻击和法术效果的DC是以+2进行的。",
				"野火也可用于创造魔法物品。法术创造的能量可以用来产生已知法术无法创造的效果。",
				"野火也可以用来无中生有地创造世俗的物品。魔法能量可以被塑造和硬化，形成固体物体。这些物体具有绿色的、发光的色彩，并放射出魔法。这些物体比钢铁更坚固，但几乎没有重量。它们对火、冷、电和所有形式的魔法攻击都免疫，除了驱散魔法和愿望法术。即使它们受到这些法术的影响，也允许进行救赎（等同于创造者对法术的救赎）。",
				"当创造物体时，施法者只受限于他自己的技能和物体的尺寸。大于10英尺半径球体的物品不能被制造出来。创造物体只需要一个回合，无论大小。因此，一个巫师可以用这个法术制造一个坚不可摧的穹顶或一艘小船。",
				"由野火制成的物体既不稳定也不永久。由于物体是由与魔法连续体分离的魔法制成的，所以材料会逐渐变坏，直到魔法束缚变得太弱，无法将野火保持在所选择的形式，直到第一次短期或长期的休息。"
			]
		},
		{
			"name": "Wildshield",
			"level": 4,
			"school": "W",
			"subschools": [
				"A"
			],
			"time": [
				{
					"number": 1,
					"unit": "action"
				}
			],
			"range": {
				"type": "point",
				"distance": {
					"type": "self"
				}
			},
			"components": {
				"v": true,
				"s": true,
				"m": {
					"text": "a small sponge"
				}
			},
			"duration": [
				{
					"type": "timed",
					"duration": {
						"type": "minute",
						"amount": 1
					},
					"concentration": true
				}
			],
			"classes": {
				"fromSubclass": [
					{
						"class": {
							"name": "Wizard",
							"source": "PHB"
						},
						"subclass": {
							"name": "Wild Mage",
							"source": "DnDWikiWildMagic",
							"shortName": "Wild Mage"
						}
					},
					{
						"class": {
							"name": "Sorcerer",
							"source": "PHB"
						},
						"subclass": {
							"name": "Wild Magic",
							"source": "PHB",
							"shortName": "Wild Magic"
						}
					}
				]
			},
			"source": "DnDWikiWildMagic",
			"entries": [
				"这个法术将施法者笼罩在一个闪烁着色彩的漩涡中，完全掩盖了他的身份。施法者能够正常看到防护罩内和防护罩外的情况。",
				"魔法盾保护施法者免受法术和魔法物品的影响。盾牌可以完全吸收{@dice 2d6}的法术等级（即如果掷出{@dice 2d6}的结果为10，则盾牌可以吸收十个一级法术，两个五级法术，或任何类似的组合），从而否定它们对施法者的影响。区域效应的法术和那些单独针对野生法师的法术都可以被吸收。在区域法术的情况下，野性盾牌只保护法师。效应区域内的所有其他人都会受到该法术的正常影响。",
				"野性盾牌也能防止野性涌动，无论是由施法者的魔法还是由外部来源引起的。每一次狂涌都被认为等于（%0%）法术等级。咒语一直有效，直到它被施法者取消或达到其咒语等级容量。如果正好达到容量，野性盾牌就会简单地停止作用。然而，如果野性盾牌被超过它所能吸收的法术等级所击中，它就会爆发出狂暴的波动。触发激增的法术被完全否定，其能量反而转化为狂暴的激增（见表2）。由于护盾不再起作用，之前被保护的巫师会受到这个狂暴浪潮的全部影响。"
			]
		},
		{
			"name": "Wildstrike",
			"level": 4,
			"school": "W",
			"subschools": [
				"C"
			],
			"time": [
				{
					"number": 1,
					"unit": "action"
				}
			],
			"range": {
				"type": "point",
				"distance": {
					"type": "feet",
					"amount": 30
				}
			},
			"components": {
				"v": true,
				"s": true,
				"m": {
					"text": "a small glass tube that is shattered in the casting"
				}
			},
			"duration": [
				{
					"type": "timed",
					"duration": {
						"type": "minute",
						"amount": 1
					},
					"concentration": true
				}
			],
			"classes": {
				"fromSubclass": [
					{
						"class": {
							"name": "Wizard",
							"source": "PHB"
						},
						"subclass": {
							"name": "Wildmage)",
							"source": "DnDWikiWildMagic",
							"shortName": "Wildmage)"
						}
					}
				]
			},
			"source": "DnDWikiWildMagic",
			"entries": [
				"这个法术主要用于对付敌对的施法者。它扭曲了所有的施法尝试，将法术能量转化为疯狂的涌动。",
				"野性打击的受害者被允许进行智力救赎，如果成功，咒语没有效果。如果蓄力失败，目标会被包围在一个野性的魔法场中。如果受害者施展法术或使用魔法物品的冲锋，就会自动产生一个野性冲击（参考（%0%））。在确定这个激增的效果时，施放野性冲击的野性法师的真实等级会从掷骰子中减去，使野性激增的效果更容易影响到受害者。",
				"每产生一次野性涌动，野性法师必须进行一次注意力检查。"
			],
			"savingThrow": [
				"intelligence"
			]
		},
		{
			"name": "Wildwind",
			"level": 9,
			"school": "W",
			"subschools": [
				"C"
			],
			"time": [
				{
					"number": 1,
					"unit": "action"
				}
			],
			"range": {
				"type": "point",
				"distance": {
					"type": "feet",
					"amount": 120
				}
			},
			"components": {
				"v": true,
				"s": true
			},
			"duration": [
				{
					"type": "timed",
					"duration": {
						"type": "minute",
						"amount": 1
					},
					"concentration": true
				}
			],
			"classes": {
				"fromSubclass": [
					{
						"class": {
							"name": "Wizard",
							"source": "PHB"
						},
						"subclass": {
							"name": "Wildmage)",
							"source": "DnDWikiWildMagic",
							"shortName": "Wildmage)"
						}
					}
				]
			},
			"source": "DnDWikiWildMagic",
			"entries": [
				"这个法术的效果类似于野战和野区。当施法时，在施法者指定的地点涌现出一堵微弱的、多色的光线。这些光形成一条150英尺长的线。在施法的第一轮后，巫师可以移动光墙。每一轮，施法者都可以在同一方向或向两侧移动多达45度的墙。一旦光墙开始运动，它就无法停止，除非法术被取消或驱散。灯光每回合可以移动60英尺。",
				"野风有两个显著的效果。首先，所有被魔光击中的生物都会受到（%0%）点武力伤害。其次，任何施法者在集中精力或施法时被击中，会自动触发狂风（使用（%1%））。消耗电荷的魔法物品接触到光墙时，会在施法时自动释放一个电荷，如果魔法物品在施法者的回合结束时仍在，或在他们再次接触时再次释放电荷，也会导致狂涌。"
			]
		},
		{
			"name": "Wildzone",
			"level": 9,
			"school": "W",
			"subschools": [
				"C"
			],
			"time": [
				{
					"number": 1,
					"unit": "action"
				}
			],
			"range": {
				"type": "point",
				"distance": {
					"type": "feet",
					"amount": 120
				}
			},
			"components": {
				"v": true,
				"s": true,
				"m": {
					"text": "several pots of paint which must be spilled across a sheet of hammered silver worth no less than 2,000 gp",
					"cost": 200000
				}
			},
			"duration": [
				{
					"type": "timed",
					"duration": {
						"type": "hour",
						"amount": 1
					},
					"concentration": true
				}
			],
			"classes": {
				"fromSubclass": [
					{
						"class": {
							"name": "Wizard",
							"source": "PHB"
						},
						"subclass": {
							"name": "Wildmage)",
							"source": "DnDWikiWildMagic",
							"shortName": "Wildmage)"
						}
					}
				]
			},
			"source": "DnDWikiWildMagic",
			"entries": [
				"这个强大的法术创造了一个类似于野生魔法区（魔法效果被永久改变的区域）中发现的条件的魔法力量的破坏。这个法术只有暂时的效果，尽管野生区的效果有可能变成永久性的。",
				"该法术以施法者为中心创造一个野生的魔法区域。效果区域不能以任何方式被塑造，它始终是一个每边长300英尺的正方形（90000平方英尺）。",
				"在野区内，野性的魔法统治着。任何在效果区域内施放的法术都会被自动视为野性涌动（见（%0%））。当在该区域内使用时，来自消耗电荷的魔法物品的效果也会被视为野性激增。其他魔法物品的功能正常。从效果区外施放到野区的法术正常运作，但如果不触发野性涌动，则不能在效果区外施放法术。"
			],
			"meta": {
				"ritual": true
			}
		},
		{
			"name": "Nahal's Reckless Dweomer",
			"level": 0,
			"school": "W",
			"subschools": [
				"I"
			],
			"time": [
				{
					"number": 1,
					"unit": "bonus"
				}
			],
			"range": {
				"type": "point",
				"distance": {
					"type": "self"
				}
			},
			"components": {
				"v": true,
				"s": true
			},
			"duration": [
				{
					"type": "instant"
				}
			],
			"classes": {
				"fromSubclass": [
					{
						"class": {
							"name": "Wizard",
							"source": "PHB"
						},
						"subclass": {
							"name": "Wild Mage",
							"source": "DnDWikiWildMagic",
							"shortName": "Wild Mage"
						}
					},
					{
						"class": {
							"name": "Sorcerer",
							"source": "PHB"
						},
						"subclass": {
							"name": "Wild Magic",
							"source": "PHB",
							"shortName": "Wild Magic"
						}
					}
				]
			},
			"source": "DnDWikiWildMagic",
			"entries": [
				"这个咒语是野性法师的终极最后手段。施放时，法师会突然释放大量的野生魔法能量，希望能抓住这些能量并将其塑造成所需的法术效果。这种尝试通常会失败，但在这个过程中几乎总会发生一些事情。",
				"在施法之前，法师要宣布他要创造的法术效果。法师必须能够施展该法术（即在他的法术书中有该法术），但不需要有该法术槽的等级。在宣布咒语（以及目标和咒语所要求的任何其他条件）后，野性法师施放纳哈勒的鲁莽威玛。一阵魔法能量被释放出来，野生法师试图将其操纵成所需的形式。咒语的实际效果在野性突发结果中随机滚动。",
				"因为能量的释放是由法师计划的，他们的等级可以加到掷骰子上。如果结果显示成功，法师就将魔法能量塑造成了所需的效果。更多时候，效果是完全出乎意料的。 结果可能对法师有利，也可能完全是灾难性的；这就是法师在施放纳哈勒的鲁莽德威姆时所冒的风险。",
				{
					"type": "table",
					"caption": "Optional Caption",
					"colLabels": [
						"d100",
						"Surge Result"
					],
					"colStyles": [
						"col-2 text-center",
						"col-10 text-align"
					],
					"rows": [
						[
							"01",
							"条目数应与列数一致，自然*。"
						],
						[
							"02-99",
							"条目数应与列数一致，自然*。"
						],
						[
							"100",
							"条目数应与列数一致，自然*。"
						]
					]
				}
			],
			"entriesHigherLevel": [
				{
					"type": "entries",
					"name": "At Higher Levels",
					"entries": [
						"当你使用1级或更高的法术槽施展此法术时，当你产生一个狂暴的结果时，你可以在狂暴的结果上加上（所使用的法术槽等级的5倍）。"
					]
				}
			]
		}
	],
	"table": [
		{
			"name": "Wild Surge Table 1",
			"source": "DnDWikiWildMagic",
			"caption": "WILD Magic Surge Table",
			"colLabels": [
				"d100",
				"Result"
			],
			"colStyles": [
				"col-2 text-center",
				"col-10"
			],
			"rows": [
				[
					"1或更少",
					"你爆炸，对你周围30英尺内的所有东西造成(你的等级){@dice d6}的伤害(你立即变成0HP)，死亡拯救处于不利地位)"
				],
				[
					"2",
					"你会在自己周围产生一个爆炸，其功能与火球类似，只是你也是一个目标，伤害为{@dice 4d4}穿刺和{@dice 4d4}切割伤害。"
				],
				[
					"3",
					"你以自己为中心施放火球术3级法术槽（你在劣势下保存）。"
				],
				[
					"4",
					"施法者失去(他们的等级){@dice d4}最大命中率，直到长期休息。"
				],
				[
					"5",
					"你所有的法术槽都会在当天瞬间耗尽"
				],
				[
					"6",
					"党的总财富的一半消失了（%0%）天"
				],
				[
					"7",
					"魔法使用者在{@dice 2d4}天内失去施展或甚至使用魔法物品的能力)"
				],
				[
					"8",
					"在你的金属物体上施放热金属--持续（你的等级）回合。"
				],
				[
					"9",
					"你对自己施展全能多面体，变成一个随机的生物（或由你的管理员选择）。该法术在持续时间内自动保持集中状态。它不能被永久化。"
				],
				[
					"10",
					"如果你的法术造成伤害，它将造成最小的伤害。如果原来的咒语有一个蓄力动作，目标会自动成功。你的法术的持续时间将是最小的"
				],
				[
					"11",
					"你被传送到星界，直到你的下一回合结束，之后你会回到你之前占据的空间，如果该空间被占据，则回到最近的无人空间。"
				],
				[
					"12",
					"在桌子上滚动两次（下次滚动时不可能有优势）。"
				],
				[
					"13",
					"以施法者为中心的反魔法场（浪费法术），持续1轮；驱除以施法者为中心的所有魔法，包括自己的法术"
				],
				[
					"14",
					"你受到{@dice 2d8}的辐射伤害，离你最近的盟友重新获得与你所受伤害相等的命中率。"
				],
				[
					"15",
					"你的法术失败了，但法术槽没有被消耗（如果这适用的话）；如果它没有对你自己的DC进行救赎，或者变成失明和失聪持续到他们在每个回合开始时成功救赎。"
				],
				[
					"16",
					"原有的法术以施法者为目标。"
				],
				[
					"17",
					"30英尺内的每个人都用与预定法术槽等级相同的 \"伤害 \"来代替击中。"
				],
				[
					"18",
					"施法者被扣留（就像对扣留者施法失败一样），没有施法。"
				],
				[
					"19",
					"你会对魔法物品过敏，直到对你施放驱散魔法或较小的恢复。每当你身上有魔法物品时，你就会到处发痒，并经常打喷嚏。（每次施法或失去法术时都要集中注意力。）"
				],
				[
					"20",
					"For the next minute, MUST move their maximum allowable walking distance away from their current possition EACH TURN. If they would hit a wall, they take {@dice 1d6} bludgeoning damage and stop. DC 10 Dex save to not fall prone. The path must be as straight as is possible (They cannot move back and forth between two squares)."
				],
				[
					"21",
					"目标的衣服发痒（主动性为-4）"
				],
				[
					"22",
					"你被包围了。你在1分钟内只能移动你总速度的一半。"
				],
				[
					"23",
					"你惊慌失措，试图逃跑! 你必须逃离你的目标"
				],
				[
					"24",
					"你被激怒了! 下次在同一遭遇中，你的法术失败或你的攻击失误时，你必须采取一个额外行动来攻击离你最近的目标。"
				],
				[
					"25",
					"施术者的生理性别被改变"
				],
				[
					"26",
					"你是魅惑者法术的目标。失败=被敌方生物魅惑。"
				],
				[
					"27",
					"你是 \"赐予诅咒 \"咒语的目标。"
				],
				[
					"28",
					"施法者在法术持续期间闻起来像臭鼬（臭云）。"
				],
				[
					"29",
					"在接下来的一分钟里，你已经变成了哑巴。"
				],
				[
					"30",
					"你会感到可怕的晕眩；必须掷出集中力来施展；掷出灵巧的救赎，否则就会倒地。持续2个回合。"
				],
				[
					"31",
					"当你尝试说话时，你的嘴里会冒出五颜六色的泡泡，而不是文字。"
				],
				[
					"32",
					"你的头发脱落（但在下一次长时间的休息后会重新生长）。"
				],
				[
					"33",
					"滚动{@dice d10}你的年龄变化(偶数增加，奇数减少)"
				],
				[
					"34",
					"掷一个{@dice d10}，你的身高会改变，改变的英寸数等于掷出的数值(偶数你成长，奇数你缩小)"
				],
				[
					"35",
					"一道亮光闪过。(智慧拯救或失明{@dice 1d6}回合。)"
				],
				[
					"36",
					"原始法术的目标是DM选择的盟友。"
				],
				[
					"37",
					"咒语目标改变生物性别。"
				],
				[
					"38",
					"目标必须保存，否则会被石化"
				],
				[
					"39",
					"你受到的影响与你的目标相同"
				],
				[
					"40",
					"你对你选择的目标施放侦测思想。如果你的目标不是生物，你会受到{@dice 1d6}的精神伤害。"
				],
				[
					"41",
					"在接下来的一分钟里，你接触到的任何没有被生物佩戴或携带的易燃物都会着火。"
				],
				[
					"42",
					"你转而施展 \"美好\"。"
				],
				[
					"43",
					"在以目标为中心的60英尺范围内的地面上长出草来。如果那里已经有了草，它将长到正常大小的10倍，并保持1分钟的过度生长。"
				],
				[
					"44",
					"一团由600只超大的蝴蝶组成的云充满了以目标为中心的30英尺半径的范围。该区域变得严重遮蔽。蝴蝶保持10分钟"
				],
				[
					"45",
					"在以目标为中心的60英尺范围内下大雨。该区域变得轻度遮蔽。大雨会一直下到你下一个回合开始。"
				],
				[
					"46",
					"在他们每个回合开始时，一只动物出现在离目标最近的无人空间。这只动物不受你的控制，并像平时一样行动。掷出{@dice d100}来决定哪个动物出现。01-25时，犀牛出现；26-50时，大象出现；51-100时，老鼠出现。"
				],
				[
					"47",
					"你的法术变成了一阵阵的花朵。这没有什么作用。"
				],
				[
					"48",
					"一阵五颜六色的闪光从你身上延伸到半径30英尺的范围内。你和该区域内每个能看见的生物必须在DC 15宪法规定的蓄力动作上获得成功，否则会失明1分钟。一个生物可以在它的每个回合结束时重复这个蓄力动作，如果成功则结束对它的影响。"
				],
				[
					"49",
					"对半径60英尺范围内的每个人都施放 \"保持人\"。"
				],
				[
					"50",
					"你发出一个神奇的警报，60英尺内可以清楚地听到，另外60英尺内可以模糊地听到。"
				],
				[
					"51",
					"你在{@dice 5d6}天内对醉酒有免疫力"
				],
				[
					"52",
					"叶子从目标处生长。如果你选择空间中的一个点作为目标，叶子就会从离该点最近的生物身上长出。除非它们被摘下来，否则叶子会变成褐色，并在24小时后脱落。"
				],
				[
					"53",
					"施术者的四肢是隐形的"
				],
				[
					"54",
					"目标上的所有布条都碎成了灰尘"
				],
				[
					"55",
					"所有的门、窗、箱子和任何在你周围60英尺内被锁住的东西都会立即解锁。"
				],
				[
					"56",
					"目标的皮肤变成明亮的蓝色，持续{@dice 1d10}天。如果你选择了空间中的一个点，离该点最近的生物会受到影响。"
				],
				[
					"57",
					"每个人都随机地与对方交换位置"
				],
				[
					"58",
					"闪闪发光的微粒在施法者的头上跳舞，直到天亮"
				],
				[
					"59",
					"施法者发出亮光（在你周围5英尺范围内结束其回合的生物会失明，直到其下一回合结束。"
				],
				[
					"60",
					"你感到精力充沛，焦躁不安（主动性+4）。"
				],
				[
					"61",
					"你的额头中间长出一只眼睛。在接下来的一分钟里，你可以像用真视力一样看到东西，但魅力技能是缺点。"
				],
				[
					"62",
					"你缩小了1个尺寸，持续1分钟。"
				],
				[
					"63",
					"一个由DM选择和控制的Modron出现在一个无人的空间。"
				],
				[
					"64",
					"你在1分钟内增长1个尺寸。"
				],
				[
					"65",
					"{@dice 5d20} 金块在你身上出现"
				],
				[
					"66",
					"在目标人物身上产生的随机物品/宝物。"
				],
				[
					"67",
					"一股{@dice 1d4 × 10}的宝石流，每颗价值1金币，从你的指尖射出，排成30英尺长、5英尺宽。每颗宝石造成1个重击伤害，宝石的总伤害由线上的所有生物均分。"
				],
				[
					"68",
					"你可以对自己施展祝福术（无需集中注意力，持续1分钟）。"
				],
				[
					"69",
					"你对自己施展圣域，而不需要花费一个法术槽（持续1分钟）。"
				],
				[
					"70",
					"下一个死亡的生物将自动恢复到满值，并失去所有状态效果/条件。"
				],
				[
					"71",
					"目标获得镜象的好处。"
				],
				[
					"72",
					"你可以传送到离你当前位置60英尺以外的随机地点。"
				],
				[
					"73",
					"目标变成俯卧。如果没有目标，施法者会立即俯卧。"
				],
				[
					"74",
					"目标会在1分钟内被束缚。它的行动被削减一半。"
				],
				[
					"75",
					"你创造一个目标的临时替身；持续到下一回合。替身会跟随并模仿相同的动作。(如果没有目标，你就是目标）。"
				],
				[
					"76",
					"你转而施放睡眠，以你为中心。"
				],
				[
					"77",
					"在目标上空形成一个小的黑色雨云，持续10分钟{Recharge 1,2}一个闪电击中{@dice 2d4}闪电伤害。"
				],
				[
					"78",
					"目标必须进行智慧救赎，否则就会疯狂地爱上施法者。生物每分钟会有一次新的救赎。"
				],
				[
					"79",
					"所有在施法者30英尺范围内的生物都要进行宪法救赎，否则会开始打嗝，持续1小时。"
				],
				[
					"80",
					"你周围30英尺内的每个生物都会受到{@dice 1d6}坏死伤害。你恢复的HP等于受到的坏死伤害之和。"
				],
				[
					"81",
					"30英尺内的每个人都被同槽的治愈伤痛法术击中。"
				],
				[
					"82",
					"{@dice 1d4}当地的守卫者不知从哪里冒出来，在你身边作战，最多5个回合。"
				],
				[
					"83",
					"施法者被传送到星界，直到下一回合结束，重新出现在同一广场或最近的一个广场。"
				],
				[
					"84",
					"你的攻击力提高2，并在1分钟内对魔法飞弹免疫。"
				],
				[
					"85",
					"你的最大HP上升{@dice 1d10}，持续1分钟。"
				],
				[
					"86",
					"施法者每回合恢复5点生命值，持续1分钟。"
				],
				[
					"87",
					"你对自己施展真气多变术，变成你所选择的生物。该法术会自动起到集中的作用。你保持这个形态直到有人驱散它的魔力。你会获得该形态的属性和能力。"
				],
				[
					"88",
					"你在每个回合结束时随机地多态，持续1分钟。"
				],
				[
					"89",
					"你周围60英尺内的一个随机生物会中毒，持续{@dice d4}小时。"
				],
				[
					"90",
					"你恢复了你的施法者等级的法术槽。"
				],
				[
					"91",
					"一个随机的生物出现，开始跟随目标并唱歌，直到你下一回合结束。"
				],
				[
					"92",
					"你周围20英尺范围内的所有人都被烤焦了。"
				],
				[
					"93",
					"如果你在接下来的一分钟内死亡，你会立即复活，就像通过转世咒语一样。"
				],
				[
					"94",
					"你的法术效果对你来说似乎是正常的，但它是一种幻觉，法术槽没有被消耗（如果这适用的话）。"
				],
				[
					"95",
					"你的法术效果似乎没有对你产生影响。然而目标/接受者确实看到并体验到了法术的效果。如果你是目标，请用你自己的DC进行救赎，否则就会被迷惑，直到你下一轮开始。"
				],
				[
					"96",
					"你的法术效果是正常的，但采取的是使用高一级的法术槽（如果可能）。"
				],
				[
					"97",
					"你的法术效果是正常的。你的法术持续时间将是最大的，不需要集中精力。"
				],
				[
					"98",
					"你的法术效果是正常的。如果你的法术造成伤害，它将造成最大的伤害。"
				],
				[
					"99",
					"咒语效果生效，下一回合。"
				],
				[
					"100",
					"法术效果没有变化。"
				],
				[
					"101",
					"你的咒语如常进行，并且你在咒语的每一个咒语槽等级中获得1个临时的HP"
				],
				[
					"102",
					"咒语效果如常进行。如果原来的法术有救赎，目标的救赎处于不利地位。"
				],
				[
					"103",
					"咒语效果如常进行。如果原来的法术有一个蓄力动作，目标自动失败。"
				],
				[
					"104",
					"咒语效果如常进行。你的法术持续时间将是最大值（不需要集中精力）。"
				],
				[
					"105",
					"你的咒语会照常生效。如果你的咒语造成了伤害，它将造成最大的伤害。如果没有，你施放的下一个伤害法术将造成最大伤害。"
				],
				[
					"106",
					"你的法术会像正常情况下一样生效，但法术槽不会被消耗（如果这适用）。"
				],
				[
					"107",
					"奥术回声。咒语如常进行。然后在下一回合再次在相同的区域或针对相同的目标进行，并以这种方式持续数个回合，相当于该法术的插槽等级。"
				],
				[
					"108",
					"咒语照常生效，你身上或30英尺范围内的带电物品重新获得4个电荷，如果没有物品存在，则随机的普通物品变得有魔力（GM可以决定+1Messkit提供什么好处（如果有的话）"
				],
				[
					"109",
					"咒语效果如常进行。你的法术的持续时间、伤害等将在不集中的情况下达到最大。"
				],
				[
					"110 +",
					"法术效果（范围、持续时间、作用区域、伤害等）增加200%，法术被施放，法术的槽位却不被使用。"
				]
			]
		},
		{
			"name": "Random Dispatcher Results",
			"source": "DnDWikiWildMagic",
			"caption": "Hornung's Random Dispatcher Results",
			"colLabels": [
				"d100",
				"Plane"
			],
			"colStyles": [
				"col-2 text-center",
				"col-10"
			],
			"rows": [
				[
					"01-03",
					"深渊"
				],
				[
					"04-06",
					"Acheron"
				],
				[
					"07-12",
					"其他主要物质世界"
				],
				[
					"13-17",
					"阿卡迪亚"
				],
				[
					"18-23",
					"星界"
				],
				[
					"24-27",
					"兽地（快乐狩猎场）"
				],
				[
					"28-30",
					"协和的反对派"
				],
				[
					"31-35",
					"元素界（空气、火、土或水）。"
				],
				[
					"36-38",
					"极乐世界"
				],
				[
					"39-44",
					"虚空界"
				],
				[
					"45-47",
					"地狱（Gehenna）"
				],
				[
					"48-50",
					"格拉德海姆"
				],
				[
					"51-53",
					"哈迪斯"
				],
				[
					"54-58",
					"凌波微步"
				],
				[
					"59-61",
					"负的物质平面"
				],
				[
					"62-64",
					"负面的准平面（真空、灰烬、灰尘或盐）。"
				],
				[
					"65-67",
					"九层地狱"
				],
				[
					"68-70",
					"涅槃"
				],
				[
					"71-73",
					"奥林巴斯"
				],
				[
					"74-76",
					"大闹天宫"
				],
				[
					"77-79",
					"准元素位面（烟、岩浆、渗水或冰）。"
				],
				[
					"80-82",
					"阳性物质平面"
				],
				[
					"83-85",
					"正面的准平面（闪电、光芒、矿物或蒸汽）。"
				],
				[
					"86-91",
					"主物质层*"
				],
				[
					"92-94",
					"七重天"
				],
				[
					"95-97",
					"塔尔塔罗斯"
				],
				[
					"98-100",
					"双子乐园"
				]
			]
		},
		{
			"name": "Nahal's Wild Results",
			"source": "DnDWikiWildMagic",
			"caption": "Nahal's WILD Surge Results",
			"colLabels": [
				"d100",
				"Result"
			],
			"colStyles": [
				"col-2 text-center",
				"col-10"
			],
			"rows": [
				[
					"1",
					"你爆炸，对你周围30英尺内的所有东西造成(你的等级){@dice d6}的伤害(你立即变成0HP)，死亡拯救处于不利地位)"
				],
				[
					"2",
					"你会在自己周围产生一个爆炸，其功能与火球类似，只是你也是一个目标，伤害为{@dice 4d4}穿刺和{@dice 4d4}砍击伤害*。"
				],
				[
					"3",
					"你以自己为中心施放火球术3级法术槽（你在劣势下保存）。"
				],
				[
					"4",
					"施法者失去(他们的等级){@dice d4}最大命中率，直到长期休息。"
				],
				[
					"5",
					"你所有的法术槽都会在当天瞬间耗尽"
				],
				[
					"6",
					"党的总财富的一半消失了（%0%）天"
				],
				[
					"7",
					"魔法使用者在{@dice 2d4}天内失去施展或甚至使用魔法物品的能力)"
				],
				[
					"8",
					"在你30英尺范围内的每个生物都会变得隐身，持续1分钟。当任何一个生物攻击或施法时，隐身会结束。"
				],
				[
					"9",
					"小虫子不断地在你的裤腿上找到它们，并进入你的衬衫。它们掐人中，使你在接下来的24小时内无法轻松休息，无论你洗多少次澡。"
				],
				[
					"10",
					"如果你的法术造成伤害，它将造成最小的伤害。如果原来的咒语有一个蓄力动作，目标会自动成功。你的法术的持续时间将是最小的"
				],
				[
					"11",
					"你会呈现出死亡的苍白和坟墓的恶臭，持续24小时。在这段时间内，魔法会将你检测为不死之身，并且在这段时间内你不会投射出反射或阴影。"
				],
				[
					"12",
					"在桌子上滚动两次（下次滚动时不可能有优势）。"
				],
				[
					"13",
					"以施法者为中心的反魔法场（浪费法术），持续1轮；驱除以施法者为中心的所有魔法，包括自己的法术"
				],
				[
					"14",
					"你受到{@dice 2d8}的辐射伤害，离你最近的盟友重新获得与你所受伤害相等的命中率。"
				],
				[
					"15",
					"你的法术失败了，但法术槽没有被消耗（如果这适用的话）；如果它没有对你自己的DC进行救赎，或者变成失明和失聪持续到他们在每个回合开始时成功救赎。"
				],
				[
					"16",
					"原有的法术以施法者为目标。"
				],
				[
					"17",
					"30英尺内的每个人都被与预定法术槽等级相同的 \"伤害 \"所击中，而不是被预定法术所击中"
				],
				[
					"18",
					"施法者被扣留（就像对扣留者施法失败一样），没有施法。"
				],
				[
					"19",
					"你会对魔法物品产生过敏，直到对你施放驱散魔法或较小的恢复术。每次你身上有魔法物品时，你就会到处发痒，并经常打喷嚏。 (每次你施法时必须进行集中体质检查，否则就会失去法术。)"
				],
				[
					"20",
					"For the next minute, MUST move their maximum allowable walking distance away from their current possition EACH TURN. If they would hit a wall, they take {@dice 1d6} bludgeoning damage and stop. DC 10 Dex save to not fall prone. The path must be as straight as is possible (They cannot move back and forth between two squares)."
				],
				[
					"21",
					"目标的衣服发痒（主动性为-4）"
				],
				[
					"22",
					"你被包围了。你在1分钟内只能移动你总速度的一半。"
				],
				[
					"23",
					"你惊慌失措，试图逃跑! 你必须逃离你的目标"
				],
				[
					"24",
					"你被激怒了! 下次在同一遭遇中，你的法术失败或你的攻击失误时，你必须采取一个额外行动来攻击离你最近的目标。"
				],
				[
					"25",
					"你会中毒，持续{dice d4}小时。"
				],
				[
					"26",
					"你是魅惑者法术的目标。失败=被一个随机的敌方生物魅惑。"
				],
				[
					"27",
					"你是 \"赐予诅咒 \"咒语的目标。"
				],
				[
					"28",
					"施法者在法术持续期间闻起来像臭鼬（臭云）。"
				],
				[
					"29",
					"在接下来的一分钟里，你已经变成了聋子和哑巴。"
				],
				[
					"30",
					"你会感到可怕的晕眩；必须掷出宪法能力检查才能施展；掷出灵巧救赎，否则就会倒地。持续2个回合。"
				],
				[
					"31",
					"当你试图说话时，你的嘴里会冒出五颜六色的气泡，而不是文字，持续1个回合（有效地沉默）。"
				],
				[
					"32",
					"你的头发脱落（但在下一次长时间的休息后会重新生长）。"
				],
				[
					"33",
					"滚动一个{@dice d10}，你的年龄就会改变那么多（偶数增加，奇数减少）。"
				],
				[
					"34",
					"掷一个{@dice d10}，你的身高会改变多少英寸，等于掷一个(偶数你成长，奇数你缩小)。"
				],
				[
					"35",
					"一道亮光闪过。(智慧拯救或失明{@dice 1d6}回合。)"
				],
				[
					"36",
					"原始法术的目标是DM选择的盟友。"
				],
				[
					"37",
					"施术者在下一次攻击卷中拥有disandvante。"
				],
				[
					"38",
					"一个随机决定的咒语被施放，其目标也是随机决定的。"
				],
				[
					"39",
					"一个随机决定的咒语被施放。"
				],
				[
					"40",
					"你对你选择的目标施放侦测思想。如果你的目标不是生物，你会受到{@dice 1d6}的精神伤害。"
				],
				[
					"41",
					"在接下来的一分钟里，你接触到的任何没有被生物佩戴或携带的易燃物都会着火。"
				],
				[
					"42",
					"你转而施展 \"美好\"。"
				],
				[
					"43",
					"在以目标为中心的60英尺范围内的地面上长出草来。如果那里已经有了草，它将长到正常大小的10倍，并保持1分钟的过度生长。"
				],
				[
					"44",
					"一团由600只超大的蝴蝶组成的云充满了以目标为中心的30英尺半径的范围。该区域变得严重遮蔽。蝴蝶保持10分钟"
				],
				[
					"45",
					"在以目标为中心的60英尺范围内下大雨。该区域变得轻度遮蔽。大雨会一直下到你下一个回合开始。"
				],
				[
					"46",
					"在他们每个回合开始时，一只动物出现在离目标最近的无人空间。这只动物不受你的控制，并像平时一样行动。掷出{@dice d100}来决定哪个动物出现。01-25时，犀牛出现；26-50时，大象出现；51-100时，老鼠出现。"
				],
				[
					"47",
					"你的法术变成了一阵阵的花朵。这没有什么作用。"
				],
				[
					"48",
					"一阵五颜六色的闪光从你身上延伸到半径30英尺的范围内。你和该区域内每个能看见的生物必须在DC 15宪法规定的蓄力动作上获得成功，否则会失明1分钟。一个生物可以在它的每个回合结束时重复这个蓄力动作，如果成功则结束对它的影响。"
				],
				[
					"49",
					"对半径60英尺范围内的每个人都施放 \"保持人\"。"
				],
				[
					"50",
					"你发出一个神奇的警报，60英尺内可以清楚地听到，另外60英尺内可以模糊地听到。"
				],
				[
					"51",
					"你在{@dice 5d6}天内对醉酒有免疫力"
				],
				[
					"52",
					"叶子从目标处生长。如果你选择空间中的一个点作为目标，叶子就会从离该点最近的生物身上长出。除非它们被摘下来，否则叶子会变成褐色，并在24小时后脱落。"
				],
				[
					"53",
					"施术者的四肢是隐形的"
				],
				[
					"54",
					"目标上的所有布条都碎成了灰尘"
				],
				[
					"55",
					"所有的门、窗、箱子和任何在你周围60英尺内被锁住的东西都会立即解锁。"
				],
				[
					"56",
					"目标的皮肤变成明亮的蓝色，持续{@dice 1d10}天。如果你选择了空间中的一个点，离该点最近的生物会受到影响。"
				],
				[
					"57",
					"每个人都随机地与对方交换位置"
				],
				[
					"58",
					"闪闪发光的微粒在施法者的头上跳舞，直到天亮。半径10英尺的昏暗光线"
				],
				[
					"59",
					"施法者发出亮光（在你10英尺范围内结束其回合的生物会失明，直到其下一回合结束。亮光60英尺，暗光再60英尺。"
				],
				[
					"60",
					"你感到精力充沛，焦躁不安（主动性+4）。"
				],
				[
					"61",
					"你的额头中间长出一只眼睛。在接下来的一分钟里，你可以像用真视力一样看到东西，但魅力技能是缺点。"
				],
				[
					"62",
					"你缩小了1个尺寸，持续1分钟。"
				],
				[
					"63",
					"一个由DM选择和控制的Modron出现在一个无人的空间。"
				],
				[
					"64",
					"你在1分钟内增长1个尺寸。"
				],
				[
					"65",
					"{@dice 5d20} 金块在你身上出现"
				],
				[
					"66",
					"在目标人物身上产生的随机物品/宝物。"
				],
				[
					"67",
					"你的皮肤开始泛起彩虹般的色彩；你在接下来的一分钟内获得对所有伤害的抵抗。"
				],
				[
					"68",
					"你可以对自己施展祝福术（无需集中注意力，持续1分钟）。"
				],
				[
					"69",
					"你对自己施展圣域，而不需要花费一个法术槽（持续1分钟）。"
				],
				[
					"70",
					"下一个死亡的生物将自动恢复到满值，并失去所有状态效果/条件。"
				],
				[
					"71",
					"目标获得镜象的好处。"
				],
				[
					"72",
					"你可以传送到离你当前位置60英尺以外的随机地点。"
				],
				[
					"73",
					"目标变成俯卧。如果没有目标，施法者会立即俯卧。"
				],
				[
					"74",
					"目标会在1分钟内被束缚。它的行动被削减一半。"
				],
				[
					"75",
					"你创造一个目标的临时替身；持续到下一回合。替身会跟随并模仿相同的动作。(如果没有目标，你就是目标）。"
				],
				[
					"76",
					"你转而施放睡眠，以你为中心。"
				],
				[
					"77",
					"在目标上空形成一个小的黑色雨云，持续10分钟{Recharge 1,2}一个闪电击中{@dice 2d4}闪电伤害。"
				],
				[
					"78",
					"目标必须进行智慧救赎，否则就会疯狂地爱上施法者。生物每分钟会有一次新的救赎。"
				],
				[
					"79",
					"所有在施法者30英尺范围内的生物都要进行宪法救赎，否则会开始打嗝，持续1小时。"
				],
				[
					"80",
					"你周围30英尺内的每个生物都会受到{@dice 1d6}坏死伤害。你恢复的HP等于受到的坏死伤害之和。"
				],
				[
					"81",
					"30英尺内的每个人都被同槽的治愈伤痛法术击中。"
				],
				[
					"82",
					"{@dice 1d4}当地的守卫者不知从哪里冒出来，在你身边作战，最多5个回合。"
				],
				[
					"83",
					"你的魔法本质被宇宙硬性重置。在接下来的10分钟内，你的法术都会变成预言术，在这段时间结束后，你会恢复所有已用的法术槽，就像接受一整晚的休息一样。"
				],
				[
					"84",
					"你的AC值上升2，并在1分钟内对（%0%）免疫。"
				],
				[
					"85",
					"你的最大HP上升{@dice 1d10}，持续1分钟。"
				],
				[
					"86",
					"施法者每回合恢复5点生命值，持续1分钟。"
				],
				[
					"87",
					"你周围30英尺内的每个生物都会受到(X)d10的坏死伤害。你恢复的命中率与受到的坏死伤害之和相等。(X)等于你拥有的最高等级的可用法术槽。任何超过你的最大命中率的多余命中率都会成为持续1小时的额外命中率。"
				],
				[
					"88",
					"你在每个回合结束时随机地多态，持续1分钟。"
				],
				[
					"89",
					"你周围60英尺内的一个随机生物会中毒，持续{@dice d4}小时。"
				],
				[
					"90",
					"当你手中握着一根脉动的尼瑟弦时，力量在你的血管中流淌。在接下来的10个回合内，使你施放的下一个破坏性法术的伤害最大化。"
				],
				[
					"91",
					"一个随机的生物出现，开始跟随目标并唱歌，直到你下一回合结束。"
				],
				[
					"92",
					"你周围20英尺范围内的所有人都被烤焦了。"
				],
				[
					"93",
					"如果你在接下来的一分钟内死亡，你会立即复活，就像通过转世咒语一样。"
				],
				[
					"94",
					" 附近出现了一具臃肿的尸体。它似乎已经在阳光下晒了好几天了! 它的身体里有战利品，因为它是在它的巢穴里被杀死的。"
				],
				[
					"95",
					"你的双手长出奇怪的吸盘，可以排出一种粘稠的网状物质。你在攀爬和抓捕检查中具有优势，但必须进行力量检查才能释放所持物品。这个效果持续24小时。"
				],
				[
					"96",
					"你的魔法精华被宇宙硬性重置。在接下来的10分钟内，你的法术都会变成预知性的，在这段时间结束时，你会恢复所有花费的法术槽，就像接受一整晚的休息一样。"
				],
				[
					"97",
					"滑溜溜的! 在生物的回合开始时，他们必须做出Dex救赎，否则就会倒地。(包括飞行生物。)这将持续10分钟。所有地面上的上坡运动需要每1英尺移动5英尺。"
				],
				[
					"98",
					"一些五彩缤纷的猴子开始蹦蹦跳跳地出现，如果攻击没有击中目标的AC值5或更少，反而会击中其中一只猴子（HP2 ）。"
				],
				[
					"99",
					"你的法术效果是正常的。法术效果（范围、持续时间、作用区域、伤害等）翻倍。"
				],
				[
					"100+",
					"产生预期的法术结果。"
				]
			]
		}
	],
	"subclassFeature": [
		{
			"name": "Wild Magic",
			"source": "DnDWikiWildMagic",
			"page": 112,
			"className": "Wizard",
			"classSource": "PHB",
			"subclassShortName": "Wild Mage",
			"subclassSource": "DnDWikiWildMagic",
			"level": 2,
			"entries": [
				"不管这个非官方的魔法学派是通过对理解编织的扭曲的渴望还是出于纯粹的疯狂，狂野魔法也许是最被误解和最混乱的奥术学派。野性魔法是理解奥术能量本身的原始力量，试图充分驾驭它，并看看能量会把你带向何方。由于显而易见的原因，这个魔法流派比死灵魔法流派面临更多的迫害。",
				"虽然对野性法师的排列没有限制。一旦被选中，角色的排列就会转移到最近的混乱排列。",
				"当你获得野性魔法的传统时，你会获得一个额外的咒语（%0%），并且可以使用一些只有野性法师才有的法术。",
				{
					"type": "refSubclassFeature",
					"subclassFeature": "Choatic Studies|Wizard||Wild Mage|DnDWikiWildMagic|2"
				},
				{
					"type": "refSubclassFeature",
					"subclassFeature": "Choatic Studies|Wizard||Wild Mage|DnDWikiWildMagic|2"
				},
				{
					"type": "refSubclassFeature",
					"subclassFeature": "Controlled cHAoS|Wizard||Wild Mage|DnDWikiWildMagic|2"
				}
			]
		},
		{
			"name": "Choatic Studies",
			"entries": [
				"一旦你解锁了野性魔法，你所有的法术都会被视为比实际的法术槽等级低5级，以达到随等级变化的效果。然后你掷出2d4+1，将总数加到有效法术槽等级上。如果结果是有效法术槽小于1或者没有产生任何效果，就会触发狂野突进。",
				"这个能力不影响咒语，也不能将一个法术提高到9级以上。",
				{
					"type": "inset",
					"name": "Example 1",
					"entries": [
						"如果你是一个5级的巫师，你选择用3级的法术槽来施放魔法飞弹，那么有效的法术等级是-2。你掷出奥术波动，得到了3。你再次施放魔法飞弹，消耗一个二级法术槽（有效法术等级为-3），并掷出5。"
					]
				},
				{
					"type": "inset",
					"name": "Example 2",
					"entries": [
						"一个用五级法术槽施放的火球会造成10d6的火焰伤害，但如果它的法术槽等级是二级甚至一级--每损失一个法术槽等级就会少造成1d6的伤害--就像它用更高的法术槽会造成更多伤害一样。所以一个火球要么是有效的2级--7d6，要么是有效的1级法术槽--6d6。"
					]
				},
				"奥术波动只用于确定随等级变化的效果。咒语--无论其有效等级如何--仍然需要花费施法者所选择的咒语槽。在这个例子中，火球术，即使是作为1级法术施放，仍然使用3级法术槽。"
			],
			"source": "DnDWikiWildMagic",
			"page": 112,
			"className": "Wizard",
			"classSource": "PHB",
			"subclassShortName": "Wild Mage",
			"subclassSource": "DnDWikiWildMagic",
			"level": 2,
			"header": 1
		},
		{
			"name": "Choatic Studies",
			"entries": [
				"从你选择这个流派开始，你必须花费金币和时间将所有未来的法术复制到你的法术书中，这是随机决定的。",
				{
					"type": "table",
					"caption": "Copying Spells",
					"colLabels": [
						"d20",
						"Copying Effect"
					],
					"colStyles": [
						"col-3",
						"col-9"
					],
					"rows": [
						[
							"1",
							"在花费两倍的费用和时间后，该咒语就会消失。"
						],
						[
							"2-4",
							"两倍的成本和时间"
						],
						[
							"5-9",
							"两倍的时间；正常价格"
						],
						[
							"10-14",
							"费用的一半；正常时间"
						],
						[
							"15-19",
							"成本和时间的一半"
						],
						[
							"20+",
							"咒语会立即被转录到咒语书中，不需要花费任何费用或时间。"
						]
					]
				}
			],
			"source": "DnDWikiWildMagic",
			"page": 112,
			"className": "Wizard",
			"classSource": "PHB",
			"subclassShortName": "Wild Mage",
			"subclassSource": "DnDWikiWildMagic",
			"level": 2,
			"header": 1
		},
		{
			"name": "Controlled cHAoS",
			"entries": [
				"从第二级开始，每当你遇到任何随机效果时，作为一种反应，你可以在掷骰子上取得优势，以确定该效果是什么。你可以在每个短时或长时休息中做一次。",
				{
					"type": "inset",
					"name": "Controlled Chaos",
					"entries": [
						"对随机性起作用的物品示例。飞机护身符、豆袋、诡计袋、幻象牌、多物牌、奇迹棒和多世界之井；对于这些物品，你要掷两次来决定其效果。如果你被 \"棱镜喷雾 \"击中，请掷两次骰子以决定你被哪种颜色击中。如果你走在街上，发现了一个随机的物体或有一个随机的遭遇，你可以掷两次来确定它是什么或有多少个。Dm们可能希望自己来做这件事。在诸如宝物或遭遇的情况下，反应只能用来确定其中一次的滚动。换句话说，你会影响遭遇的类型或遇到的生物的数量，但不能同时影响。你可以影响发现宝藏的结果，或者影响硬币、珠宝之类的数量。"
					]
				}
			],
			"source": "DnDWikiWildMagic",
			"page": 112,
			"className": "Wizard",
			"classSource": "PHB",
			"subclassShortName": "Wild Mage",
			"subclassSource": "DnDWikiWildMagic",
			"level": 2,
			"header": 1
		},
		{
			"name": "Servant of ChAoS",
			"source": "DnDWikiWildMagic",
			"page": 112,
			"className": "Wizard",
			"classSource": "PHB",
			"subclassShortName": "Wild Mage",
			"subclassSource": "DnDWikiWildMagic",
			"level": 6,
			"header": 2,
			"entries": [
				"从6级开始，当野性突进被激活时，你现在可以在野性突进的结果中选择加入或减去你的等级。(小于01的结果算作1）。你可以额外使用 \"控制混乱 \"来执行以下任务。",
				{
					"type": "list",
					"items": [
						"你可以选择用一个准备好的法术换取一个你没有准备的法术，但结果是你所有其他准备好的法术都是随机决定的。",
						"你可以选择改变你所施展的进攻/防御法术的伤害类型，持续1分钟。（当你施展这样的法术时，你会变得容易受到该类型的伤害，直到你下一回合开始，并对其相反的伤害产生抵抗）。"
					]
				},
				{
					"type": "table",
					"caption": "Damage Type Opposites",
					"colLabels": [
						"Damage Type",
						"Opposite Damage Type"
					],
					"colStyles": [
						"col-5",
						"col-7"
					],
					"rows": [
						[
							"Acid",
							"电动/雷霆"
						],
						[
							"殴打",
							"穿刺/刺杀"
						],
						[
							"Cold",
							"Fire"
						],
						[
							"力量",
							"通灵"
						],
						[
							"坏死的",
							"辐射"
						]
					]
				}
			]
		},
		{
			"name": "Student of cHaOS",
			"source": "DnDWikiWildMagic",
			"page": 112,
			"className": "Wizard",
			"classSource": "PHB",
			"subclassShortName": "Wild Mage",
			"subclassSource": "DnDWikiWildMagic",
			"level": 10,
			"header": 2,
			"entries": [
				"在10级时，你对混沌的理解增加。你获得了一个额外的控制混乱的用法，你可以额外使用控制混乱来执行以下内容。",
				{
					"type": "list",
					"items": [
						"你可以使用 \"控制的混乱 \"来完全阻止激增的发生（每回合只有一次）。",
						"对你施展的法术的救赎施加劣势--（但在你下一回合之前对你的第一次攻击是有优势的）。"
					]
				}
			]
		},
		{
			"name": "Master of ChaoS",
			"source": "DnDWikiWildMagic",
			"page": 112,
			"className": "Wizard",
			"classSource": "PHB",
			"subclassShortName": "Wild Mage",
			"subclassSource": "DnDWikiWildMagic",
			"level": 14,
			"header": 2,
			"entries": [
				"在14级时，每当你掷出关键性失败或关键性成功，你就会获得一个额外的控制混乱的使用权，直到你的下一次短期或长期休息。",
				"你也可以使用 \"受控混乱 \"来执行下列任务。",
				{
					"type": "list",
					"items": [
						"选择在法术效果的掷骰子上获得优势（决定睡眠的hp，造成伤害的掷骰子等），持续1分钟。（在这段时间内你的救赎处于劣势）。",
						"当你用修正的伤害类型进行攻击时，你可以在伤害类型中选择最多你的法术能力修正值，所产生的总伤害是每种伤害类型的比例分布。"
					]
				}
			]
		}
	]
}
