{
	"_meta": {
		"sources": [
			{
				"json": "TheAnnouncer",
				"abbreviation": "ANCR",
				"full": "The Announcer",
				"authors": [
					"u/CamunonZ"
				],
				"convertedBy": [
					"Lyra"
				],
				"version": "2022-05-07T19:37:29.210Z",
				"color": "FFC743",
				"url": "https://homebrewery.naturalcrit.com/share/gKGmHhKk6qIG",
				"dateReleased": "2022-03-24"
			}
		],
		"status": "ready",
		"dateAdded": 1653077821,
		"dateLastModified": 1701018808,
		"optionalFeatureTypes": {
			"CMNT": "Commentary"
		},
		"_dateLastModifiedHash": "1314e3a525"
	},
	"subclass": [
		{
			"name": "Announcer",
			"shortName": "Announcer",
			"source": "TheAnnouncer",
			"className": "Bard",
			"classSource": "PHB",
			"page": 1,
			"additionalSpells": [
				{
					"known": {
						"3": [
							"thaumaturgy#c"
						]
					}
				}
			],
			"subclassSpells": [
				"thaumaturgy"
			],
			"subclassFeatures": [
				"The Announcer|Bard|PHB|Announcer|TheAnnouncer|3|TheAnnouncer",
				"Ramp it Up|Bard|PHB|Announcer|TheAnnouncer|6|TheAnnouncer",
				"Ready to Rumble|Bard|PHB|Announcer|TheAnnouncer|14|TheAnnouncer"
			]
		},
		{
			"name": "Announcer: Variant",
			"shortName": "Announcer: V",
			"source": "TheAnnouncer",
			"className": "Bard",
			"classSource": "PHB",
			"page": 1,
			"additionalSpells": [
				{
					"known": {
						"3": [
							"thaumaturgy#c"
						]
					}
				}
			],
			"subclassSpells": [
				"thaumaturgy"
			],
			"optionalfeatureProgression": [
				{
					"name": "Commentary",
					"featureType": [
						"CMNT"
					],
					"progression": {
						"3": 5,
						"6": 6,
						"9": 7,
						"12": 8,
						"15": 9,
						"18": 10
					}
				}
			],
			"subclassFeatures": [
				"The Announcer: Variant|Bard|PHB|Announcer: V|TheAnnouncer|3|TheAnnouncer",
				"Ramp it Up|Bard|PHB|Announcer|TheAnnouncer|6|TheAnnouncer",
				"Ready to Rumble|Bard|PHB|Announcer|TheAnnouncer|14|TheAnnouncer"
			]
		}
	],
	"subclassFeature": [
		{
			"name": "Play by Play",
			"source": "TheAnnouncer",
			"page": 1,
			"className": "Bard",
			"classSource": "PHB",
			"subclassShortName": "Announcer",
			"subclassSource": "TheAnnouncer",
			"level": 3,
			"header": 1,
			"entries": [
				{
					"type": "quote",
					"page": 1,
					"entries": [
						"即使是Xanathar也不会看到这种情况的发生。"
					]
				},
				{
					"type": "entries",
					"page": 1,
					"entries": [
						"At 3rd level, while your Battle Commentary lasts, you may use your reaction and expend one {@classFeature Bardic Inspiration|Bard|PHB|1} die to remark on specific events that take place during combat, generating different effects depending on what you pronounce:",
						"{@note The options are presented in alphabetical order.}",
						{
							"type": "options",
							"page": 1,
							"entries": [
								{
									"type": "refOptionalfeature",
									"optionalfeature": "Ooh baby, that's a knockout!|TheAnnouncer"
								},
								{
									"type": "refOptionalfeature",
									"optionalfeature": "Straight into the mix!|TheAnnouncer"
								},
								{
									"type": "refOptionalfeature",
									"optionalfeature": "And BOOM goes the fireball!|TheAnnouncer"
								},
								{
									"type": "refOptionalfeature",
									"optionalfeature": "What a hit, ladies and gentleman!|TheAnnouncer"
								},
								{
									"type": "refOptionalfeature",
									"optionalfeature": "A bold move from our deadly foe!|TheAnnouncer"
								},
								{
									"type": "refOptionalfeature",
									"optionalfeature": "Phew, I got scared back there!|TheAnnouncer"
								},
								{
									"type": "refOptionalfeature",
									"optionalfeature": "And from the shadows, they STRIKE!|TheAnnouncer"
								},
								{
									"type": "refOptionalfeature",
									"optionalfeature": "Could this be part of a new strategy?|TheAnnouncer"
								},
								{
									"type": "refOptionalfeature",
									"optionalfeature": "This is gonna be one hell of a show!|TheAnnouncer"
								},
								{
									"type": "refOptionalfeature",
									"optionalfeature": "Couldn't hit a cow's backside with a lute!|TheAnnouncer"
								},
								{
									"type": "refOptionalfeature",
									"optionalfeature": "Now That's A Lotta Damage!|TheAnnouncer"
								},
								{
									"type": "refOptionalfeature",
									"optionalfeature": "There's no way that just happened!|TheAnnouncer"
								},
								{
									"type": "refOptionalfeature",
									"optionalfeature": "Woah, that came outta nowhere!|TheAnnouncer"
								},
								{
									"type": "refOptionalfeature",
									"optionalfeature": "It's like watching a carriage wreck!|TheAnnouncer"
								},
								{
									"type": "refOptionalfeature",
									"optionalfeature": "Ooh, that's gotta sting!|TheAnnouncer"
								},
								{
									"type": "refOptionalfeature",
									"optionalfeature": "Looks like it's a game of attrition tonight, folks!|TheAnnouncer"
								},
								{
									"type": "refOptionalfeature",
									"optionalfeature": "This team needs a miracle right now!|TheAnnouncer"
								},
								{
									"type": "refOptionalfeature",
									"optionalfeature": "Now that's what I call MAGIC!|TheAnnouncer"
								},
								{
									"type": "refOptionalfeature",
									"optionalfeature": "Make no mistake, this is in the bag!|TheAnnouncer"
								},
								{
									"type": "refOptionalfeature",
									"optionalfeature": "It's not over till the Fat Lady sings!|TheAnnouncer"
								}
							]
						},
						{
							"type": "entries",
							"page": 2,
							"entries": [
								"每个评论选项在每场战斗中只能使用一次，而且受影响的生物必须能够听到你的声音，才能获得指定的效果。你不能对你无法看到的事件进行评论。"
							]
						}
					]
				}
			]
		},
		{
			"name": "The Announcer",
			"source": "TheAnnouncer",
			"page": 1,
			"className": "Bard",
			"classSource": "PHB",
			"subclassShortName": "Announcer",
			"subclassSource": "TheAnnouncer",
			"level": 3,
			"header": 1,
			"entries": [
				{
					"type": "quote",
					"page": 1,
					"entries": [
						"他欢快地咆哮着。刹那间，竞技场的心脏与他的心脏同步跳动，聚集在一起的群众的兴奋点被他胜利地攥在手心里。"
					]
				},
				{
					"type": "entries",
					"page": 1,
					"entries": [
						"虽然大多数吟游诗人的道路可能导致他们花数年时间来磨练他们的历史知识，或者也许研究刀法，但少数人选择用最基本的工具来完善他们的能力：（%0%）。这种独特的吟游诗人以他们的口才和描述快速发展的比赛事件的能力而闻名，他们用他们的措辞在血腥的竞技场上煽动群众，在他们的眼睛享受行动的同时，把现实情况的转述直接带到他们的耳朵里。播音员是智慧和魅力的大师，是现场的主宰，是狂热的点燃者，他们是任何体育场的生命线；甚至能够把最微小的巷子里的争吵变成一个时代的奇观。"
					]
				},
				{
					"type": "refSubclassFeature",
					"subclassFeature": "Voice of the Game|Bard|PHB|Announcer|TheAnnouncer|3|TheAnnouncer"
				},
				{
					"type": "refSubclassFeature",
					"subclassFeature": "Welcome to the Show|Bard|PHB|Announcer|TheAnnouncer|3|TheAnnouncer"
				},
				{
					"type": "refSubclassFeature",
					"subclassFeature": "Play by Play|Bard|PHB|Announcer|TheAnnouncer|3|TheAnnouncer"
				}
			]
		},
		{
			"name": "Voice of the Game",
			"source": "TheAnnouncer",
			"page": 1,
			"className": "Bard",
			"classSource": "PHB",
			"subclassShortName": "Announcer",
			"subclassSource": "TheAnnouncer",
			"level": 3,
			"skillProficiencies": [
				{
					"persuasion": true,
					"perception": true
				}
			],
			"header": 1,
			"entries": [
				{
					"type": "quote",
					"page": 1,
					"entries": [
						"姑娘们，先生们!"
					]
				},
				{
					"type": "entries",
					"page": 1,
					"entries": [
						"当你在3级采用这个吟游诗人学院时，你获得了对（%0%）和（%1%）技能的熟练度。",
						"如果你已经精通这两个技能，你可以获得其中一个技能的专长（不与类似功能叠加）。此外，你还学会了{@spell Thaumaturgy}咒语，并可以将其作为奖励动作施用于自己。"
					]
				}
			]
		},
		{
			"name": "Welcome to the Show",
			"source": "TheAnnouncer",
			"page": 1,
			"className": "Bard",
			"classSource": "PHB",
			"subclassShortName": "Announcer",
			"subclassSource": "TheAnnouncer",
			"level": 3,
			"header": 1,
			"entries": [
				{
					"type": "quote",
					"page": 1,
					"entries": [
						"让我们准备好轰轰烈烈地干一场吧!"
					]
				},
				{
					"type": "entries",
					"page": 1,
					"entries": [
						"三级时，每个战场都会成为你的体育场。",
						"Whenever you roll for initiative, you can choose to commence your {@b Battle Commentary}, lasting for the next minute and covering a range of 60 feet. For the duration of this feature, whenever an allied creature within range scores a {@quickref critical hits|PHB|3|0|critical hit}, or a hostile creature rolls a 1 on a {@dice d20}, you boastfully announce the event, regaining one {@classFeature Bardic Inspiration|Bard|PHB|1} die. Your commentary ends if you are reduced to 0 hit points or made {@condition unconscious} by any means.",
						"一旦你使用了这个功能，你就不能再使用它，直到你完成一个长时间的休息。从10级开始，你可以在每个短时或长时休息中使用它一次。"
					]
				}
			]
		},
		{
			"name": "Ramp It Up",
			"source": "TheAnnouncer",
			"page": 3,
			"className": "Bard",
			"classSource": "PHB",
			"subclassShortName": "Announcer",
			"subclassSource": "TheAnnouncer",
			"level": 6,
			"header": 2,
			"entries": [
				{
					"type": "quote",
					"page": 3,
					"entries": [
						"这场战斗就要爆发了!"
					]
				},
				{
					"type": "entries",
					"page": 3,
					"entries": [
						"6级时，你的精神会随着战斗的声音而升华。",
						{
							"type": "list",
							"items": [
								"每当你做了一个重要的声明，你选择的盟友的数量等于你的熟练度加成，获得相当于{@dice 1d4}+你的魅力修改器的临时打击点数。他们必须能够听到你的声音才能获得这些命中率，这些命中率会在5个回合后消退。",
								"While your Battle Commentary lasts, as a bonus action on your turn, you can expend 1 hit die to regain 1 {@classFeature Bardic Inspiration|Bard|PHB|1} die. This can be done a number of times per use of {@subclassFeature Welcome to the Show|Bard|PHB|Announcer|TheAnnouncer|3|TheAnnouncer} equal to your proficiency bonus, and only when you have no remaining uses of {@classFeature Bardic Inspiration|Bard|PHB|1} left.",
								"当你受到（%0%）的影响时，你可以使用（%1%）的动作，范围为60英尺。被援助的生物必须能够听到你的声音，才能获得相应的好处。"
							]
						}
					]
				}
			]
		},
		{
			"name": "Ready to Rumble",
			"source": "TheAnnouncer",
			"page": 3,
			"className": "Bard",
			"classSource": "PHB",
			"subclassShortName": "Announcer",
			"subclassSource": "TheAnnouncer",
			"level": 14,
			"header": 2,
			"entries": [
				{
					"type": "quote",
					"page": 3,
					"entries": [
						"这是你们都在等待的时刻!"
					]
				},
				{
					"type": "entries",
					"page": 3,
					"entries": [
						"在第14级，你的话语足以影响战争的进程。",
						{
							"type": "list",
							"items": [
								"当你受到（%0%）的影响时，你的声音在300英尺以外都能听到，你可以在你的回合中采取（%1%）的行动作为额外行动。",
								"在你的战斗评论持续期间，如果你采取{@action Help}的行动作为你的主要行动，范围内最多有3个你选择的盟友可以获得相应的好处。"
							]
						}
					]
				}
			]
		},
		{
			"name": "Play by Play: Variant",
			"source": "TheAnnouncer",
			"page": 1,
			"className": "Bard",
			"classSource": "PHB",
			"subclassShortName": "Announcer: V",
			"subclassSource": "TheAnnouncer",
			"level": 3,
			"header": 1,
			"entries": [
				{
					"type": "quote",
					"page": 1,
					"entries": [
						"即使是Xanathar也不会看到这种情况的发生。"
					]
				},
				{
					"type": "entries",
					"page": 1,
					"entries": [
						{
							"type": "inset",
							"entries": [
								"这个原型的主要概念是围绕着，嗯，说话的行为展开的。说话在5e中是一个自由动作，所以为了符合我对这个子类的设想，我选择了让玩家在每次战斗中都可以使用所有的（%0%）评论选项。",
								"然而，如果你觉得{@filter 20 different options|optionalfeatures|source=theannouncer|feature type=cmnt}在战斗中有点难以处理（你是对的），你可以在该功能的描述中加入以下片段。",
								{
									"entries": [
										"{@b \"You learn 5 commentary options at 3rd level, and an additional one at 6th, 9th, 12th, 15th and 18th level.\"}"
									],
									"type": "entries"
								},
								"当遵守这一可选的规则时，对每个评论选项的（%0%）限制不适用。"
							]
						},
						"At 3rd level, while your Battle Commentary lasts, you may use your reaction and expend one {@classFeature Bardic Inspiration|Bard|PHB|1} die to remark on specific events that take place during combat, generating different effects depending on what you pronounce:",
						"你在3级时学会了5个评论选项，在6级、9级、12级、15级和18级时又学会了一个。",
						"{@note The options are presented in alphabetical order.}",
						{
							"type": "options",
							"page": 1,
							"count": 5,
							"entries": [
								{
									"type": "refOptionalfeature",
									"optionalfeature": "Ooh baby, that's a knockout!|TheAnnouncer"
								},
								{
									"type": "refOptionalfeature",
									"optionalfeature": "Straight into the mix!|TheAnnouncer"
								},
								{
									"type": "refOptionalfeature",
									"optionalfeature": "And BOOM goes the fireball!|TheAnnouncer"
								},
								{
									"type": "refOptionalfeature",
									"optionalfeature": "What a hit, ladies and gentleman!|TheAnnouncer"
								},
								{
									"type": "refOptionalfeature",
									"optionalfeature": "A bold move from our deadly foe!|TheAnnouncer"
								},
								{
									"type": "refOptionalfeature",
									"optionalfeature": "Phew, I got scared back there!|TheAnnouncer"
								},
								{
									"type": "refOptionalfeature",
									"optionalfeature": "And from the shadows, they STRIKE!|TheAnnouncer"
								},
								{
									"type": "refOptionalfeature",
									"optionalfeature": "Could this be part of a new strategy?|TheAnnouncer"
								},
								{
									"type": "refOptionalfeature",
									"optionalfeature": "This is gonna be one hell of a show!|TheAnnouncer"
								},
								{
									"type": "refOptionalfeature",
									"optionalfeature": "Couldn't hit a cow's backside with a lute!|TheAnnouncer"
								},
								{
									"type": "refOptionalfeature",
									"optionalfeature": "Now That's A Lotta Damage!|TheAnnouncer"
								},
								{
									"type": "refOptionalfeature",
									"optionalfeature": "There's no way that just happened!|TheAnnouncer"
								},
								{
									"type": "refOptionalfeature",
									"optionalfeature": "Woah, that came outta nowhere!|TheAnnouncer"
								},
								{
									"type": "refOptionalfeature",
									"optionalfeature": "It's like watching a carriage wreck!|TheAnnouncer"
								},
								{
									"type": "refOptionalfeature",
									"optionalfeature": "Ooh, that's gotta sting!|TheAnnouncer"
								},
								{
									"type": "refOptionalfeature",
									"optionalfeature": "Looks like it's a game of attrition tonight, folks!|TheAnnouncer"
								},
								{
									"type": "refOptionalfeature",
									"optionalfeature": "This team needs a miracle right now!|TheAnnouncer"
								},
								{
									"type": "refOptionalfeature",
									"optionalfeature": "Now that's what I call MAGIC!|TheAnnouncer"
								},
								{
									"type": "refOptionalfeature",
									"optionalfeature": "Make no mistake, this is in the bag!|TheAnnouncer"
								},
								{
									"type": "refOptionalfeature",
									"optionalfeature": "It's not over till the Fat Lady sings!|TheAnnouncer"
								}
							]
						},
						{
							"type": "entries",
							"page": 2,
							"entries": [
								"受影响的生物必须能够听到你的声音，才能获得指定的效果。你不能对你无法看到的事件进行评论。"
							]
						}
					]
				}
			]
		},
		{
			"name": "The Announcer: Variant",
			"source": "TheAnnouncer",
			"page": 1,
			"className": "Bard",
			"classSource": "PHB",
			"subclassShortName": "Announcer: V",
			"subclassSource": "TheAnnouncer",
			"level": 3,
			"header": 1,
			"entries": [
				{
					"type": "quote",
					"page": 1,
					"entries": [
						"他欢快地咆哮着。刹那间，竞技场的心脏与他的心脏同步跳动，聚集在一起的群众的兴奋点被他胜利地攥在手心里。"
					]
				},
				{
					"type": "entries",
					"page": 1,
					"entries": [
						"虽然大多数吟游诗人的道路可能导致他们花数年时间来磨练他们的历史知识，或者也许研究刀法，但少数人选择用最基本的工具来完善他们的能力：（%0%）。这种独特的吟游诗人以他们的口才和描述快速发展的比赛事件的能力而闻名，他们用他们的措辞在血腥的竞技场上煽动群众，在他们的眼睛享受行动的同时，把现实情况的转述直接带到他们的耳朵里。播音员是智慧和魅力的大师，是现场的主宰，是狂热的点燃者，他们是任何体育场的生命线；甚至能够把最微小的巷子里的争吵变成一个时代的奇观。"
					]
				},
				{
					"type": "refSubclassFeature",
					"subclassFeature": "Voice of the Game|Bard|PHB|Announcer|TheAnnouncer|3|TheAnnouncer"
				},
				{
					"type": "refSubclassFeature",
					"subclassFeature": "Welcome to the Show|Bard|PHB|Announcer|TheAnnouncer|3|TheAnnouncer"
				},
				{
					"type": "refSubclassFeature",
					"subclassFeature": "Play by Play: Variant|Bard|PHB|Announcer: V|TheAnnouncer|3|TheAnnouncer"
				}
			]
		}
	],
	"optionalfeature": [
		{
			"name": "A bold move from our deadly foe!",
			"source": "TheAnnouncer",
			"page": 1,
			"featureType": [
				"CMNT"
			],
			"prerequisite": [
				{
					"other": "An ally within range is reduced to 0 hit points."
				}
			],
			"entries": [
				"直到你下一回合开始，对他们的任何攻击都是以劣势进行的。"
			]
		},
		{
			"name": "And BOOM goes the fireball!",
			"source": "TheAnnouncer",
			"page": 1,
			"featureType": [
				"CMNT"
			],
			"prerequisite": [
				{
					"other": "An ally within range casts an area-of-effect spell."
				}
			],
			"entries": [
				"直到这个盟友的下一回合开始，你和范围内的所有其他盟友的速度增加10英尺。"
			]
		},
		{
			"name": "And from the shadows, they STRIKE!",
			"source": "TheAnnouncer",
			"page": 1,
			"featureType": [
				"CMNT"
			],
			"prerequisite": [
				{
					"other": "An ally within range succeeds on an attack roll made with advantage."
				}
			],
			"entries": [
				"他们在下一个攻击卷、能力检查或蓄力投掷中获得优势，直到他们下一个回合结束。"
			]
		},
		{
			"name": "Could this be part of a new strategy?",
			"source": "TheAnnouncer",
			"page": 2,
			"featureType": [
				"CMNT"
			],
			"prerequisite": [
				{
					"other": "An ally within range uses the {@action Ready} action."
				}
			],
			"entries": [
				"They have advantage on the next attack roll or ability check they make. If they roll a number equal to or lower than 10, they can roll your {@classFeature Bardic Inspiration|Bard|PHB|1} die and add it to the result."
			]
		},
		{
			"name": "Couldn't hit a cow's backside with a lute!",
			"source": "TheAnnouncer",
			"page": 2,
			"featureType": [
				"CMNT"
			],
			"prerequisite": [
				{
					"other": "A creature within range misses you or one of your allies with a melee attack."
				}
			],
			"entries": [
				"They take psychic damage equal to your {@classFeature Bardic Inspiration|Bard|PHB|1} die roll, and must subtract your Charisma modifier from their next attack roll."
			]
		},
		{
			"name": "It's like watching a carriage wreck!",
			"source": "TheAnnouncer",
			"page": 2,
			"featureType": [
				"CMNT"
			],
			"prerequisite": [
				{
					"other": "A creature within range rolls a 5 or lower on a {@dice d20}."
				}
			],
			"entries": [
				"They must roll your {@classFeature Bardic Inspiration|Bard|PHB|1} die and subtract it from the next ability check, attack roll, or saving throw they make."
			]
		},
		{
			"name": "It's not over till the Fat Lady sings!",
			"source": "TheAnnouncer",
			"page": 2,
			"featureType": [
				"CMNT"
			],
			"prerequisite": [
				{
					"other": "You are reduced to less than a third of your hit point maximum."
				}
			],
			"entries": [
				"You gain a number of temporary hit points equal to your {@classFeature Bardic Inspiration|Bard|PHB|1} die roll + your Charisma modifier + your proficiency bonus. These hit points fade after 5 rounds."
			]
		},
		{
			"name": "Looks like it's a game of attrition tonight, folks!",
			"source": "TheAnnouncer",
			"page": 2,
			"featureType": [
				"CMNT"
			],
			"prerequisite": [
				{
					"other": "A total of 8 rounds pass since the start of combat."
				}
			],
			"entries": [
				"你选择的盟友的数量等于你的熟练度加成的一半（四舍五入），重新获得一个或多个法术槽，其综合水平等于你的魅力修正值的一半（四舍五入）。"
			]
		},
		{
			"name": "Make no mistake, this is in the bag!",
			"source": "TheAnnouncer",
			"page": 2,
			"featureType": [
				"CMNT"
			],
			"prerequisite": [
				{
					"other": "Three or more hostile creatures are reduced to 0 hit points or become {@condition unconscious}."
				}
			],
			"entries": [
				"范围内的所有盟友在下一次的攻击卷或能力检查中获得相当于你的魅力修正值的奖励。"
			]
		},
		{
			"name": "Now That's A Lotta Damage!",
			"source": "TheAnnouncer",
			"page": 2,
			"featureType": [
				"CMNT"
			],
			"prerequisite": [
				{
					"other": "A creature within range takes 30 or more damage in the same turn."
				}
			],
			"entries": [
				"目标不能恢复命中率，直到他们下一回合结束。"
			]
		},
		{
			"name": "Now that's what I call MAGIC!",
			"source": "TheAnnouncer",
			"page": 2,
			"featureType": [
				"CMNT"
			],
			"prerequisite": [
				{
					"other": "You or an ally within range {@action cast a spell|PHB|casts a spell} of 5th level or higher."
				}
			],
			"entries": [
				"范围内的所有敌对生物在抵抗盟友施展的下一个法术的效果时，都有不利的判断。"
			]
		},
		{
			"name": "Ooh baby, that's a knockout!",
			"source": "TheAnnouncer",
			"page": 1,
			"featureType": [
				"CMNT"
			],
			"prerequisite": [
				{
					"other": "You or an ally within range reduces a creature to 0 hit points."
				}
			],
			"entries": [
				"The target restores a number of hit points equal to your {@classFeature Bardic Inspiration|Bard|PHB|1} die roll, and gains a bonus to their next attack roll equal to your Charisma modifier."
			]
		},
		{
			"name": "Ooh, that's gotta sting!",
			"source": "TheAnnouncer",
			"page": 2,
			"featureType": [
				"CMNT"
			],
			"prerequisite": [
				{
					"other": "A creature within range takes damage from a {@quickref critical hits|PHB|3|0|critical hit}."
				}
			],
			"entries": [
				"它对触发的伤害类型以及精神伤害获得脆弱性，直到其下一回合开始。如果它对这些伤害类型中的一种有抗性，它反而会失去其抗性。"
			]
		},
		{
			"name": "Phew, I got scared back there!",
			"source": "TheAnnouncer",
			"page": 1,
			"featureType": [
				"CMNT"
			],
			"prerequisite": [
				{
					"other": "An ally within range regains consciousness after being reduced to 0 hit points."
				}
			],
			"entries": [
				"The next time they restore any amount of hit points, they gain a bonus to one of the healing rolls equal to your {@classFeature Bardic Inspiration|Bard|PHB|1} die roll + your Charisma modifier."
			]
		},
		{
			"name": "Straight into the mix!",
			"source": "TheAnnouncer",
			"page": 1,
			"featureType": [
				"CMNT"
			],
			"prerequisite": [
				{
					"other": "An ally within range uses up all of their movement."
				}
			],
			"entries": [
				"直到你的下一回合开始，他们获得相当于你的魅力修改器的交流奖励。"
			]
		},
		{
			"name": "There's no way that just happened!",
			"source": "TheAnnouncer",
			"page": 2,
			"featureType": [
				"CMNT"
			],
			"prerequisite": [
				{
					"other": "A hostile creature within range uses a legendary action."
				}
			],
			"entries": [
				"It has disadvantage on the next attack roll, ability check or saving throw it makes until the end of its next turn. If it rolls a 15 or higher, it must roll your {@classFeature Bardic Inspiration|Bard|PHB|1} die and subtract it from the result."
			]
		},
		{
			"name": "This is gonna be one hell of a show!",
			"source": "TheAnnouncer",
			"page": 2,
			"featureType": [
				"CMNT"
			],
			"prerequisite": [
				{
					"other": "An ally within range {@action cast a spell|PHB|casts a spell} that targets friendly creatures."
				}
			],
			"entries": [
				"范围内的所有盟友在下一次做拯救动作时获得与你的魅力修改器相等的奖励。"
			]
		},
		{
			"name": "This team needs a miracle right now!",
			"source": "TheAnnouncer",
			"page": 2,
			"featureType": [
				"CMNT"
			],
			"prerequisite": [
				{
					"other": "Two or more allied creatures are reduced to 0 hit points or made {@condition unconscious} at the same time."
				}
			],
			"entries": [
				"在范围内的所有盟友在死亡拯救动作上有优势，直到你的战斗评论结束。"
			]
		},
		{
			"name": "What a hit, ladies and gentleman!",
			"source": "TheAnnouncer",
			"page": 1,
			"featureType": [
				"CMNT"
			],
			"prerequisite": [
				{
					"other": "A creature within range makes an attack roll of 15 or higher."
				}
			],
			"entries": [
				"Until the end of their next turn, they gain a bonus to attack rolls equal to your {@classFeature Bardic Inspiration|Bard|PHB|1} die roll."
			]
		},
		{
			"name": "Woah, that came outta nowhere!",
			"source": "TheAnnouncer",
			"page": 2,
			"featureType": [
				"CMNT"
			],
			"prerequisite": [
				{
					"other": "You or an ally within range succeeds on a saving throw to dodge an area effect."
				}
			],
			"entries": [
				"直到目标的下一回合开始，你和范围内的所有盟友在抵抗敌方生物施放的下一个法术效果时，在蓄力上有优势。"
			]
		}
	],
	"table": [
		{
			"name": "Commentary Options Table",
			"source": "TheAnnouncer",
			"page": 4,
			"colLabels": [
				"Remark",
				"Trigger",
				"Effect"
			],
			"colStyles": [
				"text-center col-2",
				"text-center col-4",
				"text-center col-5"
			],
			"rows": [
				[
					"{@i \"{@optfeature Ooh baby, that's a knockout!|TheAnnouncer}\"}",
					"你或范围内的盟友将一个生物的命中率降低到0。",
					"The target restores a number of hit points equal to your {@classFeature Bardic Inspiration|Bard|PHB|1} die roll, and gains a bonus to their next attack roll equal to your Charisma modifier."
				],
				[
					"{@i \"{@optfeature Straight into the mix!|TheAnnouncer}\"}",
					"范围内的盟友会耗尽他们所有的移动。",
					"直到你的下一回合开始，他们获得相当于你的魅力修改器的交流奖励。"
				],
				[
					"{@i \"{@optfeature And BOOM goes the fireball!|TheAnnouncer}\"}",
					"范围内的盟友施展一个区域效应的法术。",
					"直到这个盟友的下一回合开始，你和范围内的所有其他盟友的速度增加10英尺。"
				],
				[
					"{@i \"{@optfeature What a hit, ladies and gentleman!|TheAnnouncer}\"}",
					"范围内的生物做出一个15或更高的攻击卷。",
					"Until the end of their next turn, they gain a bonus to attack rolls equal to your {@classFeature Bardic Inspiration|Bard|PHB|1} die roll."
				],
				[
					"{@i \"{@optfeature A bold move from our deadly foe!|TheAnnouncer}\"}",
					"范围内的盟友被减少到0点生命值。",
					"直到你下一回合开始，对他们的任何攻击都是以劣势进行的。"
				],
				[
					"{@i \"{@optfeature Phew, I got scared back there!|TheAnnouncer}\"}",
					"范围内的盟友在被降低到0点生命值后恢复意识。",
					"The next time they restore any amount of hit points, they gain a bonus to one of the healing rolls equal to your {@classFeature Bardic Inspiration|Bard|PHB|1} die roll + your Charisma modifier."
				],
				[
					"{@i \"{@optfeature And from the shadows, they STRIKE!|TheAnnouncer}\"}",
					"范围内的盟友以优势做出的攻击卷成功。",
					"他们在下一个攻击卷、能力检查或蓄力投掷中获得优势，直到他们下一个回合结束。"
				],
				[
					"{@i \"{@optfeature Could this be part of a new strategy?|TheAnnouncer}\"}",
					"范围内的盟友使用{@action Ready}行动。",
					"They have advantage on the next attack roll or ability check they make. If they roll a number equal to or lower than 10, they can roll your {@classFeature Bardic Inspiration|Bard|PHB|1} die and add it to the result."
				],
				[
					"{@i \"{@optfeature This is gonna be one hell of a show!|TheAnnouncer}\"}",
					"范围内的盟友{@action cast a spell|PHB|casts a spell}，目标是友好的生物。",
					"范围内的所有盟友在下一次做拯救动作时获得与你的魅力修改器相等的奖励。"
				],
				[
					"{@i \"{@optfeature Couldn't hit a cow's backside with a lute!|TheAnnouncer}\"}",
					"范围内的生物用近战攻击错过你或你的盟友之一。",
					"They take psychic damage equal to your {@classFeature Bardic Inspiration|Bard|PHB|1} die roll, and must subtract your Charisma modifier from their next attack roll."
				],
				[
					"{@i \"{@optfeature Now That's A Lotta Damage!|TheAnnouncer}\"}",
					"范围内的生物在同一回合受到30或更多的伤害。",
					"目标不能恢复命中率，直到他们下一回合结束。"
				],
				[
					"{@i \"{@optfeature There's no way that just happened!|TheAnnouncer}\"}",
					"范围内的敌对生物使用一个传奇行动。",
					"It has disadvantage on the next attack roll, ability check or saving throw it makes until the end of its next turn. If it rolls a 15 or higher, it must roll your {@classFeature Bardic Inspiration|Bard|PHB|1} die and subtract it from the result."
				],
				[
					"{@i \"{@optfeature Woah, that came outta nowhere!|TheAnnouncer}\"}",
					"你或范围内的盟友通过蓄力投掷成功躲避一个区域效应。",
					"直到目标的下一回合开始，你和范围内的所有盟友在抵抗敌方生物施放的下一个法术效果时，在蓄力上有优势。"
				],
				[
					"{@i \"{@optfeature It's like watching a carriage wreck!|TheAnnouncer}\"}",
					"范围内的生物在{@dice d20}上掷出一个5或更低的分数。",
					"They must roll your {@classFeature Bardic Inspiration|Bard|PHB|1} die and subtract it from the next ability check, attack roll, or saving throw they make."
				],
				[
					"{@i \"{@optfeature Ooh, that's gotta sting!|TheAnnouncer}\"}",
					"范围内的一个生物受到（%0%）的伤害。",
					"它对触发的伤害类型以及精神伤害获得脆弱性，直到其下一回合开始。如果它对这些伤害类型中的一种有抗性，它反而会失去其抗性。"
				],
				[
					"{@i \"{@optfeature Looks like it's a game of attrition tonight, folks!|TheAnnouncer}\"}",
					"自战斗开始以来，总共有8个回合的时间。",
					"你选择的盟友的数量等于你的熟练度加成的一半（四舍五入），重新获得一个或多个法术槽，其综合水平等于你的魅力修正值的一半（四舍五入）。"
				],
				[
					"{@i \"{@optfeature This team needs a miracle right now!|TheAnnouncer}\"}",
					"两个或更多的盟友生物同时被降低到0命中率或被制成（%0%）。",
					"在范围内的所有盟友在死亡拯救动作上有优势，直到你的战斗评论结束。"
				],
				[
					"{@i \"{@optfeature Now that's what I call MAGIC!|TheAnnouncer}\"}",
					"你或范围内{@action cast a spell|PHB|casts a spell}的五级或以上的盟友。",
					"范围内的所有敌对生物在抵抗盟友施展的下一个法术的效果时，都有不利的判断。"
				],
				[
					"{@i \"{@optfeature Make no mistake, this is in the bag!|TheAnnouncer}\"}",
					"三个或更多的敌对生物被降低到0命中率或成为（%0%）。",
					"范围内的所有盟友在下一次的攻击卷或能力检查中获得相当于你的魅力修正值的奖励。"
				],
				[
					"{@i \"{@optfeature It's not over till the Fat Lady sings!|TheAnnouncer}\"}",
					"你的命中率降低到不足你最大命中率的三分之一。",
					"You gain a number of temporary hit points equal to your {@classFeature Bardic Inspiration|Bard|PHB|1} die roll + your Charisma modifier + your proficiency bonus. These hit points fade after 5 rounds."
				]
			]
		}
	]
}
